{
  "source": "50k-radio-stations",
  "provider": "rapidapi",
  "syncedAt": "2026-06-03T13:04:35.423Z",
  "endpoint": "/cities",
  "page": 43,
  "limit": 250,
  "data": [
    {
      "id": 7535,
      "stateId": 186,
      "name": "Cruzeta",
      "latitude": null,
      "longitude": null,
      "createdAt": "2025-12-28T18:30:31.825Z",
      "updatedAt": "2025-12-28T18:30:31.825Z",
      "stateName": "Rio Grande do Norte",
      "countryName": "Brazil"
    },
    {
      "id": 2461,
      "stateId": 95,
      "name": "Cruzilia",
      "latitude": null,
      "longitude": null,
      "createdAt": "2025-12-28T18:12:15.252Z",
      "updatedAt": "2025-12-28T18:12:15.252Z",
      "stateName": "Minas Gerais",
      "countryName": "Brazil"
    },
    {
      "id": 11611,
      "stateId": 137,
      "name": "Cruz Machado",
      "latitude": null,
      "longitude": null,
      "createdAt": "2025-12-28T19:08:02.242Z",
      "updatedAt": "2025-12-28T19:08:02.242Z",
      "stateName": "Paraná",
      "countryName": "Brazil"
    },
    {
      "id": 5778,
      "stateId": 20,
      "name": "Crystal Beach",
      "latitude": "37.8034989",
      "longitude": "-92.5169818",
      "createdAt": "2025-12-28T18:22:07.392Z",
      "updatedAt": "2025-12-28T18:22:07.392Z",
      "stateName": "Texas",
      "countryName": "United States"
    },
    {
      "id": 1624,
      "stateId": 20,
      "name": "Crystal City",
      "latitude": "37.8034989",
      "longitude": "-92.5169818",
      "createdAt": "2025-12-28T18:01:40.560Z",
      "updatedAt": "2025-12-28T18:01:40.560Z",
      "stateName": "Texas",
      "countryName": "United States"
    },
    {
      "id": 14158,
      "stateId": 92,
      "name": "Crystal Falls",
      "latitude": "37.8034989",
      "longitude": "-92.5169818",
      "createdAt": "2025-12-28T19:40:56.514Z",
      "updatedAt": "2025-12-28T19:40:56.514Z",
      "stateName": "Michigan",
      "countryName": "United States"
    },
    {
      "id": 1296,
      "stateId": 46,
      "name": "Crystal Lake",
      "latitude": "42.2411300",
      "longitude": "-88.3162000",
      "createdAt": "2025-12-28T17:03:31.708Z",
      "updatedAt": "2025-12-28T17:03:31.708Z",
      "stateName": "Illinois",
      "countryName": "United States"
    },
    {
      "id": 5064,
      "stateId": 33,
      "name": "Crystal River",
      "latitude": "37.8034989",
      "longitude": "-92.5169818",
      "createdAt": "2025-12-28T18:19:30.752Z",
      "updatedAt": "2025-12-28T18:19:30.752Z",
      "stateName": "Florida",
      "countryName": "United States"
    },
    {
      "id": 15676,
      "stateId": 92,
      "name": "Crystal Valley",
      "latitude": null,
      "longitude": null,
      "createdAt": "2025-12-28T20:14:23.307Z",
      "updatedAt": "2025-12-28T20:14:23.307Z",
      "stateName": "Michigan",
      "countryName": "United States"
    },
    {
      "id": 7598,
      "stateId": 500,
      "name": "Csikszereda",
      "latitude": null,
      "longitude": null,
      "createdAt": "2025-12-28T18:30:49.674Z",
      "updatedAt": "2025-12-28T18:30:49.674Z",
      "stateName": "Harghita County",
      "countryName": "Romania"
    },
    {
      "id": 4935,
      "stateId": 706,
      "name": "Cuautla",
      "latitude": "18.8045900",
      "longitude": "-98.9455500",
      "createdAt": "2025-12-28T18:19:13.689Z",
      "updatedAt": "2025-12-28T18:19:13.689Z",
      "stateName": "Morelos",
      "countryName": "Mexico"
    },
    {
      "id": 7774,
      "stateId": 112,
      "name": "Cuba",
      "latitude": "37.8034989",
      "longitude": "-92.5169818",
      "createdAt": "2025-12-28T18:31:40.687Z",
      "updatedAt": "2025-12-28T18:31:40.687Z",
      "stateName": "Missouri",
      "countryName": "United States"
    },
    {
      "id": 5815,
      "stateId": 546,
      "name": "Cubarral",
      "latitude": "6.4444434",
      "longitude": "-74.9549521",
      "createdAt": "2025-12-28T18:22:23.974Z",
      "updatedAt": "2025-12-28T18:22:23.974Z",
      "stateName": "Meta",
      "countryName": "Colombia"
    },
    {
      "id": 7758,
      "stateId": 4,
      "name": "Cubatao",
      "latitude": "-17.4339069",
      "longitude": "-45.8426650",
      "createdAt": "2025-12-28T18:31:34.295Z",
      "updatedAt": "2025-12-28T18:31:34.295Z",
      "stateName": "São Paulo",
      "countryName": "Brazil"
    },
    {
      "id": 17208,
      "stateId": 287,
      "name": "Cubati",
      "latitude": null,
      "longitude": null,
      "createdAt": "2025-12-29T15:57:10.563Z",
      "updatedAt": "2025-12-29T15:57:10.563Z",
      "stateName": "Paraíba",
      "countryName": "Brazil"
    },
    {
      "id": 7672,
      "stateId": 115,
      "name": "Cubelles",
      "latitude": "39.2717249",
      "longitude": "-3.2471696",
      "createdAt": "2025-12-28T18:31:08.868Z",
      "updatedAt": "2025-12-28T18:31:08.868Z",
      "stateName": "Barcelona",
      "countryName": "Spain"
    },
    {
      "id": 6316,
      "stateId": 239,
      "name": "Cubulco",
      "latitude": null,
      "longitude": null,
      "createdAt": "2025-12-28T18:24:40.286Z",
      "updatedAt": "2025-12-28T18:24:40.286Z",
      "stateName": "Baja Verapaz",
      "countryName": "Guatemala"
    },
    {
      "id": 7652,
      "stateId": 972,
      "name": "Cuéllar",
      "latitude": null,
      "longitude": null,
      "createdAt": "2025-12-28T18:31:04.812Z",
      "updatedAt": "2025-12-28T18:31:04.812Z",
      "stateName": "Segovia",
      "countryName": "Spain"
    },
    {
      "id": 4814,
      "stateId": 801,
      "name": "Cuenca",
      "latitude": null,
      "longitude": null,
      "createdAt": "2025-12-28T18:18:44.555Z",
      "updatedAt": "2025-12-28T18:18:44.555Z",
      "stateName": "Batangas",
      "countryName": "Philippines"
    },
    {
      "id": 6302,
      "stateId": 133,
      "name": "Cuenca",
      "latitude": "40.0666700",
      "longitude": "-2.1333300",
      "createdAt": "2025-12-28T18:24:38.194Z",
      "updatedAt": "2025-12-28T18:24:38.194Z",
      "stateName": "Castile-La Mancha",
      "countryName": "Spain"
    },
    {
      "id": 6320,
      "stateId": 795,
      "name": "Cuenca",
      "latitude": null,
      "longitude": null,
      "createdAt": "2025-12-28T18:24:41.723Z",
      "updatedAt": "2025-12-28T18:24:41.723Z",
      "stateName": "Cuenca",
      "countryName": "Spain"
    },
    {
      "id": 3830,
      "stateId": 706,
      "name": "Cuernavaca",
      "latitude": "18.9261000",
      "longitude": "-99.2307500",
      "createdAt": "2025-12-28T18:15:22.032Z",
      "updatedAt": "2025-12-28T18:15:22.032Z",
      "stateName": "Morelos",
      "countryName": "Mexico"
    },
    {
      "id": 7656,
      "stateId": 187,
      "name": "Cuetzalan",
      "latitude": null,
      "longitude": null,
      "createdAt": "2025-12-28T18:31:05.955Z",
      "updatedAt": "2025-12-28T18:31:05.955Z",
      "stateName": "Puebla",
      "countryName": "Mexico"
    },
    {
      "id": 1804,
      "stateId": 85,
      "name": "Cuiabá",
      "latitude": "-15.5961100",
      "longitude": "-56.0966700",
      "createdAt": "2025-12-28T18:10:12.268Z",
      "updatedAt": "2025-12-28T18:10:12.268Z",
      "stateName": "Mato Grosso",
      "countryName": "Brazil"
    },
    {
      "id": 3752,
      "stateId": 239,
      "name": "Cuilco",
      "latitude": "14.8315200",
      "longitude": "-90.7261285",
      "createdAt": "2025-12-28T18:15:10.637Z",
      "updatedAt": "2025-12-28T18:15:10.637Z",
      "stateName": "Baja Verapaz",
      "countryName": "Guatemala"
    },
    {
      "id": 7762,
      "stateId": 404,
      "name": "Cuisnahuat",
      "latitude": null,
      "longitude": null,
      "createdAt": "2025-12-28T18:31:35.449Z",
      "updatedAt": "2025-12-28T18:31:35.449Z",
      "stateName": "Sonsonate Department",
      "countryName": "El Salvador"
    },
    {
      "id": 7627,
      "stateId": 287,
      "name": "Cuité",
      "latitude": "-17.4339069",
      "longitude": "-45.8426650",
      "createdAt": "2025-12-28T18:31:01.287Z",
      "updatedAt": "2025-12-28T18:31:01.287Z",
      "stateName": "Paraíba",
      "countryName": "Brazil"
    },
    {
      "id": 17725,
      "stateId": 652,
      "name": "Cujubim",
      "latitude": null,
      "longitude": null,
      "createdAt": "2026-02-13T02:12:13.597Z",
      "updatedAt": "2026-02-13T02:12:13.597Z",
      "stateName": "Rondônia",
      "countryName": "Brazil"
    },
    {
      "id": 7768,
      "stateId": 110,
      "name": "Culdesac",
      "latitude": "37.8034989",
      "longitude": "-92.5169818",
      "createdAt": "2025-12-28T18:31:39.173Z",
      "updatedAt": "2025-12-28T18:31:39.173Z",
      "stateName": "Idaho",
      "countryName": "United States"
    },
    {
      "id": 14742,
      "stateId": 213,
      "name": "Culemborg",
      "latitude": "51.9550000",
      "longitude": "5.2277800",
      "createdAt": "2025-12-28T19:47:43.387Z",
      "updatedAt": "2025-12-28T19:47:43.387Z",
      "stateName": "Gelderland",
      "countryName": "Netherlands"
    },
    {
      "id": 3155,
      "stateId": 371,
      "name": "Culiacán",
      "latitude": "24.7903200",
      "longitude": "-107.3878200",
      "createdAt": "2025-12-28T18:13:47.039Z",
      "updatedAt": "2025-12-28T18:13:47.039Z",
      "stateName": "Sinaloa",
      "countryName": "Mexico"
    },
    {
      "id": 7708,
      "stateId": 809,
      "name": "Cúllar",
      "latitude": null,
      "longitude": null,
      "createdAt": "2025-12-28T18:31:13.823Z",
      "updatedAt": "2025-12-28T18:31:13.823Z",
      "stateName": "Granada",
      "countryName": "Spain"
    },
    {
      "id": 5774,
      "stateId": 122,
      "name": "Cullman",
      "latitude": "37.8034989",
      "longitude": "-92.5169818",
      "createdAt": "2025-12-28T18:22:06.857Z",
      "updatedAt": "2025-12-28T18:22:06.857Z",
      "stateName": "Alabama",
      "countryName": "United States"
    },
    {
      "id": 7770,
      "stateId": 55,
      "name": "Cullowhee",
      "latitude": "37.8034989",
      "longitude": "-92.5169818",
      "createdAt": "2025-12-28T18:31:39.400Z",
      "updatedAt": "2025-12-28T18:31:39.400Z",
      "stateName": "North Carolina",
      "countryName": "United States"
    },
    {
      "id": 7675,
      "stateId": 50,
      "name": "Culpeper",
      "latitude": "38.4731800",
      "longitude": "-77.9966600",
      "createdAt": "2025-12-28T18:31:09.144Z",
      "updatedAt": "2025-12-28T18:31:09.144Z",
      "stateName": "Virginia",
      "countryName": "United States"
    },
    {
      "id": 3035,
      "stateId": 657,
      "name": "Cumaná",
      "latitude": "10.4539700",
      "longitude": "-64.1825600",
      "createdAt": "2025-12-28T18:13:34.459Z",
      "updatedAt": "2025-12-28T18:13:34.459Z",
      "stateName": "Sucre",
      "countryName": "Venezuela"
    },
    {
      "id": 7694,
      "stateId": 546,
      "name": "Cumaral",
      "latitude": null,
      "longitude": null,
      "createdAt": "2025-12-28T18:31:10.788Z",
      "updatedAt": "2025-12-28T18:31:10.788Z",
      "stateName": "Meta",
      "countryName": "Colombia"
    },
    {
      "id": 7689,
      "stateId": 253,
      "name": "Cumari",
      "latitude": null,
      "longitude": null,
      "createdAt": "2025-12-28T18:31:10.229Z",
      "updatedAt": "2025-12-28T18:31:10.229Z",
      "stateName": "Goiás",
      "countryName": "Brazil"
    },
    {
      "id": 4354,
      "stateId": 354,
      "name": "Cumbal",
      "latitude": null,
      "longitude": null,
      "createdAt": "2025-12-28T18:17:10.801Z",
      "updatedAt": "2025-12-28T18:17:10.801Z",
      "stateName": "Narino",
      "countryName": "Colombia"
    },
    {
      "id": 17505,
      "stateId": 48,
      "name": "Cumberland",
      "latitude": null,
      "longitude": null,
      "createdAt": "2026-01-19T19:23:00.162Z",
      "updatedAt": "2026-01-19T19:23:00.162Z",
      "stateName": "Rhode Island",
      "countryName": "United States"
    },
    {
      "id": 7739,
      "stateId": 64,
      "name": "Cumberland",
      "latitude": "39.6528700",
      "longitude": "-78.7625200",
      "createdAt": "2025-12-28T18:31:26.351Z",
      "updatedAt": "2025-12-28T18:31:26.351Z",
      "stateName": "Maryland",
      "countryName": "United States"
    },
    {
      "id": 1585,
      "stateId": 50,
      "name": "Cumberland",
      "latitude": null,
      "longitude": null,
      "createdAt": "2025-12-28T17:04:47.965Z",
      "updatedAt": "2025-12-28T17:04:47.965Z",
      "stateName": "Virginia",
      "countryName": "United States"
    },
    {
      "id": 7718,
      "stateId": 106,
      "name": "Cumberland",
      "latitude": "39.6528700",
      "longitude": "-78.7625200",
      "createdAt": "2025-12-28T18:31:14.567Z",
      "updatedAt": "2025-12-28T18:31:14.567Z",
      "stateName": "New Jersey",
      "countryName": "United States"
    },
    {
      "id": 7033,
      "stateId": 467,
      "name": "Cumberland House",
      "latitude": "46.9909847",
      "longitude": "-87.5986915",
      "createdAt": "2025-12-28T18:27:54.878Z",
      "updatedAt": "2025-12-28T18:27:54.878Z",
      "stateName": "Saskatchewan",
      "countryName": "Canada"
    },
    {
      "id": 7710,
      "stateId": 444,
      "name": "Cumbernauld",
      "latitude": "55.9468500",
      "longitude": "-3.9905100",
      "createdAt": "2025-12-28T18:31:14.162Z",
      "updatedAt": "2025-12-28T18:31:14.162Z",
      "stateName": "Scotland",
      "countryName": "United Kingdom"
    },
    {
      "id": 10286,
      "stateId": 22,
      "name": "Cumming",
      "latitude": "37.8034989",
      "longitude": "-92.5169818",
      "createdAt": "2025-12-28T18:51:31.083Z",
      "updatedAt": "2025-12-28T18:51:31.083Z",
      "stateName": "Georgia",
      "countryName": "United States"
    },
    {
      "id": 18319,
      "stateId": 914,
      "name": "Cunco",
      "latitude": "15.1773000",
      "longitude": "73.9939200",
      "createdAt": "2026-05-13T15:33:10.323Z",
      "updatedAt": "2026-05-13T15:33:10.323Z",
      "stateName": "Araucanía",
      "countryName": "Chile"
    },
    {
      "id": 7746,
      "stateId": 664,
      "name": "Cunduacan",
      "latitude": "21.0459460",
      "longitude": "-100.0405298",
      "createdAt": "2025-12-28T18:31:29.329Z",
      "updatedAt": "2025-12-28T18:31:29.329Z",
      "stateName": "Tabasco",
      "countryName": "Mexico"
    },
    {
      "id": 17979,
      "stateId": 559,
      "name": "Cuneo",
      "latitude": "44.3907100",
      "longitude": "7.5482800",
      "createdAt": "2026-03-24T08:21:24.547Z",
      "updatedAt": "2026-03-24T08:21:24.547Z",
      "stateName": "Piedmont",
      "countryName": "Italy"
    },
    {
      "id": 2284,
      "stateId": 219,
      "name": "Cuneo",
      "latitude": "44.3907100",
      "longitude": "7.5482800",
      "createdAt": "2025-12-28T18:11:32.367Z",
      "updatedAt": "2025-12-28T18:11:32.367Z",
      "stateName": "Metropolitan City of Turin",
      "countryName": "Italy"
    },
    {
      "id": 12661,
      "stateId": 20,
      "name": "Cuney",
      "latitude": null,
      "longitude": null,
      "createdAt": "2025-12-28T19:17:18.448Z",
      "updatedAt": "2025-12-28T19:17:18.448Z",
      "stateName": "Texas",
      "countryName": "United States"
    },
    {
      "id": 7753,
      "stateId": 4,
      "name": "Cunha",
      "latitude": null,
      "longitude": null,
      "createdAt": "2025-12-28T18:31:32.731Z",
      "updatedAt": "2025-12-28T18:31:32.731Z",
      "stateName": "São Paulo",
      "countryName": "Brazil"
    },
    {
      "id": 7734,
      "stateId": 293,
      "name": "Cunha Porã",
      "latitude": null,
      "longitude": null,
      "createdAt": "2025-12-28T18:31:23.771Z",
      "updatedAt": "2025-12-28T18:31:23.771Z",
      "stateName": "Santa Catarina",
      "countryName": "Brazil"
    },
    {
      "id": 7709,
      "stateId": 973,
      "name": "Cunit",
      "latitude": null,
      "longitude": null,
      "createdAt": "2025-12-28T18:31:13.859Z",
      "updatedAt": "2025-12-28T18:31:13.859Z",
      "stateName": "Tarragona",
      "countryName": "Spain"
    },
    {
      "id": 6939,
      "stateId": 95,
      "name": "Cuparaque",
      "latitude": null,
      "longitude": null,
      "createdAt": "2025-12-28T18:27:35.191Z",
      "updatedAt": "2025-12-28T18:27:35.191Z",
      "stateName": "Minas Gerais",
      "countryName": "Brazil"
    },
    {
      "id": 7728,
      "stateId": 24,
      "name": "Cupertino",
      "latitude": "37.3230000",
      "longitude": "-122.0321800",
      "createdAt": "2025-12-28T18:31:15.409Z",
      "updatedAt": "2025-12-28T18:31:15.409Z",
      "stateName": "California",
      "countryName": "United States"
    },
    {
      "id": 2427,
      "stateId": 7,
      "name": "Cupira",
      "latitude": "-8.6166700",
      "longitude": "-35.9500000",
      "createdAt": "2025-12-28T18:12:12.937Z",
      "updatedAt": "2025-12-28T18:12:12.937Z",
      "stateName": "Pernambuco",
      "countryName": "Brazil"
    },
    {
      "id": 3303,
      "stateId": 396,
      "name": "Curicó",
      "latitude": "-34.9827900",
      "longitude": "-71.2394300",
      "createdAt": "2025-12-28T18:14:11.979Z",
      "updatedAt": "2025-12-28T18:14:11.979Z",
      "stateName": "Región del Maule",
      "countryName": "Chile"
    },
    {
      "id": 7743,
      "stateId": 159,
      "name": "Curionópolis",
      "latitude": null,
      "longitude": null,
      "createdAt": "2025-12-28T18:31:27.034Z",
      "updatedAt": "2025-12-28T18:31:27.034Z",
      "stateName": "Pará",
      "countryName": "Brazil"
    },
    {
      "id": 242,
      "stateId": 137,
      "name": "Curitiba",
      "latitude": "-25.4277800",
      "longitude": "-49.2730600",
      "createdAt": "2025-12-28T16:56:38.302Z",
      "updatedAt": "2025-12-28T16:56:38.302Z",
      "stateName": "Paraná",
      "countryName": "Brazil"
    },
    {
      "id": 7280,
      "stateId": 293,
      "name": "Curitibanos",
      "latitude": "-27.2827800",
      "longitude": "-50.5844400",
      "createdAt": "2025-12-28T18:29:18.861Z",
      "updatedAt": "2025-12-28T18:29:18.861Z",
      "stateName": "Santa Catarina",
      "countryName": "Brazil"
    },
    {
      "id": 393,
      "stateId": 186,
      "name": "Currais Novos",
      "latitude": "-6.2608300",
      "longitude": "-36.5177800",
      "createdAt": "2025-12-28T17:00:47.817Z",
      "updatedAt": "2025-12-28T17:00:47.817Z",
      "stateName": "Rio Grande do Norte",
      "countryName": "Brazil"
    },
    {
      "id": 7674,
      "stateId": 55,
      "name": "Currituck",
      "latitude": null,
      "longitude": null,
      "createdAt": "2025-12-28T18:31:09.083Z",
      "updatedAt": "2025-12-28T18:31:09.083Z",
      "stateName": "North Carolina",
      "countryName": "United States"
    },
    {
      "id": 7700,
      "stateId": 159,
      "name": "Curuá",
      "latitude": null,
      "longitude": null,
      "createdAt": "2025-12-28T18:31:12.270Z",
      "updatedAt": "2025-12-28T18:31:12.270Z",
      "stateName": "Pará",
      "countryName": "Brazil"
    },
    {
      "id": 7653,
      "stateId": 159,
      "name": "Curuçá",
      "latitude": "-17.4339069",
      "longitude": "-45.8426650",
      "createdAt": "2025-12-28T18:31:05.016Z",
      "updatedAt": "2025-12-28T18:31:05.016Z",
      "stateName": "Pará",
      "countryName": "Brazil"
    },
    {
      "id": 3065,
      "stateId": 335,
      "name": "Cururupu",
      "latitude": null,
      "longitude": null,
      "createdAt": "2025-12-28T18:13:37.281Z",
      "updatedAt": "2025-12-28T18:13:37.281Z",
      "stateName": "Maranhão",
      "countryName": "Brazil"
    },
    {
      "id": 7731,
      "stateId": 289,
      "name": "Curuzú Cuatiá",
      "latitude": "-29.7917100",
      "longitude": "-58.0546000",
      "createdAt": "2025-12-28T18:31:21.584Z",
      "updatedAt": "2025-12-28T18:31:21.584Z",
      "stateName": "Corrientes",
      "countryName": "Argentina"
    },
    {
      "id": 6258,
      "stateId": 95,
      "name": "Curvelo",
      "latitude": "-18.7563900",
      "longitude": "-44.4308300",
      "createdAt": "2025-12-28T18:24:24.014Z",
      "updatedAt": "2025-12-28T18:24:24.014Z",
      "stateName": "Minas Gerais",
      "countryName": "Brazil"
    },
    {
      "id": 1290,
      "stateId": 68,
      "name": "Curwensville",
      "latitude": "37.8034989",
      "longitude": "-92.5169818",
      "createdAt": "2025-12-28T17:03:31.175Z",
      "updatedAt": "2025-12-28T17:03:31.175Z",
      "stateName": "Pennsylvania",
      "countryName": "United States"
    },
    {
      "id": 13251,
      "stateId": 151,
      "name": "Cushing",
      "latitude": "37.8034989",
      "longitude": "-92.5169818",
      "createdAt": "2025-12-28T19:22:05.000Z",
      "updatedAt": "2025-12-28T19:22:05.000Z",
      "stateName": "Oklahoma",
      "countryName": "United States"
    },
    {
      "id": 11050,
      "stateId": 22,
      "name": "Cusseta",
      "latitude": null,
      "longitude": null,
      "createdAt": "2025-12-28T19:00:37.657Z",
      "updatedAt": "2025-12-28T19:00:37.657Z",
      "stateName": "Georgia",
      "countryName": "United States"
    },
    {
      "id": 7765,
      "stateId": 92,
      "name": "Custer",
      "latitude": null,
      "longitude": null,
      "createdAt": "2025-12-28T18:31:36.173Z",
      "updatedAt": "2025-12-28T18:31:36.173Z",
      "stateName": "Michigan",
      "countryName": "United States"
    },
    {
      "id": 7634,
      "stateId": 7,
      "name": "Custódia",
      "latitude": "-8.0875000",
      "longitude": "-37.6430600",
      "createdAt": "2025-12-28T18:31:02.383Z",
      "updatedAt": "2025-12-28T18:31:02.383Z",
      "stateName": "Pernambuco",
      "countryName": "Brazil"
    },
    {
      "id": 7659,
      "stateId": 381,
      "name": "Cutral Có",
      "latitude": "-32.1628172",
      "longitude": "-62.0921509",
      "createdAt": "2025-12-28T18:31:06.438Z",
      "updatedAt": "2025-12-28T18:31:06.438Z",
      "stateName": "Neuquén",
      "countryName": "Argentina"
    },
    {
      "id": 2620,
      "stateId": 618,
      "name": "Cuttack",
      "latitude": "20.4649700",
      "longitude": "85.8792700",
      "createdAt": "2025-12-28T18:12:37.542Z",
      "updatedAt": "2025-12-28T18:12:37.542Z",
      "stateName": "Orissa",
      "countryName": "India"
    },
    {
      "id": 18042,
      "stateId": 1269,
      "name": "Cuttack",
      "latitude": "20.4649700",
      "longitude": "85.8792700",
      "createdAt": "2026-03-30T02:41:15.689Z",
      "updatedAt": "2026-03-30T02:41:15.689Z",
      "stateName": "Odisha",
      "countryName": "India"
    },
    {
      "id": 3603,
      "stateId": 14,
      "name": "Cuyahoga Falls",
      "latitude": "41.1339400",
      "longitude": "-81.4845600",
      "createdAt": "2025-12-28T18:14:57.001Z",
      "updatedAt": "2025-12-28T18:14:57.001Z",
      "stateName": "Ohio",
      "countryName": "United States"
    },
    {
      "id": 1815,
      "stateId": 82,
      "name": "Cwmbran",
      "latitude": null,
      "longitude": null,
      "createdAt": "2025-12-28T18:10:14.068Z",
      "updatedAt": "2025-12-28T18:10:14.068Z",
      "stateName": "Wales",
      "countryName": "United Kingdom"
    },
    {
      "id": 7794,
      "stateId": 984,
      "name": "Cyangugu",
      "latitude": null,
      "longitude": null,
      "createdAt": "2025-12-28T18:31:52.438Z",
      "updatedAt": "2025-12-28T18:31:52.438Z",
      "stateName": "Rusizi District",
      "countryName": "Rwanda"
    },
    {
      "id": 412,
      "stateId": 71,
      "name": "Cyberjaya",
      "latitude": "3.8440443",
      "longitude": "104.1363346",
      "createdAt": "2025-12-28T17:00:49.012Z",
      "updatedAt": "2025-12-28T17:00:49.012Z",
      "stateName": "Selangor",
      "countryName": "Malaysia"
    },
    {
      "id": 7796,
      "stateId": 80,
      "name": "Cynthiana",
      "latitude": "37.8034989",
      "longitude": "-92.5169818",
      "createdAt": "2025-12-28T18:31:54.017Z",
      "updatedAt": "2025-12-28T18:31:54.017Z",
      "stateName": "Kentucky",
      "countryName": "United States"
    },
    {
      "id": 7790,
      "stateId": 20,
      "name": "Cypress",
      "latitude": "29.9691100",
      "longitude": "-95.6971700",
      "createdAt": "2025-12-28T18:31:50.357Z",
      "updatedAt": "2025-12-28T18:31:50.357Z",
      "stateName": "Texas",
      "countryName": "United States"
    },
    {
      "id": 5670,
      "stateId": 33,
      "name": "Cypress Gardens",
      "latitude": "37.8034989",
      "longitude": "-92.5169818",
      "createdAt": "2025-12-28T18:21:51.532Z",
      "updatedAt": "2025-12-28T18:21:51.532Z",
      "stateName": "Florida",
      "countryName": "United States"
    },
    {
      "id": 7800,
      "stateId": 495,
      "name": "Czestochowa",
      "latitude": "51.8024603",
      "longitude": "19.2550087",
      "createdAt": "2025-12-28T18:31:58.604Z",
      "updatedAt": "2025-12-28T18:31:58.604Z",
      "stateName": "Silesian",
      "countryName": "Poland"
    },
    {
      "id": 7909,
      "stateId": 516,
      "name": " Daanbantayan",
      "latitude": null,
      "longitude": null,
      "createdAt": "2025-12-28T18:32:56.284Z",
      "updatedAt": "2025-12-28T18:32:56.284Z",
      "stateName": "Cebu",
      "countryName": "Philippines"
    },
    {
      "id": 1704,
      "stateId": 34,
      "name": "Dachau",
      "latitude": null,
      "longitude": null,
      "createdAt": "2025-12-28T18:01:58.760Z",
      "updatedAt": "2025-12-28T18:01:58.760Z",
      "stateName": "Bavaria",
      "countryName": "Germany"
    },
    {
      "id": 8329,
      "stateId": 33,
      "name": "Dade City",
      "latitude": "37.8034989",
      "longitude": "-92.5169818",
      "createdAt": "2025-12-28T18:37:22.585Z",
      "updatedAt": "2025-12-28T18:37:22.585Z",
      "stateName": "Florida",
      "countryName": "United States"
    },
    {
      "id": 5859,
      "stateId": 898,
      "name": "Daet",
      "latitude": "14.1122000",
      "longitude": "122.9553000",
      "createdAt": "2025-12-28T18:22:29.888Z",
      "updatedAt": "2025-12-28T18:22:29.888Z",
      "stateName": "Camarines Norte",
      "countryName": "Philippines"
    },
    {
      "id": 1918,
      "stateId": 92,
      "name": "Daggett",
      "latitude": null,
      "longitude": null,
      "createdAt": "2025-12-28T18:10:30.390Z",
      "updatedAt": "2025-12-28T18:10:30.390Z",
      "stateName": "Michigan",
      "countryName": "United States"
    },
    {
      "id": 5834,
      "stateId": 278,
      "name": "Dagua",
      "latitude": null,
      "longitude": null,
      "createdAt": "2025-12-28T18:22:26.853Z",
      "updatedAt": "2025-12-28T18:22:26.853Z",
      "stateName": "Valle del Cauca",
      "countryName": "Colombia"
    },
    {
      "id": 5626,
      "stateId": 873,
      "name": "Dagupan",
      "latitude": "12.5023632",
      "longitude": "122.3310559",
      "createdAt": "2025-12-28T18:21:43.745Z",
      "updatedAt": "2025-12-28T18:21:43.745Z",
      "stateName": "Pangasinan",
      "countryName": "Philippines"
    },
    {
      "id": 6717,
      "stateId": 22,
      "name": "Dahlonega",
      "latitude": "37.8034989",
      "longitude": "-92.5169818",
      "createdAt": "2025-12-28T18:26:49.213Z",
      "updatedAt": "2025-12-28T18:26:49.213Z",
      "stateName": "Georgia",
      "countryName": "United States"
    },
    {
      "id": 588,
      "stateId": 283,
      "name": "Dahod",
      "latitude": null,
      "longitude": null,
      "createdAt": "2025-12-28T17:01:09.978Z",
      "updatedAt": "2025-12-28T17:01:09.978Z",
      "stateName": "Gujarat",
      "countryName": "India"
    },
    {
      "id": 501,
      "stateId": 235,
      "name": "Dakar",
      "latitude": "14.6937000",
      "longitude": "-17.4440600",
      "createdAt": "2025-12-28T17:00:56.272Z",
      "updatedAt": "2025-12-28T17:00:56.272Z",
      "stateName": "Dakar",
      "countryName": "Senegal"
    },
    {
      "id": 9931,
      "stateId": 73,
      "name": "Dakota City",
      "latitude": "37.8034989",
      "longitude": "-92.5169818",
      "createdAt": "2025-12-28T18:48:54.530Z",
      "updatedAt": "2025-12-28T18:48:54.530Z",
      "stateName": "Nebraska",
      "countryName": "United States"
    },
    {
      "id": 7918,
      "stateId": 395,
      "name": "Dakota Dunes",
      "latitude": "37.8034989",
      "longitude": "-92.5169818",
      "createdAt": "2025-12-28T18:33:02.575Z",
      "updatedAt": "2025-12-28T18:33:02.575Z",
      "stateName": "South Dakota",
      "countryName": "United States"
    },
    {
      "id": 7804,
      "stateId": 987,
      "name": "Dala",
      "latitude": null,
      "longitude": null,
      "createdAt": "2025-12-28T18:32:12.906Z",
      "updatedAt": "2025-12-28T18:32:12.906Z",
      "stateName": "Kano",
      "countryName": "Nigeria"
    },
    {
      "id": 8758,
      "stateId": 1054,
      "name": "Dalaman",
      "latitude": null,
      "longitude": null,
      "createdAt": "2025-12-28T18:40:06.862Z",
      "updatedAt": "2025-12-28T18:40:06.862Z",
      "stateName": "Mugla",
      "countryName": "Turkey"
    },
    {
      "id": 17269,
      "stateId": 74,
      "name": "Dalby",
      "latitude": null,
      "longitude": null,
      "createdAt": "2025-12-29T16:16:31.086Z",
      "updatedAt": "2025-12-29T16:16:31.086Z",
      "stateName": "Queensland",
      "countryName": "Australia"
    },
    {
      "id": 3374,
      "stateId": 20,
      "name": "Dalhart",
      "latitude": "37.8034989",
      "longitude": "-92.5169818",
      "createdAt": "2025-12-28T18:14:18.022Z",
      "updatedAt": "2025-12-28T18:14:18.022Z",
      "stateName": "Texas",
      "countryName": "United States"
    }
  ],
  "meta": {
    "page": 43,
    "limit": 100,
    "total": 18002,
    "totalPages": 181
  }
}
