{
  "source": "50k-radio-stations",
  "provider": "rapidapi",
  "syncedAt": "2026-06-03T13:05:00.747Z",
  "endpoint": "/cities",
  "page": 73,
  "limit": 250,
  "data": [
    {
      "id": 11424,
      "stateId": 137,
      "name": "Icaraíma",
      "latitude": null,
      "longitude": null,
      "createdAt": "2025-12-28T19:05:38.552Z",
      "updatedAt": "2025-12-28T19:05:38.552Z",
      "stateName": "Paraná",
      "countryName": "Brazil"
    },
    {
      "id": 11440,
      "stateId": 909,
      "name": "Ichtegem",
      "latitude": null,
      "longitude": null,
      "createdAt": "2025-12-28T19:05:47.719Z",
      "updatedAt": "2025-12-28T19:05:47.719Z",
      "stateName": "West Flanders",
      "countryName": "Belgium"
    },
    {
      "id": 11425,
      "stateId": 262,
      "name": "Ichu",
      "latitude": null,
      "longitude": null,
      "createdAt": "2025-12-28T19:05:39.273Z",
      "updatedAt": "2025-12-28T19:05:39.273Z",
      "stateName": "Bahia",
      "countryName": "Brazil"
    },
    {
      "id": 6545,
      "stateId": 231,
      "name": "Ico",
      "latitude": "-17.4339069",
      "longitude": "-45.8426650",
      "createdAt": "2025-12-28T18:25:48.248Z",
      "updatedAt": "2025-12-28T18:25:48.248Z",
      "stateName": "Ceará",
      "countryName": "Brazil"
    },
    {
      "id": 11395,
      "stateId": 139,
      "name": "Icod de los Vinos",
      "latitude": "28.3724100",
      "longitude": "-16.7118800",
      "createdAt": "2025-12-28T19:05:04.563Z",
      "updatedAt": "2025-12-28T19:05:04.563Z",
      "stateName": "Canary Islands",
      "countryName": "Spain"
    },
    {
      "id": 17600,
      "stateId": 599,
      "name": "Icolo e Bengo",
      "latitude": null,
      "longitude": null,
      "createdAt": "2026-01-26T23:37:26.731Z",
      "updatedAt": "2026-01-26T23:37:26.731Z",
      "stateName": "Luanda",
      "countryName": "Angola"
    },
    {
      "id": 11467,
      "stateId": 151,
      "name": "Idabel",
      "latitude": "37.8034989",
      "longitude": "-92.5169818",
      "createdAt": "2025-12-28T19:05:55.985Z",
      "updatedAt": "2025-12-28T19:05:55.985Z",
      "stateName": "Oklahoma",
      "countryName": "United States"
    },
    {
      "id": 11483,
      "stateId": 113,
      "name": "Ida Grove",
      "latitude": "37.8034989",
      "longitude": "-92.5169818",
      "createdAt": "2025-12-28T19:05:59.274Z",
      "updatedAt": "2025-12-28T19:05:59.274Z",
      "stateName": "Iowa",
      "countryName": "United States"
    },
    {
      "id": 217,
      "stateId": 110,
      "name": "Idaho Falls",
      "latitude": "43.4665800",
      "longitude": "-112.0341400",
      "createdAt": "2025-12-28T16:56:36.276Z",
      "updatedAt": "2025-12-28T16:56:36.276Z",
      "stateName": "Idaho",
      "countryName": "United States"
    },
    {
      "id": 10697,
      "stateId": 27,
      "name": "Idaho Springs",
      "latitude": "37.8034989",
      "longitude": "-92.5169818",
      "createdAt": "2025-12-28T18:56:45.938Z",
      "updatedAt": "2025-12-28T18:56:45.938Z",
      "stateName": "Colorado",
      "countryName": "United States"
    },
    {
      "id": 11472,
      "stateId": 20,
      "name": "Idalou",
      "latitude": "37.8034989",
      "longitude": "-92.5169818",
      "createdAt": "2025-12-28T19:05:56.602Z",
      "updatedAt": "2025-12-28T19:05:56.602Z",
      "stateName": "Texas",
      "countryName": "United States"
    },
    {
      "id": 11477,
      "stateId": 374,
      "name": "Idanha-a-Nova",
      "latitude": "39.5232529",
      "longitude": "-8.9987995",
      "createdAt": "2025-12-28T19:05:57.952Z",
      "updatedAt": "2025-12-28T19:05:57.952Z",
      "stateName": "Centro",
      "countryName": "Portugal"
    },
    {
      "id": 11449,
      "stateId": 107,
      "name": "Idar-Oberstein",
      "latitude": "49.7144300",
      "longitude": "7.3077600",
      "createdAt": "2025-12-28T19:05:51.694Z",
      "updatedAt": "2025-12-28T19:05:51.694Z",
      "stateName": "Rhineland-Palatinate",
      "countryName": "Germany"
    },
    {
      "id": 11458,
      "stateId": 24,
      "name": "Idyllwild",
      "latitude": "37.8034989",
      "longitude": "-92.5169818",
      "createdAt": "2025-12-28T19:05:54.114Z",
      "updatedAt": "2025-12-28T19:05:54.114Z",
      "stateName": "California",
      "countryName": "United States"
    },
    {
      "id": 11492,
      "stateId": 4,
      "name": "Iepê",
      "latitude": null,
      "longitude": null,
      "createdAt": "2025-12-28T19:06:04.170Z",
      "updatedAt": "2025-12-28T19:06:04.170Z",
      "stateName": "São Paulo",
      "countryName": "Brazil"
    },
    {
      "id": 11491,
      "stateId": 140,
      "name": "Ierapetra",
      "latitude": "38.6555720",
      "longitude": "23.4057215",
      "createdAt": "2025-12-28T19:06:04.078Z",
      "updatedAt": "2025-12-28T19:06:04.078Z",
      "stateName": "Crete",
      "countryName": "Greece"
    },
    {
      "id": 6373,
      "stateId": 4,
      "name": "Igaraçu do Tietê",
      "latitude": null,
      "longitude": null,
      "createdAt": "2025-12-28T18:24:55.380Z",
      "updatedAt": "2025-12-28T18:24:55.380Z",
      "stateName": "São Paulo",
      "countryName": "Brazil"
    },
    {
      "id": 3000,
      "stateId": 4,
      "name": "Igarapava",
      "latitude": null,
      "longitude": null,
      "createdAt": "2025-12-28T18:13:29.022Z",
      "updatedAt": "2025-12-28T18:13:29.022Z",
      "stateName": "São Paulo",
      "countryName": "Brazil"
    },
    {
      "id": 11502,
      "stateId": 95,
      "name": "Igarapé",
      "latitude": "-20.0702800",
      "longitude": "-44.3016700",
      "createdAt": "2025-12-28T19:06:11.453Z",
      "updatedAt": "2025-12-28T19:06:11.453Z",
      "stateName": "Minas Gerais",
      "countryName": "Brazil"
    },
    {
      "id": 8221,
      "stateId": 335,
      "name": "Igarapé Grande",
      "latitude": "-17.4339069",
      "longitude": "-45.8426650",
      "createdAt": "2025-12-28T18:36:29.651Z",
      "updatedAt": "2025-12-28T18:36:29.651Z",
      "stateName": "Maranhão",
      "countryName": "Brazil"
    },
    {
      "id": 11503,
      "stateId": 159,
      "name": "Igarapé Miri",
      "latitude": null,
      "longitude": null,
      "createdAt": "2025-12-28T19:06:12.336Z",
      "updatedAt": "2025-12-28T19:06:12.336Z",
      "stateName": "Pará",
      "countryName": "Brazil"
    },
    {
      "id": 621,
      "stateId": 7,
      "name": "Igarassu",
      "latitude": null,
      "longitude": null,
      "createdAt": "2025-12-28T17:01:13.582Z",
      "updatedAt": "2025-12-28T17:01:13.582Z",
      "stateName": "Pernambuco",
      "countryName": "Brazil"
    },
    {
      "id": 17832,
      "stateId": 95,
      "name": "Igaratinga",
      "latitude": null,
      "longitude": null,
      "createdAt": "2026-03-04T06:04:12.464Z",
      "updatedAt": "2026-03-04T06:04:12.464Z",
      "stateName": "Minas Gerais",
      "countryName": "Brazil"
    },
    {
      "id": 11506,
      "stateId": 77,
      "name": "Igbo-Ora",
      "latitude": null,
      "longitude": null,
      "createdAt": "2025-12-28T19:06:13.442Z",
      "updatedAt": "2025-12-28T19:06:13.442Z",
      "stateName": "Katsina State",
      "countryName": "Nigeria"
    },
    {
      "id": 3935,
      "stateId": 169,
      "name": "Iglesias",
      "latitude": "39.3092000",
      "longitude": "8.5372000",
      "createdAt": "2025-12-28T18:15:41.099Z",
      "updatedAt": "2025-12-28T18:15:41.099Z",
      "stateName": "Sardinia",
      "countryName": "Italy"
    },
    {
      "id": 6407,
      "stateId": 382,
      "name": "Igloolik",
      "latitude": null,
      "longitude": null,
      "createdAt": "2025-12-28T18:25:08.772Z",
      "updatedAt": "2025-12-28T18:25:08.772Z",
      "stateName": "Nunavut",
      "countryName": "Canada"
    },
    {
      "id": 4030,
      "stateId": 27,
      "name": "Ignacio",
      "latitude": "37.8034989",
      "longitude": "-92.5169818",
      "createdAt": "2025-12-28T18:15:53.948Z",
      "updatedAt": "2025-12-28T18:15:53.948Z",
      "stateName": "Colorado",
      "countryName": "United States"
    },
    {
      "id": 11505,
      "stateId": 297,
      "name": "Ignacio Martínez",
      "latitude": null,
      "longitude": null,
      "createdAt": "2025-12-28T19:06:13.246Z",
      "updatedAt": "2025-12-28T19:06:13.246Z",
      "stateName": "San Luis Potosí",
      "countryName": "Mexico"
    },
    {
      "id": 11499,
      "stateId": 1182,
      "name": "Ignalina",
      "latitude": "55.2013774",
      "longitude": "23.8547074",
      "createdAt": "2025-12-28T19:06:10.381Z",
      "updatedAt": "2025-12-28T19:06:10.381Z",
      "stateName": "Ignalina",
      "countryName": "Lithuania"
    },
    {
      "id": 3218,
      "stateId": 205,
      "name": "Igrejinha",
      "latitude": "-29.5744400",
      "longitude": "-50.7902800",
      "createdAt": "2025-12-28T18:14:00.817Z",
      "updatedAt": "2025-12-28T18:14:00.817Z",
      "stateName": "Rio Grande do Sul",
      "countryName": "Brazil"
    },
    {
      "id": 11498,
      "stateId": 943,
      "name": "Igrim",
      "latitude": null,
      "longitude": null,
      "createdAt": "2025-12-28T19:06:09.784Z",
      "updatedAt": "2025-12-28T19:06:09.784Z",
      "stateName": "Khanty-Mansi",
      "countryName": "Russia"
    },
    {
      "id": 9333,
      "stateId": 134,
      "name": "Iguaba Grande",
      "latitude": "-17.4339069",
      "longitude": "-45.8426650",
      "createdAt": "2025-12-28T18:43:48.927Z",
      "updatedAt": "2025-12-28T18:43:48.927Z",
      "stateName": "Rio de Janeiro",
      "countryName": "Brazil"
    },
    {
      "id": 10769,
      "stateId": 520,
      "name": "Iguala de la Independencia",
      "latitude": "21.0459460",
      "longitude": "-100.0405298",
      "createdAt": "2025-12-28T18:57:24.846Z",
      "updatedAt": "2025-12-28T18:57:24.846Z",
      "stateName": "Guerrero",
      "countryName": "Mexico"
    },
    {
      "id": 9594,
      "stateId": 4,
      "name": "Iguape",
      "latitude": null,
      "longitude": null,
      "createdAt": "2025-12-28T18:45:30.087Z",
      "updatedAt": "2025-12-28T18:45:30.087Z",
      "stateName": "São Paulo",
      "countryName": "Brazil"
    },
    {
      "id": 11497,
      "stateId": 95,
      "name": "Iguatama",
      "latitude": null,
      "longitude": null,
      "createdAt": "2025-12-28T19:06:09.648Z",
      "updatedAt": "2025-12-28T19:06:09.648Z",
      "stateName": "Minas Gerais",
      "countryName": "Brazil"
    },
    {
      "id": 5660,
      "stateId": 369,
      "name": "Iguatemi",
      "latitude": null,
      "longitude": null,
      "createdAt": "2025-12-28T18:21:49.715Z",
      "updatedAt": "2025-12-28T18:21:49.715Z",
      "stateName": "Mato Grosso do Sul",
      "countryName": "Brazil"
    },
    {
      "id": 862,
      "stateId": 231,
      "name": "Iguatu",
      "latitude": "-6.3594400",
      "longitude": "-39.2986100",
      "createdAt": "2025-12-28T17:02:24.243Z",
      "updatedAt": "2025-12-28T17:02:24.243Z",
      "stateName": "Ceará",
      "countryName": "Brazil"
    },
    {
      "id": 2048,
      "stateId": 457,
      "name": "Ijebu Ode",
      "latitude": null,
      "longitude": null,
      "createdAt": "2025-12-28T18:10:45.153Z",
      "updatedAt": "2025-12-28T18:10:45.153Z",
      "stateName": "Ogun State",
      "countryName": "Nigeria"
    },
    {
      "id": 11512,
      "stateId": 52,
      "name": "IJmuiden",
      "latitude": "52.0575321",
      "longitude": "5.3403480",
      "createdAt": "2025-12-28T19:06:22.189Z",
      "updatedAt": "2025-12-28T19:06:22.189Z",
      "stateName": "North Holland",
      "countryName": "Netherlands"
    },
    {
      "id": 756,
      "stateId": 205,
      "name": "Ijui",
      "latitude": "-28.3877800",
      "longitude": "-53.9147200",
      "createdAt": "2025-12-28T17:02:15.325Z",
      "updatedAt": "2025-12-28T17:02:15.325Z",
      "stateName": "Rio Grande do Sul",
      "countryName": "Brazil"
    },
    {
      "id": 8158,
      "stateId": 77,
      "name": "Ikeja",
      "latitude": "6.5965100",
      "longitude": "3.3420500",
      "createdAt": "2025-12-28T18:36:01.597Z",
      "updatedAt": "2025-12-28T18:36:01.597Z",
      "stateName": "Katsina State",
      "countryName": "Nigeria"
    },
    {
      "id": 8821,
      "stateId": 552,
      "name": "Ikere",
      "latitude": null,
      "longitude": null,
      "createdAt": "2025-12-28T18:40:31.494Z",
      "updatedAt": "2025-12-28T18:40:31.494Z",
      "stateName": "Ekiti",
      "countryName": "Nigeria"
    },
    {
      "id": 2325,
      "stateId": 443,
      "name": "Ikirun",
      "latitude": null,
      "longitude": null,
      "createdAt": "2025-12-28T18:11:45.431Z",
      "updatedAt": "2025-12-28T18:11:45.431Z",
      "stateName": "Osun State",
      "countryName": "Nigeria"
    },
    {
      "id": 1263,
      "stateId": 77,
      "name": "Ikorodu",
      "latitude": null,
      "longitude": null,
      "createdAt": "2025-12-28T17:03:21.510Z",
      "updatedAt": "2025-12-28T17:03:21.510Z",
      "stateName": "Katsina State",
      "countryName": "Nigeria"
    },
    {
      "id": 11513,
      "stateId": 77,
      "name": "Ikoyi",
      "latitude": null,
      "longitude": null,
      "createdAt": "2025-12-28T19:06:25.438Z",
      "updatedAt": "2025-12-28T19:06:25.438Z",
      "stateName": "Katsina State",
      "countryName": "Nigeria"
    },
    {
      "id": 14851,
      "stateId": 443,
      "name": "Ilaro",
      "latitude": null,
      "longitude": null,
      "createdAt": "2025-12-28T19:49:48.020Z",
      "updatedAt": "2025-12-28T19:49:48.020Z",
      "stateName": "Osun State",
      "countryName": "Nigeria"
    },
    {
      "id": 8080,
      "stateId": 1015,
      "name": "Ilave",
      "latitude": null,
      "longitude": null,
      "createdAt": "2025-12-28T18:35:08.545Z",
      "updatedAt": "2025-12-28T18:35:08.545Z",
      "stateName": "Puno",
      "countryName": "Peru"
    },
    {
      "id": 9424,
      "stateId": 1069,
      "name": "Ilawa",
      "latitude": "53.5960100",
      "longitude": "19.5684900",
      "createdAt": "2025-12-28T18:44:09.523Z",
      "updatedAt": "2025-12-28T18:44:09.523Z",
      "stateName": "Warmian-Masurian",
      "countryName": "Poland"
    },
    {
      "id": 6823,
      "stateId": 467,
      "name": "Ile-a-la-Crosse",
      "latitude": null,
      "longitude": null,
      "createdAt": "2025-12-28T18:27:18.397Z",
      "updatedAt": "2025-12-28T18:27:18.397Z",
      "stateName": "Saskatchewan",
      "countryName": "Canada"
    },
    {
      "id": 8513,
      "stateId": 1018,
      "name": "Île d'Yeu",
      "latitude": null,
      "longitude": null,
      "createdAt": "2025-12-28T18:38:55.604Z",
      "updatedAt": "2025-12-28T18:38:55.604Z",
      "stateName": "Vendée",
      "countryName": "France"
    },
    {
      "id": 1275,
      "stateId": 443,
      "name": "Ile-Ife",
      "latitude": null,
      "longitude": null,
      "createdAt": "2025-12-28T17:03:22.337Z",
      "updatedAt": "2025-12-28T17:03:22.337Z",
      "stateName": "Osun State",
      "countryName": "Nigeria"
    },
    {
      "id": 5592,
      "stateId": 77,
      "name": "Ile-Olujio",
      "latitude": null,
      "longitude": null,
      "createdAt": "2025-12-28T18:21:28.062Z",
      "updatedAt": "2025-12-28T18:21:28.062Z",
      "stateName": "Katsina State",
      "countryName": "Nigeria"
    },
    {
      "id": 8054,
      "stateId": 77,
      "name": "Ilesa",
      "latitude": "7.6278900",
      "longitude": "4.7416100",
      "createdAt": "2025-12-28T18:34:50.048Z",
      "updatedAt": "2025-12-28T18:34:50.048Z",
      "stateName": "Katsina State",
      "countryName": "Nigeria"
    },
    {
      "id": 11539,
      "stateId": 258,
      "name": "Îles-de-la-Madeleine",
      "latitude": null,
      "longitude": null,
      "createdAt": "2025-12-28T19:07:03.471Z",
      "updatedAt": "2025-12-28T19:07:03.471Z",
      "stateName": "Quebec",
      "countryName": "Canada"
    },
    {
      "id": 8528,
      "stateId": 77,
      "name": "Ilese Ijebu",
      "latitude": null,
      "longitude": null,
      "createdAt": "2025-12-28T18:39:05.672Z",
      "updatedAt": "2025-12-28T18:39:05.672Z",
      "stateName": "Katsina State",
      "countryName": "Nigeria"
    },
    {
      "id": 3536,
      "stateId": 4,
      "name": "Ilhabela",
      "latitude": "-23.7780600",
      "longitude": "-45.3580600",
      "createdAt": "2025-12-28T18:14:46.585Z",
      "updatedAt": "2025-12-28T18:14:46.585Z",
      "stateName": "São Paulo",
      "countryName": "Brazil"
    },
    {
      "id": 7808,
      "stateId": 7,
      "name": "Ilha de Itamaracá",
      "latitude": null,
      "longitude": null,
      "createdAt": "2025-12-28T18:32:14.877Z",
      "updatedAt": "2025-12-28T18:32:14.877Z",
      "stateName": "Pernambuco",
      "countryName": "Brazil"
    },
    {
      "id": 4777,
      "stateId": 4,
      "name": "Ilha Solteira",
      "latitude": "-20.4327800",
      "longitude": "-51.3425000",
      "createdAt": "2025-12-28T18:18:39.991Z",
      "updatedAt": "2025-12-28T18:18:39.991Z",
      "stateName": "São Paulo",
      "countryName": "Brazil"
    },
    {
      "id": 836,
      "stateId": 262,
      "name": "Ilheus",
      "latitude": "-17.4339069",
      "longitude": "-45.8426650",
      "createdAt": "2025-12-28T17:02:22.296Z",
      "updatedAt": "2025-12-28T17:02:22.296Z",
      "stateName": "Bahia",
      "countryName": "Brazil"
    },
    {
      "id": 3822,
      "stateId": 95,
      "name": "Ilicinea",
      "latitude": null,
      "longitude": null,
      "createdAt": "2025-12-28T18:15:19.170Z",
      "updatedAt": "2025-12-28T18:15:19.170Z",
      "stateName": "Minas Gerais",
      "countryName": "Brazil"
    },
    {
      "id": 18304,
      "stateId": 1452,
      "name": "Ilidža",
      "latitude": null,
      "longitude": null,
      "createdAt": "2026-05-11T15:21:27.753Z",
      "updatedAt": "2026-05-11T15:21:27.753Z",
      "stateName": "Sarajevo",
      "countryName": "Bosnia and Herzegovina"
    },
    {
      "id": 2281,
      "stateId": 580,
      "name": "Iligan City",
      "latitude": null,
      "longitude": null,
      "createdAt": "2025-12-28T18:11:32.091Z",
      "updatedAt": "2025-12-28T18:11:32.091Z",
      "stateName": "North Mindanao",
      "countryName": "Philippines"
    },
    {
      "id": 3769,
      "stateId": 2,
      "name": "Ilkeston",
      "latitude": "52.9705500",
      "longitude": "-1.3095100",
      "createdAt": "2025-12-28T18:15:12.727Z",
      "updatedAt": "2025-12-28T18:15:12.727Z",
      "stateName": "England",
      "countryName": "United Kingdom"
    },
    {
      "id": 11525,
      "stateId": 2,
      "name": "Ilkley",
      "latitude": "52.7709249",
      "longitude": "-1.7304307",
      "createdAt": "2025-12-28T19:06:34.893Z",
      "updatedAt": "2025-12-28T19:06:34.893Z",
      "stateName": "England",
      "countryName": "United Kingdom"
    },
    {
      "id": 1724,
      "stateId": 19,
      "name": "Illawarra",
      "latitude": "-33.9811915",
      "longitude": "144.8351072",
      "createdAt": "2025-12-28T18:10:06.136Z",
      "updatedAt": "2025-12-28T18:10:06.136Z",
      "stateName": "New South Wales",
      "countryName": "Australia"
    },
    {
      "id": 11519,
      "stateId": 927,
      "name": "Illescas",
      "latitude": null,
      "longitude": null,
      "createdAt": "2025-12-28T19:06:33.829Z",
      "updatedAt": "2025-12-28T19:06:33.829Z",
      "stateName": "Toledo",
      "countryName": "Spain"
    },
    {
      "id": 1670,
      "stateId": 511,
      "name": "Illingen",
      "latitude": "49.3736200",
      "longitude": "7.0475800",
      "createdAt": "2025-12-28T18:01:52.455Z",
      "updatedAt": "2025-12-28T18:01:52.455Z",
      "stateName": "Saarland",
      "countryName": "Germany"
    },
    {
      "id": 18456,
      "stateId": 578,
      "name": "Ilmenau",
      "latitude": "50.6832200",
      "longitude": "10.9185800",
      "createdAt": "2026-06-01T10:51:14.709Z",
      "updatedAt": "2026-06-01T10:51:14.709Z",
      "stateName": "Thuringia",
      "countryName": "Germany"
    },
    {
      "id": 3003,
      "stateId": 303,
      "name": "Ilo",
      "latitude": "-17.6394400",
      "longitude": "-71.3375000",
      "createdAt": "2025-12-28T18:13:29.569Z",
      "updatedAt": "2025-12-28T18:13:29.569Z",
      "stateName": "Moquegua",
      "countryName": "Peru"
    },
    {
      "id": 9004,
      "stateId": 1076,
      "name": "Ilobasco",
      "latitude": null,
      "longitude": null,
      "createdAt": "2025-12-28T18:41:21.229Z",
      "updatedAt": "2025-12-28T18:41:21.229Z",
      "stateName": "Cabañas",
      "countryName": "El Salvador"
    },
    {
      "id": 1402,
      "stateId": 459,
      "name": "Iloilo City",
      "latitude": "12.5023632",
      "longitude": "122.3310559",
      "createdAt": "2025-12-28T17:04:26.580Z",
      "updatedAt": "2025-12-28T17:04:26.580Z",
      "stateName": "Iloilo",
      "countryName": "Philippines"
    },
    {
      "id": 2935,
      "stateId": 637,
      "name": "Iloilo City",
      "latitude": "10.6969400",
      "longitude": "122.5644400",
      "createdAt": "2025-12-28T18:13:06.411Z",
      "updatedAt": "2025-12-28T18:13:06.411Z",
      "stateName": "Western Visayas Region",
      "countryName": "Philippines"
    },
    {
      "id": 10432,
      "stateId": 205,
      "name": " Ilópolis",
      "latitude": null,
      "longitude": null,
      "createdAt": "2025-12-28T18:53:16.708Z",
      "updatedAt": "2025-12-28T18:53:16.708Z",
      "stateName": "Rio Grande do Sul",
      "countryName": "Brazil"
    },
    {
      "id": 3158,
      "stateId": 77,
      "name": "Ilorin",
      "latitude": "8.4966400",
      "longitude": "4.5421400",
      "createdAt": "2025-12-28T18:13:47.173Z",
      "updatedAt": "2025-12-28T18:13:47.173Z",
      "stateName": "Katsina State",
      "countryName": "Nigeria"
    },
    {
      "id": 8571,
      "stateId": 42,
      "name": "Ilwaco",
      "latitude": "37.8034989",
      "longitude": "-92.5169818",
      "createdAt": "2025-12-28T18:39:16.663Z",
      "updatedAt": "2025-12-28T18:39:16.663Z",
      "stateName": "Washington",
      "countryName": "United States"
    },
    {
      "id": 17837,
      "stateId": 287,
      "name": "Imaculada",
      "latitude": null,
      "longitude": null,
      "createdAt": "2026-03-05T06:20:57.782Z",
      "updatedAt": "2026-03-05T06:20:57.782Z",
      "stateName": "Paraíba",
      "countryName": "Brazil"
    },
    {
      "id": 8808,
      "stateId": 137,
      "name": "Imbaú",
      "latitude": null,
      "longitude": null,
      "createdAt": "2025-12-28T18:40:26.983Z",
      "updatedAt": "2025-12-28T18:40:26.983Z",
      "stateName": "Paraná",
      "countryName": "Brazil"
    },
    {
      "id": 10400,
      "stateId": 205,
      "name": "Imbé",
      "latitude": null,
      "longitude": null,
      "createdAt": "2025-12-28T18:53:03.887Z",
      "updatedAt": "2025-12-28T18:53:03.887Z",
      "stateName": "Rio Grande do Sul",
      "countryName": "Brazil"
    },
    {
      "id": 11593,
      "stateId": 1185,
      "name": "Imbert",
      "latitude": "18.9089743",
      "longitude": "-70.2736287",
      "createdAt": "2025-12-28T19:07:43.145Z",
      "updatedAt": "2025-12-28T19:07:43.145Z",
      "stateName": "Puerto Plata",
      "countryName": "Dominican Republic"
    },
    {
      "id": 1276,
      "stateId": 293,
      "name": "Imbituba",
      "latitude": "-28.2400000",
      "longitude": "-48.6702800",
      "createdAt": "2025-12-28T17:03:22.426Z",
      "updatedAt": "2025-12-28T17:03:22.426Z",
      "stateName": "Santa Catarina",
      "countryName": "Brazil"
    },
    {
      "id": 3271,
      "stateId": 137,
      "name": "Imbituva",
      "latitude": "-25.2300000",
      "longitude": "-50.6044400",
      "createdAt": "2025-12-28T18:14:08.366Z",
      "updatedAt": "2025-12-28T18:14:08.366Z",
      "stateName": "Paraná",
      "countryName": "Brazil"
    },
    {
      "id": 7777,
      "stateId": 585,
      "name": "Imías",
      "latitude": null,
      "longitude": null,
      "createdAt": "2025-12-28T18:31:41.069Z",
      "updatedAt": "2025-12-28T18:31:41.069Z",
      "stateName": "Guantanamo",
      "countryName": "Cuba"
    },
    {
      "id": 11594,
      "stateId": 92,
      "name": "Imlay City",
      "latitude": "37.8034989",
      "longitude": "-92.5169818",
      "createdAt": "2025-12-28T19:07:43.593Z",
      "updatedAt": "2025-12-28T19:07:43.593Z",
      "stateName": "Michigan",
      "countryName": "United States"
    },
    {
      "id": 11595,
      "stateId": 33,
      "name": "Immokalee",
      "latitude": "26.4186900",
      "longitude": "-81.4173000",
      "createdAt": "2025-12-28T19:07:43.761Z",
      "updatedAt": "2025-12-28T19:07:43.761Z",
      "stateName": "Florida",
      "countryName": "United States"
    },
    {
      "id": 1947,
      "stateId": 335,
      "name": "Imperatriz",
      "latitude": "-5.5263900",
      "longitude": "-47.4916700",
      "createdAt": "2025-12-28T18:10:32.508Z",
      "updatedAt": "2025-12-28T18:10:32.508Z",
      "stateName": "Maranhão",
      "countryName": "Brazil"
    },
    {
      "id": 6984,
      "stateId": 222,
      "name": "Imperia",
      "latitude": "43.8875000",
      "longitude": "8.0308300",
      "createdAt": "2025-12-28T18:27:40.206Z",
      "updatedAt": "2025-12-28T18:27:40.206Z",
      "stateName": "Liguria",
      "countryName": "Italy"
    },
    {
      "id": 11592,
      "stateId": 24,
      "name": "Imperial",
      "latitude": "32.5839400",
      "longitude": "-117.1130800",
      "createdAt": "2025-12-28T19:07:41.985Z",
      "updatedAt": "2025-12-28T19:07:41.985Z",
      "stateName": "California",
      "countryName": "United States"
    },
    {
      "id": 11248,
      "stateId": 24,
      "name": "Imperial Beach",
      "latitude": null,
      "longitude": null,
      "createdAt": "2025-12-28T19:03:29.141Z",
      "updatedAt": "2025-12-28T19:03:29.141Z",
      "stateName": "California",
      "countryName": "United States"
    },
    {
      "id": 910,
      "stateId": 370,
      "name": "Imphal",
      "latitude": "24.8080500",
      "longitude": "93.9442000",
      "createdAt": "2025-12-28T17:02:27.463Z",
      "updatedAt": "2025-12-28T17:02:27.463Z",
      "stateName": "Manipur",
      "countryName": "India"
    },
    {
      "id": 8468,
      "stateId": 953,
      "name": "Imus",
      "latitude": null,
      "longitude": null,
      "createdAt": "2025-12-28T18:38:44.342Z",
      "updatedAt": "2025-12-28T18:38:44.342Z",
      "stateName": "Cavite",
      "countryName": "Philippines"
    },
    {
      "id": 13743,
      "stateId": 137,
      "name": "Inácio Martins",
      "latitude": null,
      "longitude": null,
      "createdAt": "2025-12-28T19:30:58.478Z",
      "updatedAt": "2025-12-28T19:30:58.478Z",
      "stateName": "Paraná",
      "countryName": "Brazil"
    },
    {
      "id": 17417,
      "stateId": 7,
      "name": "Inajá",
      "latitude": null,
      "longitude": null,
      "createdAt": "2026-01-05T20:35:37.419Z",
      "updatedAt": "2026-01-05T20:35:37.419Z",
      "stateName": "Pernambuco",
      "countryName": "Brazil"
    },
    {
      "id": 18396,
      "stateId": 1477,
      "name": "Inari",
      "latitude": "61.7337735",
      "longitude": "24.9780162",
      "createdAt": "2026-05-24T06:02:37.811Z",
      "updatedAt": "2026-05-24T06:02:37.811Z",
      "stateName": "Lapland",
      "countryName": "Finland"
    },
    {
      "id": 11820,
      "stateId": 131,
      "name": "Inca",
      "latitude": "39.7211000",
      "longitude": "2.9109300",
      "createdAt": "2025-12-28T19:09:56.599Z",
      "updatedAt": "2025-12-28T19:09:56.599Z",
      "stateName": "Balearic Islands",
      "countryName": "Spain"
    },
    {
      "id": 17791,
      "stateId": 95,
      "name": "Inconfidentes",
      "latitude": null,
      "longitude": null,
      "createdAt": "2026-02-25T05:01:09.362Z",
      "updatedAt": "2026-02-25T05:01:09.362Z",
      "stateName": "Minas Gerais",
      "countryName": "Brazil"
    },
    {
      "id": 4747,
      "stateId": 293,
      "name": "Indaial",
      "latitude": "-26.8977800",
      "longitude": "-49.2316700",
      "createdAt": "2025-12-28T18:18:36.162Z",
      "updatedAt": "2025-12-28T18:18:36.162Z",
      "stateName": "Santa Catarina",
      "countryName": "Brazil"
    },
    {
      "id": 3067,
      "stateId": 4,
      "name": "Indaiatuba",
      "latitude": "-23.0884200",
      "longitude": "-47.2119000",
      "createdAt": "2025-12-28T18:13:37.768Z",
      "updatedAt": "2025-12-28T18:13:37.768Z",
      "stateName": "São Paulo",
      "countryName": "Brazil"
    },
    {
      "id": 3530,
      "stateId": 112,
      "name": "Independence",
      "latitude": "39.0911200",
      "longitude": "-94.4155100",
      "createdAt": "2025-12-28T18:14:45.829Z",
      "updatedAt": "2025-12-28T18:14:45.829Z",
      "stateName": "Missouri",
      "countryName": "United States"
    },
    {
      "id": 3238,
      "stateId": 31,
      "name": "Independence",
      "latitude": "38.9431200",
      "longitude": "-84.5441100",
      "createdAt": "2025-12-28T18:14:04.496Z",
      "updatedAt": "2025-12-28T18:14:04.496Z",
      "stateName": "Kansas",
      "countryName": "United States"
    },
    {
      "id": 4075,
      "stateId": 24,
      "name": "Independence",
      "latitude": "39.0911200",
      "longitude": "-94.4155100",
      "createdAt": "2025-12-28T18:16:08.951Z",
      "updatedAt": "2025-12-28T18:16:08.951Z",
      "stateName": "California",
      "countryName": "United States"
    }
  ],
  "meta": {
    "page": 73,
    "limit": 100,
    "total": 18002,
    "totalPages": 181
  }
}
