{
  "source": "50k-radio-stations",
  "provider": "rapidapi",
  "syncedAt": "2026-06-03T13:04:05.816Z",
  "endpoint": "/cities",
  "page": 8,
  "limit": 250,
  "data": [
    {
      "id": 6297,
      "stateId": 163,
      "name": "Arahal",
      "latitude": null,
      "longitude": null,
      "createdAt": "2025-12-28T18:24:36.286Z",
      "updatedAt": "2025-12-28T18:24:36.286Z",
      "stateName": "Seville Province",
      "countryName": "Spain"
    },
    {
      "id": 8763,
      "stateId": 1056,
      "name": "Arajuno",
      "latitude": null,
      "longitude": null,
      "createdAt": "2025-12-28T18:40:09.678Z",
      "updatedAt": "2025-12-28T18:40:09.678Z",
      "stateName": "Pastaza Province",
      "countryName": "Ecuador"
    },
    {
      "id": 3944,
      "stateId": 205,
      "name": "Arambaré",
      "latitude": null,
      "longitude": null,
      "createdAt": "2025-12-28T18:15:42.457Z",
      "updatedAt": "2025-12-28T18:15:42.457Z",
      "stateName": "Rio Grande do Sul",
      "countryName": "Brazil"
    },
    {
      "id": 16993,
      "stateId": 335,
      "name": "Arame",
      "latitude": null,
      "longitude": null,
      "createdAt": "2025-12-28T21:02:43.011Z",
      "updatedAt": "2025-12-28T21:02:43.011Z",
      "stateName": "Maranhão",
      "countryName": "Brazil"
    },
    {
      "id": 1147,
      "stateId": 357,
      "name": "Aranda de Duero",
      "latitude": "41.6704100",
      "longitude": "-3.6892000",
      "createdAt": "2025-12-28T17:03:13.615Z",
      "updatedAt": "2025-12-28T17:03:13.615Z",
      "stateName": "Burgos",
      "countryName": "Spain"
    },
    {
      "id": 3893,
      "stateId": 99,
      "name": "Arandas",
      "latitude": "20.7051900",
      "longitude": "-102.3463500",
      "createdAt": "2025-12-28T18:15:34.989Z",
      "updatedAt": "2025-12-28T18:15:34.989Z",
      "stateName": "Jalisco",
      "countryName": "Mexico"
    },
    {
      "id": 3946,
      "stateId": 209,
      "name": "Aranguren",
      "latitude": null,
      "longitude": null,
      "createdAt": "2025-12-28T18:15:42.581Z",
      "updatedAt": "2025-12-28T18:15:42.581Z",
      "stateName": "Entre Rios",
      "countryName": "Argentina"
    },
    {
      "id": 3920,
      "stateId": 378,
      "name": "Arani",
      "latitude": null,
      "longitude": null,
      "createdAt": "2025-12-28T18:15:37.905Z",
      "updatedAt": "2025-12-28T18:15:37.905Z",
      "stateName": "Tamil Nadu",
      "countryName": "India"
    },
    {
      "id": 18126,
      "stateId": 475,
      "name": "Aranjuez",
      "latitude": null,
      "longitude": null,
      "createdAt": "2026-03-31T06:44:50.596Z",
      "updatedAt": "2026-03-31T06:44:50.596Z",
      "stateName": "Community of Madrid",
      "countryName": "Spain"
    },
    {
      "id": 644,
      "stateId": 274,
      "name": "Arapiraca",
      "latitude": "-9.7525000",
      "longitude": "-36.6611100",
      "createdAt": "2025-12-28T17:01:16.664Z",
      "updatedAt": "2025-12-28T17:01:16.664Z",
      "stateName": "Alagoas",
      "countryName": "Brazil"
    },
    {
      "id": 15954,
      "stateId": 595,
      "name": "Arapoema",
      "latitude": null,
      "longitude": null,
      "createdAt": "2025-12-28T20:24:22.654Z",
      "updatedAt": "2025-12-28T20:24:22.654Z",
      "stateName": "Tocantins",
      "countryName": "Brazil"
    },
    {
      "id": 13991,
      "stateId": 95,
      "name": "Araponga",
      "latitude": null,
      "longitude": null,
      "createdAt": "2025-12-28T19:36:37.305Z",
      "updatedAt": "2025-12-28T19:36:37.305Z",
      "stateName": "Minas Gerais",
      "countryName": "Brazil"
    },
    {
      "id": 988,
      "stateId": 137,
      "name": "Arapongas",
      "latitude": "-23.4194400",
      "longitude": "-51.4244400",
      "createdAt": "2025-12-28T17:02:32.322Z",
      "updatedAt": "2025-12-28T17:02:32.322Z",
      "stateName": "Paraná",
      "countryName": "Brazil"
    },
    {
      "id": 3135,
      "stateId": 95,
      "name": "Araporã",
      "latitude": null,
      "longitude": null,
      "createdAt": "2025-12-28T18:13:45.392Z",
      "updatedAt": "2025-12-28T18:13:45.392Z",
      "stateName": "Minas Gerais",
      "countryName": "Brazil"
    },
    {
      "id": 3901,
      "stateId": 137,
      "name": "Arapoti",
      "latitude": null,
      "longitude": null,
      "createdAt": "2025-12-28T18:15:35.711Z",
      "updatedAt": "2025-12-28T18:15:35.711Z",
      "stateName": "Paraná",
      "countryName": "Brazil"
    },
    {
      "id": 3902,
      "stateId": 85,
      "name": "Araputanga",
      "latitude": "-17.4339069",
      "longitude": "-45.8426650",
      "createdAt": "2025-12-28T18:15:35.821Z",
      "updatedAt": "2025-12-28T18:15:35.821Z",
      "stateName": "Mato Grosso",
      "countryName": "Brazil"
    },
    {
      "id": 965,
      "stateId": 293,
      "name": "Ararangua",
      "latitude": "-17.4339069",
      "longitude": "-45.8426650",
      "createdAt": "2025-12-28T17:02:30.830Z",
      "updatedAt": "2025-12-28T17:02:30.830Z",
      "stateName": "Santa Catarina",
      "countryName": "Brazil"
    },
    {
      "id": 1872,
      "stateId": 4,
      "name": "Araraquara",
      "latitude": "-21.7944400",
      "longitude": "-48.1755600",
      "createdAt": "2025-12-28T18:10:25.868Z",
      "updatedAt": "2025-12-28T18:10:25.868Z",
      "stateName": "São Paulo",
      "countryName": "Brazil"
    },
    {
      "id": 683,
      "stateId": 4,
      "name": "Araras",
      "latitude": "-22.3569400",
      "longitude": "-47.3841700",
      "createdAt": "2025-12-28T17:01:19.978Z",
      "updatedAt": "2025-12-28T17:01:19.978Z",
      "stateName": "São Paulo",
      "countryName": "Brazil"
    },
    {
      "id": 4000,
      "stateId": 335,
      "name": "Arari",
      "latitude": null,
      "longitude": null,
      "createdAt": "2025-12-28T18:15:50.321Z",
      "updatedAt": "2025-12-28T18:15:50.321Z",
      "stateName": "Maranhão",
      "countryName": "Brazil"
    },
    {
      "id": 3896,
      "stateId": 231,
      "name": "Araripe",
      "latitude": "-17.4339069",
      "longitude": "-45.8426650",
      "createdAt": "2025-12-28T18:15:35.356Z",
      "updatedAt": "2025-12-28T18:15:35.356Z",
      "stateName": "Ceará",
      "countryName": "Brazil"
    },
    {
      "id": 769,
      "stateId": 7,
      "name": "Araripina",
      "latitude": "-7.5761100",
      "longitude": "-40.4983300",
      "createdAt": "2025-12-28T17:02:16.428Z",
      "updatedAt": "2025-12-28T17:02:16.428Z",
      "stateName": "Pernambuco",
      "countryName": "Brazil"
    },
    {
      "id": 4047,
      "stateId": 134,
      "name": "Araruama",
      "latitude": "-22.8727800",
      "longitude": "-42.3430600",
      "createdAt": "2025-12-28T18:16:05.183Z",
      "updatedAt": "2025-12-28T18:16:05.183Z",
      "stateName": "Rio de Janeiro",
      "countryName": "Brazil"
    },
    {
      "id": 1086,
      "stateId": 287,
      "name": "Araruna",
      "latitude": "-17.4339069",
      "longitude": "-45.8426650",
      "createdAt": "2025-12-28T17:02:38.430Z",
      "updatedAt": "2025-12-28T17:02:38.430Z",
      "stateName": "Paraíba",
      "countryName": "Brazil"
    },
    {
      "id": 14463,
      "stateId": 192,
      "name": "Arata",
      "latitude": "-32.1628172",
      "longitude": "-62.0921509",
      "createdAt": "2025-12-28T19:44:20.244Z",
      "updatedAt": "2025-12-28T19:44:20.244Z",
      "stateName": "La Pampa",
      "countryName": "Argentina"
    },
    {
      "id": 847,
      "stateId": 205,
      "name": "Aratiba",
      "latitude": null,
      "longitude": null,
      "createdAt": "2025-12-28T17:02:23.092Z",
      "updatedAt": "2025-12-28T17:02:23.092Z",
      "stateName": "Rio Grande do Sul",
      "countryName": "Brazil"
    },
    {
      "id": 2540,
      "stateId": 231,
      "name": "Aratuba",
      "latitude": null,
      "longitude": null,
      "createdAt": "2025-12-28T18:12:21.878Z",
      "updatedAt": "2025-12-28T18:12:21.878Z",
      "stateName": "Ceará",
      "countryName": "Brazil"
    },
    {
      "id": 12285,
      "stateId": 1211,
      "name": "Arau",
      "latitude": null,
      "longitude": null,
      "createdAt": "2025-12-28T19:15:07.119Z",
      "updatedAt": "2025-12-28T19:15:07.119Z",
      "stateName": "Perlis",
      "countryName": "Malaysia"
    },
    {
      "id": 863,
      "stateId": 137,
      "name": "Araucaria",
      "latitude": "-17.4339069",
      "longitude": "-45.8426650",
      "createdAt": "2025-12-28T17:02:24.355Z",
      "updatedAt": "2025-12-28T17:02:24.355Z",
      "stateName": "Paraná",
      "countryName": "Brazil"
    },
    {
      "id": 9923,
      "stateId": 445,
      "name": "Araure",
      "latitude": null,
      "longitude": null,
      "createdAt": "2025-12-28T18:48:48.221Z",
      "updatedAt": "2025-12-28T18:48:48.221Z",
      "stateName": "Portuguesa",
      "countryName": "Venezuela"
    },
    {
      "id": 3927,
      "stateId": 95,
      "name": "Araxa",
      "latitude": "-17.4339069",
      "longitude": "-45.8426650",
      "createdAt": "2025-12-28T18:15:39.606Z",
      "updatedAt": "2025-12-28T18:15:39.606Z",
      "stateName": "Minas Gerais",
      "countryName": "Brazil"
    },
    {
      "id": 14705,
      "stateId": 902,
      "name": "Arayat",
      "latitude": null,
      "longitude": null,
      "createdAt": "2025-12-28T19:47:32.225Z",
      "updatedAt": "2025-12-28T19:47:32.225Z",
      "stateName": "Pampanga",
      "countryName": "Philippines"
    },
    {
      "id": 18363,
      "stateId": 29,
      "name": "Arbelaez",
      "latitude": null,
      "longitude": null,
      "createdAt": "2026-05-18T15:48:44.992Z",
      "updatedAt": "2026-05-18T15:48:44.992Z",
      "stateName": "Cundinamarca",
      "countryName": "Colombia"
    },
    {
      "id": 15764,
      "stateId": 328,
      "name": "Arcabuco",
      "latitude": null,
      "longitude": null,
      "createdAt": "2025-12-28T20:18:39.557Z",
      "updatedAt": "2025-12-28T20:18:39.557Z",
      "stateName": "Boyacá",
      "countryName": "Colombia"
    },
    {
      "id": 3840,
      "stateId": 481,
      "name": "Arcachon",
      "latitude": "47.3768156",
      "longitude": "2.7742767",
      "createdAt": "2025-12-28T18:15:23.107Z",
      "updatedAt": "2025-12-28T18:15:23.107Z",
      "stateName": "Nouvelle-Aquitaine",
      "countryName": "France"
    },
    {
      "id": 17752,
      "stateId": 208,
      "name": "Arcachon Bay",
      "latitude": null,
      "longitude": null,
      "createdAt": "2026-02-17T02:34:42.666Z",
      "updatedAt": "2026-02-17T02:34:42.666Z",
      "stateName": "Aquitaine",
      "countryName": "France"
    },
    {
      "id": 16013,
      "stateId": 265,
      "name": "Arcade",
      "latitude": null,
      "longitude": null,
      "createdAt": "2025-12-28T20:26:01.242Z",
      "updatedAt": "2025-12-28T20:26:01.242Z",
      "stateName": "Veneto",
      "countryName": "Italy"
    },
    {
      "id": 9801,
      "stateId": 6,
      "name": "Arcade",
      "latitude": "38.6025000",
      "longitude": "-121.3785400",
      "createdAt": "2025-12-28T18:47:18.332Z",
      "updatedAt": "2025-12-28T18:47:18.332Z",
      "stateName": "New York",
      "countryName": "United States"
    },
    {
      "id": 16662,
      "stateId": 22,
      "name": "Arcade",
      "latitude": "38.6025000",
      "longitude": "-121.3785400",
      "createdAt": "2025-12-28T20:49:02.732Z",
      "updatedAt": "2025-12-28T20:49:02.732Z",
      "stateName": "Georgia",
      "countryName": "United States"
    },
    {
      "id": 7246,
      "stateId": 33,
      "name": "Arcadia",
      "latitude": "34.1397300",
      "longitude": "-118.0353400",
      "createdAt": "2025-12-28T18:28:58.274Z",
      "updatedAt": "2025-12-28T18:28:58.274Z",
      "stateName": "Florida",
      "countryName": "United States"
    },
    {
      "id": 12717,
      "stateId": 16,
      "name": "Arcadia",
      "latitude": "34.1397300",
      "longitude": "-118.0353400",
      "createdAt": "2025-12-28T19:17:44.555Z",
      "updatedAt": "2025-12-28T19:17:44.555Z",
      "stateName": "Louisiana",
      "countryName": "United States"
    },
    {
      "id": 13224,
      "stateId": 112,
      "name": "Arcadia",
      "latitude": "34.1397300",
      "longitude": "-118.0353400",
      "createdAt": "2025-12-28T19:21:39.095Z",
      "updatedAt": "2025-12-28T19:21:39.095Z",
      "stateName": "Missouri",
      "countryName": "United States"
    },
    {
      "id": 13160,
      "stateId": 24,
      "name": "Arcadia",
      "latitude": "34.1397300",
      "longitude": "-118.0353400",
      "createdAt": "2025-12-28T19:21:08.320Z",
      "updatedAt": "2025-12-28T19:21:08.320Z",
      "stateName": "California",
      "countryName": "United States"
    },
    {
      "id": 11670,
      "stateId": 51,
      "name": "Arcadia",
      "latitude": null,
      "longitude": null,
      "createdAt": "2025-12-28T19:08:30.178Z",
      "updatedAt": "2025-12-28T19:08:30.178Z",
      "stateName": "Indiana",
      "countryName": "United States"
    },
    {
      "id": 2810,
      "stateId": 24,
      "name": "Arcata",
      "latitude": "40.8665200",
      "longitude": "-124.0828400",
      "createdAt": "2025-12-28T18:12:46.891Z",
      "updatedAt": "2025-12-28T18:12:46.891Z",
      "stateName": "California",
      "countryName": "United States"
    },
    {
      "id": 16055,
      "stateId": 95,
      "name": "Arceburgo",
      "latitude": "-17.4339069",
      "longitude": "-45.8426650",
      "createdAt": "2025-12-28T20:30:16.891Z",
      "updatedAt": "2025-12-28T20:30:16.891Z",
      "stateName": "Minas Gerais",
      "countryName": "Brazil"
    },
    {
      "id": 6197,
      "stateId": 14,
      "name": "Archbold",
      "latitude": "37.8034989",
      "longitude": "-92.5169818",
      "createdAt": "2025-12-28T18:23:27.154Z",
      "updatedAt": "2025-12-28T18:23:27.154Z",
      "stateName": "Ohio",
      "countryName": "United States"
    },
    {
      "id": 2209,
      "stateId": 180,
      "name": "Arco",
      "latitude": "42.4957616",
      "longitude": "12.4479260",
      "createdAt": "2025-12-28T18:11:06.644Z",
      "updatedAt": "2025-12-28T18:11:06.644Z",
      "stateName": "Trentino-Alto Adige",
      "countryName": "Italy"
    },
    {
      "id": 11566,
      "stateId": 46,
      "name": "Arcola",
      "latitude": "37.8034989",
      "longitude": "-92.5169818",
      "createdAt": "2025-12-28T19:07:21.355Z",
      "updatedAt": "2025-12-28T19:07:21.355Z",
      "stateName": "Illinois",
      "countryName": "United States"
    },
    {
      "id": 3120,
      "stateId": 95,
      "name": "Arcos",
      "latitude": null,
      "longitude": null,
      "createdAt": "2025-12-28T18:13:44.472Z",
      "updatedAt": "2025-12-28T18:13:44.472Z",
      "stateName": "Minas Gerais",
      "countryName": "Brazil"
    },
    {
      "id": 3952,
      "stateId": 172,
      "name": "Arcos de la Frontera",
      "latitude": null,
      "longitude": null,
      "createdAt": "2025-12-28T18:15:43.096Z",
      "updatedAt": "2025-12-28T18:15:43.096Z",
      "stateName": "Cádiz",
      "countryName": "Spain"
    },
    {
      "id": 8444,
      "stateId": 378,
      "name": "Arcot",
      "latitude": null,
      "longitude": null,
      "createdAt": "2025-12-28T18:38:39.889Z",
      "updatedAt": "2025-12-28T18:38:39.889Z",
      "stateName": "Tamil Nadu",
      "countryName": "India"
    },
    {
      "id": 2273,
      "stateId": 7,
      "name": "Arcoverde",
      "latitude": "-8.4188900",
      "longitude": "-37.0538900",
      "createdAt": "2025-12-28T18:11:30.078Z",
      "updatedAt": "2025-12-28T18:11:30.078Z",
      "stateName": "Pernambuco",
      "countryName": "Brazil"
    },
    {
      "id": 14864,
      "stateId": 10,
      "name": "Arcueil",
      "latitude": "48.7999300",
      "longitude": "2.3325600",
      "createdAt": "2025-12-28T19:49:58.754Z",
      "updatedAt": "2025-12-28T19:49:58.754Z",
      "stateName": "Île-de-France",
      "countryName": "France"
    },
    {
      "id": 13708,
      "stateId": 827,
      "name": "Ardennes",
      "latitude": "50.9010009",
      "longitude": "4.3862404",
      "createdAt": "2025-12-28T19:30:04.850Z",
      "updatedAt": "2025-12-28T19:30:04.850Z",
      "stateName": "Luxemburg",
      "countryName": "Belgium"
    },
    {
      "id": 17691,
      "stateId": 1366,
      "name": "Ardesen",
      "latitude": "39.2026972",
      "longitude": "33.8771519",
      "createdAt": "2026-02-07T23:30:38.491Z",
      "updatedAt": "2026-02-07T23:30:38.491Z",
      "stateName": "Rize",
      "countryName": "Turkey"
    },
    {
      "id": 12443,
      "stateId": 151,
      "name": "Ardmore",
      "latitude": "34.1742600",
      "longitude": "-97.1436300",
      "createdAt": "2025-12-28T19:15:56.722Z",
      "updatedAt": "2025-12-28T19:15:56.722Z",
      "stateName": "Oklahoma",
      "countryName": "United States"
    },
    {
      "id": 15531,
      "stateId": 444,
      "name": "Ardrossan",
      "latitude": null,
      "longitude": null,
      "createdAt": "2025-12-28T20:10:06.507Z",
      "updatedAt": "2025-12-28T20:10:06.507Z",
      "stateName": "Scotland",
      "countryName": "United Kingdom"
    },
    {
      "id": 16960,
      "stateId": 95,
      "name": "Areado",
      "latitude": null,
      "longitude": null,
      "createdAt": "2025-12-28T21:00:48.810Z",
      "updatedAt": "2025-12-28T21:00:48.810Z",
      "stateName": "Minas Gerais",
      "countryName": "Brazil"
    },
    {
      "id": 3898,
      "stateId": 287,
      "name": "Areia",
      "latitude": null,
      "longitude": null,
      "createdAt": "2025-12-28T18:15:35.504Z",
      "updatedAt": "2025-12-28T18:15:35.504Z",
      "stateName": "Paraíba",
      "countryName": "Brazil"
    },
    {
      "id": 3984,
      "stateId": 271,
      "name": "Areia Branca",
      "latitude": null,
      "longitude": null,
      "createdAt": "2025-12-28T18:15:46.625Z",
      "updatedAt": "2025-12-28T18:15:46.625Z",
      "stateName": "Sergipe",
      "countryName": "Brazil"
    },
    {
      "id": 5821,
      "stateId": 186,
      "name": "Areia Branca",
      "latitude": "-4.9561100",
      "longitude": "-37.1369400",
      "createdAt": "2025-12-28T18:22:24.958Z",
      "updatedAt": "2025-12-28T18:22:24.958Z",
      "stateName": "Rio Grande do Norte",
      "countryName": "Brazil"
    },
    {
      "id": 15302,
      "stateId": 287,
      "name": "Areial",
      "latitude": null,
      "longitude": null,
      "createdAt": "2025-12-28T20:01:18.183Z",
      "updatedAt": "2025-12-28T20:01:18.183Z",
      "stateName": "Paraíba",
      "countryName": "Brazil"
    },
    {
      "id": 7258,
      "stateId": 85,
      "name": "Arenápolis",
      "latitude": null,
      "longitude": null,
      "createdAt": "2025-12-28T18:29:00.027Z",
      "updatedAt": "2025-12-28T18:29:00.027Z",
      "stateName": "Mato Grosso",
      "countryName": "Brazil"
    },
    {
      "id": 4022,
      "stateId": 115,
      "name": "Arenys de Mar",
      "latitude": "39.2717249",
      "longitude": "-3.2471696",
      "createdAt": "2025-12-28T18:15:52.285Z",
      "updatedAt": "2025-12-28T18:15:52.285Z",
      "stateName": "Barcelona",
      "countryName": "Spain"
    },
    {
      "id": 421,
      "stateId": 204,
      "name": "Arequipa",
      "latitude": "-16.3988900",
      "longitude": "-71.5350000",
      "createdAt": "2025-12-28T17:00:49.451Z",
      "updatedAt": "2025-12-28T17:00:49.451Z",
      "stateName": "Arequipa",
      "countryName": "Peru"
    },
    {
      "id": 3924,
      "stateId": 86,
      "name": "Arequito",
      "latitude": "-32.1628172",
      "longitude": "-62.0921509",
      "createdAt": "2025-12-28T18:15:38.659Z",
      "updatedAt": "2025-12-28T18:15:38.659Z",
      "stateName": "Santa Fe",
      "countryName": "Argentina"
    },
    {
      "id": 7413,
      "stateId": 321,
      "name": "Arezzo",
      "latitude": "43.4470800",
      "longitude": "11.8686700",
      "createdAt": "2025-12-28T18:29:58.699Z",
      "updatedAt": "2025-12-28T18:29:58.699Z",
      "stateName": "Tuscany",
      "countryName": "Italy"
    },
    {
      "id": 3958,
      "stateId": 475,
      "name": "Arganda",
      "latitude": "40.3007600",
      "longitude": "-3.4372200",
      "createdAt": "2025-12-28T18:15:44.048Z",
      "updatedAt": "2025-12-28T18:15:44.048Z",
      "stateName": "Community of Madrid",
      "countryName": "Spain"
    },
    {
      "id": 3891,
      "stateId": 374,
      "name": "Arganil",
      "latitude": "39.5232529",
      "longitude": "-8.9987995",
      "createdAt": "2025-12-28T18:15:34.732Z",
      "updatedAt": "2025-12-28T18:15:34.732Z",
      "stateName": "Centro",
      "countryName": "Portugal"
    },
    {
      "id": 6509,
      "stateId": 364,
      "name": "Argelia",
      "latitude": "6.4444434",
      "longitude": "-74.9549521",
      "createdAt": "2025-12-28T18:25:36.262Z",
      "updatedAt": "2025-12-28T18:25:36.262Z",
      "stateName": "Cauca",
      "countryName": "Colombia"
    },
    {
      "id": 15695,
      "stateId": 184,
      "name": "Argenta",
      "latitude": null,
      "longitude": null,
      "createdAt": "2025-12-28T20:15:23.676Z",
      "updatedAt": "2025-12-28T20:15:23.676Z",
      "stateName": "Emilia-Romagna",
      "countryName": "Italy"
    },
    {
      "id": 1982,
      "stateId": 481,
      "name": "Argentat-sur-Dordogne",
      "latitude": null,
      "longitude": null,
      "createdAt": "2025-12-28T18:10:36.188Z",
      "updatedAt": "2025-12-28T18:10:36.188Z",
      "stateName": "Nouvelle-Aquitaine",
      "countryName": "France"
    },
    {
      "id": 16557,
      "stateId": 122,
      "name": "Argo",
      "latitude": null,
      "longitude": null,
      "createdAt": "2025-12-28T20:47:06.895Z",
      "updatedAt": "2025-12-28T20:47:06.895Z",
      "stateName": "Alabama",
      "countryName": "United States"
    },
    {
      "id": 3529,
      "stateId": 143,
      "name": "Argos",
      "latitude": null,
      "longitude": null,
      "createdAt": "2025-12-28T18:14:45.632Z",
      "updatedAt": "2025-12-28T18:14:45.632Z",
      "stateName": "Peloponnese",
      "countryName": "Greece"
    },
    {
      "id": 291,
      "stateId": 149,
      "name": "Argostoli",
      "latitude": "38.6555720",
      "longitude": "23.4057215",
      "createdAt": "2025-12-28T16:56:41.086Z",
      "updatedAt": "2025-12-28T16:56:41.086Z",
      "stateName": "Ionian Islands",
      "countryName": "Greece"
    },
    {
      "id": 12546,
      "stateId": 1215,
      "name": "Argostoli",
      "latitude": null,
      "longitude": null,
      "createdAt": "2025-12-28T19:16:35.747Z",
      "updatedAt": "2025-12-28T19:16:35.747Z",
      "stateName": "Cephalonia",
      "countryName": "Greece"
    },
    {
      "id": 15694,
      "stateId": 357,
      "name": "Argovejo",
      "latitude": "39.2717249",
      "longitude": "-3.2471696",
      "createdAt": "2025-12-28T20:15:23.283Z",
      "updatedAt": "2025-12-28T20:15:23.283Z",
      "stateName": "Burgos",
      "countryName": "Spain"
    },
    {
      "id": 12761,
      "stateId": 6,
      "name": "Argyle",
      "latitude": "37.8034989",
      "longitude": "-92.5169818",
      "createdAt": "2025-12-28T19:18:21.650Z",
      "updatedAt": "2025-12-28T19:18:21.650Z",
      "stateName": "New York",
      "countryName": "United States"
    },
    {
      "id": 3989,
      "stateId": 95,
      "name": "Aricanduva",
      "latitude": null,
      "longitude": null,
      "createdAt": "2025-12-28T18:15:47.088Z",
      "updatedAt": "2025-12-28T18:15:47.088Z",
      "stateName": "Minas Gerais",
      "countryName": "Brazil"
    },
    {
      "id": 13734,
      "stateId": 338,
      "name": "Ariguaní",
      "latitude": null,
      "longitude": null,
      "createdAt": "2025-12-28T19:30:29.606Z",
      "updatedAt": "2025-12-28T19:30:29.606Z",
      "stateName": "Magdalena",
      "countryName": "Colombia"
    },
    {
      "id": 3992,
      "stateId": 722,
      "name": "Arilje",
      "latitude": null,
      "longitude": null,
      "createdAt": "2025-12-28T18:15:47.353Z",
      "updatedAt": "2025-12-28T18:15:47.353Z",
      "stateName": "Zlatibor",
      "countryName": "Serbia"
    },
    {
      "id": 4014,
      "stateId": 95,
      "name": "Arinos",
      "latitude": null,
      "longitude": null,
      "createdAt": "2025-12-28T18:15:51.408Z",
      "updatedAt": "2025-12-28T18:15:51.408Z",
      "stateName": "Minas Gerais",
      "countryName": "Brazil"
    },
    {
      "id": 14014,
      "stateId": 85,
      "name": "Aripuana",
      "latitude": "-17.4339069",
      "longitude": "-45.8426650",
      "createdAt": "2025-12-28T19:37:23.905Z",
      "updatedAt": "2025-12-28T19:37:23.905Z",
      "stateName": "Mato Grosso",
      "countryName": "Brazil"
    },
    {
      "id": 3261,
      "stateId": 652,
      "name": "Ariquemes",
      "latitude": "-9.9133300",
      "longitude": "-63.0408300",
      "createdAt": "2025-12-28T18:14:07.150Z",
      "updatedAt": "2025-12-28T18:14:07.150Z",
      "stateName": "Rondônia",
      "countryName": "Brazil"
    },
    {
      "id": 7650,
      "stateId": 195,
      "name": "Aristóbulo del Valle",
      "latitude": null,
      "longitude": null,
      "createdAt": "2025-12-28T18:31:04.493Z",
      "updatedAt": "2025-12-28T18:31:04.493Z",
      "stateName": "Misiones",
      "countryName": "Argentina"
    },
    {
      "id": 4637,
      "stateId": 75,
      "name": "Arizona City",
      "latitude": "37.8034989",
      "longitude": "-92.5169818",
      "createdAt": "2025-12-28T18:18:11.539Z",
      "updatedAt": "2025-12-28T18:18:11.539Z",
      "stateName": "Arizona",
      "countryName": "United States"
    },
    {
      "id": 16925,
      "stateId": 345,
      "name": "Arizpe",
      "latitude": "25.5392800",
      "longitude": "-100.9474200",
      "createdAt": "2025-12-28T20:56:57.618Z",
      "updatedAt": "2025-12-28T20:56:57.618Z",
      "stateName": "Sonora",
      "countryName": "Mexico"
    },
    {
      "id": 18401,
      "stateId": 325,
      "name": "Arjona",
      "latitude": null,
      "longitude": null,
      "createdAt": "2026-05-24T18:42:50.526Z",
      "updatedAt": "2026-05-24T18:42:50.526Z",
      "stateName": "Bolivar",
      "countryName": "Colombia"
    },
    {
      "id": 12483,
      "stateId": 32,
      "name": "Arkadelphia",
      "latitude": "37.8034989",
      "longitude": "-92.5169818",
      "createdAt": "2025-12-28T19:16:07.480Z",
      "updatedAt": "2025-12-28T19:16:07.480Z",
      "stateName": "Arkansas",
      "countryName": "United States"
    },
    {
      "id": 7462,
      "stateId": 31,
      "name": "Arkansas",
      "latitude": "33.4417900",
      "longitude": "-94.0376900",
      "createdAt": "2025-12-28T18:30:18.509Z",
      "updatedAt": "2025-12-28T18:30:18.509Z",
      "stateName": "Kansas",
      "countryName": "United States"
    },
    {
      "id": 3410,
      "stateId": 31,
      "name": "Arkansas City",
      "latitude": "37.8034989",
      "longitude": "-92.5169818",
      "createdAt": "2025-12-28T18:14:21.889Z",
      "updatedAt": "2025-12-28T18:14:21.889Z",
      "stateName": "Kansas",
      "countryName": "United States"
    },
    {
      "id": 14030,
      "stateId": 1255,
      "name": "Arkhangel'sk",
      "latitude": null,
      "longitude": null,
      "createdAt": "2025-12-28T19:37:33.329Z",
      "updatedAt": "2025-12-28T19:37:33.329Z",
      "stateName": "Arkhangelsk",
      "countryName": "Russia"
    },
    {
      "id": 7589,
      "stateId": 153,
      "name": "Arlee",
      "latitude": "37.8034989",
      "longitude": "-92.5169818",
      "createdAt": "2025-12-28T18:30:48.715Z",
      "updatedAt": "2025-12-28T18:30:48.715Z",
      "stateName": "Montana",
      "countryName": "United States"
    },
    {
      "id": 1266,
      "stateId": 37,
      "name": "Arles",
      "latitude": "43.6768100",
      "longitude": "4.6303100",
      "createdAt": "2025-12-28T17:03:21.761Z",
      "updatedAt": "2025-12-28T17:03:21.761Z",
      "stateName": "Provence-Alpes-Côte d'Azur",
      "countryName": "France"
    },
    {
      "id": 17191,
      "stateId": 21,
      "name": "Arlington",
      "latitude": null,
      "longitude": null,
      "createdAt": "2025-12-29T15:51:41.933Z",
      "updatedAt": "2025-12-29T15:51:41.933Z",
      "stateName": "Tennessee",
      "countryName": "United States"
    },
    {
      "id": 12945,
      "stateId": 31,
      "name": "Arlington",
      "latitude": "32.7356900",
      "longitude": "-97.1080700",
      "createdAt": "2025-12-28T19:19:46.555Z",
      "updatedAt": "2025-12-28T19:19:46.555Z",
      "stateName": "Kansas",
      "countryName": "United States"
    },
    {
      "id": 3398,
      "stateId": 50,
      "name": "Arlington",
      "latitude": "38.8810100",
      "longitude": "-77.1042800",
      "createdAt": "2025-12-28T18:14:21.090Z",
      "updatedAt": "2025-12-28T18:14:21.090Z",
      "stateName": "Virginia",
      "countryName": "United States"
    },
    {
      "id": 1862,
      "stateId": 20,
      "name": "Arlington",
      "latitude": "32.7356900",
      "longitude": "-97.1080700",
      "createdAt": "2025-12-28T18:10:20.505Z",
      "updatedAt": "2025-12-28T18:10:20.505Z",
      "stateName": "Texas",
      "countryName": "United States"
    },
    {
      "id": 8987,
      "stateId": 6,
      "name": "Arlington",
      "latitude": "32.7356900",
      "longitude": "-97.1080700",
      "createdAt": "2025-12-28T18:41:15.566Z",
      "updatedAt": "2025-12-28T18:41:15.566Z",
      "stateName": "New York",
      "countryName": "United States"
    }
  ],
  "meta": {
    "page": 8,
    "limit": 100,
    "total": 18002,
    "totalPages": 181
  }
}
