{
  "source": "50k-radio-stations",
  "provider": "rapidapi",
  "syncedAt": "2026-06-03T13:05:06.694Z",
  "endpoint": "/cities",
  "page": 80,
  "limit": 250,
  "data": [
    {
      "id": 17924,
      "stateId": 274,
      "name": "Jundia",
      "latitude": "-23.1863900",
      "longitude": "-46.8841700",
      "createdAt": "2026-03-14T20:10:02.817Z",
      "updatedAt": "2026-03-14T20:10:02.817Z",
      "stateName": "Alagoas",
      "countryName": "Brazil"
    },
    {
      "id": 497,
      "stateId": 4,
      "name": "Jundiaí",
      "latitude": "-23.1863900",
      "longitude": "-46.8841700",
      "createdAt": "2025-12-28T17:00:55.398Z",
      "updatedAt": "2025-12-28T17:00:55.398Z",
      "stateName": "São Paulo",
      "countryName": "Brazil"
    },
    {
      "id": 9477,
      "stateId": 4,
      "name": "Jundiapeba",
      "latitude": null,
      "longitude": null,
      "createdAt": "2025-12-28T18:44:25.417Z",
      "updatedAt": "2025-12-28T18:44:25.417Z",
      "stateName": "São Paulo",
      "countryName": "Brazil"
    },
    {
      "id": 2943,
      "stateId": 45,
      "name": "Juneau",
      "latitude": "58.3019400",
      "longitude": "-134.4197200",
      "createdAt": "2025-12-28T18:13:07.639Z",
      "updatedAt": "2025-12-28T18:13:07.639Z",
      "stateName": "Alaska",
      "countryName": "United States"
    },
    {
      "id": 12247,
      "stateId": 45,
      "name": "Juneau City and Borough",
      "latitude": "37.8034989",
      "longitude": "-92.5169818",
      "createdAt": "2025-12-28T19:14:35.536Z",
      "updatedAt": "2025-12-28T19:14:35.536Z",
      "stateName": "Alaska",
      "countryName": "United States"
    },
    {
      "id": 293,
      "stateId": 58,
      "name": "Junin",
      "latitude": "-34.5838200",
      "longitude": "-60.9433200",
      "createdAt": "2025-12-28T16:56:41.297Z",
      "updatedAt": "2025-12-28T16:56:41.297Z",
      "stateName": "Buenos Aires",
      "countryName": "Argentina"
    },
    {
      "id": 7969,
      "stateId": 256,
      "name": "Junín",
      "latitude": null,
      "longitude": null,
      "createdAt": "2025-12-28T18:33:44.468Z",
      "updatedAt": "2025-12-28T18:33:44.468Z",
      "stateName": "Junín",
      "countryName": "Peru"
    },
    {
      "id": 7283,
      "stateId": 381,
      "name": "Junín de los Andes",
      "latitude": "-32.1628172",
      "longitude": "-62.0921509",
      "createdAt": "2025-12-28T18:29:20.240Z",
      "updatedAt": "2025-12-28T18:29:20.240Z",
      "stateName": "Neuquén",
      "countryName": "Argentina"
    },
    {
      "id": 12244,
      "stateId": 33,
      "name": "Juno Beach",
      "latitude": "37.8034989",
      "longitude": "-92.5169818",
      "createdAt": "2025-12-28T19:14:35.329Z",
      "updatedAt": "2025-12-28T19:14:35.329Z",
      "stateName": "Florida",
      "countryName": "United States"
    },
    {
      "id": 12206,
      "stateId": 4,
      "name": "Junqueirópolis",
      "latitude": null,
      "longitude": null,
      "createdAt": "2025-12-28T19:14:06.409Z",
      "updatedAt": "2025-12-28T19:14:06.409Z",
      "stateName": "São Paulo",
      "countryName": "Brazil"
    },
    {
      "id": 12198,
      "stateId": 7,
      "name": "Jupi",
      "latitude": null,
      "longitude": null,
      "createdAt": "2025-12-28T19:14:02.189Z",
      "updatedAt": "2025-12-28T19:14:02.189Z",
      "stateName": "Pernambuco",
      "countryName": "Brazil"
    },
    {
      "id": 9335,
      "stateId": 33,
      "name": "Jupiter",
      "latitude": "26.9342200",
      "longitude": "-80.0942100",
      "createdAt": "2025-12-28T18:43:49.546Z",
      "updatedAt": "2025-12-28T18:43:49.546Z",
      "stateName": "Florida",
      "countryName": "United States"
    },
    {
      "id": 12237,
      "stateId": 4,
      "name": "Juquitiba",
      "latitude": null,
      "longitude": null,
      "createdAt": "2025-12-28T19:14:32.867Z",
      "updatedAt": "2025-12-28T19:14:32.867Z",
      "stateName": "São Paulo",
      "countryName": "Brazil"
    },
    {
      "id": 12240,
      "stateId": 95,
      "name": "Juramento",
      "latitude": null,
      "longitude": null,
      "createdAt": "2025-12-28T19:14:33.172Z",
      "updatedAt": "2025-12-28T19:14:33.172Z",
      "stateName": "Minas Gerais",
      "countryName": "Brazil"
    },
    {
      "id": 12222,
      "stateId": 137,
      "name": "Juranda",
      "latitude": null,
      "longitude": null,
      "createdAt": "2025-12-28T19:14:22.727Z",
      "updatedAt": "2025-12-28T19:14:22.727Z",
      "stateName": "Paraná",
      "countryName": "Brazil"
    },
    {
      "id": 17445,
      "stateId": 7,
      "name": "Jurema",
      "latitude": "-17.4339069",
      "longitude": "-45.8426650",
      "createdAt": "2026-01-07T21:01:31.559Z",
      "updatedAt": "2026-01-07T21:01:31.559Z",
      "stateName": "Pernambuco",
      "countryName": "Brazil"
    },
    {
      "id": 12225,
      "stateId": 287,
      "name": "Juripiranga",
      "latitude": null,
      "longitude": null,
      "createdAt": "2025-12-28T19:14:25.397Z",
      "updatedAt": "2025-12-28T19:14:25.397Z",
      "stateName": "Paraíba",
      "countryName": "Brazil"
    },
    {
      "id": 7404,
      "stateId": 95,
      "name": "Juruaia",
      "latitude": null,
      "longitude": null,
      "createdAt": "2025-12-28T18:29:55.182Z",
      "updatedAt": "2025-12-28T18:29:55.182Z",
      "stateName": "Minas Gerais",
      "countryName": "Brazil"
    },
    {
      "id": 7814,
      "stateId": 262,
      "name": "Jussara",
      "latitude": null,
      "longitude": null,
      "createdAt": "2025-12-28T18:32:17.478Z",
      "updatedAt": "2025-12-28T18:32:17.478Z",
      "stateName": "Bahia",
      "countryName": "Brazil"
    },
    {
      "id": 1484,
      "stateId": 253,
      "name": "Jussara",
      "latitude": "-17.4339069",
      "longitude": "-45.8426650",
      "createdAt": "2025-12-28T17:04:34.594Z",
      "updatedAt": "2025-12-28T17:04:34.594Z",
      "stateName": "Goiás",
      "countryName": "Brazil"
    },
    {
      "id": 2475,
      "stateId": 262,
      "name": "Jussiape",
      "latitude": null,
      "longitude": null,
      "createdAt": "2025-12-28T18:12:16.181Z",
      "updatedAt": "2025-12-28T18:12:16.181Z",
      "stateName": "Bahia",
      "countryName": "Brazil"
    },
    {
      "id": 12219,
      "stateId": 147,
      "name": "Justiniano Posse",
      "latitude": null,
      "longitude": null,
      "createdAt": "2025-12-28T19:14:17.928Z",
      "updatedAt": "2025-12-28T19:14:17.928Z",
      "stateName": "Cordoba",
      "countryName": "Argentina"
    },
    {
      "id": 9557,
      "stateId": 514,
      "name": "Jüterbog",
      "latitude": null,
      "longitude": null,
      "createdAt": "2025-12-28T18:45:14.718Z",
      "updatedAt": "2025-12-28T18:45:14.718Z",
      "stateName": "Brandenburg",
      "countryName": "Germany"
    },
    {
      "id": 7525,
      "stateId": 369,
      "name": "Juti",
      "latitude": null,
      "longitude": null,
      "createdAt": "2025-12-28T18:30:28.426Z",
      "updatedAt": "2025-12-28T18:30:28.426Z",
      "stateName": "Mato Grosso do Sul",
      "countryName": "Brazil"
    },
    {
      "id": 4628,
      "stateId": 797,
      "name": "Jutiapa",
      "latitude": "14.2916700",
      "longitude": "-89.8958300",
      "createdAt": "2025-12-28T18:18:10.654Z",
      "updatedAt": "2025-12-28T18:18:10.654Z",
      "stateName": "Jutiapa",
      "countryName": "Guatemala"
    },
    {
      "id": 12246,
      "stateId": 10,
      "name": "Juvisy-sur-Orge",
      "latitude": null,
      "longitude": null,
      "createdAt": "2025-12-28T19:14:35.459Z",
      "updatedAt": "2025-12-28T19:14:35.459Z",
      "stateName": "Île-de-France",
      "countryName": "France"
    },
    {
      "id": 3322,
      "stateId": 81,
      "name": "K259AE",
      "latitude": null,
      "longitude": null,
      "createdAt": "2025-12-28T18:14:13.302Z",
      "updatedAt": "2025-12-28T18:14:13.302Z",
      "stateName": "Oregon",
      "countryName": "United States"
    },
    {
      "id": 6023,
      "stateId": 111,
      "name": "Kaag en Braassem",
      "latitude": null,
      "longitude": null,
      "createdAt": "2025-12-28T18:22:52.350Z",
      "updatedAt": "2025-12-28T18:22:52.350Z",
      "stateName": "South Holland",
      "countryName": "Netherlands"
    },
    {
      "id": 6106,
      "stateId": 432,
      "name": "Kaarst",
      "latitude": "51.2292900",
      "longitude": "6.6188300",
      "createdAt": "2025-12-28T18:23:15.990Z",
      "updatedAt": "2025-12-28T18:23:15.990Z",
      "stateName": "North Rhine-Westphalia",
      "countryName": "Germany"
    },
    {
      "id": 148,
      "stateId": 96,
      "name": "Kaatsheuvel",
      "latitude": "52.0575321",
      "longitude": "5.3403480",
      "createdAt": "2025-12-28T16:56:29.602Z",
      "updatedAt": "2025-12-28T16:56:29.602Z",
      "stateName": "North Brabant",
      "countryName": "Netherlands"
    },
    {
      "id": 8056,
      "stateId": 259,
      "name": "Kabale",
      "latitude": null,
      "longitude": null,
      "createdAt": "2025-12-28T18:34:51.851Z",
      "updatedAt": "2025-12-28T18:34:51.851Z",
      "stateName": "Eastern Region",
      "countryName": "Uganda"
    },
    {
      "id": 15266,
      "stateId": 97,
      "name": "Kabelsketal",
      "latitude": null,
      "longitude": null,
      "createdAt": "2025-12-28T20:00:03.787Z",
      "updatedAt": "2025-12-28T20:00:03.787Z",
      "stateName": "Saxony-Anhalt",
      "countryName": "Germany"
    },
    {
      "id": 17563,
      "stateId": 259,
      "name": "Kaberamaido",
      "latitude": null,
      "longitude": null,
      "createdAt": "2026-01-22T22:46:34.807Z",
      "updatedAt": "2026-01-22T22:46:34.807Z",
      "stateName": "Eastern Region",
      "countryName": "Uganda"
    },
    {
      "id": 17737,
      "stateId": 263,
      "name": "Kabwohe",
      "latitude": null,
      "longitude": null,
      "createdAt": "2026-02-14T02:15:32.706Z",
      "updatedAt": "2026-02-14T02:15:32.706Z",
      "stateName": "Western Region",
      "countryName": "Uganda"
    },
    {
      "id": 1317,
      "stateId": 75,
      "name": "Kachina Village",
      "latitude": "37.8034989",
      "longitude": "-92.5169818",
      "createdAt": "2025-12-28T17:03:33.956Z",
      "updatedAt": "2025-12-28T17:03:33.956Z",
      "stateName": "Arizona",
      "countryName": "United States"
    },
    {
      "id": 14405,
      "stateId": 83,
      "name": "Kachkanar",
      "latitude": null,
      "longitude": null,
      "createdAt": "2025-12-28T19:43:56.905Z",
      "updatedAt": "2025-12-28T19:43:56.905Z",
      "stateName": "Sverdlovsk Oblast",
      "countryName": "Russia"
    },
    {
      "id": 1000,
      "stateId": 380,
      "name": "Kadapa",
      "latitude": "21.6224148",
      "longitude": "79.1259549",
      "createdAt": "2025-12-28T17:02:32.945Z",
      "updatedAt": "2025-12-28T17:02:32.945Z",
      "stateName": "Andhra Pradesh",
      "countryName": "India"
    },
    {
      "id": 10895,
      "stateId": 419,
      "name": "Kadina",
      "latitude": null,
      "longitude": null,
      "createdAt": "2025-12-28T18:58:41.065Z",
      "updatedAt": "2025-12-28T18:58:41.065Z",
      "stateName": "South Australia",
      "countryName": "Australia"
    },
    {
      "id": 10191,
      "stateId": 77,
      "name": "Kaduna",
      "latitude": "10.5264100",
      "longitude": "7.4387900",
      "createdAt": "2025-12-28T18:50:58.236Z",
      "updatedAt": "2025-12-28T18:50:58.236Z",
      "stateName": "Katsina State",
      "countryName": "Nigeria"
    },
    {
      "id": 8622,
      "stateId": 259,
      "name": "Kagadi",
      "latitude": null,
      "longitude": null,
      "createdAt": "2025-12-28T18:39:26.105Z",
      "updatedAt": "2025-12-28T18:39:26.105Z",
      "stateName": "Eastern Region",
      "countryName": "Uganda"
    },
    {
      "id": 11795,
      "stateId": 41,
      "name": "Kagawong",
      "latitude": null,
      "longitude": null,
      "createdAt": "2025-12-28T19:09:38.811Z",
      "updatedAt": "2025-12-28T19:09:38.811Z",
      "stateName": "Ontario",
      "countryName": "Canada"
    },
    {
      "id": 18188,
      "stateId": 582,
      "name": "Kagoshima",
      "latitude": "31.5601900",
      "longitude": "130.5581400",
      "createdAt": "2026-04-19T14:43:55.799Z",
      "updatedAt": "2026-04-19T14:43:55.799Z",
      "stateName": "Kyūshū",
      "countryName": "Japan"
    },
    {
      "id": 7080,
      "stateId": 258,
      "name": "Kahnawake",
      "latitude": null,
      "longitude": null,
      "createdAt": "2025-12-28T18:28:07.718Z",
      "updatedAt": "2025-12-28T18:28:07.718Z",
      "stateName": "Quebec",
      "countryName": "Canada"
    },
    {
      "id": 18193,
      "stateId": 1058,
      "name": "Kahoku",
      "latitude": null,
      "longitude": null,
      "createdAt": "2026-04-20T00:50:08.185Z",
      "updatedAt": "2026-04-20T00:50:08.185Z",
      "stateName": "Chūbu",
      "countryName": "Japan"
    },
    {
      "id": 9364,
      "stateId": 128,
      "name": "Kahului",
      "latitude": "20.8895300",
      "longitude": "-156.4743200",
      "createdAt": "2025-12-28T18:43:58.187Z",
      "updatedAt": "2025-12-28T18:43:58.187Z",
      "stateName": "Hawaii",
      "countryName": "United States"
    },
    {
      "id": 1545,
      "stateId": 484,
      "name": "Kaikohe",
      "latitude": "-39.8145491",
      "longitude": "174.7111031",
      "createdAt": "2025-12-28T17:04:42.022Z",
      "updatedAt": "2025-12-28T17:04:42.022Z",
      "stateName": "Northland",
      "countryName": "New Zealand"
    },
    {
      "id": 2764,
      "stateId": 596,
      "name": "Kailasahar",
      "latitude": null,
      "longitude": null,
      "createdAt": "2025-12-28T18:12:44.826Z",
      "updatedAt": "2025-12-28T18:12:44.826Z",
      "stateName": "Tripura",
      "countryName": "India"
    },
    {
      "id": 13047,
      "stateId": 128,
      "name": "Kailua",
      "latitude": "21.4024100",
      "longitude": "-157.7405400",
      "createdAt": "2025-12-28T19:20:27.486Z",
      "updatedAt": "2025-12-28T19:20:27.486Z",
      "stateName": "Hawaii",
      "countryName": "United States"
    },
    {
      "id": 5009,
      "stateId": 128,
      "name": "Kailua Kona",
      "latitude": "37.8034989",
      "longitude": "-92.5169818",
      "createdAt": "2025-12-28T18:19:24.177Z",
      "updatedAt": "2025-12-28T18:19:24.177Z",
      "stateName": "Hawaii",
      "countryName": "United States"
    },
    {
      "id": 9499,
      "stateId": 107,
      "name": "Kaisersesch",
      "latitude": null,
      "longitude": null,
      "createdAt": "2025-12-28T18:44:45.542Z",
      "updatedAt": "2025-12-28T18:44:45.542Z",
      "stateName": "Rhineland-Palatinate",
      "countryName": "Germany"
    },
    {
      "id": 11262,
      "stateId": 511,
      "name": "Kaiserslautern",
      "latitude": "49.4430000",
      "longitude": "7.7716100",
      "createdAt": "2025-12-28T19:03:36.010Z",
      "updatedAt": "2025-12-28T19:03:36.010Z",
      "stateName": "Saarland",
      "countryName": "Germany"
    },
    {
      "id": 2331,
      "stateId": 107,
      "name": "Kaiserslautern",
      "latitude": "49.4430000",
      "longitude": "7.7716100",
      "createdAt": "2025-12-28T18:11:47.143Z",
      "updatedAt": "2025-12-28T18:11:47.143Z",
      "stateName": "Rhineland-Palatinate",
      "countryName": "Germany"
    },
    {
      "id": 17317,
      "stateId": 626,
      "name": "Kakogawa",
      "latitude": "34.7694300",
      "longitude": "134.8290500",
      "createdAt": "2025-12-29T18:28:35.762Z",
      "updatedAt": "2025-12-29T18:28:35.762Z",
      "stateName": "Kansai",
      "countryName": "Japan"
    },
    {
      "id": 8637,
      "stateId": 259,
      "name": "Kakumiro",
      "latitude": null,
      "longitude": null,
      "createdAt": "2025-12-28T18:39:30.478Z",
      "updatedAt": "2025-12-28T18:39:30.478Z",
      "stateName": "Eastern Region",
      "countryName": "Uganda"
    },
    {
      "id": 11037,
      "stateId": 128,
      "name": "Kalaheo",
      "latitude": "37.8034989",
      "longitude": "-92.5169818",
      "createdAt": "2025-12-28T19:00:29.371Z",
      "updatedAt": "2025-12-28T19:00:29.371Z",
      "stateName": "Hawaii",
      "countryName": "United States"
    },
    {
      "id": 261,
      "stateId": 143,
      "name": "Kalamata",
      "latitude": "38.6555720",
      "longitude": "23.4057215",
      "createdAt": "2025-12-28T16:56:39.166Z",
      "updatedAt": "2025-12-28T16:56:39.166Z",
      "stateName": "Peloponnese",
      "countryName": "Greece"
    },
    {
      "id": 3980,
      "stateId": 92,
      "name": "Kalamazoo",
      "latitude": "42.2917100",
      "longitude": "-85.5872300",
      "createdAt": "2025-12-28T18:15:46.320Z",
      "updatedAt": "2025-12-28T18:15:46.320Z",
      "stateName": "Michigan",
      "countryName": "United States"
    },
    {
      "id": 17548,
      "stateId": 144,
      "name": "Kalambaka",
      "latitude": "38.6555720",
      "longitude": "23.4057215",
      "createdAt": "2026-01-20T21:03:58.791Z",
      "updatedAt": "2026-01-20T21:03:58.791Z",
      "stateName": "Thessaly",
      "countryName": "Greece"
    },
    {
      "id": 13817,
      "stateId": 144,
      "name": "Kalampaka",
      "latitude": "38.6555720",
      "longitude": "23.4057215",
      "createdAt": "2025-12-28T19:32:34.380Z",
      "updatedAt": "2025-12-28T19:32:34.380Z",
      "stateName": "Thessaly",
      "countryName": "Greece"
    },
    {
      "id": 12451,
      "stateId": 44,
      "name": "Kalamunda",
      "latitude": null,
      "longitude": null,
      "createdAt": "2025-12-28T19:15:58.249Z",
      "updatedAt": "2025-12-28T19:15:58.249Z",
      "stateName": "Western Australia",
      "countryName": "Australia"
    },
    {
      "id": 5618,
      "stateId": 872,
      "name": "Kalesija",
      "latitude": null,
      "longitude": null,
      "createdAt": "2025-12-28T18:21:42.008Z",
      "updatedAt": "2025-12-28T18:21:42.008Z",
      "stateName": "Tuzla Canton",
      "countryName": "Bosnia and Herzegovina"
    },
    {
      "id": 12290,
      "stateId": 44,
      "name": "Kalgoorlie",
      "latitude": "-30.7461400",
      "longitude": "121.4742000",
      "createdAt": "2025-12-28T19:15:09.890Z",
      "updatedAt": "2025-12-28T19:15:09.890Z",
      "stateName": "Western Australia",
      "countryName": "Australia"
    },
    {
      "id": 8506,
      "stateId": 637,
      "name": "Kalibo",
      "latitude": "11.7061100",
      "longitude": "122.3644400",
      "createdAt": "2025-12-28T18:38:54.486Z",
      "updatedAt": "2025-12-28T18:38:54.486Z",
      "stateName": "Western Visayas Region",
      "countryName": "Philippines"
    },
    {
      "id": 1514,
      "stateId": 480,
      "name": "Kalibo",
      "latitude": null,
      "longitude": null,
      "createdAt": "2025-12-28T17:04:37.957Z",
      "updatedAt": "2025-12-28T17:04:37.957Z",
      "stateName": "Aklan",
      "countryName": "Philippines"
    },
    {
      "id": 6109,
      "stateId": 913,
      "name": "Kaliningrad",
      "latitude": null,
      "longitude": null,
      "createdAt": "2025-12-28T18:23:16.211Z",
      "updatedAt": "2025-12-28T18:23:16.211Z",
      "stateName": "Kaliningrad",
      "countryName": "Russia"
    },
    {
      "id": 1315,
      "stateId": 455,
      "name": "Kaliningrad",
      "latitude": null,
      "longitude": null,
      "createdAt": "2025-12-28T17:03:33.820Z",
      "updatedAt": "2025-12-28T17:03:33.820Z",
      "stateName": "Kaliningrad Oblast",
      "countryName": "Russia"
    },
    {
      "id": 2733,
      "stateId": 153,
      "name": "Kalispell",
      "latitude": "48.1957900",
      "longitude": "-114.3129100",
      "createdAt": "2025-12-28T18:12:42.820Z",
      "updatedAt": "2025-12-28T18:12:42.820Z",
      "stateName": "Montana",
      "countryName": "United States"
    },
    {
      "id": 3641,
      "stateId": 92,
      "name": "Kalkaska",
      "latitude": "37.8034989",
      "longitude": "-92.5169818",
      "createdAt": "2025-12-28T18:14:59.704Z",
      "updatedAt": "2025-12-28T18:14:59.704Z",
      "stateName": "Michigan",
      "countryName": "United States"
    },
    {
      "id": 10442,
      "stateId": 723,
      "name": "Kalkhorst",
      "latitude": null,
      "longitude": null,
      "createdAt": "2025-12-28T18:53:20.582Z",
      "updatedAt": "2025-12-28T18:53:20.582Z",
      "stateName": "Mecklenburg-Vorpommern",
      "countryName": "Germany"
    },
    {
      "id": 9312,
      "stateId": 67,
      "name": "Kallithea",
      "latitude": "38.6555720",
      "longitude": "23.4057215",
      "createdAt": "2025-12-28T18:43:28.985Z",
      "updatedAt": "2025-12-28T18:43:28.985Z",
      "stateName": "Attica",
      "countryName": "Greece"
    },
    {
      "id": 2296,
      "stateId": 164,
      "name": "Kalloni",
      "latitude": "38.6555720",
      "longitude": "23.4057215",
      "createdAt": "2025-12-28T18:11:35.977Z",
      "updatedAt": "2025-12-28T18:11:35.977Z",
      "stateName": "North Aegean",
      "countryName": "Greece"
    },
    {
      "id": 15741,
      "stateId": 1264,
      "name": "Kalmar",
      "latitude": "56.6615700",
      "longitude": "16.3616300",
      "createdAt": "2025-12-28T20:16:53.719Z",
      "updatedAt": "2025-12-28T20:16:53.719Z",
      "stateName": "Kalmar",
      "countryName": "Sweden"
    },
    {
      "id": 4830,
      "stateId": 813,
      "name": "Kalmunai",
      "latitude": null,
      "longitude": null,
      "createdAt": "2025-12-28T18:18:47.495Z",
      "updatedAt": "2025-12-28T18:18:47.495Z",
      "stateName": "Ampara",
      "countryName": "Sri Lanka"
    },
    {
      "id": 17894,
      "stateId": 1380,
      "name": "Kalobeyei Refugee Settlement",
      "latitude": null,
      "longitude": null,
      "createdAt": "2026-03-12T03:51:29.659Z",
      "updatedAt": "2026-03-12T03:51:29.659Z",
      "stateName": "Turkana County",
      "countryName": "Kenya"
    },
    {
      "id": 11350,
      "stateId": 1152,
      "name": "Kalocsa",
      "latitude": "46.5263900",
      "longitude": "18.9858300",
      "createdAt": "2025-12-28T19:04:43.476Z",
      "updatedAt": "2025-12-28T19:04:43.476Z",
      "stateName": "Bacs-Kiskun Province",
      "countryName": "Hungary"
    },
    {
      "id": 12284,
      "stateId": 137,
      "name": "kaloré ",
      "latitude": null,
      "longitude": null,
      "createdAt": "2025-12-28T19:15:06.426Z",
      "updatedAt": "2025-12-28T19:15:06.426Z",
      "stateName": "Paraná",
      "countryName": "Brazil"
    },
    {
      "id": 12303,
      "stateId": 45,
      "name": "Kaltag",
      "latitude": "37.8034989",
      "longitude": "-92.5169818",
      "createdAt": "2025-12-28T19:15:12.178Z",
      "updatedAt": "2025-12-28T19:15:12.178Z",
      "stateName": "Alaska",
      "countryName": "United States"
    },
    {
      "id": 1986,
      "stateId": 5,
      "name": "Kaltenkirchen",
      "latitude": "53.8329200",
      "longitude": "9.9581000",
      "createdAt": "2025-12-28T18:10:36.478Z",
      "updatedAt": "2025-12-28T18:10:36.478Z",
      "stateName": "Schleswig-Holstein",
      "countryName": "Germany"
    },
    {
      "id": 4516,
      "stateId": 775,
      "name": "Kaluga",
      "latitude": null,
      "longitude": null,
      "createdAt": "2025-12-28T18:17:49.655Z",
      "updatedAt": "2025-12-28T18:17:49.655Z",
      "stateName": "Kaluga",
      "countryName": "Russia"
    },
    {
      "id": 11837,
      "stateId": 492,
      "name": "Kalush",
      "latitude": null,
      "longitude": null,
      "createdAt": "2025-12-28T19:10:06.636Z",
      "updatedAt": "2025-12-28T19:10:06.636Z",
      "stateName": "Ivano-Frankivsk Oblast",
      "countryName": "Ukraine"
    },
    {
      "id": 2293,
      "stateId": 194,
      "name": "Kalymnos",
      "latitude": "38.6555720",
      "longitude": "23.4057215",
      "createdAt": "2025-12-28T18:11:35.602Z",
      "updatedAt": "2025-12-28T18:11:35.602Z",
      "stateName": "South Aegean",
      "countryName": "Greece"
    },
    {
      "id": 4529,
      "stateId": 83,
      "name": "Kamensk-Uralsky",
      "latitude": null,
      "longitude": null,
      "createdAt": "2025-12-28T18:17:50.536Z",
      "updatedAt": "2025-12-28T18:17:50.536Z",
      "stateName": "Sverdlovsk Oblast",
      "countryName": "Russia"
    },
    {
      "id": 13814,
      "stateId": 626,
      "name": "Kameyama",
      "latitude": null,
      "longitude": null,
      "createdAt": "2025-12-28T19:32:30.110Z",
      "updatedAt": "2025-12-28T19:32:30.110Z",
      "stateName": "Kansai",
      "countryName": "Japan"
    },
    {
      "id": 11465,
      "stateId": 110,
      "name": "Kamiah",
      "latitude": "37.8034989",
      "longitude": "-92.5169818",
      "createdAt": "2025-12-28T19:05:55.812Z",
      "updatedAt": "2025-12-28T19:05:55.812Z",
      "stateName": "Idaho",
      "countryName": "United States"
    },
    {
      "id": 7819,
      "stateId": 413,
      "name": "Kamianske",
      "latitude": null,
      "longitude": null,
      "createdAt": "2025-12-28T18:32:19.862Z",
      "updatedAt": "2025-12-28T18:32:19.862Z",
      "stateName": "Dnipropetrovsk",
      "countryName": "Ukraine"
    },
    {
      "id": 6633,
      "stateId": 41,
      "name": "Kaministiquia",
      "latitude": null,
      "longitude": null,
      "createdAt": "2025-12-28T18:26:11.292Z",
      "updatedAt": "2025-12-28T18:26:11.292Z",
      "stateName": "Ontario",
      "countryName": "Canada"
    },
    {
      "id": 6405,
      "stateId": 26,
      "name": "Kamloops",
      "latitude": "50.6664800",
      "longitude": "-120.3192000",
      "createdAt": "2025-12-28T18:25:08.335Z",
      "updatedAt": "2025-12-28T18:25:08.335Z",
      "stateName": "British Columbia",
      "countryName": "Canada"
    },
    {
      "id": 188,
      "stateId": 116,
      "name": "Kampala",
      "latitude": "0.3162800",
      "longitude": "32.5821900",
      "createdAt": "2025-12-28T16:56:34.279Z",
      "updatedAt": "2025-12-28T16:56:34.279Z",
      "stateName": "Central Region",
      "countryName": "Uganda"
    },
    {
      "id": 11510,
      "stateId": 220,
      "name": "Kampen",
      "latitude": "52.5550000",
      "longitude": "5.9111100",
      "createdAt": "2025-12-28T19:06:21.419Z",
      "updatedAt": "2025-12-28T19:06:21.419Z",
      "stateName": "Overijssel",
      "countryName": "Netherlands"
    },
    {
      "id": 9579,
      "stateId": 432,
      "name": "Kamp-Lintfort",
      "latitude": null,
      "longitude": null,
      "createdAt": "2025-12-28T18:45:21.520Z",
      "updatedAt": "2025-12-28T18:45:21.520Z",
      "stateName": "North Rhine-Westphalia",
      "countryName": "Germany"
    },
    {
      "id": 12346,
      "stateId": 1213,
      "name": "Kampot ",
      "latitude": null,
      "longitude": null,
      "createdAt": "2025-12-28T19:15:28.378Z",
      "updatedAt": "2025-12-28T19:15:28.378Z",
      "stateName": "Kampot",
      "countryName": "Cambodia"
    },
    {
      "id": 8696,
      "stateId": 259,
      "name": "Kamuli",
      "latitude": null,
      "longitude": null,
      "createdAt": "2025-12-28T18:39:40.888Z",
      "updatedAt": "2025-12-28T18:39:40.888Z",
      "stateName": "Eastern Region",
      "countryName": "Uganda"
    },
    {
      "id": 13365,
      "stateId": 263,
      "name": "Kamutuumi",
      "latitude": null,
      "longitude": null,
      "createdAt": "2025-12-28T19:23:32.222Z",
      "updatedAt": "2025-12-28T19:23:32.222Z",
      "stateName": "Western Region",
      "countryName": "Uganda"
    },
    {
      "id": 12256,
      "stateId": 263,
      "name": "Kamwenge",
      "latitude": null,
      "longitude": null,
      "createdAt": "2025-12-28T19:14:51.557Z",
      "updatedAt": "2025-12-28T19:14:51.557Z",
      "stateName": "Western Region",
      "countryName": "Uganda"
    },
    {
      "id": 121,
      "stateId": 83,
      "name": "Kamyshlov",
      "latitude": null,
      "longitude": null,
      "createdAt": "2025-12-28T16:56:25.341Z",
      "updatedAt": "2025-12-28T16:56:25.341Z",
      "stateName": "Sverdlovsk Oblast",
      "countryName": "Russia"
    },
    {
      "id": 13132,
      "stateId": 430,
      "name": "Kanab",
      "latitude": "37.8034989",
      "longitude": "-92.5169818",
      "createdAt": "2025-12-28T19:20:58.043Z",
      "updatedAt": "2025-12-28T19:20:58.043Z",
      "stateName": "Utah",
      "countryName": "United States"
    },
    {
      "id": 3241,
      "stateId": 672,
      "name": "Kandangan",
      "latitude": "-5.1788624",
      "longitude": "110.4217741",
      "createdAt": "2025-12-28T18:14:04.730Z",
      "updatedAt": "2025-12-28T18:14:04.730Z",
      "stateName": "South Kalimantan",
      "countryName": "Indonesia"
    },
    {
      "id": 17197,
      "stateId": 723,
      "name": "Kandelin",
      "latitude": null,
      "longitude": null,
      "createdAt": "2025-12-29T15:56:13.371Z",
      "updatedAt": "2025-12-29T15:56:13.371Z",
      "stateName": "Mecklenburg-Vorpommern",
      "countryName": "Germany"
    },
    {
      "id": 3731,
      "stateId": 49,
      "name": "Kandiyohi",
      "latitude": null,
      "longitude": null,
      "createdAt": "2025-12-28T18:15:04.100Z",
      "updatedAt": "2025-12-28T18:15:04.100Z",
      "stateName": "Minnesota",
      "countryName": "United States"
    },
    {
      "id": 13078,
      "stateId": 19,
      "name": "Kandos",
      "latitude": null,
      "longitude": null,
      "createdAt": "2025-12-28T19:20:35.993Z",
      "updatedAt": "2025-12-28T19:20:35.993Z",
      "stateName": "New South Wales",
      "countryName": "Australia"
    }
  ],
  "meta": {
    "page": 80,
    "limit": 100,
    "total": 18002,
    "totalPages": 181
  }
}
