{
  "source": "50k-radio-stations",
  "provider": "rapidapi",
  "syncedAt": "2026-06-03T13:05:35.356Z",
  "endpoint": "/cities",
  "page": 114,
  "limit": 250,
  "data": [
    {
      "id": 16260,
      "stateId": 436,
      "name": "Norwich",
      "latitude": "41.5242600",
      "longitude": "-72.0759100",
      "createdAt": "2025-12-28T20:40:00.907Z",
      "updatedAt": "2025-12-28T20:40:00.907Z",
      "stateName": "Vermont",
      "countryName": "United States"
    },
    {
      "id": 5386,
      "stateId": 6,
      "name": "Norwich",
      "latitude": "37.8034989",
      "longitude": "-92.5169818",
      "createdAt": "2025-12-28T18:20:31.006Z",
      "updatedAt": "2025-12-28T18:20:31.006Z",
      "stateName": "New York",
      "countryName": "United States"
    },
    {
      "id": 1209,
      "stateId": 2,
      "name": "Norwich",
      "latitude": "52.6278300",
      "longitude": "1.2983400",
      "createdAt": "2025-12-28T17:03:18.238Z",
      "updatedAt": "2025-12-28T17:03:18.238Z",
      "stateName": "England",
      "countryName": "United Kingdom"
    },
    {
      "id": 18123,
      "stateId": 47,
      "name": "Norwood",
      "latitude": null,
      "longitude": null,
      "createdAt": "2026-03-31T00:30:09.767Z",
      "updatedAt": "2026-03-31T00:30:09.767Z",
      "stateName": "Massachusetts",
      "countryName": "United States"
    },
    {
      "id": 1327,
      "stateId": 14,
      "name": "Norwood",
      "latitude": "39.1556100",
      "longitude": "-84.4596600",
      "createdAt": "2025-12-28T17:03:41.247Z",
      "updatedAt": "2025-12-28T17:03:41.247Z",
      "stateName": "Ohio",
      "countryName": "United States"
    },
    {
      "id": 14277,
      "stateId": 6,
      "name": "Norwood",
      "latitude": "39.1556100",
      "longitude": "-84.4596600",
      "createdAt": "2025-12-28T19:43:07.091Z",
      "updatedAt": "2025-12-28T19:43:07.091Z",
      "stateName": "New York",
      "countryName": "United States"
    },
    {
      "id": 11953,
      "stateId": 27,
      "name": "Norwood",
      "latitude": "39.1556100",
      "longitude": "-84.4596600",
      "createdAt": "2025-12-28T19:10:56.093Z",
      "updatedAt": "2025-12-28T19:10:56.093Z",
      "stateName": "Colorado",
      "countryName": "United States"
    },
    {
      "id": 18076,
      "stateId": 945,
      "name": "Nosara",
      "latitude": null,
      "longitude": null,
      "createdAt": "2026-03-30T19:14:23.653Z",
      "updatedAt": "2026-03-30T19:14:23.653Z",
      "stateName": "Guanacaste",
      "countryName": "Costa Rica"
    },
    {
      "id": 10633,
      "stateId": 271,
      "name": "Nossa Senhora Da Gloria",
      "latitude": null,
      "longitude": null,
      "createdAt": "2025-12-28T18:55:54.170Z",
      "updatedAt": "2025-12-28T18:55:54.170Z",
      "stateName": "Sergipe",
      "countryName": "Brazil"
    },
    {
      "id": 17414,
      "stateId": 271,
      "name": "Nossa Senhora de Lourdes",
      "latitude": null,
      "longitude": null,
      "createdAt": "2026-01-05T20:04:04.369Z",
      "updatedAt": "2026-01-05T20:04:04.369Z",
      "stateName": "Sergipe",
      "countryName": "Brazil"
    },
    {
      "id": 1778,
      "stateId": 522,
      "name": "Notaresco",
      "latitude": "42.4957616",
      "longitude": "12.4479260",
      "createdAt": "2025-12-28T18:10:10.506Z",
      "updatedAt": "2025-12-28T18:10:10.506Z",
      "stateName": "Teramo",
      "countryName": "Italy"
    },
    {
      "id": 15708,
      "stateId": 1311,
      "name": "Notodden",
      "latitude": null,
      "longitude": null,
      "createdAt": "2025-12-28T20:16:08.936Z",
      "updatedAt": "2025-12-28T20:16:08.936Z",
      "stateName": "Telemark",
      "countryName": "Norway"
    },
    {
      "id": 16771,
      "stateId": 51,
      "name": "Notre Dame",
      "latitude": "37.8034989",
      "longitude": "-92.5169818",
      "createdAt": "2025-12-28T20:51:41.504Z",
      "updatedAt": "2025-12-28T20:51:41.504Z",
      "stateName": "Indiana",
      "countryName": "United States"
    },
    {
      "id": 1960,
      "stateId": 2,
      "name": "Nottingham",
      "latitude": "52.9536000",
      "longitude": "-1.1504700",
      "createdAt": "2025-12-28T18:10:34.303Z",
      "updatedAt": "2025-12-28T18:10:34.303Z",
      "stateName": "England",
      "countryName": "United Kingdom"
    },
    {
      "id": 5451,
      "stateId": 858,
      "name": "Noumea",
      "latitude": null,
      "longitude": null,
      "createdAt": "2025-12-28T18:20:55.177Z",
      "updatedAt": "2025-12-28T18:20:55.177Z",
      "stateName": "New Caledonia",
      "countryName": "France"
    },
    {
      "id": 2460,
      "stateId": 369,
      "name": "Nova Alvorada do Sul",
      "latitude": null,
      "longitude": null,
      "createdAt": "2025-12-28T18:12:15.153Z",
      "updatedAt": "2025-12-28T18:12:15.153Z",
      "stateName": "Mato Grosso do Sul",
      "countryName": "Brazil"
    },
    {
      "id": 3514,
      "stateId": 369,
      "name": "Nova Andradina",
      "latitude": "-17.4339069",
      "longitude": "-45.8426650",
      "createdAt": "2025-12-28T18:14:42.799Z",
      "updatedAt": "2025-12-28T18:14:42.799Z",
      "stateName": "Mato Grosso do Sul",
      "countryName": "Brazil"
    },
    {
      "id": 17772,
      "stateId": 205,
      "name": "Nova Araçá",
      "latitude": null,
      "longitude": null,
      "createdAt": "2026-02-19T23:50:43.209Z",
      "updatedAt": "2026-02-19T23:50:43.209Z",
      "stateName": "Rio Grande do Sul",
      "countryName": "Brazil"
    },
    {
      "id": 4348,
      "stateId": 137,
      "name": "Nova Aurora",
      "latitude": "-17.4339069",
      "longitude": "-45.8426650",
      "createdAt": "2025-12-28T18:17:09.847Z",
      "updatedAt": "2025-12-28T18:17:09.847Z",
      "stateName": "Paraná",
      "countryName": "Brazil"
    },
    {
      "id": 4768,
      "stateId": 85,
      "name": "Nova Bandeirantes",
      "latitude": null,
      "longitude": null,
      "createdAt": "2025-12-28T18:18:39.304Z",
      "updatedAt": "2025-12-28T18:18:39.304Z",
      "stateName": "Mato Grosso",
      "countryName": "Brazil"
    },
    {
      "id": 16261,
      "stateId": 205,
      "name": "Nova Bassano",
      "latitude": null,
      "longitude": null,
      "createdAt": "2025-12-28T20:40:02.641Z",
      "updatedAt": "2025-12-28T20:40:02.641Z",
      "stateName": "Rio Grande do Sul",
      "countryName": "Brazil"
    },
    {
      "id": 5680,
      "stateId": 205,
      "name": "Nova Boa Vista",
      "latitude": null,
      "longitude": null,
      "createdAt": "2025-12-28T18:21:52.457Z",
      "updatedAt": "2025-12-28T18:21:52.457Z",
      "stateName": "Rio Grande do Sul",
      "countryName": "Brazil"
    },
    {
      "id": 17531,
      "stateId": 85,
      "name": "Nova Brasilândia",
      "latitude": null,
      "longitude": null,
      "createdAt": "2026-01-20T07:41:47.446Z",
      "updatedAt": "2026-01-20T07:41:47.446Z",
      "stateName": "Mato Grosso",
      "countryName": "Brazil"
    },
    {
      "id": 14141,
      "stateId": 652,
      "name": "Nova Brasilândia do Oeste",
      "latitude": null,
      "longitude": null,
      "createdAt": "2025-12-28T19:40:40.135Z",
      "updatedAt": "2025-12-28T19:40:40.135Z",
      "stateName": "Rondônia",
      "countryName": "Brazil"
    },
    {
      "id": 5847,
      "stateId": 205,
      "name": "Nova Bréscia",
      "latitude": "-17.4339069",
      "longitude": "-45.8426650",
      "createdAt": "2025-12-28T18:22:28.807Z",
      "updatedAt": "2025-12-28T18:22:28.807Z",
      "stateName": "Rio Grande do Sul",
      "countryName": "Brazil"
    },
    {
      "id": 6380,
      "stateId": 85,
      "name": "Nova Canaã do Norte",
      "latitude": null,
      "longitude": null,
      "createdAt": "2025-12-28T18:24:56.919Z",
      "updatedAt": "2025-12-28T18:24:56.919Z",
      "stateName": "Mato Grosso",
      "countryName": "Brazil"
    },
    {
      "id": 17500,
      "stateId": 137,
      "name": "Nova Cantu",
      "latitude": null,
      "longitude": null,
      "createdAt": "2026-01-18T23:22:56.744Z",
      "updatedAt": "2026-01-18T23:22:56.744Z",
      "stateName": "Paraná",
      "countryName": "Brazil"
    },
    {
      "id": 13752,
      "stateId": 253,
      "name": "Nova Crixás",
      "latitude": null,
      "longitude": null,
      "createdAt": "2025-12-28T19:31:10.378Z",
      "updatedAt": "2025-12-28T19:31:10.378Z",
      "stateName": "Goiás",
      "countryName": "Brazil"
    },
    {
      "id": 2432,
      "stateId": 186,
      "name": "Nova Cruz",
      "latitude": "-6.4780600",
      "longitude": "-35.4338900",
      "createdAt": "2025-12-28T18:12:13.341Z",
      "updatedAt": "2025-12-28T18:12:13.341Z",
      "stateName": "Rio Grande do Norte",
      "countryName": "Brazil"
    },
    {
      "id": 2977,
      "stateId": 95,
      "name": "Nova Era",
      "latitude": null,
      "longitude": null,
      "createdAt": "2025-12-28T18:13:25.635Z",
      "updatedAt": "2025-12-28T18:13:25.635Z",
      "stateName": "Minas Gerais",
      "countryName": "Brazil"
    },
    {
      "id": 14144,
      "stateId": 137,
      "name": "Nova Esperança",
      "latitude": null,
      "longitude": null,
      "createdAt": "2025-12-28T19:40:44.847Z",
      "updatedAt": "2025-12-28T19:40:44.847Z",
      "stateName": "Paraná",
      "countryName": "Brazil"
    },
    {
      "id": 4627,
      "stateId": 159,
      "name": "Nova Esperança do Piriá",
      "latitude": null,
      "longitude": null,
      "createdAt": "2025-12-28T18:18:10.570Z",
      "updatedAt": "2025-12-28T18:18:10.570Z",
      "stateName": "Pará",
      "countryName": "Brazil"
    },
    {
      "id": 9348,
      "stateId": 205,
      "name": "Nova Esperanca do Sul",
      "latitude": "-17.4339069",
      "longitude": "-45.8426650",
      "createdAt": "2025-12-28T18:43:53.035Z",
      "updatedAt": "2025-12-28T18:43:53.035Z",
      "stateName": "Rio Grande do Sul",
      "countryName": "Brazil"
    },
    {
      "id": 2078,
      "stateId": 134,
      "name": "Nova Friburgo",
      "latitude": "-22.2819400",
      "longitude": "-42.5311100",
      "createdAt": "2025-12-28T18:10:48.092Z",
      "updatedAt": "2025-12-28T18:10:48.092Z",
      "stateName": "Rio de Janeiro",
      "countryName": "Brazil"
    },
    {
      "id": 10643,
      "stateId": 253,
      "name": "Nova Glória",
      "latitude": "-17.4339069",
      "longitude": "-45.8426650",
      "createdAt": "2025-12-28T18:55:57.578Z",
      "updatedAt": "2025-12-28T18:55:57.578Z",
      "stateName": "Goiás",
      "countryName": "Brazil"
    },
    {
      "id": 8960,
      "stateId": 134,
      "name": "Nova Iguaçu",
      "latitude": "-22.7591700",
      "longitude": "-43.4511100",
      "createdAt": "2025-12-28T18:41:10.370Z",
      "updatedAt": "2025-12-28T18:41:10.370Z",
      "stateName": "Rio de Janeiro",
      "countryName": "Brazil"
    },
    {
      "id": 17418,
      "stateId": 4,
      "name": "Nova Independência",
      "latitude": null,
      "longitude": null,
      "createdAt": "2026-01-05T20:35:47.421Z",
      "updatedAt": "2026-01-05T20:35:47.421Z",
      "stateName": "São Paulo",
      "countryName": "Brazil"
    },
    {
      "id": 11516,
      "stateId": 4,
      "name": "Novais",
      "latitude": null,
      "longitude": null,
      "createdAt": "2025-12-28T19:06:31.151Z",
      "updatedAt": "2025-12-28T19:06:31.151Z",
      "stateName": "São Paulo",
      "countryName": "Brazil"
    },
    {
      "id": 6862,
      "stateId": 262,
      "name": "Nova Itarana",
      "latitude": null,
      "longitude": null,
      "createdAt": "2025-12-28T18:27:23.430Z",
      "updatedAt": "2025-12-28T18:27:23.430Z",
      "stateName": "Bahia",
      "countryName": "Brazil"
    },
    {
      "id": 10870,
      "stateId": 137,
      "name": "Nova Laranjeiras",
      "latitude": null,
      "longitude": null,
      "createdAt": "2025-12-28T18:58:32.649Z",
      "updatedAt": "2025-12-28T18:58:32.649Z",
      "stateName": "Paraná",
      "countryName": "Brazil"
    },
    {
      "id": 13964,
      "stateId": 95,
      "name": "Nova Lima",
      "latitude": null,
      "longitude": null,
      "createdAt": "2025-12-28T19:35:33.867Z",
      "updatedAt": "2025-12-28T19:35:33.867Z",
      "stateName": "Minas Gerais",
      "countryName": "Brazil"
    },
    {
      "id": 15145,
      "stateId": 137,
      "name": "Nova Londrina",
      "latitude": null,
      "longitude": null,
      "createdAt": "2025-12-28T19:56:15.711Z",
      "updatedAt": "2025-12-28T19:56:15.711Z",
      "stateName": "Paraná",
      "countryName": "Brazil"
    },
    {
      "id": 17532,
      "stateId": 652,
      "name": "Nova Mamoré",
      "latitude": null,
      "longitude": null,
      "createdAt": "2026-01-20T07:41:47.547Z",
      "updatedAt": "2026-01-20T07:41:47.547Z",
      "stateName": "Rondônia",
      "countryName": "Brazil"
    },
    {
      "id": 13586,
      "stateId": 98,
      "name": "Nova Milanese",
      "latitude": "45.5888200",
      "longitude": "9.1979200",
      "createdAt": "2025-12-28T19:28:39.376Z",
      "updatedAt": "2025-12-28T19:28:39.376Z",
      "stateName": "Lombardy",
      "countryName": "Italy"
    },
    {
      "id": 127,
      "stateId": 85,
      "name": "Nova Mutum",
      "latitude": null,
      "longitude": null,
      "createdAt": "2025-12-28T16:56:25.704Z",
      "updatedAt": "2025-12-28T16:56:25.704Z",
      "stateName": "Mato Grosso",
      "countryName": "Brazil"
    },
    {
      "id": 7695,
      "stateId": 137,
      "name": "Nova Olímpia",
      "latitude": null,
      "longitude": null,
      "createdAt": "2025-12-28T18:31:11.472Z",
      "updatedAt": "2025-12-28T18:31:11.472Z",
      "stateName": "Paraná",
      "countryName": "Brazil"
    },
    {
      "id": 2055,
      "stateId": 231,
      "name": "Nova Olinda",
      "latitude": "-17.4339069",
      "longitude": "-45.8426650",
      "createdAt": "2025-12-28T18:10:46.283Z",
      "updatedAt": "2025-12-28T18:10:46.283Z",
      "stateName": "Ceará",
      "countryName": "Brazil"
    },
    {
      "id": 11489,
      "stateId": 335,
      "name": "Nova Olinda do Maranhão",
      "latitude": null,
      "longitude": null,
      "createdAt": "2025-12-28T19:06:03.099Z",
      "updatedAt": "2025-12-28T19:06:03.099Z",
      "stateName": "Maranhão",
      "countryName": "Brazil"
    },
    {
      "id": 5795,
      "stateId": 238,
      "name": "Nova Olinda do Norte",
      "latitude": null,
      "longitude": null,
      "createdAt": "2025-12-28T18:22:10.453Z",
      "updatedAt": "2025-12-28T18:22:10.453Z",
      "stateName": "Amazonas",
      "countryName": "Brazil"
    },
    {
      "id": 14150,
      "stateId": 205,
      "name": "Nova Palma",
      "latitude": null,
      "longitude": null,
      "createdAt": "2025-12-28T19:40:48.593Z",
      "updatedAt": "2025-12-28T19:40:48.593Z",
      "stateName": "Rio Grande do Sul",
      "countryName": "Brazil"
    },
    {
      "id": 8289,
      "stateId": 205,
      "name": "Nova Petropolis",
      "latitude": "-17.4339069",
      "longitude": "-45.8426650",
      "createdAt": "2025-12-28T18:36:52.692Z",
      "updatedAt": "2025-12-28T18:36:52.692Z",
      "stateName": "Rio Grande do Sul",
      "countryName": "Brazil"
    },
    {
      "id": 10537,
      "stateId": 95,
      "name": "Nova Porteirinha",
      "latitude": null,
      "longitude": null,
      "createdAt": "2025-12-28T18:54:33.974Z",
      "updatedAt": "2025-12-28T18:54:33.974Z",
      "stateName": "Minas Gerais",
      "countryName": "Brazil"
    },
    {
      "id": 2264,
      "stateId": 205,
      "name": "Nova Prata",
      "latitude": "-28.7838900",
      "longitude": "-51.6100000",
      "createdAt": "2025-12-28T18:11:27.932Z",
      "updatedAt": "2025-12-28T18:11:27.932Z",
      "stateName": "Rio Grande do Sul",
      "countryName": "Brazil"
    },
    {
      "id": 17809,
      "stateId": 137,
      "name": "Nova Prata do Iguaçu",
      "latitude": null,
      "longitude": null,
      "createdAt": "2026-03-03T01:40:27.692Z",
      "updatedAt": "2026-03-03T01:40:27.692Z",
      "stateName": "Paraná",
      "countryName": "Brazil"
    },
    {
      "id": 4624,
      "stateId": 219,
      "name": "Novara",
      "latitude": "45.4483400",
      "longitude": "8.6232800",
      "createdAt": "2025-12-28T18:18:10.498Z",
      "updatedAt": "2025-12-28T18:18:10.498Z",
      "stateName": "Metropolitan City of Turin",
      "countryName": "Italy"
    },
    {
      "id": 17526,
      "stateId": 205,
      "name": "Nova Ramada",
      "latitude": null,
      "longitude": null,
      "createdAt": "2026-01-20T07:41:40.154Z",
      "updatedAt": "2026-01-20T07:41:40.154Z",
      "stateName": "Rio Grande do Sul",
      "countryName": "Brazil"
    },
    {
      "id": 13847,
      "stateId": 95,
      "name": "Nova Resende",
      "latitude": null,
      "longitude": null,
      "createdAt": "2025-12-28T19:33:30.204Z",
      "updatedAt": "2025-12-28T19:33:30.204Z",
      "stateName": "Minas Gerais",
      "countryName": "Brazil"
    },
    {
      "id": 1044,
      "stateId": 231,
      "name": "Nova Russas",
      "latitude": "-4.7066700",
      "longitude": "-40.5630600",
      "createdAt": "2025-12-28T17:02:35.727Z",
      "updatedAt": "2025-12-28T17:02:35.727Z",
      "stateName": "Ceará",
      "countryName": "Brazil"
    },
    {
      "id": 10271,
      "stateId": 205,
      "name": "Nova Santa Rita",
      "latitude": null,
      "longitude": null,
      "createdAt": "2025-12-28T18:51:28.858Z",
      "updatedAt": "2025-12-28T18:51:28.858Z",
      "stateName": "Rio Grande do Sul",
      "countryName": "Brazil"
    },
    {
      "id": 17530,
      "stateId": 137,
      "name": "Nova Santa Rosa",
      "latitude": null,
      "longitude": null,
      "createdAt": "2026-01-20T07:41:43.825Z",
      "updatedAt": "2026-01-20T07:41:43.825Z",
      "stateName": "Paraná",
      "countryName": "Brazil"
    },
    {
      "id": 10226,
      "stateId": 95,
      "name": "Nova Serrana",
      "latitude": null,
      "longitude": null,
      "createdAt": "2025-12-28T18:51:14.195Z",
      "updatedAt": "2025-12-28T18:51:14.195Z",
      "stateName": "Minas Gerais",
      "countryName": "Brazil"
    },
    {
      "id": 13271,
      "stateId": 24,
      "name": "Novato",
      "latitude": null,
      "longitude": null,
      "createdAt": "2025-12-28T19:22:33.903Z",
      "updatedAt": "2025-12-28T19:22:33.903Z",
      "stateName": "California",
      "countryName": "United States"
    },
    {
      "id": 8255,
      "stateId": 293,
      "name": "Nova Trento",
      "latitude": "-17.4339069",
      "longitude": "-45.8426650",
      "createdAt": "2025-12-28T18:36:38.923Z",
      "updatedAt": "2025-12-28T18:36:38.923Z",
      "stateName": "Santa Catarina",
      "countryName": "Brazil"
    },
    {
      "id": 13459,
      "stateId": 652,
      "name": "Nova União",
      "latitude": null,
      "longitude": null,
      "createdAt": "2025-12-28T19:25:30.645Z",
      "updatedAt": "2025-12-28T19:25:30.645Z",
      "stateName": "Rondônia",
      "countryName": "Brazil"
    },
    {
      "id": 2245,
      "stateId": 261,
      "name": "Nova Venecia",
      "latitude": "-17.4339069",
      "longitude": "-45.8426650",
      "createdAt": "2025-12-28T18:11:24.406Z",
      "updatedAt": "2025-12-28T18:11:24.406Z",
      "stateName": "Espírito Santo",
      "countryName": "Brazil"
    },
    {
      "id": 16161,
      "stateId": 293,
      "name": "Nova Veneza",
      "latitude": null,
      "longitude": null,
      "createdAt": "2025-12-28T20:36:03.753Z",
      "updatedAt": "2025-12-28T20:36:03.753Z",
      "stateName": "Santa Catarina",
      "countryName": "Brazil"
    },
    {
      "id": 15315,
      "stateId": 85,
      "name": "Nova Xavantina",
      "latitude": null,
      "longitude": null,
      "createdAt": "2025-12-28T20:02:13.990Z",
      "updatedAt": "2025-12-28T20:02:13.990Z",
      "stateName": "Mato Grosso",
      "countryName": "Brazil"
    },
    {
      "id": 13975,
      "stateId": 120,
      "name": "Novelda",
      "latitude": null,
      "longitude": null,
      "createdAt": "2025-12-28T19:36:12.770Z",
      "updatedAt": "2025-12-28T19:36:12.770Z",
      "stateName": "Valencia",
      "countryName": "Spain"
    },
    {
      "id": 671,
      "stateId": 269,
      "name": "Noventa Padovana",
      "latitude": null,
      "longitude": null,
      "createdAt": "2025-12-28T17:01:19.072Z",
      "updatedAt": "2025-12-28T17:01:19.072Z",
      "stateName": "Padua Province",
      "countryName": "Italy"
    },
    {
      "id": 9508,
      "stateId": 1111,
      "name": "Novgorod",
      "latitude": null,
      "longitude": null,
      "createdAt": "2025-12-28T18:44:50.420Z",
      "updatedAt": "2025-12-28T18:44:50.420Z",
      "stateName": "Novgorod",
      "countryName": "Russia"
    },
    {
      "id": 14051,
      "stateId": 205,
      "name": "Novo Barreiro",
      "latitude": null,
      "longitude": null,
      "createdAt": "2025-12-28T19:37:51.282Z",
      "updatedAt": "2025-12-28T19:37:51.282Z",
      "stateName": "Rio Grande do Sul",
      "countryName": "Brazil"
    },
    {
      "id": 8229,
      "stateId": 253,
      "name": "Novo Brasil",
      "latitude": null,
      "longitude": null,
      "createdAt": "2025-12-28T18:36:31.401Z",
      "updatedAt": "2025-12-28T18:36:31.401Z",
      "stateName": "Goiás",
      "countryName": "Brazil"
    },
    {
      "id": 522,
      "stateId": 205,
      "name": "Novo Hamburgo",
      "latitude": "-29.6783300",
      "longitude": "-51.1305600",
      "createdAt": "2025-12-28T17:01:00.961Z",
      "updatedAt": "2025-12-28T17:01:00.961Z",
      "stateName": "Rio Grande do Sul",
      "countryName": "Brazil"
    },
    {
      "id": 3291,
      "stateId": 4,
      "name": "Novo Horizonte",
      "latitude": null,
      "longitude": null,
      "createdAt": "2025-12-28T18:14:10.931Z",
      "updatedAt": "2025-12-28T18:14:10.931Z",
      "stateName": "São Paulo",
      "countryName": "Brazil"
    },
    {
      "id": 14478,
      "stateId": 652,
      "name": "Novo Horizonte do Oeste",
      "latitude": null,
      "longitude": null,
      "createdAt": "2025-12-28T19:44:28.862Z",
      "updatedAt": "2025-12-28T19:44:28.862Z",
      "stateName": "Rondônia",
      "countryName": "Brazil"
    },
    {
      "id": 13735,
      "stateId": 1132,
      "name": "Novoiavorivsk",
      "latitude": null,
      "longitude": null,
      "createdAt": "2025-12-28T19:30:30.218Z",
      "updatedAt": "2025-12-28T19:30:30.218Z",
      "stateName": "Lviv Oblast",
      "countryName": "Ukraine"
    },
    {
      "id": 3748,
      "stateId": 312,
      "name": "Novokuznetsk",
      "latitude": null,
      "longitude": null,
      "createdAt": "2025-12-28T18:15:09.991Z",
      "updatedAt": "2025-12-28T18:15:09.991Z",
      "stateName": "Kemerovo",
      "countryName": "Russia"
    },
    {
      "id": 6562,
      "stateId": 231,
      "name": "Novo Oriente",
      "latitude": null,
      "longitude": null,
      "createdAt": "2025-12-28T18:25:54.647Z",
      "updatedAt": "2025-12-28T18:25:54.647Z",
      "stateName": "Ceará",
      "countryName": "Brazil"
    },
    {
      "id": 17771,
      "stateId": 174,
      "name": "Novo Oriente do Piauí",
      "latitude": null,
      "longitude": null,
      "createdAt": "2026-02-19T23:50:26.843Z",
      "updatedAt": "2026-02-19T23:50:26.843Z",
      "stateName": "Piauí",
      "countryName": "Brazil"
    },
    {
      "id": 8945,
      "stateId": 253,
      "name": "Novo Planalto",
      "latitude": null,
      "longitude": null,
      "createdAt": "2025-12-28T18:41:07.288Z",
      "updatedAt": "2025-12-28T18:41:07.288Z",
      "stateName": "Goiás",
      "countryName": "Brazil"
    },
    {
      "id": 7630,
      "stateId": 159,
      "name": "Novo Progresso",
      "latitude": "-17.4339069",
      "longitude": "-45.8426650",
      "createdAt": "2025-12-28T18:31:01.625Z",
      "updatedAt": "2025-12-28T18:31:01.625Z",
      "stateName": "Pará",
      "countryName": "Brazil"
    },
    {
      "id": 3243,
      "stateId": 159,
      "name": "Novo Repartimento",
      "latitude": null,
      "longitude": null,
      "createdAt": "2025-12-28T18:14:04.850Z",
      "updatedAt": "2025-12-28T18:14:04.850Z",
      "stateName": "Pará",
      "countryName": "Brazil"
    },
    {
      "id": 17382,
      "stateId": 95,
      "name": "Novorizonte",
      "latitude": null,
      "longitude": null,
      "createdAt": "2026-01-04T20:46:20.472Z",
      "updatedAt": "2026-01-04T20:46:20.472Z",
      "stateName": "Minas Gerais",
      "countryName": "Brazil"
    },
    {
      "id": 13102,
      "stateId": 479,
      "name": "Novorossiysk",
      "latitude": null,
      "longitude": null,
      "createdAt": "2025-12-28T19:20:45.626Z",
      "updatedAt": "2025-12-28T19:20:45.626Z",
      "stateName": "Krasnodar",
      "countryName": "Russia"
    },
    {
      "id": 17856,
      "stateId": 174,
      "name": "Novo Santo Antônio",
      "latitude": null,
      "longitude": null,
      "createdAt": "2026-03-09T15:00:19.234Z",
      "updatedAt": "2026-03-09T15:00:19.234Z",
      "stateName": "Piauí",
      "countryName": "Brazil"
    },
    {
      "id": 15358,
      "stateId": 85,
      "name": "Novo São Joaquim",
      "latitude": null,
      "longitude": null,
      "createdAt": "2025-12-28T20:03:55.044Z",
      "updatedAt": "2025-12-28T20:03:55.044Z",
      "stateName": "Mato Grosso",
      "countryName": "Brazil"
    },
    {
      "id": 9221,
      "stateId": 783,
      "name": "Novosergiyevka",
      "latitude": null,
      "longitude": null,
      "createdAt": "2025-12-28T18:42:38.775Z",
      "updatedAt": "2025-12-28T18:42:38.775Z",
      "stateName": "Orenburg",
      "countryName": "Russia"
    },
    {
      "id": 6195,
      "stateId": 916,
      "name": "Novovolynsk",
      "latitude": null,
      "longitude": null,
      "createdAt": "2025-12-28T18:23:26.912Z",
      "updatedAt": "2025-12-28T18:23:26.912Z",
      "stateName": "Volyn",
      "countryName": "Ukraine"
    },
    {
      "id": 9220,
      "stateId": 1088,
      "name": "Novy Urengoy",
      "latitude": null,
      "longitude": null,
      "createdAt": "2025-12-28T18:42:38.743Z",
      "updatedAt": "2025-12-28T18:42:38.743Z",
      "stateName": "Yamalo-Nenets",
      "countryName": "Russia"
    },
    {
      "id": 13087,
      "stateId": 151,
      "name": "Nowata",
      "latitude": "37.8034989",
      "longitude": "-92.5169818",
      "createdAt": "2025-12-28T19:20:37.934Z",
      "updatedAt": "2025-12-28T19:20:37.934Z",
      "stateName": "Oklahoma",
      "countryName": "United States"
    },
    {
      "id": 12558,
      "stateId": 499,
      "name": "Nowogard",
      "latitude": null,
      "longitude": null,
      "createdAt": "2025-12-28T19:16:39.261Z",
      "updatedAt": "2025-12-28T19:16:39.261Z",
      "stateName": "West Pomeranian",
      "countryName": "Poland"
    },
    {
      "id": 4410,
      "stateId": 19,
      "name": "Nowra",
      "latitude": "-34.8842200",
      "longitude": "150.6003600",
      "createdAt": "2025-12-28T18:17:25.695Z",
      "updatedAt": "2025-12-28T18:17:25.695Z",
      "stateName": "New South Wales",
      "countryName": "Australia"
    },
    {
      "id": 7799,
      "stateId": 91,
      "name": "Nowy Sacz",
      "latitude": "51.8024603",
      "longitude": "19.2550087",
      "createdAt": "2025-12-28T18:31:57.980Z",
      "updatedAt": "2025-12-28T18:31:57.980Z",
      "stateName": "Lesser Poland",
      "countryName": "Poland"
    },
    {
      "id": 14253,
      "stateId": 6,
      "name": "Noyack",
      "latitude": "37.8034989",
      "longitude": "-92.5169818",
      "createdAt": "2025-12-28T19:42:50.578Z",
      "updatedAt": "2025-12-28T19:42:50.578Z",
      "stateName": "New York",
      "countryName": "United States"
    },
    {
      "id": 4286,
      "stateId": 10,
      "name": "Nozay",
      "latitude": "47.3768156",
      "longitude": "2.7742767",
      "createdAt": "2025-12-28T18:16:43.853Z",
      "updatedAt": "2025-12-28T18:16:43.853Z",
      "stateName": "Île-de-France",
      "countryName": "France"
    },
    {
      "id": 2197,
      "stateId": 565,
      "name": "Nsawam",
      "latitude": null,
      "longitude": null,
      "createdAt": "2025-12-28T18:11:05.641Z",
      "updatedAt": "2025-12-28T18:11:05.641Z",
      "stateName": "Nsawam Adoagyire",
      "countryName": "Ghana"
    },
    {
      "id": 8688,
      "stateId": 471,
      "name": "Ntabankulu",
      "latitude": null,
      "longitude": null,
      "createdAt": "2025-12-28T18:39:40.312Z",
      "updatedAt": "2025-12-28T18:39:40.312Z",
      "stateName": "Eastern Cape",
      "countryName": "South Africa"
    },
    {
      "id": 3487,
      "stateId": 263,
      "name": "Ntungamo",
      "latitude": null,
      "longitude": null,
      "createdAt": "2025-12-28T18:14:37.516Z",
      "updatedAt": "2025-12-28T18:14:37.516Z",
      "stateName": "Western Region",
      "countryName": "Uganda"
    },
    {
      "id": 4482,
      "stateId": 101,
      "name": "Nubeena",
      "latitude": "-33.9811915",
      "longitude": "144.8351072",
      "createdAt": "2025-12-28T18:17:43.617Z",
      "updatedAt": "2025-12-28T18:17:43.617Z",
      "stateName": "Tasmania",
      "countryName": "Australia"
    },
    {
      "id": 10192,
      "stateId": 336,
      "name": "Nueva Francia",
      "latitude": null,
      "longitude": null,
      "createdAt": "2025-12-28T18:51:00.113Z",
      "updatedAt": "2025-12-28T18:51:00.113Z",
      "stateName": "Santiago del Estero",
      "countryName": "Argentina"
    }
  ],
  "meta": {
    "page": 114,
    "limit": 100,
    "total": 18002,
    "totalPages": 181
  }
}
