{
  "source": "50k-radio-stations",
  "provider": "rapidapi",
  "syncedAt": "2026-06-03T13:05:39.526Z",
  "endpoint": "/cities",
  "page": 119,
  "limit": 250,
  "data": [
    {
      "id": 12959,
      "stateId": 128,
      "name": "Pa'auilo",
      "latitude": "37.8034989",
      "longitude": "-92.5169818",
      "createdAt": "2025-12-28T19:19:49.451Z",
      "updatedAt": "2025-12-28T19:19:49.451Z",
      "stateName": "Hawaii",
      "countryName": "United States"
    },
    {
      "id": 15164,
      "stateId": 58,
      "name": "Pablo Podesta",
      "latitude": null,
      "longitude": null,
      "createdAt": "2025-12-28T19:56:49.807Z",
      "updatedAt": "2025-12-28T19:56:49.807Z",
      "stateName": "Buenos Aires",
      "countryName": "Argentina"
    },
    {
      "id": 18151,
      "stateId": 4,
      "name": "Pacaembu",
      "latitude": null,
      "longitude": null,
      "createdAt": "2026-04-02T15:40:38.102Z",
      "updatedAt": "2026-04-02T15:40:38.102Z",
      "stateName": "São Paulo",
      "countryName": "Brazil"
    },
    {
      "id": 6537,
      "stateId": 231,
      "name": "Pacajus",
      "latitude": null,
      "longitude": null,
      "createdAt": "2025-12-28T18:25:45.286Z",
      "updatedAt": "2025-12-28T18:25:45.286Z",
      "stateName": "Ceará",
      "countryName": "Brazil"
    },
    {
      "id": 9077,
      "stateId": 231,
      "name": "Pacatuba",
      "latitude": null,
      "longitude": null,
      "createdAt": "2025-12-28T18:41:47.207Z",
      "updatedAt": "2025-12-28T18:41:47.207Z",
      "stateName": "Ceará",
      "countryName": "Brazil"
    },
    {
      "id": 17024,
      "stateId": 29,
      "name": "Pacho",
      "latitude": null,
      "longitude": null,
      "createdAt": "2025-12-29T15:11:26.820Z",
      "updatedAt": "2025-12-29T15:11:26.820Z",
      "stateName": "Cundinamarca",
      "countryName": "Colombia"
    },
    {
      "id": 7291,
      "stateId": 182,
      "name": "Pachuca",
      "latitude": "20.1169700",
      "longitude": "-98.7332900",
      "createdAt": "2025-12-28T18:29:23.605Z",
      "updatedAt": "2025-12-28T18:29:23.605Z",
      "stateName": "Hidalgo",
      "countryName": "Mexico"
    },
    {
      "id": 1355,
      "stateId": 24,
      "name": "Pacific Grove",
      "latitude": "36.6177400",
      "longitude": "-121.9166200",
      "createdAt": "2025-12-28T17:03:43.711Z",
      "updatedAt": "2025-12-28T17:03:43.711Z",
      "stateName": "California",
      "countryName": "United States"
    },
    {
      "id": 8645,
      "stateId": 72,
      "name": "Pacitan",
      "latitude": "-5.1788624",
      "longitude": "110.4217741",
      "createdAt": "2025-12-28T18:39:33.026Z",
      "updatedAt": "2025-12-28T18:39:33.026Z",
      "stateName": "East Java",
      "countryName": "Indonesia"
    },
    {
      "id": 7666,
      "stateId": 335,
      "name": "Paço do Lumiar",
      "latitude": null,
      "longitude": null,
      "createdAt": "2025-12-28T18:31:07.596Z",
      "updatedAt": "2025-12-28T18:31:07.596Z",
      "stateName": "Maranhão",
      "countryName": "Brazil"
    },
    {
      "id": 9842,
      "stateId": 464,
      "name": "Paços de Ferreira",
      "latitude": "39.5232529",
      "longitude": "-8.9987995",
      "createdAt": "2025-12-28T18:47:48.725Z",
      "updatedAt": "2025-12-28T18:47:48.725Z",
      "stateName": "Norte",
      "countryName": "Portugal"
    },
    {
      "id": 3917,
      "stateId": 189,
      "name": "Padang",
      "latitude": "-5.1788624",
      "longitude": "110.4217741",
      "createdAt": "2025-12-28T18:15:37.703Z",
      "updatedAt": "2025-12-28T18:15:37.703Z",
      "stateName": "Riau",
      "countryName": "Indonesia"
    },
    {
      "id": 9684,
      "stateId": 911,
      "name": "Padang",
      "latitude": null,
      "longitude": null,
      "createdAt": "2025-12-28T18:46:43.664Z",
      "updatedAt": "2025-12-28T18:46:43.664Z",
      "stateName": "West Sumatra",
      "countryName": "Indonesia"
    },
    {
      "id": 15277,
      "stateId": 129,
      "name": "Padang Sidempuan",
      "latitude": "-5.1788624",
      "longitude": "110.4217741",
      "createdAt": "2025-12-28T20:00:48.009Z",
      "updatedAt": "2025-12-28T20:00:48.009Z",
      "stateName": "North Sumatra",
      "countryName": "Indonesia"
    },
    {
      "id": 8630,
      "stateId": 259,
      "name": "Pader",
      "latitude": null,
      "longitude": null,
      "createdAt": "2025-12-28T18:39:28.264Z",
      "updatedAt": "2025-12-28T18:39:28.264Z",
      "stateName": "Eastern Region",
      "countryName": "Uganda"
    },
    {
      "id": 2949,
      "stateId": 432,
      "name": "Paderborn",
      "latitude": "51.7190500",
      "longitude": "8.7543900",
      "createdAt": "2025-12-28T18:13:08.476Z",
      "updatedAt": "2025-12-28T18:13:08.476Z",
      "stateName": "North Rhine-Westphalia",
      "countryName": "Germany"
    },
    {
      "id": 15169,
      "stateId": 296,
      "name": "Padrauna",
      "latitude": null,
      "longitude": null,
      "createdAt": "2025-12-28T19:57:10.053Z",
      "updatedAt": "2025-12-28T19:57:10.053Z",
      "stateName": "Uttar Pradesh",
      "countryName": "India"
    },
    {
      "id": 4272,
      "stateId": 253,
      "name": "Padre Bernardo",
      "latitude": null,
      "longitude": null,
      "createdAt": "2025-12-28T18:16:42.250Z",
      "updatedAt": "2025-12-28T18:16:42.250Z",
      "stateName": "Goiás",
      "countryName": "Brazil"
    },
    {
      "id": 11336,
      "stateId": 167,
      "name": "Padre Hurtado",
      "latitude": null,
      "longitude": null,
      "createdAt": "2025-12-28T19:04:35.837Z",
      "updatedAt": "2025-12-28T19:04:35.837Z",
      "stateName": "Región Metropolitana de Santiago",
      "countryName": "Chile"
    },
    {
      "id": 6121,
      "stateId": 914,
      "name": "Padre Las Casas",
      "latitude": "-35.4727272",
      "longitude": "-71.8075952",
      "createdAt": "2025-12-28T18:23:17.591Z",
      "updatedAt": "2025-12-28T18:23:17.591Z",
      "stateName": "Araucanía",
      "countryName": "Chile"
    },
    {
      "id": 5715,
      "stateId": 174,
      "name": "Padre Marcos",
      "latitude": null,
      "longitude": null,
      "createdAt": "2025-12-28T18:21:59.135Z",
      "updatedAt": "2025-12-28T18:21:59.135Z",
      "stateName": "Piauí",
      "countryName": "Brazil"
    },
    {
      "id": 3150,
      "stateId": 95,
      "name": "Padre Paraíso",
      "latitude": null,
      "longitude": null,
      "createdAt": "2025-12-28T18:13:46.717Z",
      "updatedAt": "2025-12-28T18:13:46.717Z",
      "stateName": "Minas Gerais",
      "countryName": "Brazil"
    },
    {
      "id": 561,
      "stateId": 269,
      "name": "Padua",
      "latitude": "45.4079700",
      "longitude": "11.8858600",
      "createdAt": "2025-12-28T17:01:06.656Z",
      "updatedAt": "2025-12-28T17:01:06.656Z",
      "stateName": "Padua Province",
      "countryName": "Italy"
    },
    {
      "id": 3365,
      "stateId": 80,
      "name": "Paducah",
      "latitude": "37.0833900",
      "longitude": "-88.6000500",
      "createdAt": "2025-12-28T18:14:17.075Z",
      "updatedAt": "2025-12-28T18:14:17.075Z",
      "stateName": "Kentucky",
      "countryName": "United States"
    },
    {
      "id": 2165,
      "stateId": 486,
      "name": "Paekākāriki",
      "latitude": null,
      "longitude": null,
      "createdAt": "2025-12-28T18:11:00.547Z",
      "updatedAt": "2025-12-28T18:11:00.547Z",
      "stateName": "Wellington",
      "countryName": "New Zealand"
    },
    {
      "id": 1247,
      "stateId": 437,
      "name": "Pagadian City",
      "latitude": null,
      "longitude": null,
      "createdAt": "2025-12-28T17:03:20.865Z",
      "updatedAt": "2025-12-28T17:03:20.865Z",
      "stateName": "Zamboanga del Sur",
      "countryName": "Philippines"
    },
    {
      "id": 2564,
      "stateId": 108,
      "name": "Pagani",
      "latitude": "40.7498900",
      "longitude": "14.6098000",
      "createdAt": "2025-12-28T18:12:25.165Z",
      "updatedAt": "2025-12-28T18:12:25.165Z",
      "stateName": "Campania",
      "countryName": "Italy"
    },
    {
      "id": 17394,
      "stateId": 75,
      "name": "Page",
      "latitude": "37.8034989",
      "longitude": "-92.5169818",
      "createdAt": "2026-01-04T21:15:23.156Z",
      "updatedAt": "2026-01-04T21:15:23.156Z",
      "stateName": "Arizona",
      "countryName": "United States"
    },
    {
      "id": 13433,
      "stateId": 145,
      "name": "Pageland",
      "latitude": "37.8034989",
      "longitude": "-92.5169818",
      "createdAt": "2025-12-28T19:24:52.347Z",
      "updatedAt": "2025-12-28T19:24:52.347Z",
      "stateName": "South Carolina",
      "countryName": "United States"
    },
    {
      "id": 13214,
      "stateId": 27,
      "name": "Pagosa Springs",
      "latitude": "37.8034989",
      "longitude": "-92.5169818",
      "createdAt": "2025-12-28T19:21:37.116Z",
      "updatedAt": "2025-12-28T19:21:37.116Z",
      "stateName": "Colorado",
      "countryName": "United States"
    },
    {
      "id": 1978,
      "stateId": 15,
      "name": "Pahrump",
      "latitude": "36.2082900",
      "longitude": "-115.9839100",
      "createdAt": "2025-12-28T18:10:35.795Z",
      "updatedAt": "2025-12-28T18:10:35.795Z",
      "stateName": "Nevada",
      "countryName": "United States"
    },
    {
      "id": 464,
      "stateId": 128,
      "name": "Paia",
      "latitude": "37.8034989",
      "longitude": "-92.5169818",
      "createdAt": "2025-12-28T17:00:51.760Z",
      "updatedAt": "2025-12-28T17:00:51.760Z",
      "stateName": "Hawaii",
      "countryName": "United States"
    },
    {
      "id": 7684,
      "stateId": 137,
      "name": "Paiçandu",
      "latitude": null,
      "longitude": null,
      "createdAt": "2025-12-28T18:31:09.738Z",
      "updatedAt": "2025-12-28T18:31:09.738Z",
      "stateName": "Paraná",
      "countryName": "Brazil"
    },
    {
      "id": 8619,
      "stateId": 259,
      "name": "Paidha Town",
      "latitude": null,
      "longitude": null,
      "createdAt": "2025-12-28T18:39:25.738Z",
      "updatedAt": "2025-12-28T18:39:25.738Z",
      "stateName": "Eastern Region",
      "countryName": "Uganda"
    },
    {
      "id": 17626,
      "stateId": 2,
      "name": "Paignton",
      "latitude": null,
      "longitude": null,
      "createdAt": "2026-01-27T12:13:10.685Z",
      "updatedAt": "2026-01-27T12:13:10.685Z",
      "stateName": "England",
      "countryName": "United Kingdom"
    },
    {
      "id": 8066,
      "stateId": 309,
      "name": "Paillaco",
      "latitude": null,
      "longitude": null,
      "createdAt": "2025-12-28T18:35:00.110Z",
      "updatedAt": "2025-12-28T18:35:00.110Z",
      "stateName": "Valdivia",
      "countryName": "Chile"
    },
    {
      "id": 14994,
      "stateId": 205,
      "name": "Paim Filho",
      "latitude": null,
      "longitude": null,
      "createdAt": "2025-12-28T19:51:51.895Z",
      "updatedAt": "2025-12-28T19:51:51.895Z",
      "stateName": "Rio Grande do Sul",
      "countryName": "Brazil"
    },
    {
      "id": 14424,
      "stateId": 224,
      "name": "Paimpol",
      "latitude": "47.3768156",
      "longitude": "2.7742767",
      "createdAt": "2025-12-28T19:44:03.928Z",
      "updatedAt": "2025-12-28T19:44:03.928Z",
      "stateName": "Brittany",
      "countryName": "France"
    },
    {
      "id": 7923,
      "stateId": 14,
      "name": "Painesville",
      "latitude": "41.7244900",
      "longitude": "-81.2456600",
      "createdAt": "2025-12-28T18:33:03.241Z",
      "updatedAt": "2025-12-28T18:33:03.241Z",
      "stateName": "Ohio",
      "countryName": "United States"
    },
    {
      "id": 867,
      "stateId": 80,
      "name": "Paintsville",
      "latitude": "37.8034989",
      "longitude": "-92.5169818",
      "createdAt": "2025-12-28T17:02:24.778Z",
      "updatedAt": "2025-12-28T17:02:24.778Z",
      "stateName": "Kentucky",
      "countryName": "United States"
    },
    {
      "id": 16640,
      "stateId": 80,
      "name": "Paintsville-Van Lear",
      "latitude": "37.8034989",
      "longitude": "-92.5169818",
      "createdAt": "2025-12-28T20:48:38.798Z",
      "updatedAt": "2025-12-28T20:48:38.798Z",
      "stateName": "Kentucky",
      "countryName": "United States"
    },
    {
      "id": 1917,
      "stateId": 328,
      "name": "Paipa",
      "latitude": null,
      "longitude": null,
      "createdAt": "2025-12-28T18:10:30.337Z",
      "updatedAt": "2025-12-28T18:10:30.337Z",
      "stateName": "Boyacá",
      "countryName": "Colombia"
    },
    {
      "id": 15269,
      "stateId": 444,
      "name": "Paisley",
      "latitude": "55.8317300",
      "longitude": "-4.4325400",
      "createdAt": "2025-12-28T20:00:05.096Z",
      "updatedAt": "2025-12-28T20:00:05.096Z",
      "stateName": "Scotland",
      "countryName": "United Kingdom"
    },
    {
      "id": 11103,
      "stateId": 328,
      "name": "Pajarito",
      "latitude": null,
      "longitude": null,
      "createdAt": "2025-12-28T19:01:05.766Z",
      "updatedAt": "2025-12-28T19:01:05.766Z",
      "stateName": "Boyacá",
      "countryName": "Colombia"
    },
    {
      "id": 13119,
      "stateId": 24,
      "name": "Pala",
      "latitude": null,
      "longitude": null,
      "createdAt": "2025-12-28T19:20:55.098Z",
      "updatedAt": "2025-12-28T19:20:55.098Z",
      "stateName": "California",
      "countryName": "United States"
    },
    {
      "id": 14113,
      "stateId": 1258,
      "name": "Palacagüina",
      "latitude": null,
      "longitude": null,
      "createdAt": "2025-12-28T19:39:44.061Z",
      "updatedAt": "2025-12-28T19:39:44.061Z",
      "stateName": "Madriz",
      "countryName": "Nicaragua"
    },
    {
      "id": 18212,
      "stateId": 115,
      "name": "Palafrugell",
      "latitude": "41.9173800",
      "longitude": "3.1631000",
      "createdAt": "2026-04-24T19:00:47.790Z",
      "updatedAt": "2026-04-24T19:00:47.790Z",
      "stateName": "Barcelona",
      "countryName": "Spain"
    },
    {
      "id": 2583,
      "stateId": 316,
      "name": "Palakkad / Palghat",
      "latitude": null,
      "longitude": null,
      "createdAt": "2025-12-28T18:12:28.960Z",
      "updatedAt": "2025-12-28T18:12:28.960Z",
      "stateName": "Kerala",
      "countryName": "India"
    },
    {
      "id": 5899,
      "stateId": 513,
      "name": "Palamós",
      "latitude": null,
      "longitude": null,
      "createdAt": "2025-12-28T18:22:34.402Z",
      "updatedAt": "2025-12-28T18:22:34.402Z",
      "stateName": "Girona",
      "countryName": "Spain"
    },
    {
      "id": 14981,
      "stateId": 939,
      "name": "Palangkaraya",
      "latitude": null,
      "longitude": null,
      "createdAt": "2025-12-28T19:51:42.262Z",
      "updatedAt": "2025-12-28T19:51:42.262Z",
      "stateName": "Central Kalimantan",
      "countryName": "Indonesia"
    },
    {
      "id": 5162,
      "stateId": 378,
      "name": "Palani",
      "latitude": null,
      "longitude": null,
      "createdAt": "2025-12-28T18:20:00.714Z",
      "updatedAt": "2025-12-28T18:20:00.714Z",
      "stateName": "Tamil Nadu",
      "countryName": "India"
    },
    {
      "id": 14978,
      "stateId": 283,
      "name": "Palanpur",
      "latitude": null,
      "longitude": null,
      "createdAt": "2025-12-28T19:51:40.119Z",
      "updatedAt": "2025-12-28T19:51:40.119Z",
      "stateName": "Gujarat",
      "countryName": "India"
    },
    {
      "id": 11283,
      "stateId": 33,
      "name": "Palatka",
      "latitude": "37.8034989",
      "longitude": "-92.5169818",
      "createdAt": "2025-12-28T19:03:45.112Z",
      "updatedAt": "2025-12-28T19:03:45.112Z",
      "stateName": "Florida",
      "countryName": "United States"
    },
    {
      "id": 100,
      "stateId": 70,
      "name": "Palembang",
      "latitude": "-2.9167300",
      "longitude": "104.7458000",
      "createdAt": "2025-12-28T16:56:24.015Z",
      "updatedAt": "2025-12-28T16:56:24.015Z",
      "stateName": "South Sumatra",
      "countryName": "Indonesia"
    },
    {
      "id": 6216,
      "stateId": 357,
      "name": "Palencia",
      "latitude": "42.0095500",
      "longitude": "-4.5240600",
      "createdAt": "2025-12-28T18:23:38.392Z",
      "updatedAt": "2025-12-28T18:23:38.392Z",
      "stateName": "Burgos",
      "countryName": "Spain"
    },
    {
      "id": 6272,
      "stateId": 603,
      "name": "Palencia",
      "latitude": null,
      "longitude": null,
      "createdAt": "2025-12-28T18:24:29.542Z",
      "updatedAt": "2025-12-28T18:24:29.542Z",
      "stateName": "Palencia",
      "countryName": "Spain"
    },
    {
      "id": 8019,
      "stateId": 314,
      "name": "Palenque",
      "latitude": "17.5095300",
      "longitude": "-91.9824800",
      "createdAt": "2025-12-28T18:34:11.970Z",
      "updatedAt": "2025-12-28T18:34:11.970Z",
      "stateName": "Chiapas",
      "countryName": "Mexico"
    },
    {
      "id": 427,
      "stateId": 207,
      "name": "Palermo",
      "latitude": "38.1320500",
      "longitude": "13.3356100",
      "createdAt": "2025-12-28T17:00:49.740Z",
      "updatedAt": "2025-12-28T17:00:49.740Z",
      "stateName": "Sicily",
      "countryName": "Italy"
    },
    {
      "id": 494,
      "stateId": 58,
      "name": "Palermo",
      "latitude": null,
      "longitude": null,
      "createdAt": "2025-12-28T17:00:54.959Z",
      "updatedAt": "2025-12-28T17:00:54.959Z",
      "stateName": "Buenos Aires",
      "countryName": "Argentina"
    },
    {
      "id": 6780,
      "stateId": 330,
      "name": "Palestina",
      "latitude": null,
      "longitude": null,
      "createdAt": "2025-12-28T18:27:10.803Z",
      "updatedAt": "2025-12-28T18:27:10.803Z",
      "stateName": "Huila",
      "countryName": "Colombia"
    },
    {
      "id": 15159,
      "stateId": 4,
      "name": "Palestina",
      "latitude": null,
      "longitude": null,
      "createdAt": "2025-12-28T19:56:41.905Z",
      "updatedAt": "2025-12-28T19:56:41.905Z",
      "stateName": "São Paulo",
      "countryName": "Brazil"
    },
    {
      "id": 5353,
      "stateId": 20,
      "name": "Palestine",
      "latitude": "31.7621200",
      "longitude": "-95.6307900",
      "createdAt": "2025-12-28T18:20:26.395Z",
      "updatedAt": "2025-12-28T18:20:26.395Z",
      "stateName": "Texas",
      "countryName": "United States"
    },
    {
      "id": 17248,
      "stateId": 87,
      "name": "Palestrina",
      "latitude": null,
      "longitude": null,
      "createdAt": "2025-12-29T16:13:25.960Z",
      "updatedAt": "2025-12-29T16:13:25.960Z",
      "stateName": "Lazio",
      "countryName": "Italy"
    },
    {
      "id": 3474,
      "stateId": 293,
      "name": "Palhoça",
      "latitude": null,
      "longitude": null,
      "createdAt": "2025-12-28T18:14:33.207Z",
      "updatedAt": "2025-12-28T18:14:33.207Z",
      "stateName": "Santa Catarina",
      "countryName": "Brazil"
    },
    {
      "id": 15253,
      "stateId": 1208,
      "name": "Palin",
      "latitude": null,
      "longitude": null,
      "createdAt": "2025-12-28T19:59:15.152Z",
      "updatedAt": "2025-12-28T19:59:15.152Z",
      "stateName": "Escuintla",
      "countryName": "Guatemala"
    },
    {
      "id": 18012,
      "stateId": 106,
      "name": "Palisades Park",
      "latitude": null,
      "longitude": null,
      "createdAt": "2026-03-28T10:26:36.676Z",
      "updatedAt": "2026-03-28T10:26:36.676Z",
      "stateName": "New Jersey",
      "countryName": "United States"
    },
    {
      "id": 221,
      "stateId": 131,
      "name": "Palma de Mallorca",
      "latitude": "39.2717249",
      "longitude": "-3.2471696",
      "createdAt": "2025-12-28T16:56:36.474Z",
      "updatedAt": "2025-12-28T16:56:36.474Z",
      "stateName": "Balearic Islands",
      "countryName": "Spain"
    },
    {
      "id": 17870,
      "stateId": 207,
      "name": "Palma di Montechiaro",
      "latitude": null,
      "longitude": null,
      "createdAt": "2026-03-11T03:20:23.756Z",
      "updatedAt": "2026-03-11T03:20:23.756Z",
      "stateName": "Sicily",
      "countryName": "Italy"
    },
    {
      "id": 6840,
      "stateId": 7,
      "name": "Palmares",
      "latitude": "-8.6833300",
      "longitude": "-35.5916700",
      "createdAt": "2025-12-28T18:27:20.908Z",
      "updatedAt": "2025-12-28T18:27:20.908Z",
      "stateName": "Pernambuco",
      "countryName": "Brazil"
    },
    {
      "id": 15386,
      "stateId": 205,
      "name": "Palmares do Sul",
      "latitude": null,
      "longitude": null,
      "createdAt": "2025-12-28T20:04:21.780Z",
      "updatedAt": "2025-12-28T20:04:21.780Z",
      "stateName": "Rio Grande do Sul",
      "countryName": "Brazil"
    },
    {
      "id": 17576,
      "stateId": 4,
      "name": "Palmares Paulista",
      "latitude": null,
      "longitude": null,
      "createdAt": "2026-01-23T12:01:02.806Z",
      "updatedAt": "2026-01-23T12:01:02.806Z",
      "stateName": "São Paulo",
      "countryName": "Brazil"
    },
    {
      "id": 7136,
      "stateId": 137,
      "name": "Palmas",
      "latitude": null,
      "longitude": null,
      "createdAt": "2025-12-28T18:28:26.735Z",
      "updatedAt": "2025-12-28T18:28:26.735Z",
      "stateName": "Paraná",
      "countryName": "Brazil"
    },
    {
      "id": 6416,
      "stateId": 595,
      "name": "Palmas",
      "latitude": "-10.1674500",
      "longitude": "-48.3276600",
      "createdAt": "2025-12-28T18:25:10.257Z",
      "updatedAt": "2025-12-28T18:25:10.257Z",
      "stateName": "Tocantins",
      "countryName": "Brazil"
    },
    {
      "id": 16201,
      "stateId": 262,
      "name": "Palmas de Monte Alto",
      "latitude": null,
      "longitude": null,
      "createdAt": "2025-12-28T20:38:06.526Z",
      "updatedAt": "2025-12-28T20:38:06.526Z",
      "stateName": "Bahia",
      "countryName": "Brazil"
    },
    {
      "id": 18384,
      "stateId": 981,
      "name": "Palma Soriano",
      "latitude": "20.2123800",
      "longitude": "-75.9984300",
      "createdAt": "2026-05-22T16:27:08.844Z",
      "updatedAt": "2026-05-22T16:27:08.844Z",
      "stateName": "Santiago de Cuba",
      "countryName": "Cuba"
    },
    {
      "id": 10049,
      "stateId": 33,
      "name": "Palm Bay",
      "latitude": "28.0344600",
      "longitude": "-80.5886600",
      "createdAt": "2025-12-28T18:49:52.962Z",
      "updatedAt": "2025-12-28T18:49:52.962Z",
      "stateName": "Florida",
      "countryName": "United States"
    },
    {
      "id": 4779,
      "stateId": 33,
      "name": "Palm Beach",
      "latitude": "26.7153400",
      "longitude": "-80.0533700",
      "createdAt": "2025-12-28T18:18:40.172Z",
      "updatedAt": "2025-12-28T18:18:40.172Z",
      "stateName": "Florida",
      "countryName": "United States"
    },
    {
      "id": 10064,
      "stateId": 33,
      "name": "Palm Beach Gardens",
      "latitude": "26.8233900",
      "longitude": "-80.1386500",
      "createdAt": "2025-12-28T18:50:03.092Z",
      "updatedAt": "2025-12-28T18:50:03.092Z",
      "stateName": "Florida",
      "countryName": "United States"
    },
    {
      "id": 10009,
      "stateId": 33,
      "name": "Palm Beach Shores",
      "latitude": null,
      "longitude": null,
      "createdAt": "2025-12-28T18:49:40.819Z",
      "updatedAt": "2025-12-28T18:49:40.819Z",
      "stateName": "Florida",
      "countryName": "United States"
    },
    {
      "id": 10086,
      "stateId": 33,
      "name": "Palm City",
      "latitude": "27.1678300",
      "longitude": "-80.2661600",
      "createdAt": "2025-12-28T18:50:12.522Z",
      "updatedAt": "2025-12-28T18:50:12.522Z",
      "stateName": "Florida",
      "countryName": "United States"
    },
    {
      "id": 180,
      "stateId": 33,
      "name": "Palm Coast",
      "latitude": "29.5849700",
      "longitude": "-81.2078400",
      "createdAt": "2025-12-28T16:56:33.490Z",
      "updatedAt": "2025-12-28T16:56:33.490Z",
      "stateName": "Florida",
      "countryName": "United States"
    },
    {
      "id": 2796,
      "stateId": 24,
      "name": "Palm Desert",
      "latitude": "33.7225500",
      "longitude": "-116.3769700",
      "createdAt": "2025-12-28T18:12:46.261Z",
      "updatedAt": "2025-12-28T18:12:46.261Z",
      "stateName": "California",
      "countryName": "United States"
    },
    {
      "id": 11735,
      "stateId": 137,
      "name": "Palmeira",
      "latitude": null,
      "longitude": null,
      "createdAt": "2025-12-28T19:08:52.070Z",
      "updatedAt": "2025-12-28T19:08:52.070Z",
      "stateName": "Paraná",
      "countryName": "Brazil"
    },
    {
      "id": 8059,
      "stateId": 205,
      "name": "Palmeira das Missoes",
      "latitude": "-17.4339069",
      "longitude": "-45.8426650",
      "createdAt": "2025-12-28T18:34:53.915Z",
      "updatedAt": "2025-12-28T18:34:53.915Z",
      "stateName": "Rio Grande do Sul",
      "countryName": "Brazil"
    },
    {
      "id": 14484,
      "stateId": 4,
      "name": "Palmeira d'Oeste",
      "latitude": null,
      "longitude": null,
      "createdAt": "2025-12-28T19:44:30.161Z",
      "updatedAt": "2025-12-28T19:44:30.161Z",
      "stateName": "São Paulo",
      "countryName": "Brazil"
    },
    {
      "id": 13035,
      "stateId": 274,
      "name": "Palmeira dos Índios",
      "latitude": null,
      "longitude": null,
      "createdAt": "2025-12-28T19:20:24.974Z",
      "updatedAt": "2025-12-28T19:20:24.974Z",
      "stateName": "Alagoas",
      "countryName": "Brazil"
    },
    {
      "id": 7261,
      "stateId": 262,
      "name": "Palmeiras",
      "latitude": null,
      "longitude": null,
      "createdAt": "2025-12-28T18:29:00.438Z",
      "updatedAt": "2025-12-28T18:29:00.438Z",
      "stateName": "Bahia",
      "countryName": "Brazil"
    },
    {
      "id": 17736,
      "stateId": 253,
      "name": "Palmeiras de Goiás",
      "latitude": null,
      "longitude": null,
      "createdAt": "2026-02-13T22:52:52.577Z",
      "updatedAt": "2026-02-13T22:52:52.577Z",
      "stateName": "Goiás",
      "countryName": "Brazil"
    },
    {
      "id": 9292,
      "stateId": 7,
      "name": "Palmeirina",
      "latitude": null,
      "longitude": null,
      "createdAt": "2025-12-28T18:43:19.564Z",
      "updatedAt": "2025-12-28T18:43:19.564Z",
      "stateName": "Pernambuco",
      "countryName": "Brazil"
    },
    {
      "id": 14996,
      "stateId": 206,
      "name": "Palmela",
      "latitude": "38.5690200",
      "longitude": "-8.9012600",
      "createdAt": "2025-12-28T19:51:58.493Z",
      "updatedAt": "2025-12-28T19:51:58.493Z",
      "stateName": "Lisboa e Vale do Tejo",
      "countryName": "Portugal"
    },
    {
      "id": 14980,
      "stateId": 253,
      "name": "Palmelo",
      "latitude": null,
      "longitude": null,
      "createdAt": "2025-12-28T19:51:40.558Z",
      "updatedAt": "2025-12-28T19:51:40.558Z",
      "stateName": "Goiás",
      "countryName": "Brazil"
    },
    {
      "id": 16759,
      "stateId": 92,
      "name": "Palmer",
      "latitude": "37.8034989",
      "longitude": "-92.5169818",
      "createdAt": "2025-12-28T20:51:19.205Z",
      "updatedAt": "2025-12-28T20:51:19.205Z",
      "stateName": "Michigan",
      "countryName": "United States"
    },
    {
      "id": 9097,
      "stateId": 45,
      "name": "Palmer",
      "latitude": "42.1584300",
      "longitude": "-72.3286900",
      "createdAt": "2025-12-28T18:41:50.468Z",
      "updatedAt": "2025-12-28T18:41:50.468Z",
      "stateName": "Alaska",
      "countryName": "United States"
    },
    {
      "id": 14868,
      "stateId": 524,
      "name": "Palmerston",
      "latitude": "-39.8145491",
      "longitude": "174.7111031",
      "createdAt": "2025-12-28T19:50:04.625Z",
      "updatedAt": "2025-12-28T19:50:04.625Z",
      "stateName": "Central Otago",
      "countryName": "New Zealand"
    },
    {
      "id": 7570,
      "stateId": 518,
      "name": "Palmerston",
      "latitude": "-12.4860200",
      "longitude": "130.9833000",
      "createdAt": "2025-12-28T18:30:39.139Z",
      "updatedAt": "2025-12-28T18:30:39.139Z",
      "stateName": "Northern Territory",
      "countryName": "Australia"
    },
    {
      "id": 1559,
      "stateId": 489,
      "name": "Palmerston North",
      "latitude": "-40.3563600",
      "longitude": "175.6111300",
      "createdAt": "2025-12-28T17:04:43.866Z",
      "updatedAt": "2025-12-28T17:04:43.866Z",
      "stateName": "Manawatu",
      "countryName": "New Zealand"
    },
    {
      "id": 194,
      "stateId": 22,
      "name": "Palmetto",
      "latitude": null,
      "longitude": null,
      "createdAt": "2025-12-28T16:56:34.690Z",
      "updatedAt": "2025-12-28T16:56:34.690Z",
      "stateName": "Georgia",
      "countryName": "United States"
    },
    {
      "id": 6687,
      "stateId": 33,
      "name": "Palmetto",
      "latitude": "25.6217700",
      "longitude": "-80.3247700",
      "createdAt": "2025-12-28T18:26:34.732Z",
      "updatedAt": "2025-12-28T18:26:34.732Z",
      "stateName": "Florida",
      "countryName": "United States"
    },
    {
      "id": 16904,
      "stateId": 33,
      "name": "Palm Harbor",
      "latitude": "28.0780700",
      "longitude": "-82.7637100",
      "createdAt": "2025-12-28T20:55:00.925Z",
      "updatedAt": "2025-12-28T20:55:00.925Z",
      "stateName": "Florida",
      "countryName": "United States"
    },
    {
      "id": 16058,
      "stateId": 223,
      "name": "Palmi",
      "latitude": "38.4069000",
      "longitude": "15.8717300",
      "createdAt": "2025-12-28T20:30:23.559Z",
      "updatedAt": "2025-12-28T20:30:23.559Z",
      "stateName": "Calabria",
      "countryName": "Italy"
    }
  ],
  "meta": {
    "page": 119,
    "limit": 100,
    "total": 18002,
    "totalPages": 181
  }
}
