{
  "source": "50k-radio-stations",
  "provider": "rapidapi",
  "syncedAt": "2026-06-03T13:04:53.892Z",
  "endpoint": "/cities",
  "page": 65,
  "limit": 250,
  "data": [
    {
      "id": 10880,
      "stateId": 85,
      "name": "Guarantã do Norte",
      "latitude": null,
      "longitude": null,
      "createdAt": "2025-12-28T18:58:37.401Z",
      "updatedAt": "2025-12-28T18:58:37.401Z",
      "stateName": "Mato Grosso",
      "countryName": "Brazil"
    },
    {
      "id": 4691,
      "stateId": 261,
      "name": "Guarapari",
      "latitude": null,
      "longitude": null,
      "createdAt": "2025-12-28T18:18:27.746Z",
      "updatedAt": "2025-12-28T18:18:27.746Z",
      "stateName": "Espírito Santo",
      "countryName": "Brazil"
    },
    {
      "id": 639,
      "stateId": 137,
      "name": "Guarapuava",
      "latitude": "-25.3904800",
      "longitude": "-51.4654100",
      "createdAt": "2025-12-28T17:01:15.889Z",
      "updatedAt": "2025-12-28T17:01:15.889Z",
      "stateName": "Paraná",
      "countryName": "Brazil"
    },
    {
      "id": 8026,
      "stateId": 4,
      "name": "Guararapes",
      "latitude": "-21.2608300",
      "longitude": "-50.6427800",
      "createdAt": "2025-12-28T18:34:13.937Z",
      "updatedAt": "2025-12-28T18:34:13.937Z",
      "stateName": "São Paulo",
      "countryName": "Brazil"
    },
    {
      "id": 10205,
      "stateId": 4,
      "name": "Guaratingueta",
      "latitude": "-17.4339069",
      "longitude": "-45.8426650",
      "createdAt": "2025-12-28T18:51:07.486Z",
      "updatedAt": "2025-12-28T18:51:07.486Z",
      "stateName": "São Paulo",
      "countryName": "Brazil"
    },
    {
      "id": 10910,
      "stateId": 137,
      "name": "Guaratuba",
      "latitude": "-25.8827800",
      "longitude": "-48.5747200",
      "createdAt": "2025-12-28T18:59:04.176Z",
      "updatedAt": "2025-12-28T18:59:04.176Z",
      "stateName": "Paraná",
      "countryName": "Brazil"
    },
    {
      "id": 17292,
      "stateId": 374,
      "name": "Guarda",
      "latitude": "39.5232529",
      "longitude": "-8.9987995",
      "createdAt": "2025-12-29T16:20:38.938Z",
      "updatedAt": "2025-12-29T16:20:38.938Z",
      "stateName": "Centro",
      "countryName": "Portugal"
    },
    {
      "id": 5522,
      "stateId": 534,
      "name": "Guardamar del Segura",
      "latitude": null,
      "longitude": null,
      "createdAt": "2025-12-28T18:21:10.539Z",
      "updatedAt": "2025-12-28T18:21:10.539Z",
      "stateName": "Alicante",
      "countryName": "Spain"
    },
    {
      "id": 15317,
      "stateId": 4,
      "name": "Guareí",
      "latitude": null,
      "longitude": null,
      "createdAt": "2025-12-28T20:02:15.563Z",
      "updatedAt": "2025-12-28T20:02:15.563Z",
      "stateName": "São Paulo",
      "countryName": "Brazil"
    },
    {
      "id": 6902,
      "stateId": 763,
      "name": "Guarenas",
      "latitude": "10.4673600",
      "longitude": "-66.6066300",
      "createdAt": "2025-12-28T18:27:30.762Z",
      "updatedAt": "2025-12-28T18:27:30.762Z",
      "stateName": "Miranda",
      "countryName": "Venezuela"
    },
    {
      "id": 10918,
      "stateId": 219,
      "name": "Guarene",
      "latitude": "42.4957616",
      "longitude": "12.4479260",
      "createdAt": "2025-12-28T18:59:10.859Z",
      "updatedAt": "2025-12-28T18:59:10.859Z",
      "stateName": "Metropolitan City of Turin",
      "countryName": "Italy"
    },
    {
      "id": 15877,
      "stateId": 390,
      "name": "Guarnizo",
      "latitude": null,
      "longitude": null,
      "createdAt": "2025-12-28T20:21:20.487Z",
      "updatedAt": "2025-12-28T20:21:20.487Z",
      "stateName": "Cantabria",
      "countryName": "Spain"
    },
    {
      "id": 10911,
      "stateId": 4,
      "name": "Guaruja",
      "latitude": "-17.4339069",
      "longitude": "-45.8426650",
      "createdAt": "2025-12-28T18:59:04.501Z",
      "updatedAt": "2025-12-28T18:59:04.501Z",
      "stateName": "São Paulo",
      "countryName": "Brazil"
    },
    {
      "id": 781,
      "stateId": 4,
      "name": "Guarulhos",
      "latitude": "-23.4627800",
      "longitude": "-46.5333300",
      "createdAt": "2025-12-28T17:02:17.956Z",
      "updatedAt": "2025-12-28T17:02:17.956Z",
      "stateName": "São Paulo",
      "countryName": "Brazil"
    },
    {
      "id": 6099,
      "stateId": 371,
      "name": "Guasave",
      "latitude": "25.5674500",
      "longitude": "-108.4675600",
      "createdAt": "2025-12-28T18:23:14.748Z",
      "updatedAt": "2025-12-28T18:23:14.748Z",
      "stateName": "Sinaloa",
      "countryName": "Mexico"
    },
    {
      "id": 3082,
      "stateId": 663,
      "name": "Guasdualito",
      "latitude": null,
      "longitude": null,
      "createdAt": "2025-12-28T18:13:39.407Z",
      "updatedAt": "2025-12-28T18:13:39.407Z",
      "stateName": "Apure",
      "countryName": "Venezuela"
    },
    {
      "id": 10897,
      "stateId": 231,
      "name": "Guassussê",
      "latitude": null,
      "longitude": null,
      "createdAt": "2025-12-28T18:58:41.936Z",
      "updatedAt": "2025-12-28T18:58:41.936Z",
      "stateName": "Ceará",
      "countryName": "Brazil"
    },
    {
      "id": 10906,
      "stateId": 4,
      "name": "Guatapará",
      "latitude": null,
      "longitude": null,
      "createdAt": "2025-12-28T18:58:55.871Z",
      "updatedAt": "2025-12-28T18:58:55.871Z",
      "stateName": "São Paulo",
      "countryName": "Brazil"
    },
    {
      "id": 193,
      "stateId": 119,
      "name": "Guatemala City",
      "latitude": "14.6407200",
      "longitude": "-90.5132700",
      "createdAt": "2025-12-28T16:56:34.598Z",
      "updatedAt": "2025-12-28T16:56:34.598Z",
      "stateName": "Guatemala Department",
      "countryName": "Guatemala"
    },
    {
      "id": 17416,
      "stateId": 1354,
      "name": "Guatemala City",
      "latitude": "14.8315200",
      "longitude": "-90.7261285",
      "createdAt": "2026-01-05T20:05:31.932Z",
      "updatedAt": "2026-01-05T20:05:31.932Z",
      "stateName": "Coban",
      "countryName": "Guatemala"
    },
    {
      "id": 4100,
      "stateId": 239,
      "name": "Guatemala de la Asunción",
      "latitude": null,
      "longitude": null,
      "createdAt": "2025-12-28T18:16:13.560Z",
      "updatedAt": "2025-12-28T18:16:13.560Z",
      "stateName": "Baja Verapaz",
      "countryName": "Guatemala"
    },
    {
      "id": 9338,
      "stateId": 328,
      "name": "Guateque",
      "latitude": "6.4444434",
      "longitude": "-74.9549521",
      "createdAt": "2025-12-28T18:43:50.576Z",
      "updatedAt": "2025-12-28T18:43:50.576Z",
      "stateName": "Boyacá",
      "countryName": "Colombia"
    },
    {
      "id": 4376,
      "stateId": 763,
      "name": "Guatire",
      "latitude": null,
      "longitude": null,
      "createdAt": "2025-12-28T18:17:13.060Z",
      "updatedAt": "2025-12-28T18:17:13.060Z",
      "stateName": "Miranda",
      "countryName": "Venezuela"
    },
    {
      "id": 15692,
      "stateId": 192,
      "name": "Guatraché",
      "latitude": "-32.1628172",
      "longitude": "-62.0921509",
      "createdAt": "2025-12-28T20:15:18.236Z",
      "updatedAt": "2025-12-28T20:15:18.236Z",
      "stateName": "La Pampa",
      "countryName": "Argentina"
    },
    {
      "id": 6777,
      "stateId": 95,
      "name": "Guaxupe",
      "latitude": "-17.4339069",
      "longitude": "-45.8426650",
      "createdAt": "2025-12-28T18:27:10.615Z",
      "updatedAt": "2025-12-28T18:27:10.615Z",
      "stateName": "Minas Gerais",
      "countryName": "Brazil"
    },
    {
      "id": 499,
      "stateId": 233,
      "name": "Guayaquil",
      "latitude": "-2.2058400",
      "longitude": "-79.9079500",
      "createdAt": "2025-12-28T17:00:55.484Z",
      "updatedAt": "2025-12-28T17:00:55.484Z",
      "stateName": "Guayas",
      "countryName": "Ecuador"
    },
    {
      "id": 9636,
      "stateId": 285,
      "name": "Guaymallén",
      "latitude": null,
      "longitude": null,
      "createdAt": "2025-12-28T18:45:57.177Z",
      "updatedAt": "2025-12-28T18:45:57.177Z",
      "stateName": "Mendoza",
      "countryName": "Argentina"
    },
    {
      "id": 3183,
      "stateId": 345,
      "name": "Guaymas",
      "latitude": "27.9192800",
      "longitude": "-110.8975500",
      "createdAt": "2025-12-28T18:13:55.360Z",
      "updatedAt": "2025-12-28T18:13:55.360Z",
      "stateName": "Sonora",
      "countryName": "Mexico"
    },
    {
      "id": 9230,
      "stateId": 755,
      "name": "Gubkin",
      "latitude": null,
      "longitude": null,
      "createdAt": "2025-12-28T18:42:39.797Z",
      "updatedAt": "2025-12-28T18:42:39.797Z",
      "stateName": "Belgorod",
      "countryName": "Russia"
    },
    {
      "id": 10003,
      "stateId": 448,
      "name": "Guebwiller",
      "latitude": "47.3768156",
      "longitude": "2.7742767",
      "createdAt": "2025-12-28T18:49:37.350Z",
      "updatedAt": "2025-12-28T18:49:37.350Z",
      "stateName": "Alsace",
      "countryName": "France"
    },
    {
      "id": 6647,
      "stateId": 41,
      "name": "Guelph",
      "latitude": "43.5459400",
      "longitude": "-80.2559900",
      "createdAt": "2025-12-28T18:26:12.031Z",
      "updatedAt": "2025-12-28T18:26:12.031Z",
      "stateName": "Ontario",
      "countryName": "Canada"
    },
    {
      "id": 14427,
      "stateId": 224,
      "name": "Guer",
      "latitude": "47.3768156",
      "longitude": "2.7742767",
      "createdAt": "2025-12-28T19:44:03.988Z",
      "updatedAt": "2025-12-28T19:44:03.988Z",
      "stateName": "Brittany",
      "countryName": "France"
    },
    {
      "id": 3838,
      "stateId": 481,
      "name": "Guéret",
      "latitude": "47.3768156",
      "longitude": "2.7742767",
      "createdAt": "2025-12-28T18:15:22.916Z",
      "updatedAt": "2025-12-28T18:15:22.916Z",
      "stateName": "Nouvelle-Aquitaine",
      "countryName": "France"
    },
    {
      "id": 12667,
      "stateId": 24,
      "name": "Guerneville",
      "latitude": "37.8034989",
      "longitude": "-92.5169818",
      "createdAt": "2025-12-28T19:17:23.377Z",
      "updatedAt": "2025-12-28T19:17:23.377Z",
      "stateName": "California",
      "countryName": "United States"
    },
    {
      "id": 12271,
      "stateId": 369,
      "name": "Guia Lopes da Laguna",
      "latitude": null,
      "longitude": null,
      "createdAt": "2025-12-28T19:15:03.334Z",
      "updatedAt": "2025-12-28T19:15:03.334Z",
      "stateName": "Mato Grosso do Sul",
      "countryName": "Brazil"
    },
    {
      "id": 18033,
      "stateId": 224,
      "name": "Guichen",
      "latitude": "47.3768156",
      "longitude": "2.7742767",
      "createdAt": "2026-03-29T20:10:12.570Z",
      "updatedAt": "2026-03-29T20:10:12.570Z",
      "stateName": "Brittany",
      "countryName": "France"
    },
    {
      "id": 10896,
      "stateId": 95,
      "name": "Guidoval",
      "latitude": null,
      "longitude": null,
      "createdAt": "2025-12-28T18:58:41.199Z",
      "updatedAt": "2025-12-28T18:58:41.199Z",
      "stateName": "Minas Gerais",
      "countryName": "Brazil"
    },
    {
      "id": 10904,
      "stateId": 357,
      "name": "Guijuelo",
      "latitude": "39.2717249",
      "longitude": "-3.2471696",
      "createdAt": "2025-12-28T18:58:44.628Z",
      "updatedAt": "2025-12-28T18:58:44.628Z",
      "stateName": "Burgos",
      "countryName": "Spain"
    },
    {
      "id": 4880,
      "stateId": 2,
      "name": "Guildford",
      "latitude": "51.2353600",
      "longitude": "-0.5742700",
      "createdAt": "2025-12-28T18:18:56.382Z",
      "updatedAt": "2025-12-28T18:18:56.382Z",
      "stateName": "England",
      "countryName": "United Kingdom"
    },
    {
      "id": 10899,
      "stateId": 1017,
      "name": "Guilin",
      "latitude": "25.2819400",
      "longitude": "110.2863900",
      "createdAt": "2025-12-28T18:58:42.288Z",
      "updatedAt": "2025-12-28T18:58:42.288Z",
      "stateName": "Guangxi",
      "countryName": "China"
    },
    {
      "id": 15903,
      "stateId": 1209,
      "name": "Güímar",
      "latitude": null,
      "longitude": null,
      "createdAt": "2025-12-28T20:21:38.585Z",
      "updatedAt": "2025-12-28T20:21:38.585Z",
      "stateName": "Tenerife",
      "countryName": "Spain"
    },
    {
      "id": 6501,
      "stateId": 464,
      "name": "Guimarães",
      "latitude": "41.4444300",
      "longitude": "-8.2961900",
      "createdAt": "2025-12-28T18:25:34.634Z",
      "updatedAt": "2025-12-28T18:25:34.634Z",
      "stateName": "Norte",
      "countryName": "Portugal"
    },
    {
      "id": 7702,
      "stateId": 335,
      "name": "Guimarães",
      "latitude": null,
      "longitude": null,
      "createdAt": "2025-12-28T18:31:12.405Z",
      "updatedAt": "2025-12-28T18:31:12.405Z",
      "stateName": "Maranhão",
      "countryName": "Brazil"
    },
    {
      "id": 17927,
      "stateId": 982,
      "name": "Guines",
      "latitude": "21.9188372",
      "longitude": "-79.5551312",
      "createdAt": "2026-03-16T02:20:21.920Z",
      "updatedAt": "2026-03-16T02:20:21.920Z",
      "stateName": "Mayabeque",
      "countryName": "Cuba"
    },
    {
      "id": 7729,
      "stateId": 368,
      "name": "Guines",
      "latitude": "21.9188372",
      "longitude": "-79.5551312",
      "createdAt": "2025-12-28T18:31:19.948Z",
      "updatedAt": "2025-12-28T18:31:19.948Z",
      "stateName": "La Habana",
      "countryName": "Cuba"
    },
    {
      "id": 5856,
      "stateId": 224,
      "name": "Guingamp",
      "latitude": "47.3768156",
      "longitude": "2.7742767",
      "createdAt": "2025-12-28T18:22:29.664Z",
      "updatedAt": "2025-12-28T18:22:29.664Z",
      "stateName": "Brittany",
      "countryName": "France"
    },
    {
      "id": 4773,
      "stateId": 437,
      "name": "Guipos",
      "latitude": null,
      "longitude": null,
      "createdAt": "2025-12-28T18:18:39.527Z",
      "updatedAt": "2025-12-28T18:18:39.527Z",
      "stateName": "Zamboanga del Sur",
      "countryName": "Philippines"
    },
    {
      "id": 5871,
      "stateId": 85,
      "name": "Guiratinga",
      "latitude": null,
      "longitude": null,
      "createdAt": "2025-12-28T18:22:31.564Z",
      "updatedAt": "2025-12-28T18:22:31.564Z",
      "stateName": "Mato Grosso",
      "countryName": "Brazil"
    },
    {
      "id": 7406,
      "stateId": 95,
      "name": "Guiricema",
      "latitude": null,
      "longitude": null,
      "createdAt": "2025-12-28T18:29:55.417Z",
      "updatedAt": "2025-12-28T18:29:55.417Z",
      "stateName": "Minas Gerais",
      "countryName": "Brazil"
    },
    {
      "id": 2947,
      "stateId": 643,
      "name": "Gülağaç",
      "latitude": null,
      "longitude": null,
      "createdAt": "2025-12-28T18:13:08.307Z",
      "updatedAt": "2025-12-28T18:13:08.307Z",
      "stateName": "Aksaray",
      "countryName": "Turkey"
    },
    {
      "id": 934,
      "stateId": 346,
      "name": "Gulbarga",
      "latitude": null,
      "longitude": null,
      "createdAt": "2025-12-28T17:02:29.138Z",
      "updatedAt": "2025-12-28T17:02:29.138Z",
      "stateName": "Karnataka",
      "countryName": "India"
    },
    {
      "id": 10073,
      "stateId": 33,
      "name": "Gulf Breeze",
      "latitude": "37.8034989",
      "longitude": "-92.5169818",
      "createdAt": "2025-12-28T18:50:08.211Z",
      "updatedAt": "2025-12-28T18:50:08.211Z",
      "stateName": "Florida",
      "countryName": "United States"
    },
    {
      "id": 3232,
      "stateId": 401,
      "name": "Gulfport",
      "latitude": "30.3674200",
      "longitude": "-89.0928200",
      "createdAt": "2025-12-28T18:14:03.594Z",
      "updatedAt": "2025-12-28T18:14:03.594Z",
      "stateName": "Mississippi",
      "countryName": "United States"
    },
    {
      "id": 17115,
      "stateId": 33,
      "name": "Gulfport",
      "latitude": "37.8034989",
      "longitude": "-92.5169818",
      "createdAt": "2025-12-29T15:34:19.317Z",
      "updatedAt": "2025-12-29T15:34:19.317Z",
      "stateName": "Florida",
      "countryName": "United States"
    },
    {
      "id": 10894,
      "stateId": 122,
      "name": "Gulf Shores",
      "latitude": null,
      "longitude": null,
      "createdAt": "2025-12-28T18:58:40.922Z",
      "updatedAt": "2025-12-28T18:58:40.922Z",
      "stateName": "Alabama",
      "countryName": "United States"
    },
    {
      "id": 13935,
      "stateId": 92,
      "name": "Gulliver",
      "latitude": "37.8034989",
      "longitude": "-92.5169818",
      "createdAt": "2025-12-28T19:35:04.897Z",
      "updatedAt": "2025-12-28T19:35:04.897Z",
      "stateName": "Michigan",
      "countryName": "United States"
    },
    {
      "id": 624,
      "stateId": 259,
      "name": "Gulu",
      "latitude": null,
      "longitude": null,
      "createdAt": "2025-12-28T17:01:14.104Z",
      "updatedAt": "2025-12-28T17:01:14.104Z",
      "stateName": "Eastern Region",
      "countryName": "Uganda"
    },
    {
      "id": 8484,
      "stateId": 880,
      "name": "Gumaca",
      "latitude": null,
      "longitude": null,
      "createdAt": "2025-12-28T18:38:45.691Z",
      "updatedAt": "2025-12-28T18:38:45.691Z",
      "stateName": "Quezon",
      "countryName": "Philippines"
    },
    {
      "id": 18125,
      "stateId": 27,
      "name": "Gunnison",
      "latitude": "37.8034989",
      "longitude": "-92.5169818",
      "createdAt": "2026-03-31T06:22:03.771Z",
      "updatedAt": "2026-03-31T06:22:03.771Z",
      "stateName": "Colorado",
      "countryName": "United States"
    },
    {
      "id": 970,
      "stateId": 122,
      "name": "Guntersville",
      "latitude": "37.8034989",
      "longitude": "-92.5169818",
      "createdAt": "2025-12-28T17:02:31.076Z",
      "updatedAt": "2025-12-28T17:02:31.076Z",
      "stateName": "Alabama",
      "countryName": "United States"
    },
    {
      "id": 3739,
      "stateId": 380,
      "name": "Guntur",
      "latitude": null,
      "longitude": null,
      "createdAt": "2025-12-28T18:15:09.482Z",
      "updatedAt": "2025-12-28T18:15:09.482Z",
      "stateName": "Andhra Pradesh",
      "countryName": "India"
    },
    {
      "id": 10888,
      "stateId": 129,
      "name": "Gunungsitoli",
      "latitude": null,
      "longitude": null,
      "createdAt": "2025-12-28T18:58:39.454Z",
      "updatedAt": "2025-12-28T18:58:39.454Z",
      "stateName": "North Sumatra",
      "countryName": "Indonesia"
    },
    {
      "id": 13855,
      "stateId": 34,
      "name": "Gunzburg",
      "latitude": "50.9385735",
      "longitude": "9.5583023",
      "createdAt": "2025-12-28T19:33:37.408Z",
      "updatedAt": "2025-12-28T19:33:37.408Z",
      "stateName": "Bavaria",
      "countryName": "Germany"
    },
    {
      "id": 7483,
      "stateId": 34,
      "name": "Gunzenhausen",
      "latitude": null,
      "longitude": null,
      "createdAt": "2025-12-28T18:30:21.787Z",
      "updatedAt": "2025-12-28T18:30:21.787Z",
      "stateName": "Bavaria",
      "countryName": "Germany"
    },
    {
      "id": 10626,
      "stateId": 1149,
      "name": "Guovdageaidnu (Kautokeino)",
      "latitude": null,
      "longitude": null,
      "createdAt": "2025-12-28T18:55:50.154Z",
      "updatedAt": "2025-12-28T18:55:50.154Z",
      "stateName": "Finnmark County",
      "countryName": "Norway"
    },
    {
      "id": 10890,
      "stateId": 287,
      "name": "Gurjão",
      "latitude": null,
      "longitude": null,
      "createdAt": "2025-12-28T18:58:40.497Z",
      "updatedAt": "2025-12-28T18:58:40.497Z",
      "stateName": "Paraíba",
      "countryName": "Brazil"
    },
    {
      "id": 15411,
      "stateId": 122,
      "name": "Gurley",
      "latitude": "37.8034989",
      "longitude": "-92.5169818",
      "createdAt": "2025-12-28T20:05:20.619Z",
      "updatedAt": "2025-12-28T20:05:20.619Z",
      "stateName": "Alabama",
      "countryName": "United States"
    },
    {
      "id": 7307,
      "stateId": 159,
      "name": "Gurupá",
      "latitude": null,
      "longitude": null,
      "createdAt": "2025-12-28T18:29:30.457Z",
      "updatedAt": "2025-12-28T18:29:30.457Z",
      "stateName": "Pará",
      "countryName": "Brazil"
    },
    {
      "id": 3889,
      "stateId": 595,
      "name": "Gurupi",
      "latitude": null,
      "longitude": null,
      "createdAt": "2025-12-28T18:15:34.309Z",
      "updatedAt": "2025-12-28T18:15:34.309Z",
      "stateName": "Tocantins",
      "countryName": "Brazil"
    },
    {
      "id": 10887,
      "stateId": 1157,
      "name": "Gusau",
      "latitude": null,
      "longitude": null,
      "createdAt": "2025-12-28T18:58:39.031Z",
      "updatedAt": "2025-12-28T18:58:39.031Z",
      "stateName": "Zamfara",
      "countryName": "Nigeria"
    },
    {
      "id": 10903,
      "stateId": 1090,
      "name": "Gus-Khrustalny",
      "latitude": null,
      "longitude": null,
      "createdAt": "2025-12-28T18:58:43.746Z",
      "updatedAt": "2025-12-28T18:58:43.746Z",
      "stateName": "Vladimir",
      "countryName": "Russia"
    },
    {
      "id": 17367,
      "stateId": 1352,
      "name": "Gustavia",
      "latitude": null,
      "longitude": null,
      "createdAt": "2026-01-01T09:16:44.485Z",
      "updatedAt": "2026-01-01T09:16:44.485Z",
      "stateName": "Saint Barthélemy",
      "countryName": "France"
    },
    {
      "id": 18007,
      "stateId": 136,
      "name": "Gustavo Díaz Ordaz",
      "latitude": null,
      "longitude": null,
      "createdAt": "2026-03-28T04:20:15.574Z",
      "updatedAt": "2026-03-28T04:20:15.574Z",
      "stateName": "Tamaulipas",
      "countryName": "Mexico"
    },
    {
      "id": 18165,
      "stateId": 723,
      "name": "Gustrow",
      "latitude": "50.9385735",
      "longitude": "9.5583023",
      "createdAt": "2026-04-08T12:46:30.728Z",
      "updatedAt": "2026-04-08T12:46:30.728Z",
      "stateName": "Mecklenburg-Vorpommern",
      "countryName": "Germany"
    },
    {
      "id": 1065,
      "stateId": 394,
      "name": "Guwahati",
      "latitude": "26.1844000",
      "longitude": "91.7458000",
      "createdAt": "2025-12-28T17:02:37.190Z",
      "updatedAt": "2025-12-28T17:02:37.190Z",
      "stateName": "Assam",
      "countryName": "India"
    },
    {
      "id": 10876,
      "stateId": 817,
      "name": "Guyane",
      "latitude": null,
      "longitude": null,
      "createdAt": "2025-12-28T18:58:35.490Z",
      "updatedAt": "2025-12-28T18:58:35.490Z",
      "stateName": "French Guiana",
      "countryName": "France"
    },
    {
      "id": 6613,
      "stateId": 258,
      "name": "Guyer",
      "latitude": null,
      "longitude": null,
      "createdAt": "2025-12-28T18:26:08.877Z",
      "updatedAt": "2025-12-28T18:26:08.877Z",
      "stateName": "Quebec",
      "countryName": "Canada"
    },
    {
      "id": 5734,
      "stateId": 151,
      "name": "Guymon",
      "latitude": "37.8034989",
      "longitude": "-92.5169818",
      "createdAt": "2025-12-28T18:22:01.963Z",
      "updatedAt": "2025-12-28T18:22:01.963Z",
      "stateName": "Oklahoma",
      "countryName": "United States"
    },
    {
      "id": 10922,
      "stateId": 376,
      "name": "Gwadar",
      "latitude": "25.1216300",
      "longitude": "62.3254100",
      "createdAt": "2025-12-28T18:59:15.166Z",
      "updatedAt": "2025-12-28T18:59:15.166Z",
      "stateName": "Balochistan",
      "countryName": "Pakistan"
    },
    {
      "id": 2701,
      "stateId": 366,
      "name": "Gwalior",
      "latitude": "26.2298300",
      "longitude": "78.1733700",
      "createdAt": "2025-12-28T18:12:40.975Z",
      "updatedAt": "2025-12-28T18:12:40.975Z",
      "stateName": "Madhya Pradesh",
      "countryName": "India"
    },
    {
      "id": 10923,
      "stateId": 92,
      "name": "Gwinn",
      "latitude": "37.8034989",
      "longitude": "-92.5169818",
      "createdAt": "2025-12-28T18:59:15.223Z",
      "updatedAt": "2025-12-28T18:59:15.223Z",
      "stateName": "Michigan",
      "countryName": "United States"
    },
    {
      "id": 10921,
      "stateId": 82,
      "name": "Gwynedd",
      "latitude": "52.7709249",
      "longitude": "-1.7304307",
      "createdAt": "2025-12-28T18:59:14.932Z",
      "updatedAt": "2025-12-28T18:59:14.932Z",
      "stateName": "Wales",
      "countryName": "United Kingdom"
    },
    {
      "id": 10924,
      "stateId": 74,
      "name": "Gympie",
      "latitude": "-33.9811915",
      "longitude": "144.8351072",
      "createdAt": "2025-12-28T18:59:19.569Z",
      "updatedAt": "2025-12-28T18:59:19.569Z",
      "stateName": "Queensland",
      "countryName": "Australia"
    },
    {
      "id": 17601,
      "stateId": 27,
      "name": "Gypsum",
      "latitude": "37.8034989",
      "longitude": "-92.5169818",
      "createdAt": "2026-01-26T23:50:37.811Z",
      "updatedAt": "2026-01-26T23:50:37.811Z",
      "stateName": "Colorado",
      "countryName": "United States"
    },
    {
      "id": 14872,
      "stateId": 220,
      "name": "Haaksbergen",
      "latitude": "52.1566700",
      "longitude": "6.7388900",
      "createdAt": "2025-12-28T19:50:05.183Z",
      "updatedAt": "2025-12-28T19:50:05.183Z",
      "stateName": "Overijssel",
      "countryName": "Netherlands"
    },
    {
      "id": 8682,
      "stateId": 611,
      "name": "Haaltert",
      "latitude": "50.9063400",
      "longitude": "4.0009300",
      "createdAt": "2025-12-28T18:39:39.415Z",
      "updatedAt": "2025-12-28T18:39:39.415Z",
      "stateName": "East Flanders",
      "countryName": "Belgium"
    },
    {
      "id": 5936,
      "stateId": 52,
      "name": "Haarlem",
      "latitude": "52.3808400",
      "longitude": "4.6368300",
      "createdAt": "2025-12-28T18:22:38.563Z",
      "updatedAt": "2025-12-28T18:22:38.563Z",
      "stateName": "North Holland",
      "countryName": "Netherlands"
    },
    {
      "id": 17907,
      "stateId": 1386,
      "name": "Habaswein",
      "latitude": null,
      "longitude": null,
      "createdAt": "2026-03-12T15:41:47.509Z",
      "updatedAt": "2026-03-12T15:41:47.509Z",
      "stateName": "Wajir County",
      "countryName": "Kenya"
    },
    {
      "id": 4096,
      "stateId": 319,
      "name": "Hacari",
      "latitude": null,
      "longitude": null,
      "createdAt": "2025-12-28T18:16:11.614Z",
      "updatedAt": "2025-12-28T18:16:11.614Z",
      "stateName": "Santander",
      "countryName": "Colombia"
    },
    {
      "id": 4996,
      "stateId": 584,
      "name": "Hachinohe",
      "latitude": "40.5000000",
      "longitude": "141.5000000",
      "createdAt": "2025-12-28T18:19:21.880Z",
      "updatedAt": "2025-12-28T18:19:21.880Z",
      "stateName": "Tōhoku",
      "countryName": "Japan"
    },
    {
      "id": 4673,
      "stateId": 106,
      "name": "Hackensack",
      "latitude": "40.8859300",
      "longitude": "-74.0434700",
      "createdAt": "2025-12-28T18:18:23.379Z",
      "updatedAt": "2025-12-28T18:18:23.379Z",
      "stateName": "New Jersey",
      "countryName": "United States"
    },
    {
      "id": 12043,
      "stateId": 106,
      "name": "Hackettstown",
      "latitude": "37.8034989",
      "longitude": "-92.5169818",
      "createdAt": "2025-12-28T19:11:49.184Z",
      "updatedAt": "2025-12-28T19:11:49.184Z",
      "stateName": "New Jersey",
      "countryName": "United States"
    },
    {
      "id": 5325,
      "stateId": 122,
      "name": "Hackleburg",
      "latitude": "37.8034989",
      "longitude": "-92.5169818",
      "createdAt": "2025-12-28T18:20:21.846Z",
      "updatedAt": "2025-12-28T18:20:21.846Z",
      "stateName": "Alabama",
      "countryName": "United States"
    },
    {
      "id": 8552,
      "stateId": 444,
      "name": "Haddington",
      "latitude": "52.7709249",
      "longitude": "-1.7304307",
      "createdAt": "2025-12-28T18:39:14.524Z",
      "updatedAt": "2025-12-28T18:39:14.524Z",
      "stateName": "Scotland",
      "countryName": "United Kingdom"
    },
    {
      "id": 14474,
      "stateId": 58,
      "name": "Haedo",
      "latitude": null,
      "longitude": null,
      "createdAt": "2025-12-28T19:44:27.546Z",
      "updatedAt": "2025-12-28T19:44:27.546Z",
      "stateName": "Buenos Aires",
      "countryName": "Argentina"
    },
    {
      "id": 2761,
      "stateId": 394,
      "name": "Haflong",
      "latitude": "21.6224148",
      "longitude": "79.1259549",
      "createdAt": "2025-12-28T18:12:44.744Z",
      "updatedAt": "2025-12-28T18:12:44.744Z",
      "stateName": "Assam",
      "countryName": "India"
    },
    {
      "id": 10927,
      "stateId": 432,
      "name": "Hagen",
      "latitude": "51.3608100",
      "longitude": "7.4716800",
      "createdAt": "2025-12-28T18:59:30.699Z",
      "updatedAt": "2025-12-28T18:59:30.699Z",
      "stateName": "North Rhine-Westphalia",
      "countryName": "Germany"
    },
    {
      "id": 15213,
      "stateId": 51,
      "name": "Hagerstown",
      "latitude": "39.6417600",
      "longitude": "-77.7199900",
      "createdAt": "2025-12-28T19:58:39.216Z",
      "updatedAt": "2025-12-28T19:58:39.216Z",
      "stateName": "Indiana",
      "countryName": "United States"
    },
    {
      "id": 5917,
      "stateId": 64,
      "name": "Hagerstown",
      "latitude": "39.6417600",
      "longitude": "-77.7199900",
      "createdAt": "2025-12-28T18:22:36.228Z",
      "updatedAt": "2025-12-28T18:22:36.228Z",
      "stateName": "Maryland",
      "countryName": "United States"
    },
    {
      "id": 7898,
      "stateId": 996,
      "name": "Hà Giang",
      "latitude": null,
      "longitude": null,
      "createdAt": "2025-12-28T18:32:55.392Z",
      "updatedAt": "2025-12-28T18:32:55.392Z",
      "stateName": "Hà Giang",
      "countryName": "Vietnam"
    }
  ],
  "meta": {
    "page": 65,
    "limit": 100,
    "total": 18002,
    "totalPages": 181
  }
}
