{
  "source": "50k-radio-stations",
  "provider": "rapidapi",
  "syncedAt": "2026-06-03T13:05:04.193Z",
  "endpoint": "/cities",
  "page": 77,
  "limit": 250,
  "data": [
    {
      "id": 6397,
      "stateId": 234,
      "name": "Iztapalapa",
      "latitude": "19.3573800",
      "longitude": "-99.0671000",
      "createdAt": "2025-12-28T18:25:00.945Z",
      "updatedAt": "2025-12-28T18:25:00.945Z",
      "stateName": "State of Mexico",
      "countryName": "Mexico"
    },
    {
      "id": 11855,
      "stateId": 187,
      "name": "Izucar de Matamoros",
      "latitude": "21.0459460",
      "longitude": "-100.0405298",
      "createdAt": "2025-12-28T19:10:15.510Z",
      "updatedAt": "2025-12-28T19:10:15.510Z",
      "stateName": "Puebla",
      "countryName": "Mexico"
    },
    {
      "id": 18173,
      "stateId": 1058,
      "name": "Izunokuni",
      "latitude": null,
      "longitude": null,
      "createdAt": "2026-04-17T00:20:11.017Z",
      "updatedAt": "2026-04-17T00:20:11.017Z",
      "stateName": "Chūbu",
      "countryName": "Japan"
    },
    {
      "id": 11859,
      "stateId": 1058,
      "name": "Izunokuni City",
      "latitude": null,
      "longitude": null,
      "createdAt": "2025-12-28T19:10:18.413Z",
      "updatedAt": "2025-12-28T19:10:18.413Z",
      "stateName": "Chūbu",
      "countryName": "Japan"
    },
    {
      "id": 2652,
      "stateId": 366,
      "name": "Jabalpur",
      "latitude": "23.1669700",
      "longitude": "79.9500600",
      "createdAt": "2025-12-28T18:12:38.919Z",
      "updatedAt": "2025-12-28T18:12:38.919Z",
      "stateName": "Madhya Pradesh",
      "countryName": "India"
    },
    {
      "id": 505,
      "stateId": 7,
      "name": "Jaboatão dos Guararapes",
      "latitude": "-8.1127800",
      "longitude": "-35.0147200",
      "createdAt": "2025-12-28T17:00:57.435Z",
      "updatedAt": "2025-12-28T17:00:57.435Z",
      "stateName": "Pernambuco",
      "countryName": "Brazil"
    },
    {
      "id": 13517,
      "stateId": 4,
      "name": "Jaborandi",
      "latitude": null,
      "longitude": null,
      "createdAt": "2025-12-28T19:27:18.078Z",
      "updatedAt": "2025-12-28T19:27:18.078Z",
      "stateName": "São Paulo",
      "countryName": "Brazil"
    },
    {
      "id": 17774,
      "stateId": 262,
      "name": "Jaborandi",
      "latitude": null,
      "longitude": null,
      "createdAt": "2026-02-20T04:40:43.672Z",
      "updatedAt": "2026-02-20T04:40:43.672Z",
      "stateName": "Bahia",
      "countryName": "Brazil"
    },
    {
      "id": 10396,
      "stateId": 4,
      "name": "Jaboticabal",
      "latitude": "-21.2547200",
      "longitude": "-48.3222200",
      "createdAt": "2025-12-28T18:53:03.192Z",
      "updatedAt": "2025-12-28T18:53:03.192Z",
      "stateName": "São Paulo",
      "countryName": "Brazil"
    },
    {
      "id": 6332,
      "stateId": 631,
      "name": "Jaca",
      "latitude": null,
      "longitude": null,
      "createdAt": "2025-12-28T18:24:44.935Z",
      "updatedAt": "2025-12-28T18:24:44.935Z",
      "stateName": "Huesca",
      "countryName": "Spain"
    },
    {
      "id": 7349,
      "stateId": 142,
      "name": "Jaca",
      "latitude": "39.2717249",
      "longitude": "-3.2471696",
      "createdAt": "2025-12-28T18:29:44.314Z",
      "updatedAt": "2025-12-28T18:29:44.314Z",
      "stateName": "Aragon",
      "countryName": "Spain"
    },
    {
      "id": 11109,
      "stateId": 460,
      "name": "Jacaltenango",
      "latitude": null,
      "longitude": null,
      "createdAt": "2025-12-28T19:01:08.582Z",
      "updatedAt": "2025-12-28T19:01:08.582Z",
      "stateName": "Huehuetenango",
      "countryName": "Guatemala"
    },
    {
      "id": 10503,
      "stateId": 239,
      "name": "Jacaltenango",
      "latitude": null,
      "longitude": null,
      "createdAt": "2025-12-28T18:54:06.358Z",
      "updatedAt": "2025-12-28T18:54:06.358Z",
      "stateName": "Baja Verapaz",
      "countryName": "Guatemala"
    },
    {
      "id": 3123,
      "stateId": 287,
      "name": "Jacaraú",
      "latitude": "-17.4339069",
      "longitude": "-45.8426650",
      "createdAt": "2025-12-28T18:13:44.627Z",
      "updatedAt": "2025-12-28T18:13:44.627Z",
      "stateName": "Paraíba",
      "countryName": "Brazil"
    },
    {
      "id": 1002,
      "stateId": 4,
      "name": "Jacareí",
      "latitude": "-23.3052800",
      "longitude": "-45.9658300",
      "createdAt": "2025-12-28T17:02:32.993Z",
      "updatedAt": "2025-12-28T17:02:32.993Z",
      "stateName": "São Paulo",
      "countryName": "Brazil"
    },
    {
      "id": 6888,
      "stateId": 137,
      "name": "Jacarezinho",
      "latitude": null,
      "longitude": null,
      "createdAt": "2025-12-28T18:27:27.776Z",
      "updatedAt": "2025-12-28T18:27:27.776Z",
      "stateName": "Paraná",
      "countryName": "Brazil"
    },
    {
      "id": 16916,
      "stateId": 85,
      "name": "Jaciara",
      "latitude": null,
      "longitude": null,
      "createdAt": "2025-12-28T20:55:11.065Z",
      "updatedAt": "2025-12-28T20:55:11.065Z",
      "stateName": "Mato Grosso",
      "countryName": "Brazil"
    },
    {
      "id": 13856,
      "stateId": 192,
      "name": "Jacinto Aráuz",
      "latitude": "-32.1628172",
      "longitude": "-62.0921509",
      "createdAt": "2025-12-28T19:33:37.493Z",
      "updatedAt": "2025-12-28T19:33:37.493Z",
      "stateName": "La Pampa",
      "countryName": "Argentina"
    },
    {
      "id": 11609,
      "stateId": 293,
      "name": "Jacinto Machado",
      "latitude": null,
      "longitude": null,
      "createdAt": "2025-12-28T19:08:00.913Z",
      "updatedAt": "2025-12-28T19:08:00.913Z",
      "stateName": "Santa Catarina",
      "countryName": "Brazil"
    },
    {
      "id": 12386,
      "stateId": 15,
      "name": "Jackpot",
      "latitude": "37.8034989",
      "longitude": "-92.5169818",
      "createdAt": "2025-12-28T19:15:40.956Z",
      "updatedAt": "2025-12-28T19:15:40.956Z",
      "stateName": "Nevada",
      "countryName": "United States"
    },
    {
      "id": 12623,
      "stateId": 20,
      "name": "Jacksboro",
      "latitude": "37.8034989",
      "longitude": "-92.5169818",
      "createdAt": "2025-12-28T19:17:10.740Z",
      "updatedAt": "2025-12-28T19:17:10.740Z",
      "stateName": "Texas",
      "countryName": "United States"
    },
    {
      "id": 16891,
      "stateId": 80,
      "name": "Jackson",
      "latitude": "35.6145200",
      "longitude": "-88.8139500",
      "createdAt": "2025-12-28T20:54:38.894Z",
      "updatedAt": "2025-12-28T20:54:38.894Z",
      "stateName": "Kentucky",
      "countryName": "United States"
    },
    {
      "id": 15673,
      "stateId": 122,
      "name": "Jackson",
      "latitude": "37.8034989",
      "longitude": "-92.5169818",
      "createdAt": "2025-12-28T20:14:22.151Z",
      "updatedAt": "2025-12-28T20:14:22.151Z",
      "stateName": "Alabama",
      "countryName": "United States"
    },
    {
      "id": 10302,
      "stateId": 8,
      "name": "Jackson",
      "latitude": "42.2458700",
      "longitude": "-84.4013500",
      "createdAt": "2025-12-28T18:51:37.276Z",
      "updatedAt": "2025-12-28T18:51:37.276Z",
      "stateName": "Wisconsin",
      "countryName": "United States"
    },
    {
      "id": 6138,
      "stateId": 14,
      "name": "Jackson",
      "latitude": "42.2458700",
      "longitude": "-84.4013500",
      "createdAt": "2025-12-28T18:23:19.743Z",
      "updatedAt": "2025-12-28T18:23:19.743Z",
      "stateName": "Ohio",
      "countryName": "United States"
    },
    {
      "id": 12692,
      "stateId": 154,
      "name": "Jackson",
      "latitude": "42.2458700",
      "longitude": "-84.4013500",
      "createdAt": "2025-12-28T19:17:40.004Z",
      "updatedAt": "2025-12-28T19:17:40.004Z",
      "stateName": "Wyoming",
      "countryName": "United States"
    },
    {
      "id": 12825,
      "stateId": 49,
      "name": "Jackson",
      "latitude": "35.6145200",
      "longitude": "-88.8139500",
      "createdAt": "2025-12-28T19:18:52.850Z",
      "updatedAt": "2025-12-28T19:18:52.850Z",
      "stateName": "Minnesota",
      "countryName": "United States"
    },
    {
      "id": 5540,
      "stateId": 112,
      "name": "Jackson",
      "latitude": "32.2987600",
      "longitude": "-90.1848100",
      "createdAt": "2025-12-28T18:21:15.800Z",
      "updatedAt": "2025-12-28T18:21:15.800Z",
      "stateName": "Missouri",
      "countryName": "United States"
    },
    {
      "id": 12662,
      "stateId": 24,
      "name": "Jackson",
      "latitude": "30.3321800",
      "longitude": "-81.6556500",
      "createdAt": "2025-12-28T19:17:20.523Z",
      "updatedAt": "2025-12-28T19:17:20.523Z",
      "stateName": "California",
      "countryName": "United States"
    },
    {
      "id": 1171,
      "stateId": 401,
      "name": "Jackson",
      "latitude": "32.2987600",
      "longitude": "-90.1848100",
      "createdAt": "2025-12-28T17:03:15.568Z",
      "updatedAt": "2025-12-28T17:03:15.568Z",
      "stateName": "Mississippi",
      "countryName": "United States"
    },
    {
      "id": 1169,
      "stateId": 92,
      "name": "Jackson",
      "latitude": "42.2458700",
      "longitude": "-84.4013500",
      "createdAt": "2025-12-28T17:03:15.448Z",
      "updatedAt": "2025-12-28T17:03:15.448Z",
      "stateName": "Michigan",
      "countryName": "United States"
    },
    {
      "id": 7849,
      "stateId": 21,
      "name": "Jackson",
      "latitude": "35.6145200",
      "longitude": "-88.8139500",
      "createdAt": "2025-12-28T18:32:39.798Z",
      "updatedAt": "2025-12-28T18:32:39.798Z",
      "stateName": "Tennessee",
      "countryName": "United States"
    },
    {
      "id": 9088,
      "stateId": 106,
      "name": "Jackson Heights",
      "latitude": "37.8034989",
      "longitude": "-92.5169818",
      "createdAt": "2025-12-28T18:41:49.529Z",
      "updatedAt": "2025-12-28T18:41:49.529Z",
      "stateName": "New Jersey",
      "countryName": "United States"
    },
    {
      "id": 6938,
      "stateId": 46,
      "name": "Jacksonville",
      "latitude": "39.7339400",
      "longitude": "-90.2290100",
      "createdAt": "2025-12-28T18:27:34.759Z",
      "updatedAt": "2025-12-28T18:27:34.759Z",
      "stateName": "Illinois",
      "countryName": "United States"
    },
    {
      "id": 3307,
      "stateId": 55,
      "name": "Jacksonville",
      "latitude": "34.7540500",
      "longitude": "-77.4302400",
      "createdAt": "2025-12-28T18:14:12.301Z",
      "updatedAt": "2025-12-28T18:14:12.301Z",
      "stateName": "North Carolina",
      "countryName": "United States"
    },
    {
      "id": 10339,
      "stateId": 20,
      "name": "Jacksonville",
      "latitude": "34.8662000",
      "longitude": "-92.1101500",
      "createdAt": "2025-12-28T18:52:13.314Z",
      "updatedAt": "2025-12-28T18:52:13.314Z",
      "stateName": "Texas",
      "countryName": "United States"
    },
    {
      "id": 8865,
      "stateId": 32,
      "name": "Jacksonville",
      "latitude": "34.8662000",
      "longitude": "-92.1101500",
      "createdAt": "2025-12-28T18:40:42.922Z",
      "updatedAt": "2025-12-28T18:40:42.922Z",
      "stateName": "Arkansas",
      "countryName": "United States"
    },
    {
      "id": 14836,
      "stateId": 81,
      "name": "Jacksonville",
      "latitude": "34.8662000",
      "longitude": "-92.1101500",
      "createdAt": "2025-12-28T19:49:27.333Z",
      "updatedAt": "2025-12-28T19:49:27.333Z",
      "stateName": "Oregon",
      "countryName": "United States"
    },
    {
      "id": 7338,
      "stateId": 122,
      "name": "Jacksonville",
      "latitude": "34.8662000",
      "longitude": "-92.1101500",
      "createdAt": "2025-12-28T18:29:41.922Z",
      "updatedAt": "2025-12-28T18:29:41.922Z",
      "stateName": "Alabama",
      "countryName": "United States"
    },
    {
      "id": 43,
      "stateId": 33,
      "name": "Jacksonville",
      "latitude": "30.3321800",
      "longitude": "-81.6556500",
      "createdAt": "2025-12-28T16:36:33.026Z",
      "updatedAt": "2025-12-28T16:36:33.026Z",
      "stateName": "Florida",
      "countryName": "United States"
    },
    {
      "id": 8259,
      "stateId": 33,
      "name": "Jacksonville Beach",
      "latitude": "30.2946900",
      "longitude": "-81.3931400",
      "createdAt": "2025-12-28T18:36:41.171Z",
      "updatedAt": "2025-12-28T18:36:41.171Z",
      "stateName": "Florida",
      "countryName": "United States"
    },
    {
      "id": 660,
      "stateId": 262,
      "name": "Jacobina",
      "latitude": null,
      "longitude": null,
      "createdAt": "2025-12-28T17:01:18.036Z",
      "updatedAt": "2025-12-28T17:01:18.036Z",
      "stateName": "Bahia",
      "countryName": "Brazil"
    },
    {
      "id": 11890,
      "stateId": 159,
      "name": "Jacundá",
      "latitude": null,
      "longitude": null,
      "createdAt": "2025-12-28T19:10:34.658Z",
      "updatedAt": "2025-12-28T19:10:34.658Z",
      "stateName": "Pará",
      "countryName": "Brazil"
    },
    {
      "id": 4743,
      "stateId": 4,
      "name": "Jacupiranga",
      "latitude": null,
      "longitude": null,
      "createdAt": "2025-12-28T18:18:35.640Z",
      "updatedAt": "2025-12-28T18:18:35.640Z",
      "stateName": "São Paulo",
      "countryName": "Brazil"
    },
    {
      "id": 8495,
      "stateId": 95,
      "name": "Jacutinga",
      "latitude": null,
      "longitude": null,
      "createdAt": "2025-12-28T18:38:53.389Z",
      "updatedAt": "2025-12-28T18:38:53.389Z",
      "stateName": "Minas Gerais",
      "countryName": "Brazil"
    },
    {
      "id": 6260,
      "stateId": 127,
      "name": "Jaén",
      "latitude": "37.7692200",
      "longitude": "-3.7902800",
      "createdAt": "2025-12-28T18:24:24.481Z",
      "updatedAt": "2025-12-28T18:24:24.481Z",
      "stateName": "Andalusia",
      "countryName": "Spain"
    },
    {
      "id": 518,
      "stateId": 245,
      "name": "Jaffa",
      "latitude": null,
      "longitude": null,
      "createdAt": "2025-12-28T17:00:59.694Z",
      "updatedAt": "2025-12-28T17:00:59.694Z",
      "stateName": "GM",
      "countryName": "Israel"
    },
    {
      "id": 2672,
      "stateId": 373,
      "name": "Jagdalpur",
      "latitude": "19.0836000",
      "longitude": "82.0233100",
      "createdAt": "2025-12-28T18:12:39.821Z",
      "updatedAt": "2025-12-28T18:12:39.821Z",
      "stateName": "Chhattisgarh",
      "countryName": "India"
    },
    {
      "id": 6972,
      "stateId": 137,
      "name": "Jaguapitã",
      "latitude": null,
      "longitude": null,
      "createdAt": "2025-12-28T18:27:38.390Z",
      "updatedAt": "2025-12-28T18:27:38.390Z",
      "stateName": "Paraná",
      "countryName": "Brazil"
    },
    {
      "id": 10687,
      "stateId": 262,
      "name": "Jaguaquara",
      "latitude": null,
      "longitude": null,
      "createdAt": "2025-12-28T18:56:40.224Z",
      "updatedAt": "2025-12-28T18:56:40.224Z",
      "stateName": "Bahia",
      "countryName": "Brazil"
    },
    {
      "id": 8180,
      "stateId": 205,
      "name": "Jaguarão",
      "latitude": null,
      "longitude": null,
      "createdAt": "2025-12-28T18:36:18.176Z",
      "updatedAt": "2025-12-28T18:36:18.176Z",
      "stateName": "Rio Grande do Sul",
      "countryName": "Brazil"
    },
    {
      "id": 13480,
      "stateId": 262,
      "name": "Jaguarari",
      "latitude": null,
      "longitude": null,
      "createdAt": "2025-12-28T19:26:55.860Z",
      "updatedAt": "2025-12-28T19:26:55.860Z",
      "stateName": "Bahia",
      "countryName": "Brazil"
    },
    {
      "id": 9017,
      "stateId": 231,
      "name": "Jaguaretama",
      "latitude": null,
      "longitude": null,
      "createdAt": "2025-12-28T18:41:33.526Z",
      "updatedAt": "2025-12-28T18:41:33.526Z",
      "stateName": "Ceará",
      "countryName": "Brazil"
    },
    {
      "id": 11867,
      "stateId": 205,
      "name": "Jaguari",
      "latitude": null,
      "longitude": null,
      "createdAt": "2025-12-28T19:10:25.146Z",
      "updatedAt": "2025-12-28T19:10:25.146Z",
      "stateName": "Rio Grande do Sul",
      "countryName": "Brazil"
    },
    {
      "id": 10031,
      "stateId": 137,
      "name": "Jaguariaiva",
      "latitude": null,
      "longitude": null,
      "createdAt": "2025-12-28T18:49:45.868Z",
      "updatedAt": "2025-12-28T18:49:45.868Z",
      "stateName": "Paraná",
      "countryName": "Brazil"
    },
    {
      "id": 18264,
      "stateId": 231,
      "name": "Jaguaribara",
      "latitude": null,
      "longitude": null,
      "createdAt": "2026-05-06T14:34:07.028Z",
      "updatedAt": "2026-05-06T14:34:07.028Z",
      "stateName": "Ceará",
      "countryName": "Brazil"
    },
    {
      "id": 11924,
      "stateId": 231,
      "name": "Jaguaribe",
      "latitude": null,
      "longitude": null,
      "createdAt": "2025-12-28T19:10:42.250Z",
      "updatedAt": "2025-12-28T19:10:42.250Z",
      "stateName": "Ceará",
      "countryName": "Brazil"
    },
    {
      "id": 9378,
      "stateId": 4,
      "name": "Jaguariuna",
      "latitude": "-17.4339069",
      "longitude": "-45.8426650",
      "createdAt": "2025-12-28T18:44:00.829Z",
      "updatedAt": "2025-12-28T18:44:00.829Z",
      "stateName": "São Paulo",
      "countryName": "Brazil"
    },
    {
      "id": 6552,
      "stateId": 231,
      "name": "Jaguaruana",
      "latitude": null,
      "longitude": null,
      "createdAt": "2025-12-28T18:25:50.620Z",
      "updatedAt": "2025-12-28T18:25:50.620Z",
      "stateName": "Ceará",
      "countryName": "Brazil"
    },
    {
      "id": 13491,
      "stateId": 95,
      "name": "Jaíba",
      "latitude": null,
      "longitude": null,
      "createdAt": "2025-12-28T19:27:09.327Z",
      "updatedAt": "2025-12-28T19:27:09.327Z",
      "stateName": "Minas Gerais",
      "countryName": "Brazil"
    },
    {
      "id": 11982,
      "stateId": 231,
      "name": "Jaibaras",
      "latitude": null,
      "longitude": null,
      "createdAt": "2025-12-28T19:11:07.173Z",
      "updatedAt": "2025-12-28T19:11:07.173Z",
      "stateName": "Ceará",
      "countryName": "Brazil"
    },
    {
      "id": 7235,
      "stateId": 174,
      "name": "Jaicos",
      "latitude": null,
      "longitude": null,
      "createdAt": "2025-12-28T18:28:53.737Z",
      "updatedAt": "2025-12-28T18:28:53.737Z",
      "stateName": "Piauí",
      "countryName": "Brazil"
    },
    {
      "id": 2703,
      "stateId": 618,
      "name": "Jaipur",
      "latitude": "26.9196200",
      "longitude": "75.7878100",
      "createdAt": "2025-12-28T18:12:41.036Z",
      "updatedAt": "2025-12-28T18:12:41.036Z",
      "stateName": "Orissa",
      "countryName": "India"
    },
    {
      "id": 1062,
      "stateId": 343,
      "name": "Jaipur",
      "latitude": "26.9196200",
      "longitude": "75.7878100",
      "createdAt": "2025-12-28T17:02:37.073Z",
      "updatedAt": "2025-12-28T17:02:37.073Z",
      "stateName": "Rajasthan",
      "countryName": "India"
    },
    {
      "id": 2682,
      "stateId": 343,
      "name": "Jaisalmer",
      "latitude": "26.9176300",
      "longitude": "70.9038700",
      "createdAt": "2025-12-28T18:12:40.276Z",
      "updatedAt": "2025-12-28T18:12:40.276Z",
      "stateName": "Rajasthan",
      "countryName": "India"
    },
    {
      "id": 18287,
      "stateId": 1439,
      "name": "Jajce",
      "latitude": null,
      "longitude": null,
      "createdAt": "2026-05-09T17:36:16.140Z",
      "updatedAt": "2026-05-09T17:36:16.140Z",
      "stateName": "Central Bosnia",
      "countryName": "Bosnia and Herzegovina"
    },
    {
      "id": 88,
      "stateId": 61,
      "name": "Jakarta",
      "latitude": "-6.2146200",
      "longitude": "106.8451300",
      "createdAt": "2025-12-28T16:56:22.657Z",
      "updatedAt": "2025-12-28T16:56:22.657Z",
      "stateName": "Jakarta",
      "countryName": "Indonesia"
    },
    {
      "id": 1405,
      "stateId": 61,
      "name": "Jakarta Selatan",
      "latitude": null,
      "longitude": null,
      "createdAt": "2025-12-28T17:04:26.903Z",
      "updatedAt": "2025-12-28T17:04:26.903Z",
      "stateName": "Jakarta",
      "countryName": "Indonesia"
    },
    {
      "id": 13108,
      "stateId": 18,
      "name": "Jal",
      "latitude": "37.8034989",
      "longitude": "-92.5169818",
      "createdAt": "2025-12-28T19:20:52.031Z",
      "updatedAt": "2025-12-28T19:20:52.031Z",
      "stateName": "New Mexico",
      "countryName": "United States"
    },
    {
      "id": 742,
      "stateId": 337,
      "name": "Jalandhar",
      "latitude": "31.3255600",
      "longitude": "75.5791700",
      "createdAt": "2025-12-28T17:02:14.273Z",
      "updatedAt": "2025-12-28T17:02:14.273Z",
      "stateName": "Punjab",
      "countryName": "India"
    },
    {
      "id": 837,
      "stateId": 190,
      "name": "Jalapa",
      "latitude": "21.0459460",
      "longitude": "-100.0405298",
      "createdAt": "2025-12-28T17:02:22.331Z",
      "updatedAt": "2025-12-28T17:02:22.331Z",
      "stateName": "Veracruz",
      "countryName": "Mexico"
    },
    {
      "id": 12226,
      "stateId": 797,
      "name": "Jalapa",
      "latitude": "14.6347200",
      "longitude": "-89.9888900",
      "createdAt": "2025-12-28T19:14:25.609Z",
      "updatedAt": "2025-12-28T19:14:25.609Z",
      "stateName": "Jutiapa",
      "countryName": "Guatemala"
    },
    {
      "id": 6064,
      "stateId": 912,
      "name": "Jalapa",
      "latitude": null,
      "longitude": null,
      "createdAt": "2025-12-28T18:23:11.012Z",
      "updatedAt": "2025-12-28T18:23:11.012Z",
      "stateName": "Jalapa",
      "countryName": "Guatemala"
    },
    {
      "id": 12190,
      "stateId": 1207,
      "name": "Jalapa",
      "latitude": "12.4744506",
      "longitude": "-85.9859969",
      "createdAt": "2025-12-28T19:13:57.447Z",
      "updatedAt": "2025-12-28T19:13:57.447Z",
      "stateName": "Nicaragua",
      "countryName": "Nicaragua"
    },
    {
      "id": 3488,
      "stateId": 4,
      "name": "Jales",
      "latitude": "-20.2688900",
      "longitude": "-50.5458300",
      "createdAt": "2025-12-28T18:14:38.004Z",
      "updatedAt": "2025-12-28T18:14:38.004Z",
      "stateName": "São Paulo",
      "countryName": "Brazil"
    },
    {
      "id": 2615,
      "stateId": 54,
      "name": "Jalgaon",
      "latitude": "21.0519400",
      "longitude": "76.5346400",
      "createdAt": "2025-12-28T18:12:37.075Z",
      "updatedAt": "2025-12-28T18:12:37.075Z",
      "stateName": "Maharashtra",
      "countryName": "India"
    },
    {
      "id": 2160,
      "stateId": 99,
      "name": "Jalostotitlan",
      "latitude": null,
      "longitude": null,
      "createdAt": "2025-12-28T18:11:00.305Z",
      "updatedAt": "2025-12-28T18:11:00.305Z",
      "stateName": "Jalisco",
      "countryName": "Mexico"
    },
    {
      "id": 13822,
      "stateId": 375,
      "name": "Jalpa",
      "latitude": "21.0459460",
      "longitude": "-100.0405298",
      "createdAt": "2025-12-28T19:32:39.276Z",
      "updatedAt": "2025-12-28T19:32:39.276Z",
      "stateName": "Zacatecas",
      "countryName": "Mexico"
    },
    {
      "id": 10711,
      "stateId": 155,
      "name": "Jalpan",
      "latitude": "18.3783100",
      "longitude": "-97.2576700",
      "createdAt": "2025-12-28T18:56:50.009Z",
      "updatedAt": "2025-12-28T18:56:50.009Z",
      "stateName": "Queretaro",
      "countryName": "Mexico"
    },
    {
      "id": 17723,
      "stateId": 182,
      "name": "Jaltocán",
      "latitude": null,
      "longitude": null,
      "createdAt": "2026-02-12T04:42:14.891Z",
      "updatedAt": "2026-02-12T04:42:14.891Z",
      "stateName": "Hidalgo",
      "countryName": "Mexico"
    },
    {
      "id": 18445,
      "stateId": 1492,
      "name": "Jama’are",
      "latitude": "11.6698000",
      "longitude": "9.9280000",
      "createdAt": "2026-05-31T17:47:41.357Z",
      "updatedAt": "2026-05-31T17:47:41.357Z",
      "stateName": "Bauchi State",
      "countryName": "Nigeria"
    },
    {
      "id": 11954,
      "stateId": 231,
      "name": "Jamacaru",
      "latitude": null,
      "longitude": null,
      "createdAt": "2025-12-28T19:10:56.332Z",
      "updatedAt": "2025-12-28T19:10:56.332Z",
      "stateName": "Ceará",
      "countryName": "Brazil"
    },
    {
      "id": 10502,
      "stateId": 6,
      "name": "Jamaica",
      "latitude": null,
      "longitude": null,
      "createdAt": "2025-12-28T18:54:06.161Z",
      "updatedAt": "2025-12-28T18:54:06.161Z",
      "stateName": "New York",
      "countryName": "United States"
    },
    {
      "id": 4688,
      "stateId": 99,
      "name": "Jamay",
      "latitude": null,
      "longitude": null,
      "createdAt": "2025-12-28T18:18:27.089Z",
      "updatedAt": "2025-12-28T18:18:27.089Z",
      "stateName": "Jalisco",
      "countryName": "Mexico"
    },
    {
      "id": 11944,
      "stateId": 4,
      "name": "Jambeiro",
      "latitude": null,
      "longitude": null,
      "createdAt": "2025-12-28T19:10:52.976Z",
      "updatedAt": "2025-12-28T19:10:52.976Z",
      "stateName": "São Paulo",
      "countryName": "Brazil"
    },
    {
      "id": 11872,
      "stateId": 1201,
      "name": "Jambi City",
      "latitude": "-1.6000000",
      "longitude": "103.6166700",
      "createdAt": "2025-12-28T19:10:28.910Z",
      "updatedAt": "2025-12-28T19:10:28.910Z",
      "stateName": "Jambi",
      "countryName": "Indonesia"
    },
    {
      "id": 15575,
      "stateId": 26,
      "name": "James Bay",
      "latitude": null,
      "longitude": null,
      "createdAt": "2025-12-28T20:11:19.496Z",
      "updatedAt": "2025-12-28T20:11:19.496Z",
      "stateName": "British Columbia",
      "countryName": "Canada"
    },
    {
      "id": 13987,
      "stateId": 147,
      "name": "James Craik",
      "latitude": "-32.1628172",
      "longitude": "-62.0921509",
      "createdAt": "2025-12-28T19:36:34.010Z",
      "updatedAt": "2025-12-28T19:36:34.010Z",
      "stateName": "Cordoba",
      "countryName": "Argentina"
    },
    {
      "id": 9063,
      "stateId": 6,
      "name": "Jamestown",
      "latitude": "42.0970000",
      "longitude": "-79.2353300",
      "createdAt": "2025-12-28T18:41:42.600Z",
      "updatedAt": "2025-12-28T18:41:42.600Z",
      "stateName": "New York",
      "countryName": "United States"
    },
    {
      "id": 3368,
      "stateId": 497,
      "name": "Jamestown",
      "latitude": "46.9105400",
      "longitude": "-98.7084400",
      "createdAt": "2025-12-28T18:14:17.275Z",
      "updatedAt": "2025-12-28T18:14:17.275Z",
      "stateName": "North Dakota",
      "countryName": "United States"
    },
    {
      "id": 12616,
      "stateId": 80,
      "name": "Jamestown",
      "latitude": "42.0970000",
      "longitude": "-79.2353300",
      "createdAt": "2025-12-28T19:17:06.478Z",
      "updatedAt": "2025-12-28T19:17:06.478Z",
      "stateName": "Kentucky",
      "countryName": "United States"
    },
    {
      "id": 17300,
      "stateId": 1350,
      "name": "Jamestown",
      "latitude": null,
      "longitude": null,
      "createdAt": "2025-12-29T16:21:38.998Z",
      "updatedAt": "2025-12-29T16:21:38.998Z",
      "stateName": "Saint Helena",
      "countryName": "United Kingdom"
    },
    {
      "id": 16372,
      "stateId": 21,
      "name": "Jamestown",
      "latitude": "37.8034989",
      "longitude": "-92.5169818",
      "createdAt": "2025-12-28T20:42:22.063Z",
      "updatedAt": "2025-12-28T20:42:22.063Z",
      "stateName": "Tennessee",
      "countryName": "United States"
    },
    {
      "id": 2419,
      "stateId": 471,
      "name": "Jamestown",
      "latitude": null,
      "longitude": null,
      "createdAt": "2025-12-28T18:12:06.947Z",
      "updatedAt": "2025-12-28T18:12:06.947Z",
      "stateName": "Eastern Cape",
      "countryName": "South Africa"
    },
    {
      "id": 4158,
      "stateId": 410,
      "name": "Jammu",
      "latitude": "32.7356900",
      "longitude": "74.8691100",
      "createdAt": "2025-12-28T18:16:25.462Z",
      "updatedAt": "2025-12-28T18:16:25.462Z",
      "stateName": "Jammu and Kashmir",
      "countryName": "India"
    },
    {
      "id": 2714,
      "stateId": 619,
      "name": "Jamshedpur",
      "latitude": "22.8027800",
      "longitude": "86.1854500",
      "createdAt": "2025-12-28T18:12:41.709Z",
      "updatedAt": "2025-12-28T18:12:41.709Z",
      "stateName": "Jharkhand",
      "countryName": "India"
    },
    {
      "id": 8938,
      "stateId": 278,
      "name": "Jamundi",
      "latitude": null,
      "longitude": null,
      "createdAt": "2025-12-28T18:41:04.748Z",
      "updatedAt": "2025-12-28T18:41:04.748Z",
      "stateName": "Valle del Cauca",
      "countryName": "Colombia"
    },
    {
      "id": 3188,
      "stateId": 95,
      "name": "Janaúba",
      "latitude": null,
      "longitude": null,
      "createdAt": "2025-12-28T18:13:56.595Z",
      "updatedAt": "2025-12-28T18:13:56.595Z",
      "stateName": "Minas Gerais",
      "countryName": "Brazil"
    },
    {
      "id": 7664,
      "stateId": 253,
      "name": "Jandaia",
      "latitude": null,
      "longitude": null,
      "createdAt": "2025-12-28T18:31:07.312Z",
      "updatedAt": "2025-12-28T18:31:07.312Z",
      "stateName": "Goiás",
      "countryName": "Brazil"
    },
    {
      "id": 811,
      "stateId": 137,
      "name": "Jandaia do Sul",
      "latitude": "-23.6030600",
      "longitude": "-51.6433300",
      "createdAt": "2025-12-28T17:02:20.229Z",
      "updatedAt": "2025-12-28T17:02:20.229Z",
      "stateName": "Paraná",
      "countryName": "Brazil"
    }
  ],
  "meta": {
    "page": 77,
    "limit": 100,
    "total": 18002,
    "totalPages": 181
  }
}
