{
  "source": "50k-radio-stations",
  "provider": "rapidapi",
  "syncedAt": "2026-06-03T13:05:26.945Z",
  "endpoint": "/cities",
  "page": 104,
  "limit": 250,
  "data": [
    {
      "id": 18028,
      "stateId": 1400,
      "name": "Mirande",
      "latitude": "47.3768156",
      "longitude": "2.7742767",
      "createdAt": "2026-03-29T19:20:12.579Z",
      "updatedAt": "2026-03-29T19:20:12.579Z",
      "stateName": "Occitania",
      "countryName": "France"
    },
    {
      "id": 15261,
      "stateId": 464,
      "name": "Mirandela",
      "latitude": "39.5232529",
      "longitude": "-8.9987995",
      "createdAt": "2025-12-28T19:59:59.300Z",
      "updatedAt": "2025-12-28T19:59:59.300Z",
      "stateName": "Norte",
      "countryName": "Portugal"
    },
    {
      "id": 17425,
      "stateId": 7,
      "name": "Mirandiba",
      "latitude": "-17.4339069",
      "longitude": "-45.8426650",
      "createdAt": "2026-01-05T21:12:48.883Z",
      "updatedAt": "2026-01-05T21:12:48.883Z",
      "stateName": "Pernambuco",
      "countryName": "Brazil"
    },
    {
      "id": 12348,
      "stateId": 20,
      "name": "Mirando City",
      "latitude": "37.8034989",
      "longitude": "-92.5169818",
      "createdAt": "2025-12-28T19:15:33.367Z",
      "updatedAt": "2025-12-28T19:15:33.367Z",
      "stateName": "Texas",
      "countryName": "United States"
    },
    {
      "id": 9156,
      "stateId": 184,
      "name": "Mirandola",
      "latitude": "44.8851500",
      "longitude": "11.0690200",
      "createdAt": "2025-12-28T18:42:02.534Z",
      "updatedAt": "2025-12-28T18:42:02.534Z",
      "stateName": "Emilia-Romagna",
      "countryName": "Italy"
    },
    {
      "id": 10509,
      "stateId": 4,
      "name": "Mirandópolis",
      "latitude": null,
      "longitude": null,
      "createdAt": "2025-12-28T18:54:08.979Z",
      "updatedAt": "2025-12-28T18:54:08.979Z",
      "stateName": "São Paulo",
      "countryName": "Brazil"
    },
    {
      "id": 13879,
      "stateId": 595,
      "name": "Miranorte",
      "latitude": null,
      "longitude": null,
      "createdAt": "2025-12-28T19:33:57.841Z",
      "updatedAt": "2025-12-28T19:33:57.841Z",
      "stateName": "Tocantins",
      "countryName": "Brazil"
    },
    {
      "id": 13842,
      "stateId": 652,
      "name": "Mirante da Serra",
      "latitude": "-17.4339069",
      "longitude": "-45.8426650",
      "createdAt": "2025-12-28T19:33:24.133Z",
      "updatedAt": "2025-12-28T19:33:24.133Z",
      "stateName": "Rondônia",
      "countryName": "Brazil"
    },
    {
      "id": 11644,
      "stateId": 4,
      "name": "Mirante do Paranapanema",
      "latitude": null,
      "longitude": null,
      "createdAt": "2025-12-28T19:08:17.481Z",
      "updatedAt": "2025-12-28T19:08:17.481Z",
      "stateName": "São Paulo",
      "countryName": "Brazil"
    },
    {
      "id": 12258,
      "stateId": 4,
      "name": "Mirassol",
      "latitude": null,
      "longitude": null,
      "createdAt": "2025-12-28T19:14:53.353Z",
      "updatedAt": "2025-12-28T19:14:53.353Z",
      "stateName": "São Paulo",
      "countryName": "Brazil"
    },
    {
      "id": 7322,
      "stateId": 85,
      "name": "Mirassol d'Oeste",
      "latitude": "-17.4339069",
      "longitude": "-45.8426650",
      "createdAt": "2025-12-28T18:29:36.779Z",
      "updatedAt": "2025-12-28T18:29:36.779Z",
      "stateName": "Mato Grosso",
      "countryName": "Brazil"
    },
    {
      "id": 3866,
      "stateId": 481,
      "name": "Mirepeix",
      "latitude": null,
      "longitude": null,
      "createdAt": "2025-12-28T18:15:25.562Z",
      "updatedAt": "2025-12-28T18:15:25.562Z",
      "stateName": "Nouvelle-Aquitaine",
      "countryName": "France"
    },
    {
      "id": 15359,
      "stateId": 335,
      "name": "Mirinzal",
      "latitude": null,
      "longitude": null,
      "createdAt": "2025-12-28T20:03:55.116Z",
      "updatedAt": "2025-12-28T20:03:55.116Z",
      "stateName": "Maranhão",
      "countryName": "Brazil"
    },
    {
      "id": 6932,
      "stateId": 159,
      "name": "Miritituba",
      "latitude": null,
      "longitude": null,
      "createdAt": "2025-12-28T18:27:33.998Z",
      "updatedAt": "2025-12-28T18:27:33.998Z",
      "stateName": "Pará",
      "countryName": "Brazil"
    },
    {
      "id": 2317,
      "stateId": 584,
      "name": "Misawa",
      "latitude": "40.6868200",
      "longitude": "141.3896900",
      "createdAt": "2025-12-28T18:11:44.026Z",
      "updatedAt": "2025-12-28T18:11:44.026Z",
      "stateName": "Tōhoku",
      "countryName": "Japan"
    },
    {
      "id": 286,
      "stateId": 51,
      "name": "Mishawaka",
      "latitude": "41.6619900",
      "longitude": "-86.1586200",
      "createdAt": "2025-12-28T16:56:40.943Z",
      "updatedAt": "2025-12-28T16:56:40.943Z",
      "stateName": "Indiana",
      "countryName": "United States"
    },
    {
      "id": 15273,
      "stateId": 8,
      "name": "Mishicot",
      "latitude": "37.8034989",
      "longitude": "-92.5169818",
      "createdAt": "2025-12-28T20:00:33.096Z",
      "updatedAt": "2025-12-28T20:00:33.096Z",
      "stateName": "Wisconsin",
      "countryName": "United States"
    },
    {
      "id": 11887,
      "stateId": 137,
      "name": "Missal",
      "latitude": null,
      "longitude": null,
      "createdAt": "2025-12-28T19:10:34.314Z",
      "updatedAt": "2025-12-28T19:10:34.314Z",
      "stateName": "Paraná",
      "countryName": "Brazil"
    },
    {
      "id": 15988,
      "stateId": 231,
      "name": "Missao Velha",
      "latitude": null,
      "longitude": null,
      "createdAt": "2025-12-28T20:25:37.407Z",
      "updatedAt": "2025-12-28T20:25:37.407Z",
      "stateName": "Ceará",
      "countryName": "Brazil"
    },
    {
      "id": 8246,
      "stateId": 31,
      "name": "Mission",
      "latitude": "26.2159100",
      "longitude": "-98.3252900",
      "createdAt": "2025-12-28T18:36:36.864Z",
      "updatedAt": "2025-12-28T18:36:36.864Z",
      "stateName": "Kansas",
      "countryName": "United States"
    },
    {
      "id": 298,
      "stateId": 20,
      "name": "Mission",
      "latitude": "26.2159100",
      "longitude": "-98.3252900",
      "createdAt": "2025-12-28T16:56:41.408Z",
      "updatedAt": "2025-12-28T16:56:41.408Z",
      "stateName": "Texas",
      "countryName": "United States"
    },
    {
      "id": 5332,
      "stateId": 24,
      "name": "Mission Viejo",
      "latitude": "33.6000200",
      "longitude": "-117.6720000",
      "createdAt": "2025-12-28T18:20:22.742Z",
      "updatedAt": "2025-12-28T18:20:22.742Z",
      "stateName": "California",
      "countryName": "United States"
    },
    {
      "id": 6740,
      "stateId": 41,
      "name": "MIssissagua",
      "latitude": null,
      "longitude": null,
      "createdAt": "2025-12-28T18:26:55.610Z",
      "updatedAt": "2025-12-28T18:26:55.610Z",
      "stateName": "Ontario",
      "countryName": "Canada"
    },
    {
      "id": 737,
      "stateId": 41,
      "name": "Mississauga",
      "latitude": "43.5789000",
      "longitude": "-79.6583000",
      "createdAt": "2025-12-28T17:02:13.868Z",
      "updatedAt": "2025-12-28T17:02:13.868Z",
      "stateName": "Ontario",
      "countryName": "Canada"
    },
    {
      "id": 7446,
      "stateId": 153,
      "name": "Missoula",
      "latitude": "46.8721500",
      "longitude": "-113.9940000",
      "createdAt": "2025-12-28T18:30:14.550Z",
      "updatedAt": "2025-12-28T18:30:14.550Z",
      "stateName": "Montana",
      "countryName": "United States"
    },
    {
      "id": 6979,
      "stateId": 20,
      "name": "Missouri City",
      "latitude": "29.6185700",
      "longitude": "-95.5377200",
      "createdAt": "2025-12-28T18:27:39.409Z",
      "updatedAt": "2025-12-28T18:27:39.409Z",
      "stateName": "Texas",
      "countryName": "United States"
    },
    {
      "id": 4832,
      "stateId": 207,
      "name": "Misterbianco",
      "latitude": "37.5156300",
      "longitude": "15.0299900",
      "createdAt": "2025-12-28T18:18:47.966Z",
      "updatedAt": "2025-12-28T18:18:47.966Z",
      "stateName": "Sicily",
      "countryName": "Italy"
    },
    {
      "id": 6852,
      "stateId": 258,
      "name": "Mistissini",
      "latitude": null,
      "longitude": null,
      "createdAt": "2025-12-28T18:27:22.504Z",
      "updatedAt": "2025-12-28T18:27:22.504Z",
      "stateName": "Quebec",
      "countryName": "Canada"
    },
    {
      "id": 17943,
      "stateId": 207,
      "name": "Mistretta",
      "latitude": null,
      "longitude": null,
      "createdAt": "2026-03-16T14:10:57.883Z",
      "updatedAt": "2026-03-16T14:10:57.883Z",
      "stateName": "Sicily",
      "countryName": "Italy"
    },
    {
      "id": 14180,
      "stateId": 13,
      "name": "Mitcham",
      "latitude": null,
      "longitude": null,
      "createdAt": "2025-12-28T19:41:36.862Z",
      "updatedAt": "2025-12-28T19:41:36.862Z",
      "stateName": "Victoria",
      "countryName": "Australia"
    },
    {
      "id": 12575,
      "stateId": 73,
      "name": "Mitchell",
      "latitude": null,
      "longitude": null,
      "createdAt": "2025-12-28T19:16:43.269Z",
      "updatedAt": "2025-12-28T19:16:43.269Z",
      "stateName": "Nebraska",
      "countryName": "United States"
    },
    {
      "id": 13932,
      "stateId": 51,
      "name": "Mitchell",
      "latitude": "43.7094300",
      "longitude": "-98.0298000",
      "createdAt": "2025-12-28T19:35:03.560Z",
      "updatedAt": "2025-12-28T19:35:03.560Z",
      "stateName": "Indiana",
      "countryName": "United States"
    },
    {
      "id": 11012,
      "stateId": 395,
      "name": "Mitchell",
      "latitude": "43.7094300",
      "longitude": "-98.0298000",
      "createdAt": "2025-12-28T19:00:11.678Z",
      "updatedAt": "2025-12-28T19:00:11.678Z",
      "stateName": "South Dakota",
      "countryName": "United States"
    },
    {
      "id": 11694,
      "stateId": 113,
      "name": "Mitchellville",
      "latitude": "37.8034989",
      "longitude": "-92.5169818",
      "createdAt": "2025-12-28T19:08:39.467Z",
      "updatedAt": "2025-12-28T19:08:39.467Z",
      "stateName": "Iowa",
      "countryName": "United States"
    },
    {
      "id": 17820,
      "stateId": 158,
      "name": "Mito",
      "latitude": "36.3413900",
      "longitude": "140.4466700",
      "createdAt": "2026-03-03T07:07:03.378Z",
      "updatedAt": "2026-03-03T07:07:03.378Z",
      "stateName": "Kantō",
      "countryName": "Japan"
    },
    {
      "id": 17812,
      "stateId": 263,
      "name": "Mitooma",
      "latitude": null,
      "longitude": null,
      "createdAt": "2026-03-03T02:53:32.297Z",
      "updatedAt": "2026-03-03T02:53:32.297Z",
      "stateName": "Western Region",
      "countryName": "Uganda"
    },
    {
      "id": 14373,
      "stateId": 34,
      "name": "Mittenwald",
      "latitude": "50.9385735",
      "longitude": "9.5583023",
      "createdAt": "2025-12-28T19:43:44.023Z",
      "updatedAt": "2025-12-28T19:43:44.023Z",
      "stateName": "Bavaria",
      "countryName": "Germany"
    },
    {
      "id": 17180,
      "stateId": 93,
      "name": "Mittweida",
      "latitude": "50.9862200",
      "longitude": "12.9753700",
      "createdAt": "2025-12-29T15:47:40.437Z",
      "updatedAt": "2025-12-29T15:47:40.437Z",
      "stateName": "Saxony",
      "countryName": "Germany"
    },
    {
      "id": 1464,
      "stateId": 473,
      "name": "Mixco",
      "latitude": null,
      "longitude": null,
      "createdAt": "2025-12-28T17:04:32.573Z",
      "updatedAt": "2025-12-28T17:04:32.573Z",
      "stateName": "Mixco",
      "countryName": "Guatemala"
    },
    {
      "id": 4829,
      "stateId": 584,
      "name": "Miyako",
      "latitude": "35.7074393",
      "longitude": "136.8605218",
      "createdAt": "2025-12-28T18:18:47.382Z",
      "updatedAt": "2025-12-28T18:18:47.382Z",
      "stateName": "Tōhoku",
      "countryName": "Japan"
    },
    {
      "id": 2226,
      "stateId": 472,
      "name": "Mmabatho",
      "latitude": null,
      "longitude": null,
      "createdAt": "2025-12-28T18:11:14.407Z",
      "updatedAt": "2025-12-28T18:11:14.407Z",
      "stateName": "North West Province",
      "countryName": "South Africa"
    },
    {
      "id": 7779,
      "stateId": 693,
      "name": "Moa",
      "latitude": "20.6577600",
      "longitude": "-74.9507500",
      "createdAt": "2025-12-28T18:31:41.181Z",
      "updatedAt": "2025-12-28T18:31:41.181Z",
      "stateName": "Holguin",
      "countryName": "Cuba"
    },
    {
      "id": 12336,
      "stateId": 430,
      "name": "Moab",
      "latitude": "37.8034989",
      "longitude": "-92.5169818",
      "createdAt": "2025-12-28T19:15:24.839Z",
      "updatedAt": "2025-12-28T19:15:24.839Z",
      "stateName": "Utah",
      "countryName": "United States"
    },
    {
      "id": 13361,
      "stateId": 15,
      "name": "Moapa",
      "latitude": null,
      "longitude": null,
      "createdAt": "2025-12-28T19:23:25.818Z",
      "updatedAt": "2025-12-28T19:23:25.818Z",
      "stateName": "Nevada",
      "countryName": "United States"
    },
    {
      "id": 10338,
      "stateId": 15,
      "name": "Moapa Valley",
      "latitude": "37.8034989",
      "longitude": "-92.5169818",
      "createdAt": "2025-12-28T18:52:13.051Z",
      "updatedAt": "2025-12-28T18:52:13.051Z",
      "stateName": "Nevada",
      "countryName": "United States"
    },
    {
      "id": 12395,
      "stateId": 112,
      "name": "Moberly",
      "latitude": "37.8034989",
      "longitude": "-92.5169818",
      "createdAt": "2025-12-28T19:15:43.061Z",
      "updatedAt": "2025-12-28T19:15:43.061Z",
      "stateName": "Missouri",
      "countryName": "United States"
    },
    {
      "id": 3979,
      "stateId": 122,
      "name": "Mobile",
      "latitude": "30.6943600",
      "longitude": "-88.0430500",
      "createdAt": "2025-12-28T18:15:46.289Z",
      "updatedAt": "2025-12-28T18:15:46.289Z",
      "stateName": "Alabama",
      "countryName": "United States"
    },
    {
      "id": 12988,
      "stateId": 395,
      "name": "Mobridge",
      "latitude": "37.8034989",
      "longitude": "-92.5169818",
      "createdAt": "2025-12-28T19:20:08.715Z",
      "updatedAt": "2025-12-28T19:20:08.715Z",
      "stateName": "South Dakota",
      "countryName": "United States"
    },
    {
      "id": 6774,
      "stateId": 159,
      "name": "Mocajuba",
      "latitude": null,
      "longitude": null,
      "createdAt": "2025-12-28T18:27:10.332Z",
      "updatedAt": "2025-12-28T18:27:10.332Z",
      "stateName": "Pará",
      "countryName": "Brazil"
    },
    {
      "id": 16036,
      "stateId": 371,
      "name": "Mochicahui",
      "latitude": null,
      "longitude": null,
      "createdAt": "2025-12-28T20:27:46.763Z",
      "updatedAt": "2025-12-28T20:27:46.763Z",
      "stateName": "Sinaloa",
      "countryName": "Mexico"
    },
    {
      "id": 79,
      "stateId": 55,
      "name": "Mocksville",
      "latitude": "37.8034989",
      "longitude": "-92.5169818",
      "createdAt": "2025-12-28T16:56:21.899Z",
      "updatedAt": "2025-12-28T16:56:21.899Z",
      "stateName": "North Carolina",
      "countryName": "United States"
    },
    {
      "id": 2162,
      "stateId": 553,
      "name": "Mocoa",
      "latitude": null,
      "longitude": null,
      "createdAt": "2025-12-28T18:11:00.428Z",
      "updatedAt": "2025-12-28T18:11:00.428Z",
      "stateName": "Putumayo",
      "countryName": "Colombia"
    },
    {
      "id": 4758,
      "stateId": 4,
      "name": "Mococa",
      "latitude": "-21.4677800",
      "longitude": "-47.0047200",
      "createdAt": "2025-12-28T18:18:37.870Z",
      "updatedAt": "2025-12-28T18:18:37.870Z",
      "stateName": "São Paulo",
      "countryName": "Brazil"
    },
    {
      "id": 3329,
      "stateId": 175,
      "name": "Mocupe",
      "latitude": null,
      "longitude": null,
      "createdAt": "2025-12-28T18:14:13.966Z",
      "updatedAt": "2025-12-28T18:14:13.966Z",
      "stateName": "Lambayeque",
      "countryName": "Peru"
    },
    {
      "id": 13917,
      "stateId": 293,
      "name": "Modelo",
      "latitude": null,
      "longitude": null,
      "createdAt": "2025-12-28T19:34:50.963Z",
      "updatedAt": "2025-12-28T19:34:50.963Z",
      "stateName": "Santa Catarina",
      "countryName": "Brazil"
    },
    {
      "id": 3922,
      "stateId": 696,
      "name": "Modena",
      "latitude": "44.6478300",
      "longitude": "10.9253900",
      "createdAt": "2025-12-28T18:15:38.495Z",
      "updatedAt": "2025-12-28T18:15:38.495Z",
      "stateName": "Modena",
      "countryName": "Italy"
    },
    {
      "id": 5165,
      "stateId": 24,
      "name": "Modesto",
      "latitude": "37.6391000",
      "longitude": "-120.9968800",
      "createdAt": "2025-12-28T18:20:02.931Z",
      "updatedAt": "2025-12-28T18:20:02.931Z",
      "stateName": "California",
      "countryName": "United States"
    },
    {
      "id": 8272,
      "stateId": 95,
      "name": "Moema",
      "latitude": null,
      "longitude": null,
      "createdAt": "2025-12-28T18:36:45.694Z",
      "updatedAt": "2025-12-28T18:36:45.694Z",
      "stateName": "Minas Gerais",
      "countryName": "Brazil"
    },
    {
      "id": 4926,
      "stateId": 826,
      "name": "Moers",
      "latitude": "51.4534200",
      "longitude": "6.6326000",
      "createdAt": "2025-12-28T18:19:11.909Z",
      "updatedAt": "2025-12-28T18:19:11.909Z",
      "stateName": "Wessel",
      "countryName": "Germany"
    },
    {
      "id": 13216,
      "stateId": 497,
      "name": "Moffit-Lincoln",
      "latitude": null,
      "longitude": null,
      "createdAt": "2025-12-28T19:21:37.480Z",
      "updatedAt": "2025-12-28T19:21:37.480Z",
      "stateName": "North Dakota",
      "countryName": "United States"
    },
    {
      "id": 10584,
      "stateId": 53,
      "name": "Mogale City",
      "latitude": null,
      "longitude": null,
      "createdAt": "2025-12-28T18:55:20.573Z",
      "updatedAt": "2025-12-28T18:55:20.573Z",
      "stateName": "Gauteng",
      "countryName": "South Africa"
    },
    {
      "id": 3268,
      "stateId": 4,
      "name": "Mogi das Cruzes",
      "latitude": null,
      "longitude": null,
      "createdAt": "2025-12-28T18:14:08.136Z",
      "updatedAt": "2025-12-28T18:14:08.136Z",
      "stateName": "São Paulo",
      "countryName": "Brazil"
    },
    {
      "id": 7361,
      "stateId": 4,
      "name": "Mogi Guacu",
      "latitude": "-17.4339069",
      "longitude": "-45.8426650",
      "createdAt": "2025-12-28T18:29:46.159Z",
      "updatedAt": "2025-12-28T18:29:46.159Z",
      "stateName": "São Paulo",
      "countryName": "Brazil"
    },
    {
      "id": 3229,
      "stateId": 4,
      "name": "Mogi-mirim",
      "latitude": null,
      "longitude": null,
      "createdAt": "2025-12-28T18:14:02.659Z",
      "updatedAt": "2025-12-28T18:14:02.659Z",
      "stateName": "São Paulo",
      "countryName": "Brazil"
    },
    {
      "id": 13896,
      "stateId": 319,
      "name": "Mogotes",
      "latitude": null,
      "longitude": null,
      "createdAt": "2025-12-28T19:34:37.425Z",
      "updatedAt": "2025-12-28T19:34:37.425Z",
      "stateName": "Santander",
      "countryName": "Colombia"
    },
    {
      "id": 8454,
      "stateId": 104,
      "name": "Möhlin",
      "latitude": null,
      "longitude": null,
      "createdAt": "2025-12-28T18:38:42.813Z",
      "updatedAt": "2025-12-28T18:38:42.813Z",
      "stateName": "Aaragau",
      "countryName": "Switzerland"
    },
    {
      "id": 15354,
      "stateId": 464,
      "name": "Moimenta da Beira",
      "latitude": "39.5232529",
      "longitude": "-8.9987995",
      "createdAt": "2025-12-28T20:03:50.720Z",
      "updatedAt": "2025-12-28T20:03:50.720Z",
      "stateName": "Norte",
      "countryName": "Portugal"
    },
    {
      "id": 13898,
      "stateId": 271,
      "name": "Moita Bonita",
      "latitude": null,
      "longitude": null,
      "createdAt": "2025-12-28T19:34:37.528Z",
      "updatedAt": "2025-12-28T19:34:37.528Z",
      "stateName": "Sergipe",
      "countryName": "Brazil"
    },
    {
      "id": 3093,
      "stateId": 411,
      "name": "Mojácar",
      "latitude": null,
      "longitude": null,
      "createdAt": "2025-12-28T18:13:41.366Z",
      "updatedAt": "2025-12-28T18:13:41.366Z",
      "stateName": "Almería",
      "countryName": "Spain"
    },
    {
      "id": 6038,
      "stateId": 24,
      "name": "Mojave",
      "latitude": "37.8034989",
      "longitude": "-92.5169818",
      "createdAt": "2025-12-28T18:23:07.271Z",
      "updatedAt": "2025-12-28T18:23:07.271Z",
      "stateName": "California",
      "countryName": "United States"
    },
    {
      "id": 10501,
      "stateId": 159,
      "name": "Mojuí dos Campos",
      "latitude": null,
      "longitude": null,
      "createdAt": "2025-12-28T18:54:05.394Z",
      "updatedAt": "2025-12-28T18:54:05.394Z",
      "stateName": "Pará",
      "countryName": "Brazil"
    },
    {
      "id": 2721,
      "stateId": 629,
      "name": "Mokokchung",
      "latitude": null,
      "longitude": null,
      "createdAt": "2025-12-28T18:12:42.048Z",
      "updatedAt": "2025-12-28T18:12:42.048Z",
      "stateName": "Nagaland",
      "countryName": "India"
    },
    {
      "id": 4287,
      "stateId": 498,
      "name": "Mol",
      "latitude": "50.9010009",
      "longitude": "4.3862404",
      "createdAt": "2025-12-28T18:16:43.998Z",
      "updatedAt": "2025-12-28T18:16:43.998Z",
      "stateName": "Antwerp",
      "countryName": "Belgium"
    },
    {
      "id": 3095,
      "stateId": 306,
      "name": "Mola di Bari",
      "latitude": "41.0590600",
      "longitude": "17.0851200",
      "createdAt": "2025-12-28T18:13:41.460Z",
      "updatedAt": "2025-12-28T18:13:41.460Z",
      "stateName": "Apulia",
      "countryName": "Italy"
    },
    {
      "id": 6181,
      "stateId": 81,
      "name": "Molalla",
      "latitude": "37.8034989",
      "longitude": "-92.5169818",
      "createdAt": "2025-12-28T18:23:26.105Z",
      "updatedAt": "2025-12-28T18:23:26.105Z",
      "stateName": "Oregon",
      "countryName": "United States"
    },
    {
      "id": 17088,
      "stateId": 559,
      "name": "Molare",
      "latitude": null,
      "longitude": null,
      "createdAt": "2025-12-29T15:26:25.386Z",
      "updatedAt": "2025-12-29T15:26:25.386Z",
      "stateName": "Piedmont",
      "countryName": "Italy"
    },
    {
      "id": 3806,
      "stateId": 306,
      "name": "Molfetta",
      "latitude": "41.1969500",
      "longitude": "16.5950300",
      "createdAt": "2025-12-28T18:15:16.591Z",
      "updatedAt": "2025-12-28T18:15:16.591Z",
      "stateName": "Apulia",
      "countryName": "Italy"
    },
    {
      "id": 7736,
      "stateId": 976,
      "name": "Molina",
      "latitude": null,
      "longitude": null,
      "createdAt": "2025-12-28T18:31:25.180Z",
      "updatedAt": "2025-12-28T18:31:25.180Z",
      "stateName": "Curicó",
      "countryName": "Chile"
    },
    {
      "id": 17953,
      "stateId": 218,
      "name": "Molina de Segura",
      "latitude": "38.0545600",
      "longitude": "-1.2076300",
      "createdAt": "2026-03-17T11:30:15.742Z",
      "updatedAt": "2026-03-17T11:30:15.742Z",
      "stateName": "Murcia",
      "countryName": "Spain"
    },
    {
      "id": 10160,
      "stateId": 46,
      "name": "Moline",
      "latitude": "41.5067000",
      "longitude": "-90.5151300",
      "createdAt": "2025-12-28T18:50:36.506Z",
      "updatedAt": "2025-12-28T18:50:36.506Z",
      "stateName": "Illinois",
      "countryName": "United States"
    },
    {
      "id": 13923,
      "stateId": 115,
      "name": "Molins de Rei",
      "latitude": "41.4166700",
      "longitude": "2.0166700",
      "createdAt": "2025-12-28T19:34:57.026Z",
      "updatedAt": "2025-12-28T19:34:57.026Z",
      "stateName": "Barcelona",
      "countryName": "Spain"
    },
    {
      "id": 1674,
      "stateId": 204,
      "name": "Mollendo",
      "latitude": "-17.0230600",
      "longitude": "-72.0147200",
      "createdAt": "2025-12-28T18:01:52.996Z",
      "updatedAt": "2025-12-28T18:01:52.996Z",
      "stateName": "Arequipa",
      "countryName": "Peru"
    },
    {
      "id": 7277,
      "stateId": 961,
      "name": "Moloto",
      "latitude": null,
      "longitude": null,
      "createdAt": "2025-12-28T18:29:09.780Z",
      "updatedAt": "2025-12-28T18:29:09.780Z",
      "stateName": "KwaMhlanga",
      "countryName": "South Africa"
    },
    {
      "id": 3113,
      "stateId": 231,
      "name": "Mombaça",
      "latitude": "-5.7430600",
      "longitude": "-39.6275000",
      "createdAt": "2025-12-28T18:13:42.733Z",
      "updatedAt": "2025-12-28T18:13:42.733Z",
      "stateName": "Ceará",
      "countryName": "Brazil"
    },
    {
      "id": 1099,
      "stateId": 400,
      "name": "​​Momostenango",
      "latitude": "14.8315200",
      "longitude": "-90.7261285",
      "createdAt": "2025-12-28T17:02:48.112Z",
      "updatedAt": "2025-12-28T17:02:48.112Z",
      "stateName": "Totonicapan",
      "countryName": "Guatemala"
    },
    {
      "id": 11915,
      "stateId": 34,
      "name": "Monaco di Baviera",
      "latitude": null,
      "longitude": null,
      "createdAt": "2025-12-28T19:10:40.781Z",
      "updatedAt": "2025-12-28T19:10:40.781Z",
      "stateName": "Bavaria",
      "countryName": "Germany"
    },
    {
      "id": 7326,
      "stateId": 964,
      "name": "Monaghan",
      "latitude": "53.2279803",
      "longitude": "-7.0798575",
      "createdAt": "2025-12-28T18:29:38.064Z",
      "updatedAt": "2025-12-28T18:29:38.064Z",
      "stateName": "Monaghan County",
      "countryName": "Ireland"
    },
    {
      "id": 12392,
      "stateId": 20,
      "name": "Monahans",
      "latitude": "37.8034989",
      "longitude": "-92.5169818",
      "createdAt": "2025-12-28T19:15:42.702Z",
      "updatedAt": "2025-12-28T19:15:42.702Z",
      "stateName": "Texas",
      "countryName": "United States"
    },
    {
      "id": 9789,
      "stateId": 223,
      "name": "Monasterace",
      "latitude": "42.4957616",
      "longitude": "12.4479260",
      "createdAt": "2025-12-28T18:47:17.309Z",
      "updatedAt": "2025-12-28T18:47:17.309Z",
      "stateName": "Calabria",
      "countryName": "Italy"
    },
    {
      "id": 7876,
      "stateId": 432,
      "name": "Mönchengladbach",
      "latitude": "51.1853900",
      "longitude": "6.4417200",
      "createdAt": "2025-12-28T18:32:51.026Z",
      "updatedAt": "2025-12-28T18:32:51.026Z",
      "stateName": "North Rhine-Westphalia",
      "countryName": "Germany"
    },
    {
      "id": 12750,
      "stateId": 145,
      "name": "Moncks Corner",
      "latitude": "37.8034989",
      "longitude": "-92.5169818",
      "createdAt": "2025-12-28T19:18:17.059Z",
      "updatedAt": "2025-12-28T19:18:17.059Z",
      "stateName": "South Carolina",
      "countryName": "United States"
    },
    {
      "id": 1231,
      "stateId": 362,
      "name": "Monclova",
      "latitude": "26.9068700",
      "longitude": "-101.4205600",
      "createdAt": "2025-12-28T17:03:20.263Z",
      "updatedAt": "2025-12-28T17:03:20.263Z",
      "stateName": "Coahuila",
      "countryName": "Mexico"
    },
    {
      "id": 4293,
      "stateId": 530,
      "name": "Moncton",
      "latitude": "46.1159400",
      "longitude": "-64.8018600",
      "createdAt": "2025-12-28T18:16:44.442Z",
      "updatedAt": "2025-12-28T18:16:44.442Z",
      "stateName": "New Brunswick",
      "countryName": "Canada"
    },
    {
      "id": 883,
      "stateId": 293,
      "name": "Mondai",
      "latitude": "-17.4339069",
      "longitude": "-45.8426650",
      "createdAt": "2025-12-28T17:02:25.792Z",
      "updatedAt": "2025-12-28T17:02:25.792Z",
      "stateName": "Santa Catarina",
      "countryName": "Brazil"
    },
    {
      "id": 15193,
      "stateId": 521,
      "name": "Mondolfo",
      "latitude": "42.4957616",
      "longitude": "12.4479260",
      "createdAt": "2025-12-28T19:57:46.162Z",
      "updatedAt": "2025-12-28T19:57:46.162Z",
      "stateName": "Ancona",
      "countryName": "Italy"
    },
    {
      "id": 17908,
      "stateId": 1387,
      "name": "Mondolfo",
      "latitude": "42.4957616",
      "longitude": "12.4479260",
      "createdAt": "2026-03-13T01:50:20.298Z",
      "updatedAt": "2026-03-13T01:50:20.298Z",
      "stateName": "Marche",
      "countryName": "Italy"
    },
    {
      "id": 16454,
      "stateId": 46,
      "name": "Monee",
      "latitude": "43.1789000",
      "longitude": "-88.1173100",
      "createdAt": "2025-12-28T20:44:23.630Z",
      "updatedAt": "2025-12-28T20:44:23.630Z",
      "stateName": "Illinois",
      "countryName": "United States"
    },
    {
      "id": 12817,
      "stateId": 112,
      "name": "Monett",
      "latitude": "37.8034989",
      "longitude": "-92.5169818",
      "createdAt": "2025-12-28T19:18:51.408Z",
      "updatedAt": "2025-12-28T19:18:51.408Z",
      "stateName": "Missouri",
      "countryName": "United States"
    },
    {
      "id": 3949,
      "stateId": 193,
      "name": "Monforte de Lemos",
      "latitude": "42.5216500",
      "longitude": "-7.5142200",
      "createdAt": "2025-12-28T18:15:42.717Z",
      "updatedAt": "2025-12-28T18:15:42.717Z",
      "stateName": "Galicia",
      "countryName": "Spain"
    },
    {
      "id": 3947,
      "stateId": 717,
      "name": "Monforte de Lemos",
      "latitude": null,
      "longitude": null,
      "createdAt": "2025-12-28T18:15:42.603Z",
      "updatedAt": "2025-12-28T18:15:42.603Z",
      "stateName": "Lugo",
      "countryName": "Spain"
    }
  ],
  "meta": {
    "page": 104,
    "limit": 100,
    "total": 18002,
    "totalPages": 181
  }
}
