{
  "source": "50k-radio-stations",
  "provider": "rapidapi",
  "syncedAt": "2026-06-03T13:05:01.660Z",
  "endpoint": "/cities",
  "page": 74,
  "limit": 250,
  "data": [
    {
      "id": 6547,
      "stateId": 231,
      "name": "Independência",
      "latitude": null,
      "longitude": null,
      "createdAt": "2025-12-28T18:25:49.632Z",
      "updatedAt": "2025-12-28T18:25:49.632Z",
      "stateName": "Ceará",
      "countryName": "Brazil"
    },
    {
      "id": 3721,
      "stateId": 68,
      "name": "Indiana",
      "latitude": "39.7683800",
      "longitude": "-86.1580400",
      "createdAt": "2025-12-28T18:15:03.639Z",
      "updatedAt": "2025-12-28T18:15:03.639Z",
      "stateName": "Pennsylvania",
      "countryName": "United States"
    },
    {
      "id": 1001,
      "stateId": 51,
      "name": "Indianapolis",
      "latitude": "39.7683800",
      "longitude": "-86.1580400",
      "createdAt": "2025-12-28T17:02:32.970Z",
      "updatedAt": "2025-12-28T17:02:32.970Z",
      "stateName": "Indiana",
      "countryName": "United States"
    },
    {
      "id": 14087,
      "stateId": 33,
      "name": "Indian Harbour Beach",
      "latitude": null,
      "longitude": null,
      "createdAt": "2025-12-28T19:38:52.952Z",
      "updatedAt": "2025-12-28T19:38:52.952Z",
      "stateName": "Florida",
      "countryName": "United States"
    },
    {
      "id": 11173,
      "stateId": 64,
      "name": "Indian Head",
      "latitude": null,
      "longitude": null,
      "createdAt": "2025-12-28T19:01:40.996Z",
      "updatedAt": "2025-12-28T19:01:40.996Z",
      "stateName": "Maryland",
      "countryName": "United States"
    },
    {
      "id": 1193,
      "stateId": 401,
      "name": "Indianola",
      "latitude": "37.8034989",
      "longitude": "-92.5169818",
      "createdAt": "2025-12-28T17:03:17.030Z",
      "updatedAt": "2025-12-28T17:03:17.030Z",
      "stateName": "Mississippi",
      "countryName": "United States"
    },
    {
      "id": 17386,
      "stateId": 95,
      "name": "Indianópolis",
      "latitude": null,
      "longitude": null,
      "createdAt": "2026-01-04T20:46:32.323Z",
      "updatedAt": "2026-01-04T20:46:32.323Z",
      "stateName": "Minas Gerais",
      "countryName": "Brazil"
    },
    {
      "id": 5195,
      "stateId": 92,
      "name": "Indian River",
      "latitude": "37.8034989",
      "longitude": "-92.5169818",
      "createdAt": "2025-12-28T18:20:07.622Z",
      "updatedAt": "2025-12-28T18:20:07.622Z",
      "stateName": "Michigan",
      "countryName": "United States"
    },
    {
      "id": 10805,
      "stateId": 33,
      "name": "Indian Rocks Beach",
      "latitude": "37.8034989",
      "longitude": "-92.5169818",
      "createdAt": "2025-12-28T18:57:42.788Z",
      "updatedAt": "2025-12-28T18:57:42.788Z",
      "stateName": "Florida",
      "countryName": "United States"
    },
    {
      "id": 10129,
      "stateId": 33,
      "name": "Indiantown",
      "latitude": "37.8034989",
      "longitude": "-92.5169818",
      "createdAt": "2025-12-28T18:50:26.061Z",
      "updatedAt": "2025-12-28T18:50:26.061Z",
      "stateName": "Florida",
      "countryName": "United States"
    },
    {
      "id": 2220,
      "stateId": 55,
      "name": "Indian Trail",
      "latitude": null,
      "longitude": null,
      "createdAt": "2025-12-28T18:11:08.739Z",
      "updatedAt": "2025-12-28T18:11:08.739Z",
      "stateName": "North Carolina",
      "countryName": "United States"
    },
    {
      "id": 12782,
      "stateId": 24,
      "name": "Indian Wells",
      "latitude": "37.8034989",
      "longitude": "-92.5169818",
      "createdAt": "2025-12-28T19:18:37.867Z",
      "updatedAt": "2025-12-28T19:18:37.867Z",
      "stateName": "California",
      "countryName": "United States"
    },
    {
      "id": 17534,
      "stateId": 271,
      "name": "Indiaroba",
      "latitude": null,
      "longitude": null,
      "createdAt": "2026-01-20T07:41:57.473Z",
      "updatedAt": "2026-01-20T07:41:57.473Z",
      "stateName": "Sergipe",
      "countryName": "Brazil"
    },
    {
      "id": 13028,
      "stateId": 24,
      "name": "Indio",
      "latitude": "33.7207000",
      "longitude": "-116.2167700",
      "createdAt": "2025-12-28T19:20:21.981Z",
      "updatedAt": "2025-12-28T19:20:21.981Z",
      "stateName": "California",
      "countryName": "United States"
    },
    {
      "id": 952,
      "stateId": 366,
      "name": "Indore",
      "latitude": "22.7179200",
      "longitude": "75.8333000",
      "createdAt": "2025-12-28T17:02:30.196Z",
      "updatedAt": "2025-12-28T17:02:30.196Z",
      "stateName": "Madhya Pradesh",
      "countryName": "India"
    },
    {
      "id": 11631,
      "stateId": 179,
      "name": "Indramayu",
      "latitude": "-6.3263900",
      "longitude": "108.3200000",
      "createdAt": "2025-12-28T19:08:12.722Z",
      "updatedAt": "2025-12-28T19:08:12.722Z",
      "stateName": "West Java",
      "countryName": "Indonesia"
    },
    {
      "id": 10515,
      "stateId": 647,
      "name": "Inegöl",
      "latitude": "39.2026972",
      "longitude": "33.8771519",
      "createdAt": "2025-12-28T18:54:10.082Z",
      "updatedAt": "2025-12-28T18:54:10.082Z",
      "stateName": "Bursa Province",
      "countryName": "Turkey"
    },
    {
      "id": 4112,
      "stateId": 130,
      "name": "Infiesto",
      "latitude": null,
      "longitude": null,
      "createdAt": "2025-12-28T18:16:16.417Z",
      "updatedAt": "2025-12-28T18:16:16.417Z",
      "stateName": "Asturias",
      "countryName": "Spain"
    },
    {
      "id": 17720,
      "stateId": 159,
      "name": "Ingá",
      "latitude": null,
      "longitude": null,
      "createdAt": "2026-02-11T23:10:47.274Z",
      "updatedAt": "2026-02-11T23:10:47.274Z",
      "stateName": "Pará",
      "countryName": "Brazil"
    },
    {
      "id": 6053,
      "stateId": 31,
      "name": "Ingalls",
      "latitude": "37.8034989",
      "longitude": "-92.5169818",
      "createdAt": "2025-12-28T18:23:09.573Z",
      "updatedAt": "2025-12-28T18:23:09.573Z",
      "stateName": "Kansas",
      "countryName": "United States"
    },
    {
      "id": 14025,
      "stateId": 260,
      "name": "Ingeniero Jacobacci",
      "latitude": null,
      "longitude": null,
      "createdAt": "2025-12-28T19:37:29.984Z",
      "updatedAt": "2025-12-28T19:37:29.984Z",
      "stateName": "Rio Negro",
      "countryName": "Argentina"
    },
    {
      "id": 7454,
      "stateId": 192,
      "name": "Ingeniero Luiggi",
      "latitude": null,
      "longitude": null,
      "createdAt": "2025-12-28T18:30:16.222Z",
      "updatedAt": "2025-12-28T18:30:16.222Z",
      "stateName": "La Pampa",
      "countryName": "Argentina"
    },
    {
      "id": 6102,
      "stateId": 20,
      "name": "Ingleside",
      "latitude": "37.8034989",
      "longitude": "-92.5169818",
      "createdAt": "2025-12-28T18:23:15.448Z",
      "updatedAt": "2025-12-28T18:23:15.448Z",
      "stateName": "Texas",
      "countryName": "United States"
    },
    {
      "id": 931,
      "stateId": 24,
      "name": "Inglewood",
      "latitude": "33.9616800",
      "longitude": "-118.3531300",
      "createdAt": "2025-12-28T17:02:28.995Z",
      "updatedAt": "2025-12-28T17:02:28.995Z",
      "stateName": "California",
      "countryName": "United States"
    },
    {
      "id": 2174,
      "stateId": 17,
      "name": "Ingoldingen",
      "latitude": null,
      "longitude": null,
      "createdAt": "2025-12-28T18:11:01.764Z",
      "updatedAt": "2025-12-28T18:11:01.764Z",
      "stateName": "Baden-Württemberg",
      "countryName": "Germany"
    },
    {
      "id": 10403,
      "stateId": 34,
      "name": "Ingolstadt",
      "latitude": "48.7650800",
      "longitude": "11.4237200",
      "createdAt": "2025-12-28T18:53:06.353Z",
      "updatedAt": "2025-12-28T18:53:06.353Z",
      "stateName": "Bavaria",
      "countryName": "Germany"
    },
    {
      "id": 13190,
      "stateId": 20,
      "name": "Ingram",
      "latitude": "37.8034989",
      "longitude": "-92.5169818",
      "createdAt": "2025-12-28T19:21:27.157Z",
      "updatedAt": "2025-12-28T19:21:27.157Z",
      "stateName": "Texas",
      "countryName": "United States"
    },
    {
      "id": 2404,
      "stateId": 402,
      "name": "Ingwavuma",
      "latitude": null,
      "longitude": null,
      "createdAt": "2025-12-28T18:12:02.937Z",
      "updatedAt": "2025-12-28T18:12:02.937Z",
      "stateName": "KwaZulu-Natal Prov.",
      "countryName": "South Africa"
    },
    {
      "id": 11645,
      "stateId": 262,
      "name": "Inhambupe",
      "latitude": null,
      "longitude": null,
      "createdAt": "2025-12-28T19:08:17.655Z",
      "updatedAt": "2025-12-28T19:08:17.655Z",
      "stateName": "Bahia",
      "countryName": "Brazil"
    },
    {
      "id": 871,
      "stateId": 95,
      "name": "Inhapim",
      "latitude": null,
      "longitude": null,
      "createdAt": "2025-12-28T17:02:25.064Z",
      "updatedAt": "2025-12-28T17:02:25.064Z",
      "stateName": "Minas Gerais",
      "countryName": "Brazil"
    },
    {
      "id": 17169,
      "stateId": 95,
      "name": "Inhaúma",
      "latitude": null,
      "longitude": null,
      "createdAt": "2025-12-29T15:45:29.079Z",
      "updatedAt": "2025-12-29T15:45:29.079Z",
      "stateName": "Minas Gerais",
      "countryName": "Brazil"
    },
    {
      "id": 12120,
      "stateId": 253,
      "name": "Inhumas",
      "latitude": "-16.3577800",
      "longitude": "-49.4961100",
      "createdAt": "2025-12-28T19:12:50.745Z",
      "updatedAt": "2025-12-28T19:12:50.745Z",
      "stateName": "Goiás",
      "countryName": "Brazil"
    },
    {
      "id": 7772,
      "stateId": 795,
      "name": "Iniesta",
      "latitude": null,
      "longitude": null,
      "createdAt": "2025-12-28T18:31:40.580Z",
      "updatedAt": "2025-12-28T18:31:40.580Z",
      "stateName": "Cuenca",
      "countryName": "Spain"
    },
    {
      "id": 15985,
      "stateId": 95,
      "name": "Inimutaba",
      "latitude": null,
      "longitude": null,
      "createdAt": "2025-12-28T20:25:26.235Z",
      "updatedAt": "2025-12-28T20:25:26.235Z",
      "stateName": "Minas Gerais",
      "countryName": "Brazil"
    },
    {
      "id": 11648,
      "stateId": 443,
      "name": "Inisa",
      "latitude": null,
      "longitude": null,
      "createdAt": "2025-12-28T19:08:18.072Z",
      "updatedAt": "2025-12-28T19:08:18.072Z",
      "stateName": "Osun State",
      "countryName": "Nigeria"
    },
    {
      "id": 7077,
      "stateId": 530,
      "name": "Inkerman",
      "latitude": null,
      "longitude": null,
      "createdAt": "2025-12-28T18:28:07.390Z",
      "updatedAt": "2025-12-28T18:28:07.390Z",
      "stateName": "New Brunswick",
      "countryName": "Canada"
    },
    {
      "id": 16625,
      "stateId": 92,
      "name": "Inkster",
      "latitude": "42.2942000",
      "longitude": "-83.3099300",
      "createdAt": "2025-12-28T20:48:24.514Z",
      "updatedAt": "2025-12-28T20:48:24.514Z",
      "stateName": "Michigan",
      "countryName": "United States"
    },
    {
      "id": 13010,
      "stateId": 74,
      "name": "Innisfail",
      "latitude": "-33.9811915",
      "longitude": "144.8351072",
      "createdAt": "2025-12-28T19:20:14.990Z",
      "updatedAt": "2025-12-28T19:20:14.990Z",
      "stateName": "Queensland",
      "countryName": "Australia"
    },
    {
      "id": 15950,
      "stateId": 41,
      "name": "Innisfil",
      "latitude": null,
      "longitude": null,
      "createdAt": "2025-12-28T20:24:00.058Z",
      "updatedAt": "2025-12-28T20:24:00.058Z",
      "stateName": "Ontario",
      "countryName": "Canada"
    },
    {
      "id": 17034,
      "stateId": 369,
      "name": "Inocência",
      "latitude": null,
      "longitude": null,
      "createdAt": "2025-12-29T15:12:38.626Z",
      "updatedAt": "2025-12-29T15:12:38.626Z",
      "stateName": "Mato Grosso do Sul",
      "countryName": "Brazil"
    },
    {
      "id": 391,
      "stateId": 147,
      "name": "Inriville",
      "latitude": "-32.1628172",
      "longitude": "-62.0921509",
      "createdAt": "2025-12-28T17:00:47.560Z",
      "updatedAt": "2025-12-28T17:00:47.560Z",
      "stateName": "Cordoba",
      "countryName": "Argentina"
    },
    {
      "id": 9548,
      "stateId": 578,
      "name": "Inselsberg",
      "latitude": "50.9385735",
      "longitude": "9.5583023",
      "createdAt": "2025-12-28T18:45:11.689Z",
      "updatedAt": "2025-12-28T18:45:11.689Z",
      "stateName": "Thuringia",
      "countryName": "Germany"
    },
    {
      "id": 13489,
      "stateId": 192,
      "name": "Intendente Alvear",
      "latitude": "-32.1628172",
      "longitude": "-62.0921509",
      "createdAt": "2025-12-28T19:27:06.140Z",
      "updatedAt": "2025-12-28T19:27:06.140Z",
      "stateName": "La Pampa",
      "countryName": "Argentina"
    },
    {
      "id": 11738,
      "stateId": 92,
      "name": "Interlochen",
      "latitude": "37.8034989",
      "longitude": "-92.5169818",
      "createdAt": "2025-12-28T19:08:53.806Z",
      "updatedAt": "2025-12-28T19:08:53.806Z",
      "stateName": "Michigan",
      "countryName": "United States"
    },
    {
      "id": 5098,
      "stateId": 49,
      "name": "International Falls",
      "latitude": "37.8034989",
      "longitude": "-92.5169818",
      "createdAt": "2025-12-28T18:19:33.591Z",
      "updatedAt": "2025-12-28T18:19:33.591Z",
      "stateName": "Minnesota",
      "countryName": "United States"
    },
    {
      "id": 6412,
      "stateId": 930,
      "name": "Inuvik",
      "latitude": null,
      "longitude": null,
      "createdAt": "2025-12-28T18:25:09.729Z",
      "updatedAt": "2025-12-28T18:25:09.729Z",
      "stateName": "Northwest Territories",
      "countryName": "Canada"
    },
    {
      "id": 5878,
      "stateId": 734,
      "name": "Invercargill",
      "latitude": "-46.4000000",
      "longitude": "168.3500000",
      "createdAt": "2025-12-28T18:22:31.979Z",
      "updatedAt": "2025-12-28T18:22:31.979Z",
      "stateName": "Southland",
      "countryName": "New Zealand"
    },
    {
      "id": 17271,
      "stateId": 13,
      "name": "Inverloch",
      "latitude": null,
      "longitude": null,
      "createdAt": "2025-12-29T16:16:48.432Z",
      "updatedAt": "2025-12-29T16:16:48.432Z",
      "stateName": "Victoria",
      "countryName": "Australia"
    },
    {
      "id": 7106,
      "stateId": 26,
      "name": "Invermere",
      "latitude": null,
      "longitude": null,
      "createdAt": "2025-12-28T18:28:13.054Z",
      "updatedAt": "2025-12-28T18:28:13.054Z",
      "stateName": "British Columbia",
      "countryName": "Canada"
    },
    {
      "id": 13833,
      "stateId": 444,
      "name": "Inverness",
      "latitude": "57.4790800",
      "longitude": "-4.2239800",
      "createdAt": "2025-12-28T19:32:48.765Z",
      "updatedAt": "2025-12-28T19:32:48.765Z",
      "stateName": "Scotland",
      "countryName": "United Kingdom"
    },
    {
      "id": 2581,
      "stateId": 33,
      "name": "Inverness",
      "latitude": null,
      "longitude": null,
      "createdAt": "2025-12-28T18:12:27.417Z",
      "updatedAt": "2025-12-28T18:12:27.417Z",
      "stateName": "Florida",
      "countryName": "United States"
    },
    {
      "id": 9010,
      "stateId": 364,
      "name": "Inzá",
      "latitude": null,
      "longitude": null,
      "createdAt": "2025-12-28T18:41:30.560Z",
      "updatedAt": "2025-12-28T18:41:30.560Z",
      "stateName": "Cauca",
      "countryName": "Colombia"
    },
    {
      "id": 9265,
      "stateId": 682,
      "name": "Ioannina",
      "latitude": "38.6555720",
      "longitude": "23.4057215",
      "createdAt": "2025-12-28T18:43:03.169Z",
      "updatedAt": "2025-12-28T18:43:03.169Z",
      "stateName": "Epirus",
      "countryName": "Greece"
    },
    {
      "id": 271,
      "stateId": 31,
      "name": "Iola",
      "latitude": null,
      "longitude": null,
      "createdAt": "2025-12-28T16:56:39.652Z",
      "updatedAt": "2025-12-28T16:56:39.652Z",
      "stateName": "Kansas",
      "countryName": "United States"
    },
    {
      "id": 10578,
      "stateId": 223,
      "name": "Ionadi",
      "latitude": "42.4957616",
      "longitude": "12.4479260",
      "createdAt": "2025-12-28T18:55:19.643Z",
      "updatedAt": "2025-12-28T18:55:19.643Z",
      "stateName": "Calabria",
      "countryName": "Italy"
    },
    {
      "id": 17368,
      "stateId": 81,
      "name": "Ione",
      "latitude": null,
      "longitude": null,
      "createdAt": "2026-01-01T16:44:51.569Z",
      "updatedAt": "2026-01-01T16:44:51.569Z",
      "stateName": "Oregon",
      "countryName": "United States"
    },
    {
      "id": 9136,
      "stateId": 92,
      "name": "Ionia",
      "latitude": "37.8034989",
      "longitude": "-92.5169818",
      "createdAt": "2025-12-28T18:41:53.460Z",
      "updatedAt": "2025-12-28T18:41:53.460Z",
      "stateName": "Michigan",
      "countryName": "United States"
    },
    {
      "id": 7228,
      "stateId": 113,
      "name": "Iowa City",
      "latitude": "41.6611300",
      "longitude": "-91.5301700",
      "createdAt": "2025-12-28T18:28:52.481Z",
      "updatedAt": "2025-12-28T18:28:52.481Z",
      "stateName": "Iowa",
      "countryName": "United States"
    },
    {
      "id": 11730,
      "stateId": 113,
      "name": "Iowa Falls",
      "latitude": "37.8034989",
      "longitude": "-92.5169818",
      "createdAt": "2025-12-28T19:08:49.411Z",
      "updatedAt": "2025-12-28T19:08:49.411Z",
      "stateName": "Iowa",
      "countryName": "United States"
    },
    {
      "id": 11745,
      "stateId": 95,
      "name": "Ipaba",
      "latitude": null,
      "longitude": null,
      "createdAt": "2025-12-28T19:08:58.744Z",
      "updatedAt": "2025-12-28T19:08:58.744Z",
      "stateName": "Minas Gerais",
      "countryName": "Brazil"
    },
    {
      "id": 11737,
      "stateId": 653,
      "name": "Ipala",
      "latitude": "14.8315200",
      "longitude": "-90.7261285",
      "createdAt": "2025-12-28T19:08:53.442Z",
      "updatedAt": "2025-12-28T19:08:53.442Z",
      "stateName": "Chiquimula",
      "countryName": "Guatemala"
    },
    {
      "id": 9832,
      "stateId": 253,
      "name": "Ipameri",
      "latitude": null,
      "longitude": null,
      "createdAt": "2025-12-28T18:47:41.889Z",
      "updatedAt": "2025-12-28T18:47:41.889Z",
      "stateName": "Goiás",
      "countryName": "Brazil"
    },
    {
      "id": 10543,
      "stateId": 95,
      "name": "Ipanema",
      "latitude": null,
      "longitude": null,
      "createdAt": "2025-12-28T18:54:39.441Z",
      "updatedAt": "2025-12-28T18:54:39.441Z",
      "stateName": "Minas Gerais",
      "countryName": "Brazil"
    },
    {
      "id": 11739,
      "stateId": 134,
      "name": "Ipanema",
      "latitude": null,
      "longitude": null,
      "createdAt": "2025-12-28T19:08:54.981Z",
      "updatedAt": "2025-12-28T19:08:54.981Z",
      "stateName": "Rio de Janeiro",
      "countryName": "Brazil"
    },
    {
      "id": 8208,
      "stateId": 231,
      "name": "Ipaporanga",
      "latitude": null,
      "longitude": null,
      "createdAt": "2025-12-28T18:36:25.947Z",
      "updatedAt": "2025-12-28T18:36:25.947Z",
      "stateName": "Ceará",
      "countryName": "Brazil"
    },
    {
      "id": 657,
      "stateId": 95,
      "name": "Ipatinga",
      "latitude": "-19.4683300",
      "longitude": "-42.5366700",
      "createdAt": "2025-12-28T17:01:17.706Z",
      "updatedAt": "2025-12-28T17:01:17.706Z",
      "stateName": "Minas Gerais",
      "countryName": "Brazil"
    },
    {
      "id": 839,
      "stateId": 354,
      "name": "Ipiales",
      "latitude": "0.8301800",
      "longitude": "-77.6495900",
      "createdAt": "2025-12-28T17:02:22.411Z",
      "updatedAt": "2025-12-28T17:02:22.411Z",
      "stateName": "Narino",
      "countryName": "Colombia"
    },
    {
      "id": 11734,
      "stateId": 262,
      "name": "Ipiaú",
      "latitude": "-14.1344900",
      "longitude": "-39.7394800",
      "createdAt": "2025-12-28T19:08:51.911Z",
      "updatedAt": "2025-12-28T19:08:51.911Z",
      "stateName": "Bahia",
      "countryName": "Brazil"
    },
    {
      "id": 8169,
      "stateId": 262,
      "name": "Ipira",
      "latitude": "-17.4339069",
      "longitude": "-45.8426650",
      "createdAt": "2025-12-28T18:36:14.218Z",
      "updatedAt": "2025-12-28T18:36:14.218Z",
      "stateName": "Bahia",
      "countryName": "Brazil"
    },
    {
      "id": 11746,
      "stateId": 293,
      "name": "Ipira",
      "latitude": null,
      "longitude": null,
      "createdAt": "2025-12-28T19:08:58.851Z",
      "updatedAt": "2025-12-28T19:08:58.851Z",
      "stateName": "Santa Catarina",
      "countryName": "Brazil"
    },
    {
      "id": 10839,
      "stateId": 174,
      "name": "Ipiranga do Piauí",
      "latitude": null,
      "longitude": null,
      "createdAt": "2025-12-28T18:58:02.064Z",
      "updatedAt": "2025-12-28T18:58:02.064Z",
      "stateName": "Piauí",
      "countryName": "Brazil"
    },
    {
      "id": 5779,
      "stateId": 238,
      "name": "Ipixuna",
      "latitude": null,
      "longitude": null,
      "createdAt": "2025-12-28T18:22:07.411Z",
      "updatedAt": "2025-12-28T18:22:07.411Z",
      "stateName": "Amazonas",
      "countryName": "Brazil"
    },
    {
      "id": 11743,
      "stateId": 1189,
      "name": "Ipoh",
      "latitude": "4.5841000",
      "longitude": "101.0829000",
      "createdAt": "2025-12-28T19:08:56.885Z",
      "updatedAt": "2025-12-28T19:08:56.885Z",
      "stateName": "Perak",
      "countryName": "Malaysia"
    },
    {
      "id": 7194,
      "stateId": 253,
      "name": "Ipora",
      "latitude": "-16.4419400",
      "longitude": "-51.1177800",
      "createdAt": "2025-12-28T18:28:45.822Z",
      "updatedAt": "2025-12-28T18:28:45.822Z",
      "stateName": "Goiás",
      "countryName": "Brazil"
    },
    {
      "id": 17815,
      "stateId": 137,
      "name": "Iporã",
      "latitude": null,
      "longitude": null,
      "createdAt": "2026-03-03T05:20:16.488Z",
      "updatedAt": "2026-03-03T05:20:16.488Z",
      "stateName": "Paraná",
      "countryName": "Brazil"
    },
    {
      "id": 8293,
      "stateId": 293,
      "name": "Iporã do Oeste",
      "latitude": null,
      "longitude": null,
      "createdAt": "2025-12-28T18:36:59.873Z",
      "updatedAt": "2025-12-28T18:36:59.873Z",
      "stateName": "Santa Catarina",
      "countryName": "Brazil"
    },
    {
      "id": 11740,
      "stateId": 47,
      "name": "Ipswich",
      "latitude": null,
      "longitude": null,
      "createdAt": "2025-12-28T19:08:55.051Z",
      "updatedAt": "2025-12-28T19:08:55.051Z",
      "stateName": "Massachusetts",
      "countryName": "United States"
    },
    {
      "id": 1501,
      "stateId": 74,
      "name": "Ipswich",
      "latitude": null,
      "longitude": null,
      "createdAt": "2025-12-28T17:04:37.070Z",
      "updatedAt": "2025-12-28T17:04:37.070Z",
      "stateName": "Queensland",
      "countryName": "Australia"
    },
    {
      "id": 11744,
      "stateId": 395,
      "name": "Ipswich",
      "latitude": null,
      "longitude": null,
      "createdAt": "2025-12-28T19:08:58.685Z",
      "updatedAt": "2025-12-28T19:08:58.685Z",
      "stateName": "South Dakota",
      "countryName": "United States"
    },
    {
      "id": 4905,
      "stateId": 2,
      "name": "Ipswich",
      "latitude": "52.0591700",
      "longitude": "1.1554500",
      "createdAt": "2025-12-28T18:18:58.703Z",
      "updatedAt": "2025-12-28T18:18:58.703Z",
      "stateName": "England",
      "countryName": "United Kingdom"
    },
    {
      "id": 1921,
      "stateId": 231,
      "name": "Ipu",
      "latitude": null,
      "longitude": null,
      "createdAt": "2025-12-28T18:10:30.657Z",
      "updatedAt": "2025-12-28T18:10:30.657Z",
      "stateName": "Ceará",
      "countryName": "Brazil"
    },
    {
      "id": 11747,
      "stateId": 4,
      "name": "Ipuã",
      "latitude": null,
      "longitude": null,
      "createdAt": "2025-12-28T19:08:59.356Z",
      "updatedAt": "2025-12-28T19:08:59.356Z",
      "stateName": "São Paulo",
      "countryName": "Brazil"
    },
    {
      "id": 11742,
      "stateId": 7,
      "name": "Ipubi",
      "latitude": null,
      "longitude": null,
      "createdAt": "2025-12-28T19:08:56.230Z",
      "updatedAt": "2025-12-28T19:08:56.230Z",
      "stateName": "Pernambuco",
      "countryName": "Brazil"
    },
    {
      "id": 6536,
      "stateId": 231,
      "name": "Ipueiras",
      "latitude": "-7.0333300",
      "longitude": "-40.4500000",
      "createdAt": "2025-12-28T18:25:45.051Z",
      "updatedAt": "2025-12-28T18:25:45.051Z",
      "stateName": "Ceará",
      "countryName": "Brazil"
    },
    {
      "id": 8116,
      "stateId": 262,
      "name": "Ipupiara",
      "latitude": null,
      "longitude": null,
      "createdAt": "2025-12-28T18:35:28.199Z",
      "updatedAt": "2025-12-28T18:35:28.199Z",
      "stateName": "Bahia",
      "countryName": "Brazil"
    },
    {
      "id": 973,
      "stateId": 382,
      "name": "Iqaluit",
      "latitude": null,
      "longitude": null,
      "createdAt": "2025-12-28T17:02:31.641Z",
      "updatedAt": "2025-12-28T17:02:31.641Z",
      "stateName": "Nunavut",
      "countryName": "Canada"
    },
    {
      "id": 1882,
      "stateId": 532,
      "name": "Iquique",
      "latitude": "-20.2203600",
      "longitude": "-70.1391300",
      "createdAt": "2025-12-28T18:10:26.828Z",
      "updatedAt": "2025-12-28T18:10:26.828Z",
      "stateName": "Tarapacá",
      "countryName": "Chile"
    },
    {
      "id": 6568,
      "stateId": 231,
      "name": "Iracema",
      "latitude": null,
      "longitude": null,
      "createdAt": "2025-12-28T18:25:55.511Z",
      "updatedAt": "2025-12-28T18:25:55.511Z",
      "stateName": "Ceará",
      "countryName": "Brazil"
    },
    {
      "id": 11752,
      "stateId": 4,
      "name": "Iracemápolis",
      "latitude": "-22.5805600",
      "longitude": "-47.5186100",
      "createdAt": "2025-12-28T19:09:08.127Z",
      "updatedAt": "2025-12-28T19:09:08.127Z",
      "stateName": "São Paulo",
      "countryName": "Brazil"
    },
    {
      "id": 1056,
      "stateId": 95,
      "name": "Iraí",
      "latitude": null,
      "longitude": null,
      "createdAt": "2025-12-28T17:02:36.525Z",
      "updatedAt": "2025-12-28T17:02:36.525Z",
      "stateName": "Minas Gerais",
      "countryName": "Brazil"
    },
    {
      "id": 11784,
      "stateId": 262,
      "name": "Iramaia",
      "latitude": "-17.4339069",
      "longitude": "-45.8426650",
      "createdAt": "2025-12-28T19:09:26.714Z",
      "updatedAt": "2025-12-28T19:09:26.714Z",
      "stateName": "Bahia",
      "countryName": "Brazil"
    },
    {
      "id": 5665,
      "stateId": 238,
      "name": "Iranduba",
      "latitude": null,
      "longitude": null,
      "createdAt": "2025-12-28T18:21:49.977Z",
      "updatedAt": "2025-12-28T18:21:49.977Z",
      "stateName": "Amazonas",
      "countryName": "Brazil"
    },
    {
      "id": 8227,
      "stateId": 293,
      "name": "Irani",
      "latitude": null,
      "longitude": null,
      "createdAt": "2025-12-28T18:36:30.966Z",
      "updatedAt": "2025-12-28T18:36:30.966Z",
      "stateName": "Santa Catarina",
      "countryName": "Brazil"
    },
    {
      "id": 2473,
      "stateId": 304,
      "name": "Irapuato",
      "latitude": "20.6767500",
      "longitude": "-101.3562800",
      "createdAt": "2025-12-28T18:12:15.970Z",
      "updatedAt": "2025-12-28T18:12:15.970Z",
      "stateName": "Guanajuato",
      "countryName": "Mexico"
    },
    {
      "id": 11751,
      "stateId": 262,
      "name": "Irará",
      "latitude": null,
      "longitude": null,
      "createdAt": "2025-12-28T19:09:07.742Z",
      "updatedAt": "2025-12-28T19:09:07.742Z",
      "stateName": "Bahia",
      "countryName": "Brazil"
    },
    {
      "id": 7669,
      "stateId": 137,
      "name": "Irati",
      "latitude": "-25.4672200",
      "longitude": "-50.6511100",
      "createdAt": "2025-12-28T18:31:07.942Z",
      "updatedAt": "2025-12-28T18:31:07.942Z",
      "stateName": "Paraná",
      "countryName": "Brazil"
    },
    {
      "id": 1981,
      "stateId": 231,
      "name": "Irauçuba",
      "latitude": null,
      "longitude": null,
      "createdAt": "2025-12-28T18:10:36.160Z",
      "updatedAt": "2025-12-28T18:10:36.160Z",
      "stateName": "Ceará",
      "countryName": "Brazil"
    },
    {
      "id": 11754,
      "stateId": 209,
      "name": "Irazusta ",
      "latitude": null,
      "longitude": null,
      "createdAt": "2025-12-28T19:09:10.505Z",
      "updatedAt": "2025-12-28T19:09:10.505Z",
      "stateName": "Entre Rios",
      "countryName": "Argentina"
    },
    {
      "id": 9807,
      "stateId": 83,
      "name": "Irbit",
      "latitude": null,
      "longitude": null,
      "createdAt": "2025-12-28T18:47:19.614Z",
      "updatedAt": "2025-12-28T18:47:19.614Z",
      "stateName": "Sverdlovsk Oblast",
      "countryName": "Russia"
    },
    {
      "id": 5640,
      "stateId": 262,
      "name": "Irece",
      "latitude": "-11.3041700",
      "longitude": "-41.8558300",
      "createdAt": "2025-12-28T18:21:46.693Z",
      "updatedAt": "2025-12-28T18:21:46.693Z",
      "stateName": "Bahia",
      "countryName": "Brazil"
    }
  ],
  "meta": {
    "page": 74,
    "limit": 100,
    "total": 18002,
    "totalPages": 181
  }
}
