{
  "source": "50k-radio-stations",
  "provider": "rapidapi",
  "syncedAt": "2026-06-03T13:04:27.077Z",
  "endpoint": "/cities",
  "page": 33,
  "limit": 250,
  "data": [
    {
      "id": 16693,
      "stateId": 401,
      "name": "Centreville",
      "latitude": "38.8403900",
      "longitude": "-77.4288800",
      "createdAt": "2025-12-28T20:50:21.815Z",
      "updatedAt": "2025-12-28T20:50:21.815Z",
      "stateName": "Mississippi",
      "countryName": "United States"
    },
    {
      "id": 9103,
      "stateId": 92,
      "name": "Centreville",
      "latitude": null,
      "longitude": null,
      "createdAt": "2025-12-28T18:41:51.570Z",
      "updatedAt": "2025-12-28T18:41:51.570Z",
      "stateName": "Michigan",
      "countryName": "United States"
    },
    {
      "id": 16249,
      "stateId": 205,
      "name": "Centro",
      "latitude": "-17.4339069",
      "longitude": "-45.8426650",
      "createdAt": "2025-12-28T20:39:52.779Z",
      "updatedAt": "2025-12-28T20:39:52.779Z",
      "stateName": "Rio Grande do Sul",
      "countryName": "Brazil"
    },
    {
      "id": 2360,
      "stateId": 53,
      "name": "Centurion",
      "latitude": null,
      "longitude": null,
      "createdAt": "2025-12-28T18:11:54.598Z",
      "updatedAt": "2025-12-28T18:11:54.598Z",
      "stateName": "Gauteng",
      "countryName": "South Africa"
    },
    {
      "id": 3848,
      "stateId": 481,
      "name": "Cercoux",
      "latitude": null,
      "longitude": null,
      "createdAt": "2025-12-28T18:15:23.571Z",
      "updatedAt": "2025-12-28T18:15:23.571Z",
      "stateName": "Nouvelle-Aquitaine",
      "countryName": "France"
    },
    {
      "id": 6495,
      "stateId": 115,
      "name": "Cerdanyola del Vallès",
      "latitude": "41.4910900",
      "longitude": "2.1407900",
      "createdAt": "2025-12-28T18:25:33.813Z",
      "updatedAt": "2025-12-28T18:25:33.813Z",
      "stateName": "Barcelona",
      "countryName": "Spain"
    },
    {
      "id": 6566,
      "stateId": 652,
      "name": "Cerejeiras",
      "latitude": null,
      "longitude": null,
      "createdAt": "2025-12-28T18:25:55.224Z",
      "updatedAt": "2025-12-28T18:25:55.224Z",
      "stateName": "Rondônia",
      "countryName": "Brazil"
    },
    {
      "id": 6576,
      "stateId": 253,
      "name": "Ceres",
      "latitude": "-15.3083300",
      "longitude": "-49.5983300",
      "createdAt": "2025-12-28T18:25:56.506Z",
      "updatedAt": "2025-12-28T18:25:56.506Z",
      "stateName": "Goiás",
      "countryName": "Brazil"
    },
    {
      "id": 6482,
      "stateId": 86,
      "name": "Ceres",
      "latitude": null,
      "longitude": null,
      "createdAt": "2025-12-28T18:25:32.420Z",
      "updatedAt": "2025-12-28T18:25:32.420Z",
      "stateName": "Santa Fe",
      "countryName": "Argentina"
    },
    {
      "id": 15327,
      "stateId": 10,
      "name": "Cergy",
      "latitude": "49.0364500",
      "longitude": "2.0761300",
      "createdAt": "2025-12-28T20:02:42.262Z",
      "updatedAt": "2025-12-28T20:02:42.262Z",
      "stateName": "Île-de-France",
      "countryName": "France"
    },
    {
      "id": 3807,
      "stateId": 306,
      "name": "Cerignola",
      "latitude": "41.2638300",
      "longitude": "15.8998000",
      "createdAt": "2025-12-28T18:15:16.625Z",
      "updatedAt": "2025-12-28T18:15:16.625Z",
      "stateName": "Apulia",
      "countryName": "Italy"
    },
    {
      "id": 10990,
      "stateId": 1166,
      "name": "Çerkezköy",
      "latitude": "41.2862900",
      "longitude": "27.9993900",
      "createdAt": "2025-12-28T19:00:00.981Z",
      "updatedAt": "2025-12-28T19:00:00.981Z",
      "stateName": "Tekirdag",
      "countryName": "Turkey"
    },
    {
      "id": 17579,
      "stateId": 374,
      "name": "Cernache",
      "latitude": "39.5232529",
      "longitude": "-8.9987995",
      "createdAt": "2026-01-23T12:01:04.096Z",
      "updatedAt": "2026-01-23T12:01:04.096Z",
      "stateName": "Centro",
      "countryName": "Portugal"
    },
    {
      "id": 6460,
      "stateId": 10,
      "name": "Cernay",
      "latitude": "47.3768156",
      "longitude": "2.7742767",
      "createdAt": "2025-12-28T18:25:28.875Z",
      "updatedAt": "2025-12-28T18:25:28.875Z",
      "stateName": "Île-de-France",
      "countryName": "France"
    },
    {
      "id": 6563,
      "stateId": 4,
      "name": "Cerquilho",
      "latitude": null,
      "longitude": null,
      "createdAt": "2025-12-28T18:25:54.677Z",
      "updatedAt": "2025-12-28T18:25:54.677Z",
      "stateName": "São Paulo",
      "countryName": "Brazil"
    },
    {
      "id": 14205,
      "stateId": 326,
      "name": "Cerralvo",
      "latitude": "21.0459460",
      "longitude": "-100.0405298",
      "createdAt": "2025-12-28T19:42:12.820Z",
      "updatedAt": "2025-12-28T19:42:12.820Z",
      "stateName": "Nuevo León",
      "countryName": "Mexico"
    },
    {
      "id": 10499,
      "stateId": 257,
      "name": "Cerrillos",
      "latitude": null,
      "longitude": null,
      "createdAt": "2025-12-28T18:54:05.257Z",
      "updatedAt": "2025-12-28T18:54:05.257Z",
      "stateName": "Salta",
      "countryName": "Argentina"
    },
    {
      "id": 6504,
      "stateId": 167,
      "name": "Cerrillos",
      "latitude": null,
      "longitude": null,
      "createdAt": "2025-12-28T18:25:35.298Z",
      "updatedAt": "2025-12-28T18:25:35.298Z",
      "stateName": "Región Metropolitana de Santiago",
      "countryName": "Chile"
    },
    {
      "id": 10508,
      "stateId": 209,
      "name": "Cerrito",
      "latitude": "-32.1628172",
      "longitude": "-62.0921509",
      "createdAt": "2025-12-28T18:54:08.598Z",
      "updatedAt": "2025-12-28T18:54:08.598Z",
      "stateName": "Entre Rios",
      "countryName": "Argentina"
    },
    {
      "id": 6468,
      "stateId": 297,
      "name": "Cerritos",
      "latitude": null,
      "longitude": null,
      "createdAt": "2025-12-28T18:25:30.689Z",
      "updatedAt": "2025-12-28T18:25:30.689Z",
      "stateName": "San Luis Potosí",
      "countryName": "Mexico"
    },
    {
      "id": 4616,
      "stateId": 195,
      "name": "Cerro Azul",
      "latitude": null,
      "longitude": null,
      "createdAt": "2025-12-28T18:18:09.750Z",
      "updatedAt": "2025-12-28T18:18:09.750Z",
      "stateName": "Misiones",
      "countryName": "Argentina"
    },
    {
      "id": 425,
      "stateId": 190,
      "name": "Cerro Azul",
      "latitude": "21.1920000",
      "longitude": "-97.7408800",
      "createdAt": "2025-12-28T17:00:49.665Z",
      "updatedAt": "2025-12-28T17:00:49.665Z",
      "stateName": "Veracruz",
      "countryName": "Mexico"
    },
    {
      "id": 4648,
      "stateId": 137,
      "name": "Cerro Azul",
      "latitude": null,
      "longitude": null,
      "createdAt": "2025-12-28T18:18:12.842Z",
      "updatedAt": "2025-12-28T18:18:12.842Z",
      "stateName": "Paraná",
      "countryName": "Brazil"
    },
    {
      "id": 5870,
      "stateId": 205,
      "name": "Cerro Branco",
      "latitude": null,
      "longitude": null,
      "createdAt": "2025-12-28T18:22:31.412Z",
      "updatedAt": "2025-12-28T18:22:31.412Z",
      "stateName": "Rio Grande do Sul",
      "countryName": "Brazil"
    },
    {
      "id": 13514,
      "stateId": 186,
      "name": "Cerro Corá",
      "latitude": null,
      "longitude": null,
      "createdAt": "2025-12-28T19:27:17.780Z",
      "updatedAt": "2025-12-28T19:27:17.780Z",
      "stateName": "Rio Grande do Norte",
      "countryName": "Brazil"
    },
    {
      "id": 16228,
      "stateId": 46,
      "name": "Cerro Gordo",
      "latitude": null,
      "longitude": null,
      "createdAt": "2025-12-28T20:39:04.483Z",
      "updatedAt": "2025-12-28T20:39:04.483Z",
      "stateName": "Illinois",
      "countryName": "United States"
    },
    {
      "id": 999,
      "stateId": 205,
      "name": "Cerro Largo",
      "latitude": "-17.4339069",
      "longitude": "-45.8426650",
      "createdAt": "2025-12-28T17:02:32.919Z",
      "updatedAt": "2025-12-28T17:02:32.919Z",
      "stateName": "Rio Grande do Sul",
      "countryName": "Brazil"
    },
    {
      "id": 17551,
      "stateId": 167,
      "name": "Cerro Navia",
      "latitude": null,
      "longitude": null,
      "createdAt": "2026-01-21T04:30:27.345Z",
      "updatedAt": "2026-01-21T04:30:27.345Z",
      "stateName": "Región Metropolitana de Santiago",
      "countryName": "Chile"
    },
    {
      "id": 4754,
      "stateId": 260,
      "name": "Cervantes",
      "latitude": null,
      "longitude": null,
      "createdAt": "2025-12-28T18:18:37.223Z",
      "updatedAt": "2025-12-28T18:18:37.223Z",
      "stateName": "Rio Negro",
      "countryName": "Argentina"
    },
    {
      "id": 14200,
      "stateId": 635,
      "name": "Cervione",
      "latitude": "47.3768156",
      "longitude": "2.7742767",
      "createdAt": "2025-12-28T19:42:01.292Z",
      "updatedAt": "2025-12-28T19:42:01.292Z",
      "stateName": "Corsica",
      "countryName": "France"
    },
    {
      "id": 15966,
      "stateId": 219,
      "name": "Cesana Torinese",
      "latitude": "42.4957616",
      "longitude": "12.4479260",
      "createdAt": "2025-12-28T20:24:42.039Z",
      "updatedAt": "2025-12-28T20:24:42.039Z",
      "stateName": "Metropolitan City of Turin",
      "countryName": "Italy"
    },
    {
      "id": 14187,
      "stateId": 108,
      "name": "Cesinali",
      "latitude": "42.4957616",
      "longitude": "12.4479260",
      "createdAt": "2025-12-28T19:41:49.849Z",
      "updatedAt": "2025-12-28T19:41:49.849Z",
      "stateName": "Campania",
      "countryName": "Italy"
    },
    {
      "id": 4448,
      "stateId": 19,
      "name": "Cessnock",
      "latitude": "-32.8321100",
      "longitude": "151.3562300",
      "createdAt": "2025-12-28T18:17:35.326Z",
      "updatedAt": "2025-12-28T18:17:35.326Z",
      "stateName": "New South Wales",
      "countryName": "Australia"
    },
    {
      "id": 4623,
      "stateId": 137,
      "name": "Céu Azul",
      "latitude": null,
      "longitude": null,
      "createdAt": "2025-12-28T18:18:10.340Z",
      "updatedAt": "2025-12-28T18:18:10.340Z",
      "stateName": "Paraná",
      "countryName": "Brazil"
    },
    {
      "id": 413,
      "stateId": 198,
      "name": "Ceuta",
      "latitude": "35.8893300",
      "longitude": "-5.3197900",
      "createdAt": "2025-12-28T17:00:49.067Z",
      "updatedAt": "2025-12-28T17:00:49.067Z",
      "stateName": "Ceuta",
      "countryName": "Spain"
    },
    {
      "id": 13961,
      "stateId": 253,
      "name": "Cezarina",
      "latitude": null,
      "longitude": null,
      "createdAt": "2025-12-28T19:35:33.262Z",
      "updatedAt": "2025-12-28T19:35:33.262Z",
      "stateName": "Goiás",
      "countryName": "Brazil"
    },
    {
      "id": 8638,
      "stateId": 229,
      "name": "Chabaslar",
      "latitude": "38.6555720",
      "longitude": "23.4057215",
      "createdAt": "2025-12-28T18:39:31.825Z",
      "updatedAt": "2025-12-28T18:39:31.825Z",
      "stateName": "East Macedonia and Thrace",
      "countryName": "Greece"
    },
    {
      "id": 2918,
      "stateId": 58,
      "name": "Chacabuco",
      "latitude": "-34.6416700",
      "longitude": "-60.4738900",
      "createdAt": "2025-12-28T18:13:00.553Z",
      "updatedAt": "2025-12-28T18:13:00.553Z",
      "stateName": "Buenos Aires",
      "countryName": "Argentina"
    },
    {
      "id": 17234,
      "stateId": 763,
      "name": "Chacao",
      "latitude": "10.4959800",
      "longitude": "-66.8534700",
      "createdAt": "2025-12-29T16:11:01.610Z",
      "updatedAt": "2025-12-29T16:11:01.610Z",
      "stateName": "Miranda",
      "countryName": "Venezuela"
    },
    {
      "id": 17453,
      "stateId": 58,
      "name": "Chacarita",
      "latitude": null,
      "longitude": null,
      "createdAt": "2026-01-11T18:07:26.091Z",
      "updatedAt": "2026-01-11T18:07:26.091Z",
      "stateName": "Buenos Aires",
      "countryName": "Argentina"
    },
    {
      "id": 16842,
      "stateId": 55,
      "name": "Chadbourn",
      "latitude": "37.8034989",
      "longitude": "-92.5169818",
      "createdAt": "2025-12-28T20:53:35.509Z",
      "updatedAt": "2025-12-28T20:53:35.509Z",
      "stateName": "North Carolina",
      "countryName": "United States"
    },
    {
      "id": 7601,
      "stateId": 73,
      "name": "Chadron",
      "latitude": "37.8034989",
      "longitude": "-92.5169818",
      "createdAt": "2025-12-28T18:30:50.063Z",
      "updatedAt": "2025-12-28T18:30:50.063Z",
      "stateName": "Nebraska",
      "countryName": "United States"
    },
    {
      "id": 5921,
      "stateId": 112,
      "name": "Chaffee",
      "latitude": "37.8034989",
      "longitude": "-92.5169818",
      "createdAt": "2025-12-28T18:22:36.619Z",
      "updatedAt": "2025-12-28T18:22:36.619Z",
      "stateName": "Missouri",
      "countryName": "United States"
    },
    {
      "id": 2722,
      "stateId": 619,
      "name": "Chaibasa",
      "latitude": "21.6224148",
      "longitude": "79.1259549",
      "createdAt": "2025-12-28T18:12:42.073Z",
      "updatedAt": "2025-12-28T18:12:42.073Z",
      "stateName": "Jharkhand",
      "countryName": "India"
    },
    {
      "id": 708,
      "stateId": 209,
      "name": "Chajari",
      "latitude": "-32.1628172",
      "longitude": "-62.0921509",
      "createdAt": "2025-12-28T17:02:10.356Z",
      "updatedAt": "2025-12-28T17:02:10.356Z",
      "stateName": "Entre Rios",
      "countryName": "Argentina"
    },
    {
      "id": 6758,
      "stateId": 204,
      "name": "Chala",
      "latitude": null,
      "longitude": null,
      "createdAt": "2025-12-28T18:26:59.693Z",
      "updatedAt": "2025-12-28T18:26:59.693Z",
      "stateName": "Arequipa",
      "countryName": "Peru"
    },
    {
      "id": 4300,
      "stateId": 67,
      "name": "Chalandri",
      "latitude": null,
      "longitude": null,
      "createdAt": "2025-12-28T18:16:49.910Z",
      "updatedAt": "2025-12-28T18:16:49.910Z",
      "stateName": "Attica",
      "countryName": "Greece"
    },
    {
      "id": 8030,
      "stateId": 398,
      "name": "Chalcatongo",
      "latitude": null,
      "longitude": null,
      "createdAt": "2025-12-28T18:34:19.019Z",
      "updatedAt": "2025-12-28T18:34:19.019Z",
      "stateName": "Oaxaca",
      "countryName": "Mexico"
    },
    {
      "id": 6955,
      "stateId": 706,
      "name": "Chalcatzingo",
      "latitude": null,
      "longitude": null,
      "createdAt": "2025-12-28T18:27:36.858Z",
      "updatedAt": "2025-12-28T18:27:36.858Z",
      "stateName": "Morelos",
      "countryName": "Mexico"
    },
    {
      "id": 15170,
      "stateId": 375,
      "name": "Chalchihuites",
      "latitude": null,
      "longitude": null,
      "createdAt": "2025-12-28T19:57:12.311Z",
      "updatedAt": "2025-12-28T19:57:12.311Z",
      "stateName": "Zacatecas",
      "countryName": "Mexico"
    },
    {
      "id": 4069,
      "stateId": 680,
      "name": "Chalcis",
      "latitude": "38.6555720",
      "longitude": "23.4057215",
      "createdAt": "2025-12-28T18:16:08.383Z",
      "updatedAt": "2025-12-28T18:16:08.383Z",
      "stateName": "Central Greece",
      "countryName": "Greece"
    },
    {
      "id": 7295,
      "stateId": 234,
      "name": "Chalco",
      "latitude": null,
      "longitude": null,
      "createdAt": "2025-12-28T18:29:25.277Z",
      "updatedAt": "2025-12-28T18:29:25.277Z",
      "stateName": "State of Mexico",
      "countryName": "Mexico"
    },
    {
      "id": 10879,
      "stateId": 95,
      "name": "Chalé",
      "latitude": null,
      "longitude": null,
      "createdAt": "2025-12-28T18:58:37.169Z",
      "updatedAt": "2025-12-28T18:58:37.169Z",
      "stateName": "Minas Gerais",
      "countryName": "Brazil"
    },
    {
      "id": 17458,
      "stateId": 1357,
      "name": "Challhuahuacho",
      "latitude": null,
      "longitude": null,
      "createdAt": "2026-01-11T23:15:09.086Z",
      "updatedAt": "2026-01-11T23:15:09.086Z",
      "stateName": "Cotabambas",
      "countryName": "Peru"
    },
    {
      "id": 14046,
      "stateId": 536,
      "name": "Chalons-en-Champagne",
      "latitude": "47.3768156",
      "longitude": "2.7742767",
      "createdAt": "2025-12-28T19:37:47.977Z",
      "updatedAt": "2025-12-28T19:37:47.977Z",
      "stateName": "Grand Est",
      "countryName": "France"
    },
    {
      "id": 6730,
      "stateId": 667,
      "name": "Chalon-sur-Saône",
      "latitude": null,
      "longitude": null,
      "createdAt": "2025-12-28T18:26:52.799Z",
      "updatedAt": "2025-12-28T18:26:52.799Z",
      "stateName": "Bourgogne-Franche-Comté",
      "countryName": "France"
    },
    {
      "id": 13552,
      "stateId": 34,
      "name": "Cham",
      "latitude": null,
      "longitude": null,
      "createdAt": "2025-12-28T19:27:47.107Z",
      "updatedAt": "2025-12-28T19:27:47.107Z",
      "stateName": "Bavaria",
      "countryName": "Germany"
    },
    {
      "id": 9567,
      "stateId": 732,
      "name": "Cham",
      "latitude": null,
      "longitude": null,
      "createdAt": "2025-12-28T18:45:18.436Z",
      "updatedAt": "2025-12-28T18:45:18.436Z",
      "stateName": "Bayern",
      "countryName": "Germany"
    },
    {
      "id": 12977,
      "stateId": 933,
      "name": "Cham",
      "latitude": null,
      "longitude": null,
      "createdAt": "2025-12-28T19:20:02.656Z",
      "updatedAt": "2025-12-28T19:20:02.656Z",
      "stateName": "Zug",
      "countryName": "Switzerland"
    },
    {
      "id": 5219,
      "stateId": 18,
      "name": "Chama",
      "latitude": "37.8034989",
      "longitude": "-92.5169818",
      "createdAt": "2025-12-28T18:20:10.875Z",
      "updatedAt": "2025-12-28T18:20:10.875Z",
      "stateName": "New Mexico",
      "countryName": "United States"
    },
    {
      "id": 4577,
      "stateId": 675,
      "name": "Chambas",
      "latitude": null,
      "longitude": null,
      "createdAt": "2025-12-28T18:17:55.081Z",
      "updatedAt": "2025-12-28T18:17:55.081Z",
      "stateName": "Ciego de Avila",
      "countryName": "Cuba"
    },
    {
      "id": 13857,
      "stateId": 68,
      "name": "Chambersburg",
      "latitude": "39.9375900",
      "longitude": "-77.6611000",
      "createdAt": "2025-12-28T19:33:38.603Z",
      "updatedAt": "2025-12-28T19:33:38.603Z",
      "stateName": "Pennsylvania",
      "countryName": "United States"
    },
    {
      "id": 4393,
      "stateId": 201,
      "name": "Chambéry",
      "latitude": "45.5666700",
      "longitude": "5.9333300",
      "createdAt": "2025-12-28T18:17:19.970Z",
      "updatedAt": "2025-12-28T18:17:19.970Z",
      "stateName": "Auvergne-Rhône-Alpes",
      "countryName": "France"
    },
    {
      "id": 14190,
      "stateId": 22,
      "name": "Chamblee",
      "latitude": null,
      "longitude": null,
      "createdAt": "2025-12-28T19:41:51.247Z",
      "updatedAt": "2025-12-28T19:41:51.247Z",
      "stateName": "Georgia",
      "countryName": "United States"
    },
    {
      "id": 6664,
      "stateId": 408,
      "name": "Chamical",
      "latitude": "-32.1628172",
      "longitude": "-62.0921509",
      "createdAt": "2025-12-28T18:26:24.635Z",
      "updatedAt": "2025-12-28T18:26:24.635Z",
      "stateName": "La Rioja",
      "countryName": "Argentina"
    },
    {
      "id": 4422,
      "stateId": 201,
      "name": "Chamonix",
      "latitude": "47.3768156",
      "longitude": "2.7742767",
      "createdAt": "2025-12-28T18:17:29.529Z",
      "updatedAt": "2025-12-28T18:17:29.529Z",
      "stateName": "Auvergne-Rhône-Alpes",
      "countryName": "France"
    },
    {
      "id": 12016,
      "stateId": 10,
      "name": "Champagne-sur-Seine",
      "latitude": "47.3768156",
      "longitude": "2.7742767",
      "createdAt": "2025-12-28T19:11:30.625Z",
      "updatedAt": "2025-12-28T19:11:30.625Z",
      "stateName": "Île-de-France",
      "countryName": "France"
    },
    {
      "id": 10283,
      "stateId": 667,
      "name": "Champagnole",
      "latitude": null,
      "longitude": null,
      "createdAt": "2025-12-28T18:51:30.337Z",
      "updatedAt": "2025-12-28T18:51:30.337Z",
      "stateName": "Bourgogne-Franche-Comté",
      "countryName": "France"
    },
    {
      "id": 3352,
      "stateId": 46,
      "name": "Champaign",
      "latitude": "40.1164200",
      "longitude": "-88.2433800",
      "createdAt": "2025-12-28T18:14:16.285Z",
      "updatedAt": "2025-12-28T18:14:16.285Z",
      "stateName": "Illinois",
      "countryName": "United States"
    },
    {
      "id": 17323,
      "stateId": 258,
      "name": "Champion",
      "latitude": null,
      "longitude": null,
      "createdAt": "2025-12-29T18:36:23.942Z",
      "updatedAt": "2025-12-29T18:36:23.942Z",
      "stateName": "Quebec",
      "countryName": "Canada"
    },
    {
      "id": 6079,
      "stateId": 125,
      "name": "Champoton",
      "latitude": "21.0459460",
      "longitude": "-100.0405298",
      "createdAt": "2025-12-28T18:23:12.733Z",
      "updatedAt": "2025-12-28T18:23:12.733Z",
      "stateName": "Campeche",
      "countryName": "Mexico"
    },
    {
      "id": 14771,
      "stateId": 86,
      "name": "Chañar Ladeado",
      "latitude": "-32.1628172",
      "longitude": "-62.0921509",
      "createdAt": "2025-12-28T19:48:21.468Z",
      "updatedAt": "2025-12-28T19:48:21.468Z",
      "stateName": "Santa Fe",
      "countryName": "Argentina"
    },
    {
      "id": 18348,
      "stateId": 396,
      "name": "Chanco",
      "latitude": null,
      "longitude": null,
      "createdAt": "2026-05-18T03:10:51.561Z",
      "updatedAt": "2026-05-18T03:10:51.561Z",
      "stateName": "Región del Maule",
      "countryName": "Chile"
    },
    {
      "id": 2642,
      "stateId": 337,
      "name": "Chandigarh",
      "latitude": "30.7362900",
      "longitude": "76.7884000",
      "createdAt": "2025-12-28T18:12:38.514Z",
      "updatedAt": "2025-12-28T18:12:38.514Z",
      "stateName": "Punjab",
      "countryName": "India"
    },
    {
      "id": 8742,
      "stateId": 75,
      "name": "Chandler",
      "latitude": "33.3061600",
      "longitude": "-111.8412500",
      "createdAt": "2025-12-28T18:39:59.477Z",
      "updatedAt": "2025-12-28T18:39:59.477Z",
      "stateName": "Arizona",
      "countryName": "United States"
    },
    {
      "id": 13545,
      "stateId": 51,
      "name": "Chandler",
      "latitude": "33.3061600",
      "longitude": "-111.8412500",
      "createdAt": "2025-12-28T19:27:45.719Z",
      "updatedAt": "2025-12-28T19:27:45.719Z",
      "stateName": "Indiana",
      "countryName": "United States"
    },
    {
      "id": 5448,
      "stateId": 258,
      "name": "Chandler",
      "latitude": null,
      "longitude": null,
      "createdAt": "2025-12-28T18:20:54.841Z",
      "updatedAt": "2025-12-28T18:20:54.841Z",
      "stateName": "Quebec",
      "countryName": "Canada"
    },
    {
      "id": 2669,
      "stateId": 54,
      "name": "Chandrapur",
      "latitude": "19.9471100",
      "longitude": "79.2960700",
      "createdAt": "2025-12-28T18:12:39.744Z",
      "updatedAt": "2025-12-28T18:12:39.744Z",
      "stateName": "Maharashtra",
      "countryName": "India"
    },
    {
      "id": 1302,
      "stateId": 316,
      "name": "Changanassery",
      "latitude": null,
      "longitude": null,
      "createdAt": "2025-12-28T17:03:32.460Z",
      "updatedAt": "2025-12-28T17:03:32.460Z",
      "stateName": "Kerala",
      "countryName": "India"
    },
    {
      "id": 111,
      "stateId": 78,
      "name": "Changchun",
      "latitude": "43.8800000",
      "longitude": "125.3227800",
      "createdAt": "2025-12-28T16:56:24.904Z",
      "updatedAt": "2025-12-28T16:56:24.904Z",
      "stateName": "Jilin",
      "countryName": "China"
    },
    {
      "id": 18334,
      "stateId": 884,
      "name": "Changsha",
      "latitude": "28.1987400",
      "longitude": "112.9708700",
      "createdAt": "2026-05-17T06:40:20.690Z",
      "updatedAt": "2026-05-17T06:40:20.690Z",
      "stateName": "Hunan",
      "countryName": "China"
    },
    {
      "id": 3206,
      "stateId": 670,
      "name": "Changzhou",
      "latitude": "31.7735900",
      "longitude": "119.9540100",
      "createdAt": "2025-12-28T18:13:57.867Z",
      "updatedAt": "2025-12-28T18:13:57.867Z",
      "stateName": "Jiangsu",
      "countryName": "China"
    },
    {
      "id": 355,
      "stateId": 140,
      "name": "Chania",
      "latitude": "35.5112400",
      "longitude": "24.0292100",
      "createdAt": "2025-12-28T17:00:43.873Z",
      "updatedAt": "2025-12-28T17:00:43.873Z",
      "stateName": "Crete",
      "countryName": "Greece"
    },
    {
      "id": 5403,
      "stateId": 46,
      "name": "Channahon",
      "latitude": "37.8034989",
      "longitude": "-92.5169818",
      "createdAt": "2025-12-28T18:20:33.329Z",
      "updatedAt": "2025-12-28T18:20:33.329Z",
      "stateName": "Illinois",
      "countryName": "United States"
    },
    {
      "id": 10920,
      "stateId": 20,
      "name": "Channelview",
      "latitude": "29.7760600",
      "longitude": "-95.1146500",
      "createdAt": "2025-12-28T18:59:14.614Z",
      "updatedAt": "2025-12-28T18:59:14.614Z",
      "stateName": "Texas",
      "countryName": "United States"
    },
    {
      "id": 15409,
      "stateId": 426,
      "name": "Chantilly",
      "latitude": null,
      "longitude": null,
      "createdAt": "2025-12-28T20:05:17.578Z",
      "updatedAt": "2025-12-28T20:05:17.578Z",
      "stateName": "Hauts-de-France",
      "countryName": "France"
    },
    {
      "id": 9968,
      "stateId": 31,
      "name": "Chanute",
      "latitude": "37.8034989",
      "longitude": "-92.5169818",
      "createdAt": "2025-12-28T18:49:16.733Z",
      "updatedAt": "2025-12-28T18:49:16.733Z",
      "stateName": "Kansas",
      "countryName": "United States"
    },
    {
      "id": 5740,
      "stateId": 630,
      "name": "Chaoyang",
      "latitude": "41.5702800",
      "longitude": "120.4586100",
      "createdAt": "2025-12-28T18:22:03.000Z",
      "updatedAt": "2025-12-28T18:22:03.000Z",
      "stateName": "Liaoning",
      "countryName": "China"
    },
    {
      "id": 12101,
      "stateId": 875,
      "name": "Chaozhou",
      "latitude": null,
      "longitude": null,
      "createdAt": "2025-12-28T19:12:24.461Z",
      "updatedAt": "2025-12-28T19:12:24.461Z",
      "stateName": "Guangdong",
      "countryName": "China"
    },
    {
      "id": 1016,
      "stateId": 205,
      "name": "Chapada",
      "latitude": null,
      "longitude": null,
      "createdAt": "2025-12-28T17:02:33.881Z",
      "updatedAt": "2025-12-28T17:02:33.881Z",
      "stateName": "Rio Grande do Sul",
      "countryName": "Brazil"
    },
    {
      "id": 9350,
      "stateId": 85,
      "name": "Chapada dos Guimarães",
      "latitude": null,
      "longitude": null,
      "createdAt": "2025-12-28T18:43:53.500Z",
      "updatedAt": "2025-12-28T18:43:53.500Z",
      "stateName": "Mato Grosso",
      "countryName": "Brazil"
    },
    {
      "id": 10462,
      "stateId": 95,
      "name": "Chapada Gaúcha",
      "latitude": null,
      "longitude": null,
      "createdAt": "2025-12-28T18:53:36.008Z",
      "updatedAt": "2025-12-28T18:53:36.008Z",
      "stateName": "Minas Gerais",
      "countryName": "Brazil"
    },
    {
      "id": 3132,
      "stateId": 253,
      "name": "Chapadão do Céu",
      "latitude": null,
      "longitude": null,
      "createdAt": "2025-12-28T18:13:45.260Z",
      "updatedAt": "2025-12-28T18:13:45.260Z",
      "stateName": "Goiás",
      "countryName": "Brazil"
    },
    {
      "id": 7641,
      "stateId": 369,
      "name": "Chapadao Do Sul",
      "latitude": null,
      "longitude": null,
      "createdAt": "2025-12-28T18:31:03.801Z",
      "updatedAt": "2025-12-28T18:31:03.801Z",
      "stateName": "Mato Grosso do Sul",
      "countryName": "Brazil"
    },
    {
      "id": 17574,
      "stateId": 335,
      "name": "Chapadinha",
      "latitude": null,
      "longitude": null,
      "createdAt": "2026-01-23T12:01:02.072Z",
      "updatedAt": "2026-01-23T12:01:02.072Z",
      "stateName": "Maranhão",
      "countryName": "Brazil"
    },
    {
      "id": 2170,
      "stateId": 293,
      "name": "Chapecó",
      "latitude": "-27.0963900",
      "longitude": "-52.6183300",
      "createdAt": "2025-12-28T18:11:01.242Z",
      "updatedAt": "2025-12-28T18:11:01.242Z",
      "stateName": "Santa Catarina",
      "countryName": "Brazil"
    },
    {
      "id": 10802,
      "stateId": 55,
      "name": "Chapel Hill",
      "latitude": "35.9132000",
      "longitude": "-79.0558400",
      "createdAt": "2025-12-28T18:57:42.602Z",
      "updatedAt": "2025-12-28T18:57:42.602Z",
      "stateName": "North Carolina",
      "countryName": "United States"
    },
    {
      "id": 4897,
      "stateId": 821,
      "name": "Charagua",
      "latitude": null,
      "longitude": null,
      "createdAt": "2025-12-28T18:18:58.076Z",
      "updatedAt": "2025-12-28T18:18:58.076Z",
      "stateName": "Cordillera",
      "countryName": "Bolivia"
    },
    {
      "id": 9771,
      "stateId": 319,
      "name": "Charala",
      "latitude": null,
      "longitude": null,
      "createdAt": "2025-12-28T18:47:08.270Z",
      "updatedAt": "2025-12-28T18:47:08.270Z",
      "stateName": "Santander",
      "countryName": "Colombia"
    },
    {
      "id": 7422,
      "stateId": 763,
      "name": "Charallave",
      "latitude": null,
      "longitude": null,
      "createdAt": "2025-12-28T18:30:06.600Z",
      "updatedAt": "2025-12-28T18:30:06.600Z",
      "stateName": "Miranda",
      "countryName": "Venezuela"
    }
  ],
  "meta": {
    "page": 33,
    "limit": 100,
    "total": 18002,
    "totalPages": 181
  }
}
