{
  "source": "50k-radio-stations",
  "provider": "rapidapi",
  "syncedAt": "2026-06-03T13:04:00.016Z",
  "endpoint": "/cities",
  "page": 1,
  "limit": 250,
  "data": [
    {
      "id": 6641,
      "stateId": 26,
      "name": "100 Mile House",
      "latitude": "46.9909847",
      "longitude": "-87.5986915",
      "createdAt": "2025-12-28T18:26:11.577Z",
      "updatedAt": "2025-12-28T18:26:11.577Z",
      "stateName": "British Columbia",
      "countryName": "Canada"
    },
    {
      "id": 17085,
      "stateId": 58,
      "name": "25 de Mayo",
      "latitude": null,
      "longitude": null,
      "createdAt": "2025-12-29T15:25:40.907Z",
      "updatedAt": "2025-12-29T15:25:40.907Z",
      "stateName": "Buenos Aires",
      "countryName": "Argentina"
    },
    {
      "id": 2884,
      "stateId": 58,
      "name": "9 de Julio",
      "latitude": "-32.1628172",
      "longitude": "-62.0921509",
      "createdAt": "2025-12-28T18:12:57.219Z",
      "updatedAt": "2025-12-28T18:12:57.219Z",
      "stateName": "Buenos Aires",
      "countryName": "Argentina"
    },
    {
      "id": 8449,
      "stateId": 97,
      "name": "Aachen",
      "latitude": "50.7766400",
      "longitude": "6.0834200",
      "createdAt": "2025-12-28T18:38:42.231Z",
      "updatedAt": "2025-12-28T18:38:42.231Z",
      "stateName": "Saxony-Anhalt",
      "countryName": "Germany"
    },
    {
      "id": 1699,
      "stateId": 432,
      "name": "Aachen",
      "latitude": "50.7766400",
      "longitude": "6.0834200",
      "createdAt": "2025-12-28T18:01:58.384Z",
      "updatedAt": "2025-12-28T18:01:58.384Z",
      "stateName": "North Rhine-Westphalia",
      "countryName": "Germany"
    },
    {
      "id": 8456,
      "stateId": 213,
      "name": "Aaist",
      "latitude": null,
      "longitude": null,
      "createdAt": "2025-12-28T18:38:42.964Z",
      "updatedAt": "2025-12-28T18:38:42.964Z",
      "stateName": "Gelderland",
      "countryName": "Netherlands"
    },
    {
      "id": 17988,
      "stateId": 213,
      "name": "Aalst",
      "latitude": null,
      "longitude": null,
      "createdAt": "2026-03-25T09:35:22.602Z",
      "updatedAt": "2026-03-25T09:35:22.602Z",
      "stateName": "Gelderland",
      "countryName": "Netherlands"
    },
    {
      "id": 2926,
      "stateId": 96,
      "name": "Aalst",
      "latitude": "50.9360400",
      "longitude": "4.0355000",
      "createdAt": "2025-12-28T18:13:02.833Z",
      "updatedAt": "2025-12-28T18:13:02.833Z",
      "stateName": "North Brabant",
      "countryName": "Netherlands"
    },
    {
      "id": 2335,
      "stateId": 213,
      "name": "Aalten",
      "latitude": "51.9250000",
      "longitude": "6.5805600",
      "createdAt": "2025-12-28T18:11:47.551Z",
      "updatedAt": "2025-12-28T18:11:47.551Z",
      "stateName": "Gelderland",
      "countryName": "Netherlands"
    },
    {
      "id": 3881,
      "stateId": 708,
      "name": "Aarau",
      "latitude": "47.3925400",
      "longitude": "8.0442200",
      "createdAt": "2025-12-28T18:15:33.574Z",
      "updatedAt": "2025-12-28T18:15:33.574Z",
      "stateName": "Aargau",
      "countryName": "Switzerland"
    },
    {
      "id": 7908,
      "stateId": 104,
      "name": "Aarau",
      "latitude": null,
      "longitude": null,
      "createdAt": "2025-12-28T18:32:56.230Z",
      "updatedAt": "2025-12-28T18:32:56.230Z",
      "stateName": "Aaragau",
      "countryName": "Switzerland"
    },
    {
      "id": 8455,
      "stateId": 594,
      "name": "Aarschot",
      "latitude": "50.9871500",
      "longitude": "4.8369500",
      "createdAt": "2025-12-28T18:38:42.891Z",
      "updatedAt": "2025-12-28T18:38:42.891Z",
      "stateName": "Flemish Brabant",
      "countryName": "Belgium"
    },
    {
      "id": 1149,
      "stateId": 77,
      "name": "Aba",
      "latitude": "5.1065800",
      "longitude": "7.3666700",
      "createdAt": "2025-12-28T17:03:13.839Z",
      "updatedAt": "2025-12-28T17:03:13.839Z",
      "stateName": "Katsina State",
      "countryName": "Nigeria"
    },
    {
      "id": 1854,
      "stateId": 253,
      "name": "Abadia de Goiás",
      "latitude": null,
      "longitude": null,
      "createdAt": "2025-12-28T18:10:18.975Z",
      "updatedAt": "2025-12-28T18:10:18.975Z",
      "stateName": "Goiás",
      "countryName": "Brazil"
    },
    {
      "id": 1824,
      "stateId": 95,
      "name": "Abaeté",
      "latitude": "-19.1600000",
      "longitude": "-45.4458300",
      "createdAt": "2025-12-28T18:10:14.909Z",
      "updatedAt": "2025-12-28T18:10:14.909Z",
      "stateName": "Minas Gerais",
      "countryName": "Brazil"
    },
    {
      "id": 1822,
      "stateId": 159,
      "name": "Abaetetuba",
      "latitude": null,
      "longitude": null,
      "createdAt": "2025-12-28T18:10:14.771Z",
      "updatedAt": "2025-12-28T18:10:14.771Z",
      "stateName": "Pará",
      "countryName": "Brazil"
    },
    {
      "id": 1833,
      "stateId": 262,
      "name": "Abaíra",
      "latitude": "-17.4339069",
      "longitude": "-45.8426650",
      "createdAt": "2025-12-28T18:10:16.130Z",
      "updatedAt": "2025-12-28T18:10:16.130Z",
      "stateName": "Bahia",
      "countryName": "Brazil"
    },
    {
      "id": 1840,
      "stateId": 77,
      "name": "Abakaliki",
      "latitude": null,
      "longitude": null,
      "createdAt": "2025-12-28T18:10:17.094Z",
      "updatedAt": "2025-12-28T18:10:17.094Z",
      "stateName": "Katsina State",
      "countryName": "Nigeria"
    },
    {
      "id": 1857,
      "stateId": 218,
      "name": "Abarán",
      "latitude": null,
      "longitude": null,
      "createdAt": "2025-12-28T18:10:19.576Z",
      "updatedAt": "2025-12-28T18:10:19.576Z",
      "stateName": "Murcia",
      "countryName": "Spain"
    },
    {
      "id": 17773,
      "stateId": 262,
      "name": "Abaré",
      "latitude": null,
      "longitude": null,
      "createdAt": "2026-02-20T03:00:18.515Z",
      "updatedAt": "2026-02-20T03:00:18.515Z",
      "stateName": "Bahia",
      "countryName": "Brazil"
    },
    {
      "id": 1836,
      "stateId": 137,
      "name": "Abatia",
      "latitude": "-17.4339069",
      "longitude": "-45.8426650",
      "createdAt": "2025-12-28T18:10:16.434Z",
      "updatedAt": "2025-12-28T18:10:16.434Z",
      "stateName": "Paraná",
      "countryName": "Brazil"
    },
    {
      "id": 1828,
      "stateId": 145,
      "name": "Abbeville",
      "latitude": "50.1000000",
      "longitude": "1.8333300",
      "createdAt": "2025-12-28T18:10:15.512Z",
      "updatedAt": "2025-12-28T18:10:15.512Z",
      "stateName": "South Carolina",
      "countryName": "United States"
    },
    {
      "id": 1861,
      "stateId": 426,
      "name": "Abbeville",
      "latitude": "50.1000000",
      "longitude": "1.8333300",
      "createdAt": "2025-12-28T18:10:20.320Z",
      "updatedAt": "2025-12-28T18:10:20.320Z",
      "stateName": "Hauts-de-France",
      "countryName": "France"
    },
    {
      "id": 1860,
      "stateId": 16,
      "name": "Abbeville",
      "latitude": "50.1000000",
      "longitude": "1.8333300",
      "createdAt": "2025-12-28T18:10:20.112Z",
      "updatedAt": "2025-12-28T18:10:20.112Z",
      "stateName": "Louisiana",
      "countryName": "United States"
    },
    {
      "id": 1838,
      "stateId": 26,
      "name": "Abbotsford",
      "latitude": "49.0579800",
      "longitude": "-122.2525700",
      "createdAt": "2025-12-28T18:10:16.767Z",
      "updatedAt": "2025-12-28T18:10:16.767Z",
      "stateName": "British Columbia",
      "countryName": "Canada"
    },
    {
      "id": 1717,
      "stateId": 181,
      "name": "Abejorral",
      "latitude": "6.4444434",
      "longitude": "-74.9549521",
      "createdAt": "2025-12-28T18:10:04.692Z",
      "updatedAt": "2025-12-28T18:10:04.692Z",
      "stateName": "Antioquia",
      "countryName": "Colombia"
    },
    {
      "id": 1830,
      "stateId": 293,
      "name": "Abelardo Luz",
      "latitude": null,
      "longitude": null,
      "createdAt": "2025-12-28T18:10:15.876Z",
      "updatedAt": "2025-12-28T18:10:15.876Z",
      "stateName": "Santa Catarina",
      "countryName": "Brazil"
    },
    {
      "id": 1846,
      "stateId": 34,
      "name": "Abenberg",
      "latitude": null,
      "longitude": null,
      "createdAt": "2025-12-28T18:10:17.775Z",
      "updatedAt": "2025-12-28T18:10:17.775Z",
      "stateName": "Bavaria",
      "countryName": "Germany"
    },
    {
      "id": 1472,
      "stateId": 457,
      "name": "Abeokuta",
      "latitude": "7.1557100",
      "longitude": "3.3450900",
      "createdAt": "2025-12-28T17:04:33.408Z",
      "updatedAt": "2025-12-28T17:04:33.408Z",
      "stateName": "Ogun State",
      "countryName": "Nigeria"
    },
    {
      "id": 1782,
      "stateId": 395,
      "name": "Aberdeen",
      "latitude": "45.4647000",
      "longitude": "-98.4864800",
      "createdAt": "2025-12-28T18:10:10.950Z",
      "updatedAt": "2025-12-28T18:10:10.950Z",
      "stateName": "South Dakota",
      "countryName": "United States"
    },
    {
      "id": 1850,
      "stateId": 110,
      "name": "Aberdeen",
      "latitude": "46.9753700",
      "longitude": "-123.8157200",
      "createdAt": "2025-12-28T18:10:18.156Z",
      "updatedAt": "2025-12-28T18:10:18.156Z",
      "stateName": "Idaho",
      "countryName": "United States"
    },
    {
      "id": 1845,
      "stateId": 55,
      "name": "Aberdeen",
      "latitude": "45.4647000",
      "longitude": "-98.4864800",
      "createdAt": "2025-12-28T18:10:17.707Z",
      "updatedAt": "2025-12-28T18:10:17.707Z",
      "stateName": "North Carolina",
      "countryName": "United States"
    },
    {
      "id": 1829,
      "stateId": 444,
      "name": "Aberdeen",
      "latitude": "57.1436900",
      "longitude": "-2.0981400",
      "createdAt": "2025-12-28T18:10:15.618Z",
      "updatedAt": "2025-12-28T18:10:15.618Z",
      "stateName": "Scotland",
      "countryName": "United Kingdom"
    },
    {
      "id": 1814,
      "stateId": 64,
      "name": "Aberdeen",
      "latitude": "37.8034989",
      "longitude": "-92.5169818",
      "createdAt": "2025-12-28T18:10:13.991Z",
      "updatedAt": "2025-12-28T18:10:13.991Z",
      "stateName": "Maryland",
      "countryName": "United States"
    },
    {
      "id": 218,
      "stateId": 42,
      "name": "Aberdeen",
      "latitude": "46.9753700",
      "longitude": "-123.8157200",
      "createdAt": "2025-12-28T16:56:36.327Z",
      "updatedAt": "2025-12-28T16:56:36.327Z",
      "stateName": "Washington",
      "countryName": "United States"
    },
    {
      "id": 1853,
      "stateId": 82,
      "name": "Abergavenny",
      "latitude": "52.7709249",
      "longitude": "-1.7304307",
      "createdAt": "2025-12-28T18:10:18.956Z",
      "updatedAt": "2025-12-28T18:10:18.956Z",
      "stateName": "Wales",
      "countryName": "United Kingdom"
    },
    {
      "id": 1858,
      "stateId": 82,
      "name": "Aberystwyth",
      "latitude": "52.4154800",
      "longitude": "-4.0829200",
      "createdAt": "2025-12-28T18:10:19.907Z",
      "updatedAt": "2025-12-28T18:10:19.907Z",
      "stateName": "Wales",
      "countryName": "United Kingdom"
    },
    {
      "id": 1844,
      "stateId": 31,
      "name": "Abilene",
      "latitude": "32.4487400",
      "longitude": "-99.7331400",
      "createdAt": "2025-12-28T18:10:17.638Z",
      "updatedAt": "2025-12-28T18:10:17.638Z",
      "stateName": "Kansas",
      "countryName": "United States"
    },
    {
      "id": 1760,
      "stateId": 20,
      "name": "Abilene",
      "latitude": "32.4487400",
      "longitude": "-99.7331400",
      "createdAt": "2025-12-28T18:10:09.254Z",
      "updatedAt": "2025-12-28T18:10:09.254Z",
      "stateName": "Texas",
      "countryName": "United States"
    },
    {
      "id": 1849,
      "stateId": 50,
      "name": "Abingdon",
      "latitude": "51.6710900",
      "longitude": "-1.2827800",
      "createdAt": "2025-12-28T18:10:18.082Z",
      "updatedAt": "2025-12-28T18:10:18.082Z",
      "stateName": "Virginia",
      "countryName": "United States"
    },
    {
      "id": 1841,
      "stateId": 47,
      "name": "Abington",
      "latitude": null,
      "longitude": null,
      "createdAt": "2025-12-28T18:10:17.387Z",
      "updatedAt": "2025-12-28T18:10:17.387Z",
      "stateName": "Massachusetts",
      "countryName": "United States"
    },
    {
      "id": 1856,
      "stateId": 66,
      "name": "Ablekuma",
      "latitude": null,
      "longitude": null,
      "createdAt": "2025-12-28T18:10:19.138Z",
      "updatedAt": "2025-12-28T18:10:19.138Z",
      "stateName": "Greater Accra Region",
      "countryName": "Ghana"
    },
    {
      "id": 1842,
      "stateId": 206,
      "name": "Abrantes",
      "latitude": "39.5232529",
      "longitude": "-8.9987995",
      "createdAt": "2025-12-28T18:10:17.567Z",
      "updatedAt": "2025-12-28T18:10:17.567Z",
      "stateName": "Lisboa e Vale do Tejo",
      "countryName": "Portugal"
    },
    {
      "id": 1820,
      "stateId": 197,
      "name": "Abra Pampa",
      "latitude": null,
      "longitude": null,
      "createdAt": "2025-12-28T18:10:14.654Z",
      "updatedAt": "2025-12-28T18:10:14.654Z",
      "stateName": "Jujuy",
      "countryName": "Argentina"
    },
    {
      "id": 1786,
      "stateId": 95,
      "name": "Abre Campo",
      "latitude": null,
      "longitude": null,
      "createdAt": "2025-12-28T18:10:11.229Z",
      "updatedAt": "2025-12-28T18:10:11.229Z",
      "stateName": "Minas Gerais",
      "countryName": "Brazil"
    },
    {
      "id": 1812,
      "stateId": 115,
      "name": "Abrera",
      "latitude": null,
      "longitude": null,
      "createdAt": "2025-12-28T18:10:12.966Z",
      "updatedAt": "2025-12-28T18:10:12.966Z",
      "stateName": "Barcelona",
      "countryName": "Spain"
    },
    {
      "id": 1799,
      "stateId": 7,
      "name": "Abreu e Lima",
      "latitude": null,
      "longitude": null,
      "createdAt": "2025-12-28T18:10:11.924Z",
      "updatedAt": "2025-12-28T18:10:11.924Z",
      "stateName": "Pernambuco",
      "countryName": "Brazil"
    },
    {
      "id": 1859,
      "stateId": 106,
      "name": "Absecon",
      "latitude": null,
      "longitude": null,
      "createdAt": "2025-12-28T18:10:20.100Z",
      "updatedAt": "2025-12-28T18:10:20.100Z",
      "stateName": "New Jersey",
      "countryName": "United States"
    },
    {
      "id": 1848,
      "stateId": 180,
      "name": "Abtei",
      "latitude": "42.4957616",
      "longitude": "12.4479260",
      "createdAt": "2025-12-28T18:10:17.830Z",
      "updatedAt": "2025-12-28T18:10:17.830Z",
      "stateName": "Trentino-Alto Adige",
      "countryName": "Italy"
    },
    {
      "id": 431,
      "stateId": 210,
      "name": "Abu Dhabi",
      "latitude": "24.4666700",
      "longitude": "54.3666700",
      "createdAt": "2025-12-28T17:00:49.919Z",
      "updatedAt": "2025-12-28T17:00:49.919Z",
      "stateName": "Abu Dhabi Emirate",
      "countryName": "United Arab Emirates"
    },
    {
      "id": 109,
      "stateId": 77,
      "name": "Abuja",
      "latitude": "9.0578500",
      "longitude": "7.4950800",
      "createdAt": "2025-12-28T16:56:24.779Z",
      "updatedAt": "2025-12-28T16:56:24.779Z",
      "stateName": "Katsina State",
      "countryName": "Nigeria"
    },
    {
      "id": 1832,
      "stateId": 343,
      "name": "Abu Road",
      "latitude": "21.6224148",
      "longitude": "79.1259549",
      "createdAt": "2025-12-28T18:10:16.108Z",
      "updatedAt": "2025-12-28T18:10:16.108Z",
      "stateName": "Rajasthan",
      "countryName": "India"
    },
    {
      "id": 2002,
      "stateId": 546,
      "name": "Acacías",
      "latitude": null,
      "longitude": null,
      "createdAt": "2025-12-28T18:10:38.504Z",
      "updatedAt": "2025-12-28T18:10:38.504Z",
      "stateName": "Meta",
      "countryName": "Colombia"
    },
    {
      "id": 2003,
      "stateId": 335,
      "name": "Açailândia",
      "latitude": null,
      "longitude": null,
      "createdAt": "2025-12-28T18:10:38.521Z",
      "updatedAt": "2025-12-28T18:10:38.521Z",
      "stateName": "Maranhão",
      "countryName": "Brazil"
    },
    {
      "id": 1951,
      "stateId": 262,
      "name": "Acajutiba",
      "latitude": null,
      "longitude": null,
      "createdAt": "2025-12-28T18:10:32.884Z",
      "updatedAt": "2025-12-28T18:10:32.884Z",
      "stateName": "Bahia",
      "countryName": "Brazil"
    },
    {
      "id": 1993,
      "stateId": 404,
      "name": "Acajutla",
      "latitude": null,
      "longitude": null,
      "createdAt": "2025-12-28T18:10:37.202Z",
      "updatedAt": "2025-12-28T18:10:37.202Z",
      "stateName": "Sonsonate Department",
      "countryName": "El Salvador"
    },
    {
      "id": 2012,
      "stateId": 304,
      "name": "Acambaro",
      "latitude": "20.0302400",
      "longitude": "-100.7224900",
      "createdAt": "2025-12-28T18:10:39.650Z",
      "updatedAt": "2025-12-28T18:10:39.650Z",
      "stateName": "Guanajuato",
      "countryName": "Mexico"
    },
    {
      "id": 1992,
      "stateId": 544,
      "name": "Acaponeta",
      "latitude": "22.4939600",
      "longitude": "-105.3636900",
      "createdAt": "2025-12-28T18:10:37.153Z",
      "updatedAt": "2025-12-28T18:10:37.153Z",
      "stateName": "Nayarit",
      "countryName": "Mexico"
    },
    {
      "id": 1746,
      "stateId": 520,
      "name": "Acapulco",
      "latitude": "16.8633600",
      "longitude": "-99.8901000",
      "createdAt": "2025-12-28T18:10:08.227Z",
      "updatedAt": "2025-12-28T18:10:08.227Z",
      "stateName": "Guerrero",
      "countryName": "Mexico"
    },
    {
      "id": 1946,
      "stateId": 231,
      "name": "Acarape",
      "latitude": null,
      "longitude": null,
      "createdAt": "2025-12-28T18:10:32.487Z",
      "updatedAt": "2025-12-28T18:10:32.487Z",
      "stateName": "Ceará",
      "countryName": "Brazil"
    },
    {
      "id": 1888,
      "stateId": 231,
      "name": "Acaraú",
      "latitude": null,
      "longitude": null,
      "createdAt": "2025-12-28T18:10:27.489Z",
      "updatedAt": "2025-12-28T18:10:27.489Z",
      "stateName": "Ceará",
      "countryName": "Brazil"
    },
    {
      "id": 2033,
      "stateId": 186,
      "name": "Acari",
      "latitude": null,
      "longitude": null,
      "createdAt": "2025-12-28T18:10:41.576Z",
      "updatedAt": "2025-12-28T18:10:41.576Z",
      "stateName": "Rio Grande do Norte",
      "countryName": "Brazil"
    },
    {
      "id": 1283,
      "stateId": 445,
      "name": "Acarigua",
      "latitude": "9.5545100",
      "longitude": "-69.1956400",
      "createdAt": "2025-12-28T17:03:30.625Z",
      "updatedAt": "2025-12-28T17:03:30.625Z",
      "stateName": "Portuguesa",
      "countryName": "Venezuela"
    },
    {
      "id": 1939,
      "stateId": 187,
      "name": "Acatlan de Osorio",
      "latitude": "21.0459460",
      "longitude": "-100.0405298",
      "createdAt": "2025-12-28T18:10:32.190Z",
      "updatedAt": "2025-12-28T18:10:32.190Z",
      "stateName": "Puebla",
      "countryName": "Mexico"
    },
    {
      "id": 1989,
      "stateId": 190,
      "name": "Acayucan",
      "latitude": "17.9488500",
      "longitude": "-94.9139900",
      "createdAt": "2025-12-28T18:10:36.779Z",
      "updatedAt": "2025-12-28T18:10:36.779Z",
      "stateName": "Veracruz",
      "countryName": "Mexico"
    },
    {
      "id": 2028,
      "stateId": 50,
      "name": "Accomac",
      "latitude": "37.8034989",
      "longitude": "-92.5169818",
      "createdAt": "2025-12-28T18:10:41.173Z",
      "updatedAt": "2025-12-28T18:10:41.173Z",
      "stateName": "Virginia",
      "countryName": "United States"
    },
    {
      "id": 96,
      "stateId": 66,
      "name": "Accra",
      "latitude": "5.5560200",
      "longitude": "-0.1969000",
      "createdAt": "2025-12-28T16:56:23.657Z",
      "updatedAt": "2025-12-28T16:56:23.657Z",
      "stateName": "Greater Accra Region",
      "countryName": "Ghana"
    },
    {
      "id": 2004,
      "stateId": 205,
      "name": "Aceguá",
      "latitude": null,
      "longitude": null,
      "createdAt": "2025-12-28T18:10:38.543Z",
      "updatedAt": "2025-12-28T18:10:38.543Z",
      "stateName": "Rio Grande do Sul",
      "countryName": "Brazil"
    },
    {
      "id": 1911,
      "stateId": 531,
      "name": "Aceh Besar",
      "latitude": null,
      "longitude": null,
      "createdAt": "2025-12-28T18:10:29.609Z",
      "updatedAt": "2025-12-28T18:10:29.609Z",
      "stateName": "Aceh",
      "countryName": "Indonesia"
    },
    {
      "id": 2040,
      "stateId": 166,
      "name": "Acerenza",
      "latitude": "42.4957616",
      "longitude": "12.4479260",
      "createdAt": "2025-12-28T18:10:43.573Z",
      "updatedAt": "2025-12-28T18:10:43.573Z",
      "stateName": "Basilicata",
      "countryName": "Italy"
    },
    {
      "id": 2020,
      "stateId": 330,
      "name": "Acevedo",
      "latitude": null,
      "longitude": null,
      "createdAt": "2025-12-28T18:10:40.447Z",
      "updatedAt": "2025-12-28T18:10:40.447Z",
      "stateName": "Huila",
      "countryName": "Colombia"
    },
    {
      "id": 2035,
      "stateId": 17,
      "name": "Achern",
      "latitude": "48.6311500",
      "longitude": "8.0760700",
      "createdAt": "2025-12-28T18:10:41.902Z",
      "updatedAt": "2025-12-28T18:10:41.902Z",
      "stateName": "Baden-Württemberg",
      "countryName": "Germany"
    },
    {
      "id": 1966,
      "stateId": 212,
      "name": "Achim",
      "latitude": null,
      "longitude": null,
      "createdAt": "2025-12-28T18:10:34.470Z",
      "updatedAt": "2025-12-28T18:10:34.470Z",
      "stateName": "Lower Saxony",
      "countryName": "Germany"
    },
    {
      "id": 1985,
      "stateId": 543,
      "name": "Achinsk",
      "latitude": null,
      "longitude": null,
      "createdAt": "2025-12-28T18:10:36.424Z",
      "updatedAt": "2025-12-28T18:10:36.424Z",
      "stateName": "Krasnoyarsk",
      "countryName": "Russia"
    },
    {
      "id": 1901,
      "stateId": 147,
      "name": "Achiras",
      "latitude": null,
      "longitude": null,
      "createdAt": "2025-12-28T18:10:28.449Z",
      "updatedAt": "2025-12-28T18:10:28.449Z",
      "stateName": "Cordoba",
      "countryName": "Argentina"
    },
    {
      "id": 2008,
      "stateId": 207,
      "name": "Acireale",
      "latitude": "37.6260600",
      "longitude": "15.1632500",
      "createdAt": "2025-12-28T18:10:39.422Z",
      "updatedAt": "2025-12-28T18:10:39.422Z",
      "stateName": "Sicily",
      "countryName": "Italy"
    },
    {
      "id": 2025,
      "stateId": 401,
      "name": "Ackerman",
      "latitude": null,
      "longitude": null,
      "createdAt": "2025-12-28T18:10:41.019Z",
      "updatedAt": "2025-12-28T18:10:41.019Z",
      "stateName": "Mississippi",
      "countryName": "United States"
    },
    {
      "id": 2001,
      "stateId": 231,
      "name": "Acopiara",
      "latitude": "-6.0952800",
      "longitude": "-39.4525000",
      "createdAt": "2025-12-28T18:10:38.308Z",
      "updatedAt": "2025-12-28T18:10:38.308Z",
      "stateName": "Ceará",
      "countryName": "Brazil"
    },
    {
      "id": 2032,
      "stateId": 85,
      "name": "Acorizal",
      "latitude": null,
      "longitude": null,
      "createdAt": "2025-12-28T18:10:41.506Z",
      "updatedAt": "2025-12-28T18:10:41.506Z",
      "stateName": "Mato Grosso",
      "countryName": "Brazil"
    },
    {
      "id": 2038,
      "stateId": 223,
      "name": "Acquaformosa",
      "latitude": "42.4957616",
      "longitude": "12.4479260",
      "createdAt": "2025-12-28T18:10:42.817Z",
      "updatedAt": "2025-12-28T18:10:42.817Z",
      "stateName": "Calabria",
      "countryName": "Italy"
    },
    {
      "id": 2023,
      "stateId": 213,
      "name": "Acquoy",
      "latitude": null,
      "longitude": null,
      "createdAt": "2025-12-28T18:10:40.874Z",
      "updatedAt": "2025-12-28T18:10:40.874Z",
      "stateName": "Gelderland",
      "countryName": "Netherlands"
    },
    {
      "id": 2010,
      "stateId": 6,
      "name": "Acra",
      "latitude": "37.8034989",
      "longitude": "-92.5169818",
      "createdAt": "2025-12-28T18:10:39.496Z",
      "updatedAt": "2025-12-28T18:10:39.496Z",
      "stateName": "New York",
      "countryName": "United States"
    },
    {
      "id": 1902,
      "stateId": 253,
      "name": "Acreuna",
      "latitude": "-17.4339069",
      "longitude": "-45.8426650",
      "createdAt": "2025-12-28T18:10:28.827Z",
      "updatedAt": "2025-12-28T18:10:28.827Z",
      "stateName": "Goiás",
      "countryName": "Brazil"
    },
    {
      "id": 1906,
      "stateId": 258,
      "name": "Acton Vale",
      "latitude": "46.9909847",
      "longitude": "-87.5986915",
      "createdAt": "2025-12-28T18:10:29.233Z",
      "updatedAt": "2025-12-28T18:10:29.233Z",
      "stateName": "Quebec",
      "countryName": "Canada"
    },
    {
      "id": 947,
      "stateId": 186,
      "name": "Acu",
      "latitude": "-17.4339069",
      "longitude": "-45.8426650",
      "createdAt": "2025-12-28T17:02:29.948Z",
      "updatedAt": "2025-12-28T17:02:29.948Z",
      "stateName": "Rio Grande do Norte",
      "countryName": "Brazil"
    },
    {
      "id": 2019,
      "stateId": 95,
      "name": "Açucena",
      "latitude": null,
      "longitude": null,
      "createdAt": "2025-12-28T18:10:40.334Z",
      "updatedAt": "2025-12-28T18:10:40.334Z",
      "stateName": "Minas Gerais",
      "countryName": "Brazil"
    },
    {
      "id": 2218,
      "stateId": 14,
      "name": "Ada",
      "latitude": "34.7745300",
      "longitude": "-96.6783400",
      "createdAt": "2025-12-28T18:11:07.990Z",
      "updatedAt": "2025-12-28T18:11:07.990Z",
      "stateName": "Ohio",
      "countryName": "United States"
    },
    {
      "id": 2194,
      "stateId": 151,
      "name": "Ada",
      "latitude": "34.7745300",
      "longitude": "-96.6783400",
      "createdAt": "2025-12-28T18:11:05.183Z",
      "updatedAt": "2025-12-28T18:11:05.183Z",
      "stateName": "Oklahoma",
      "countryName": "United States"
    },
    {
      "id": 2207,
      "stateId": 49,
      "name": "Ada",
      "latitude": "37.8034989",
      "longitude": "-92.5169818",
      "createdAt": "2025-12-28T18:11:06.515Z",
      "updatedAt": "2025-12-28T18:11:06.515Z",
      "stateName": "Minnesota",
      "countryName": "United States"
    },
    {
      "id": 2205,
      "stateId": 92,
      "name": "Ada",
      "latitude": "37.8034989",
      "longitude": "-92.5169818",
      "createdAt": "2025-12-28T18:11:06.428Z",
      "updatedAt": "2025-12-28T18:11:06.428Z",
      "stateName": "Michigan",
      "countryName": "United States"
    },
    {
      "id": 2126,
      "stateId": 555,
      "name": "Ada",
      "latitude": null,
      "longitude": null,
      "createdAt": "2025-12-28T18:10:57.773Z",
      "updatedAt": "2025-12-28T18:10:57.773Z",
      "stateName": "Banat",
      "countryName": "Serbia"
    },
    {
      "id": 1517,
      "stateId": 66,
      "name": "Ada",
      "latitude": "6.6066505",
      "longitude": "-0.9252202",
      "createdAt": "2025-12-28T17:04:38.099Z",
      "updatedAt": "2025-12-28T17:04:38.099Z",
      "stateName": "Greater Accra Region",
      "countryName": "Ghana"
    },
    {
      "id": 2142,
      "stateId": 112,
      "name": "Adair",
      "latitude": "37.3379100",
      "longitude": "-5.8395100",
      "createdAt": "2025-12-28T18:10:59.354Z",
      "updatedAt": "2025-12-28T18:10:59.354Z",
      "stateName": "Missouri",
      "countryName": "United States"
    },
    {
      "id": 18399,
      "stateId": 1479,
      "name": "Adama",
      "latitude": "9.2327064",
      "longitude": "38.3887513",
      "createdAt": "2026-05-24T16:22:01.495Z",
      "updatedAt": "2026-05-24T16:22:01.495Z",
      "stateName": "Oromia",
      "countryName": "Ethiopia"
    },
    {
      "id": 2117,
      "stateId": 4,
      "name": "Adamantina",
      "latitude": "-21.6852800",
      "longitude": "-51.0725000",
      "createdAt": "2025-12-28T18:10:56.557Z",
      "updatedAt": "2025-12-28T18:10:56.557Z",
      "stateName": "São Paulo",
      "countryName": "Brazil"
    },
    {
      "id": 2206,
      "stateId": 8,
      "name": "Adams",
      "latitude": "-25.0659700",
      "longitude": "-130.1014700",
      "createdAt": "2025-12-28T18:11:06.465Z",
      "updatedAt": "2025-12-28T18:11:06.465Z",
      "stateName": "Wisconsin",
      "countryName": "United States"
    },
    {
      "id": 2176,
      "stateId": 73,
      "name": "Adams",
      "latitude": "-25.0659700",
      "longitude": "-130.1014700",
      "createdAt": "2025-12-28T18:11:02.010Z",
      "updatedAt": "2025-12-28T18:11:02.010Z",
      "stateName": "Nebraska",
      "countryName": "United States"
    },
    {
      "id": 2211,
      "stateId": 47,
      "name": "Adams",
      "latitude": null,
      "longitude": null,
      "createdAt": "2025-12-28T18:11:06.790Z",
      "updatedAt": "2025-12-28T18:11:06.790Z",
      "stateName": "Massachusetts",
      "countryName": "United States"
    },
    {
      "id": 2213,
      "stateId": 567,
      "name": "Adapazari",
      "latitude": "39.2026972",
      "longitude": "33.8771519",
      "createdAt": "2025-12-28T18:11:06.865Z",
      "updatedAt": "2025-12-28T18:11:06.865Z",
      "stateName": "Sakarya",
      "countryName": "Turkey"
    },
    {
      "id": 2202,
      "stateId": 436,
      "name": "Addison",
      "latitude": "41.9317000",
      "longitude": "-87.9889600",
      "createdAt": "2025-12-28T18:11:06.223Z",
      "updatedAt": "2025-12-28T18:11:06.223Z",
      "stateName": "Vermont",
      "countryName": "United States"
    }
  ],
  "meta": {
    "page": 1,
    "limit": 100,
    "total": 18002,
    "totalPages": 181
  }
}
