{
  "source": "50k-radio-stations",
  "provider": "rapidapi",
  "syncedAt": "2026-06-03T13:04:21.306Z",
  "endpoint": "/cities",
  "page": 26,
  "limit": 250,
  "data": [
    {
      "id": 1054,
      "stateId": 391,
      "name": "Cáceres",
      "latitude": "39.4764900",
      "longitude": "-6.3722400",
      "createdAt": "2025-12-28T17:02:36.428Z",
      "updatedAt": "2025-12-28T17:02:36.428Z",
      "stateName": "Cáceres",
      "countryName": "Spain"
    },
    {
      "id": 11891,
      "stateId": 151,
      "name": "Cache",
      "latitude": "-8.1877000",
      "longitude": "-76.5204600",
      "createdAt": "2025-12-28T19:10:34.924Z",
      "updatedAt": "2025-12-28T19:10:34.924Z",
      "stateName": "Oklahoma",
      "countryName": "United States"
    },
    {
      "id": 6385,
      "stateId": 257,
      "name": "Cachi",
      "latitude": null,
      "longitude": null,
      "createdAt": "2025-12-28T18:24:57.766Z",
      "updatedAt": "2025-12-28T18:24:57.766Z",
      "stateName": "Salta",
      "countryName": "Argentina"
    },
    {
      "id": 14655,
      "stateId": 262,
      "name": "Cachoeira",
      "latitude": "-12.6183300",
      "longitude": "-38.9558300",
      "createdAt": "2025-12-28T19:47:01.045Z",
      "updatedAt": "2025-12-28T19:47:01.045Z",
      "stateName": "Bahia",
      "countryName": "Brazil"
    },
    {
      "id": 8233,
      "stateId": 253,
      "name": "Cachoeira Alta",
      "latitude": null,
      "longitude": null,
      "createdAt": "2025-12-28T18:36:31.919Z",
      "updatedAt": "2025-12-28T18:36:31.919Z",
      "stateName": "Goiás",
      "countryName": "Brazil"
    },
    {
      "id": 15125,
      "stateId": 95,
      "name": "Cachoeira de Minas",
      "latitude": null,
      "longitude": null,
      "createdAt": "2025-12-28T19:55:23.837Z",
      "updatedAt": "2025-12-28T19:55:23.837Z",
      "stateName": "Minas Gerais",
      "countryName": "Brazil"
    },
    {
      "id": 11576,
      "stateId": 159,
      "name": "Cachoeira do Arari",
      "latitude": null,
      "longitude": null,
      "createdAt": "2025-12-28T19:07:33.446Z",
      "updatedAt": "2025-12-28T19:07:33.446Z",
      "stateName": "Pará",
      "countryName": "Brazil"
    },
    {
      "id": 15625,
      "stateId": 95,
      "name": "Cachoeira do Campo",
      "latitude": null,
      "longitude": null,
      "createdAt": "2025-12-28T20:12:46.782Z",
      "updatedAt": "2025-12-28T20:12:46.782Z",
      "stateName": "Minas Gerais",
      "countryName": "Brazil"
    },
    {
      "id": 10259,
      "stateId": 287,
      "name": "Cachoeira dos Índios",
      "latitude": null,
      "longitude": null,
      "createdAt": "2025-12-28T18:51:25.891Z",
      "updatedAt": "2025-12-28T18:51:25.891Z",
      "stateName": "Paraíba",
      "countryName": "Brazil"
    },
    {
      "id": 3983,
      "stateId": 205,
      "name": "Cachoeira do Sul",
      "latitude": "-30.0391700",
      "longitude": "-52.8938900",
      "createdAt": "2025-12-28T18:15:46.612Z",
      "updatedAt": "2025-12-28T18:15:46.612Z",
      "stateName": "Rio Grande do Sul",
      "countryName": "Brazil"
    },
    {
      "id": 16222,
      "stateId": 95,
      "name": "Cachoeira Dourada",
      "latitude": "-17.4339069",
      "longitude": "-45.8426650",
      "createdAt": "2025-12-28T20:38:51.557Z",
      "updatedAt": "2025-12-28T20:38:51.557Z",
      "stateName": "Minas Gerais",
      "countryName": "Brazil"
    },
    {
      "id": 544,
      "stateId": 4,
      "name": "Cachoeira Paulista",
      "latitude": "-17.4339069",
      "longitude": "-45.8426650",
      "createdAt": "2025-12-28T17:01:04.871Z",
      "updatedAt": "2025-12-28T17:01:04.871Z",
      "stateName": "São Paulo",
      "countryName": "Brazil"
    },
    {
      "id": 15394,
      "stateId": 134,
      "name": "Cachoeiras de Macacu",
      "latitude": null,
      "longitude": null,
      "createdAt": "2025-12-28T20:04:40.384Z",
      "updatedAt": "2025-12-28T20:04:40.384Z",
      "stateName": "Rio de Janeiro",
      "countryName": "Brazil"
    },
    {
      "id": 6262,
      "stateId": 261,
      "name": "Cachoeiro de Itapemirim",
      "latitude": "-20.8488900",
      "longitude": "-41.1127800",
      "createdAt": "2025-12-28T18:24:25.087Z",
      "updatedAt": "2025-12-28T18:24:25.087Z",
      "stateName": "Espírito Santo",
      "countryName": "Brazil"
    },
    {
      "id": 7380,
      "stateId": 287,
      "name": "Cacimba de Dentro",
      "latitude": null,
      "longitude": null,
      "createdAt": "2025-12-28T18:29:50.330Z",
      "updatedAt": "2025-12-28T18:29:50.330Z",
      "stateName": "Paraíba",
      "countryName": "Brazil"
    },
    {
      "id": 15312,
      "stateId": 205,
      "name": "Cacique Doble",
      "latitude": null,
      "longitude": null,
      "createdAt": "2025-12-28T20:02:10.242Z",
      "updatedAt": "2025-12-28T20:02:10.242Z",
      "stateName": "Rio Grande do Sul",
      "countryName": "Brazil"
    },
    {
      "id": 3526,
      "stateId": 652,
      "name": "Cacoal",
      "latitude": "-11.4386100",
      "longitude": "-61.4472200",
      "createdAt": "2025-12-28T18:14:45.270Z",
      "updatedAt": "2025-12-28T18:14:45.270Z",
      "stateName": "Rondônia",
      "countryName": "Brazil"
    },
    {
      "id": 4255,
      "stateId": 20,
      "name": "Cactus",
      "latitude": "37.8034989",
      "longitude": "-92.5169818",
      "createdAt": "2025-12-28T18:16:41.106Z",
      "updatedAt": "2025-12-28T18:16:41.106Z",
      "stateName": "Texas",
      "countryName": "United States"
    },
    {
      "id": 8189,
      "stateId": 253,
      "name": "Caçu",
      "latitude": null,
      "longitude": null,
      "createdAt": "2025-12-28T18:36:20.653Z",
      "updatedAt": "2025-12-28T18:36:20.653Z",
      "stateName": "Goiás",
      "countryName": "Brazil"
    },
    {
      "id": 7457,
      "stateId": 513,
      "name": "Cadaqués",
      "latitude": "39.2717249",
      "longitude": "-3.2471696",
      "createdAt": "2025-12-28T18:30:17.013Z",
      "updatedAt": "2025-12-28T18:30:17.013Z",
      "stateName": "Girona",
      "countryName": "Spain"
    },
    {
      "id": 10126,
      "stateId": 32,
      "name": "Caddo Valley",
      "latitude": "37.8034989",
      "longitude": "-92.5169818",
      "createdAt": "2025-12-28T18:50:24.837Z",
      "updatedAt": "2025-12-28T18:50:24.837Z",
      "stateName": "Arkansas",
      "countryName": "United States"
    },
    {
      "id": 6269,
      "stateId": 155,
      "name": "Cadereyta de Montes",
      "latitude": null,
      "longitude": null,
      "createdAt": "2025-12-28T18:24:28.511Z",
      "updatedAt": "2025-12-28T18:24:28.511Z",
      "stateName": "Queretaro",
      "countryName": "Mexico"
    },
    {
      "id": 6135,
      "stateId": 92,
      "name": "Cadillac",
      "latitude": "37.8034989",
      "longitude": "-92.5169818",
      "createdAt": "2025-12-28T18:23:19.587Z",
      "updatedAt": "2025-12-28T18:23:19.587Z",
      "stateName": "Michigan",
      "countryName": "United States"
    },
    {
      "id": 14602,
      "stateId": 14,
      "name": "Cadiz",
      "latitude": "37.8034989",
      "longitude": "-92.5169818",
      "createdAt": "2025-12-28T19:46:06.576Z",
      "updatedAt": "2025-12-28T19:46:06.576Z",
      "stateName": "Ohio",
      "countryName": "United States"
    },
    {
      "id": 12595,
      "stateId": 80,
      "name": "Cadiz",
      "latitude": "37.8034989",
      "longitude": "-92.5169818",
      "createdAt": "2025-12-28T19:16:58.698Z",
      "updatedAt": "2025-12-28T19:16:58.698Z",
      "stateName": "Kentucky",
      "countryName": "United States"
    },
    {
      "id": 207,
      "stateId": 127,
      "name": "Cádiz",
      "latitude": "36.5297800",
      "longitude": "-6.2946500",
      "createdAt": "2025-12-28T16:56:35.558Z",
      "updatedAt": "2025-12-28T16:56:35.558Z",
      "stateName": "Andalusia",
      "countryName": "Spain"
    },
    {
      "id": 2576,
      "stateId": 172,
      "name": "Cádiz",
      "latitude": null,
      "longitude": null,
      "createdAt": "2025-12-28T18:12:26.643Z",
      "updatedAt": "2025-12-28T18:12:26.643Z",
      "stateName": "Cádiz",
      "countryName": "Spain"
    },
    {
      "id": 4684,
      "stateId": 405,
      "name": "Caen",
      "latitude": "49.1858500",
      "longitude": "-0.3591200",
      "createdAt": "2025-12-28T18:18:26.614Z",
      "updatedAt": "2025-12-28T18:18:26.614Z",
      "stateName": "Normandy",
      "countryName": "France"
    },
    {
      "id": 17491,
      "stateId": 82,
      "name": "Caerleon",
      "latitude": null,
      "longitude": null,
      "createdAt": "2026-01-17T07:52:36.842Z",
      "updatedAt": "2026-01-17T07:52:36.842Z",
      "stateName": "Wales",
      "countryName": "United Kingdom"
    },
    {
      "id": 3700,
      "stateId": 82,
      "name": "Caernarfon",
      "latitude": "52.7709249",
      "longitude": "-1.7304307",
      "createdAt": "2025-12-28T18:15:02.872Z",
      "updatedAt": "2025-12-28T18:15:02.872Z",
      "stateName": "Wales",
      "countryName": "United Kingdom"
    },
    {
      "id": 11812,
      "stateId": 82,
      "name": "Caerphilly",
      "latitude": null,
      "longitude": null,
      "createdAt": "2025-12-28T19:09:43.929Z",
      "updatedAt": "2025-12-28T19:09:43.929Z",
      "stateName": "Wales",
      "countryName": "United Kingdom"
    },
    {
      "id": 17383,
      "stateId": 95,
      "name": "Caeté",
      "latitude": null,
      "longitude": null,
      "createdAt": "2026-01-04T20:46:25.473Z",
      "updatedAt": "2026-01-04T20:46:25.473Z",
      "stateName": "Minas Gerais",
      "countryName": "Brazil"
    },
    {
      "id": 10893,
      "stateId": 7,
      "name": "Caetés",
      "latitude": null,
      "longitude": null,
      "createdAt": "2025-12-28T18:58:40.890Z",
      "updatedAt": "2025-12-28T18:58:40.890Z",
      "stateName": "Pernambuco",
      "countryName": "Brazil"
    },
    {
      "id": 2050,
      "stateId": 262,
      "name": "Caetité",
      "latitude": "-14.0694400",
      "longitude": "-42.4750000",
      "createdAt": "2025-12-28T18:10:45.289Z",
      "updatedAt": "2025-12-28T18:10:45.289Z",
      "stateName": "Bahia",
      "countryName": "Brazil"
    },
    {
      "id": 2045,
      "stateId": 257,
      "name": "Cafayate",
      "latitude": "-32.1628172",
      "longitude": "-62.0921509",
      "createdAt": "2025-12-28T18:10:44.926Z",
      "updatedAt": "2025-12-28T18:10:44.926Z",
      "stateName": "Salta",
      "countryName": "Argentina"
    },
    {
      "id": 7445,
      "stateId": 137,
      "name": "Cafelândia",
      "latitude": null,
      "longitude": null,
      "createdAt": "2025-12-28T18:30:14.489Z",
      "updatedAt": "2025-12-28T18:30:14.489Z",
      "stateName": "Paraná",
      "countryName": "Brazil"
    },
    {
      "id": 15558,
      "stateId": 137,
      "name": "Cafezal do Sul",
      "latitude": null,
      "longitude": null,
      "createdAt": "2025-12-28T20:10:58.242Z",
      "updatedAt": "2025-12-28T20:10:58.242Z",
      "stateName": "Paraná",
      "countryName": "Brazil"
    },
    {
      "id": 1249,
      "stateId": 439,
      "name": "Cagayan de Oro",
      "latitude": "8.4822200",
      "longitude": "124.6472200",
      "createdAt": "2025-12-28T17:03:20.912Z",
      "updatedAt": "2025-12-28T17:03:20.912Z",
      "stateName": "Misamis Oriental",
      "countryName": "Philippines"
    },
    {
      "id": 368,
      "stateId": 169,
      "name": "Cagliari",
      "latitude": "39.2305400",
      "longitude": "9.1191700",
      "createdAt": "2025-12-28T17:00:45.257Z",
      "updatedAt": "2025-12-28T17:00:45.257Z",
      "stateName": "Sardinia",
      "countryName": "Italy"
    },
    {
      "id": 4663,
      "stateId": 37,
      "name": "Cagnes-sur-Mer",
      "latitude": null,
      "longitude": null,
      "createdAt": "2025-12-28T18:18:16.333Z",
      "updatedAt": "2025-12-28T18:18:16.333Z",
      "stateName": "Provence-Alpes-Côte d'Azur",
      "countryName": "France"
    },
    {
      "id": 9401,
      "stateId": 332,
      "name": "Cagua",
      "latitude": "10.1863400",
      "longitude": "-67.4593500",
      "createdAt": "2025-12-28T18:44:04.089Z",
      "updatedAt": "2025-12-28T18:44:04.089Z",
      "stateName": "Aragua",
      "countryName": "Venezuela"
    },
    {
      "id": 14457,
      "stateId": 38,
      "name": "Cahors",
      "latitude": "44.4491000",
      "longitude": "1.4366300",
      "createdAt": "2025-12-28T19:44:14.478Z",
      "updatedAt": "2025-12-28T19:44:14.478Z",
      "stateName": "Occitanie",
      "countryName": "France"
    },
    {
      "id": 1057,
      "stateId": 253,
      "name": "Caiaponia",
      "latitude": "-17.4339069",
      "longitude": "-45.8426650",
      "createdAt": "2025-12-28T17:02:36.596Z",
      "updatedAt": "2025-12-28T17:02:36.596Z",
      "stateName": "Goiás",
      "countryName": "Brazil"
    },
    {
      "id": 6327,
      "stateId": 926,
      "name": "Caibaté",
      "latitude": null,
      "longitude": null,
      "createdAt": "2025-12-28T18:24:42.542Z",
      "updatedAt": "2025-12-28T18:24:42.542Z",
      "stateName": "Rio Grande do Sul,",
      "countryName": "Brazil"
    },
    {
      "id": 14133,
      "stateId": 293,
      "name": "Caibi",
      "latitude": null,
      "longitude": null,
      "createdAt": "2025-12-28T19:40:25.274Z",
      "updatedAt": "2025-12-28T19:40:25.274Z",
      "stateName": "Santa Catarina",
      "countryName": "Brazil"
    },
    {
      "id": 16406,
      "stateId": 205,
      "name": "Caiçara",
      "latitude": null,
      "longitude": null,
      "createdAt": "2025-12-28T20:43:08.533Z",
      "updatedAt": "2025-12-28T20:43:08.533Z",
      "stateName": "Rio Grande do Sul",
      "countryName": "Brazil"
    },
    {
      "id": 14948,
      "stateId": 186,
      "name": "Caico",
      "latitude": "-6.4583300",
      "longitude": "-37.0977800",
      "createdAt": "2025-12-28T19:50:32.540Z",
      "updatedAt": "2025-12-28T19:50:32.540Z",
      "stateName": "Rio Grande do Norte",
      "countryName": "Brazil"
    },
    {
      "id": 17349,
      "stateId": 4,
      "name": "Caieiras",
      "latitude": null,
      "longitude": null,
      "createdAt": "2025-12-29T19:55:20.797Z",
      "updatedAt": "2025-12-29T19:55:20.797Z",
      "stateName": "São Paulo",
      "countryName": "Brazil"
    },
    {
      "id": 15057,
      "stateId": 1283,
      "name": "Cainta",
      "latitude": null,
      "longitude": null,
      "createdAt": "2025-12-28T19:53:41.247Z",
      "updatedAt": "2025-12-28T19:53:41.247Z",
      "stateName": "Rizal",
      "countryName": "Philippines"
    },
    {
      "id": 1723,
      "stateId": 74,
      "name": "Cairns",
      "latitude": "-16.9230400",
      "longitude": "145.7662500",
      "createdAt": "2025-12-28T18:10:06.104Z",
      "updatedAt": "2025-12-28T18:10:06.104Z",
      "stateName": "Queensland",
      "countryName": "Australia"
    },
    {
      "id": 17278,
      "stateId": 74,
      "name": "Cairns North",
      "latitude": "-33.9811915",
      "longitude": "144.8351072",
      "createdAt": "2025-12-29T16:16:53.911Z",
      "updatedAt": "2025-12-29T16:16:53.911Z",
      "stateName": "Queensland",
      "countryName": "Australia"
    },
    {
      "id": 508,
      "stateId": 240,
      "name": "Cairo",
      "latitude": "30.0626300",
      "longitude": "31.2496700",
      "createdAt": "2025-12-28T17:00:58.055Z",
      "updatedAt": "2025-12-28T17:00:58.055Z",
      "stateName": "Cairo",
      "countryName": "Egypt"
    },
    {
      "id": 9138,
      "stateId": 6,
      "name": "Cairo",
      "latitude": "30.0626300",
      "longitude": "31.2496700",
      "createdAt": "2025-12-28T18:41:53.575Z",
      "updatedAt": "2025-12-28T18:41:53.575Z",
      "stateName": "New York",
      "countryName": "United States"
    },
    {
      "id": 1378,
      "stateId": 22,
      "name": "Cairo",
      "latitude": "30.0626300",
      "longitude": "31.2496700",
      "createdAt": "2025-12-28T17:03:44.689Z",
      "updatedAt": "2025-12-28T17:03:44.689Z",
      "stateName": "Georgia",
      "countryName": "United States"
    },
    {
      "id": 17595,
      "stateId": 1183,
      "name": "Cajabamba",
      "latitude": null,
      "longitude": null,
      "createdAt": "2026-01-26T07:20:47.643Z",
      "updatedAt": "2026-01-26T07:20:47.643Z",
      "stateName": "Cajamarca",
      "countryName": "Peru"
    },
    {
      "id": 9409,
      "stateId": 365,
      "name": "Cajamarca",
      "latitude": null,
      "longitude": null,
      "createdAt": "2025-12-28T18:44:06.249Z",
      "updatedAt": "2025-12-28T18:44:06.249Z",
      "stateName": "Tolima",
      "countryName": "Colombia"
    },
    {
      "id": 15778,
      "stateId": 651,
      "name": "Caja Seca",
      "latitude": "9.7279333",
      "longitude": "-67.8305118",
      "createdAt": "2025-12-28T20:19:14.697Z",
      "updatedAt": "2025-12-28T20:19:14.697Z",
      "stateName": "Estado Zulia",
      "countryName": "Venezuela"
    },
    {
      "id": 17470,
      "stateId": 458,
      "name": "Cajatambo",
      "latitude": null,
      "longitude": null,
      "createdAt": "2026-01-12T21:45:43.962Z",
      "updatedAt": "2026-01-12T21:45:43.962Z",
      "stateName": "Lima",
      "countryName": "Peru"
    },
    {
      "id": 16125,
      "stateId": 4,
      "name": "Cajati",
      "latitude": "-24.7361100",
      "longitude": "-48.1227800",
      "createdAt": "2025-12-28T20:35:03.142Z",
      "updatedAt": "2025-12-28T20:35:03.142Z",
      "stateName": "São Paulo",
      "countryName": "Brazil"
    },
    {
      "id": 718,
      "stateId": 287,
      "name": "Cajazeiras",
      "latitude": "-6.8902800",
      "longitude": "-38.5552800",
      "createdAt": "2025-12-28T17:02:11.909Z",
      "updatedAt": "2025-12-28T17:02:11.909Z",
      "stateName": "Paraíba",
      "countryName": "Brazil"
    },
    {
      "id": 1095,
      "stateId": 364,
      "name": "Cajibio",
      "latitude": "6.4444434",
      "longitude": "-74.9549521",
      "createdAt": "2025-12-28T17:02:47.862Z",
      "updatedAt": "2025-12-28T17:02:47.862Z",
      "stateName": "Cauca",
      "countryName": "Colombia"
    },
    {
      "id": 4027,
      "stateId": 29,
      "name": "Cajica",
      "latitude": null,
      "longitude": null,
      "createdAt": "2025-12-28T18:15:53.432Z",
      "updatedAt": "2025-12-28T18:15:53.432Z",
      "stateName": "Cundinamarca",
      "countryName": "Colombia"
    },
    {
      "id": 6490,
      "stateId": 4,
      "name": "Cajobi",
      "latitude": "-17.4339069",
      "longitude": "-45.8426650",
      "createdAt": "2025-12-28T18:25:33.078Z",
      "updatedAt": "2025-12-28T18:25:33.078Z",
      "stateName": "São Paulo",
      "countryName": "Brazil"
    },
    {
      "id": 9392,
      "stateId": 279,
      "name": "Cajola",
      "latitude": null,
      "longitude": null,
      "createdAt": "2025-12-28T18:44:02.528Z",
      "updatedAt": "2025-12-28T18:44:02.528Z",
      "stateName": "Quetzaltenango",
      "countryName": "Guatemala"
    },
    {
      "id": 1241,
      "stateId": 77,
      "name": "Calabar",
      "latitude": null,
      "longitude": null,
      "createdAt": "2025-12-28T17:03:20.618Z",
      "updatedAt": "2025-12-28T17:03:20.618Z",
      "stateName": "Katsina State",
      "countryName": "Nigeria"
    },
    {
      "id": 16899,
      "stateId": 55,
      "name": "Calabash",
      "latitude": "37.8034989",
      "longitude": "-92.5169818",
      "createdAt": "2025-12-28T20:54:43.698Z",
      "updatedAt": "2025-12-28T20:54:43.698Z",
      "stateName": "North Carolina",
      "countryName": "United States"
    },
    {
      "id": 9421,
      "stateId": 1068,
      "name": "Calabozo",
      "latitude": "8.9241600",
      "longitude": "-67.4292900",
      "createdAt": "2025-12-28T18:44:09.208Z",
      "updatedAt": "2025-12-28T18:44:09.208Z",
      "stateName": "Guárico",
      "countryName": "Venezuela"
    },
    {
      "id": 3986,
      "stateId": 348,
      "name": "Calahorra",
      "latitude": null,
      "longitude": null,
      "createdAt": "2025-12-28T18:15:46.812Z",
      "updatedAt": "2025-12-28T18:15:46.812Z",
      "stateName": "La Rioja",
      "countryName": "Spain"
    },
    {
      "id": 15227,
      "stateId": 138,
      "name": "Calais",
      "latitude": "50.9519400",
      "longitude": "1.8563500",
      "createdAt": "2025-12-28T19:58:47.385Z",
      "updatedAt": "2025-12-28T19:58:47.385Z",
      "stateName": "Maine",
      "countryName": "United States"
    },
    {
      "id": 8067,
      "stateId": 701,
      "name": "Calais",
      "latitude": "50.9519400",
      "longitude": "1.8563500",
      "createdAt": "2025-12-28T18:35:01.201Z",
      "updatedAt": "2025-12-28T18:35:01.201Z",
      "stateName": "Nord-Pas-de-Calais",
      "countryName": "France"
    },
    {
      "id": 18005,
      "stateId": 426,
      "name": "Calais",
      "latitude": "50.9519400",
      "longitude": "1.8563500",
      "createdAt": "2026-03-27T22:00:57.927Z",
      "updatedAt": "2026-03-27T22:00:57.927Z",
      "stateName": "Hauts-de-France",
      "countryName": "France"
    },
    {
      "id": 3033,
      "stateId": 358,
      "name": "Calama",
      "latitude": "-22.4559100",
      "longitude": "-68.9301500",
      "createdAt": "2025-12-28T18:13:34.215Z",
      "updatedAt": "2025-12-28T18:13:34.215Z",
      "stateName": "Concepcion",
      "countryName": "Chile"
    },
    {
      "id": 9327,
      "stateId": 1100,
      "name": "Calamar",
      "latitude": null,
      "longitude": null,
      "createdAt": "2025-12-28T18:43:47.246Z",
      "updatedAt": "2025-12-28T18:43:47.246Z",
      "stateName": "Guaviare",
      "countryName": "Colombia"
    },
    {
      "id": 8521,
      "stateId": 1045,
      "name": "Calamba",
      "latitude": null,
      "longitude": null,
      "createdAt": "2025-12-28T18:38:59.539Z",
      "updatedAt": "2025-12-28T18:38:59.539Z",
      "stateName": "Laguna",
      "countryName": "Philippines"
    },
    {
      "id": 17619,
      "stateId": 142,
      "name": "Calamocha",
      "latitude": null,
      "longitude": null,
      "createdAt": "2026-01-27T12:11:05.152Z",
      "updatedAt": "2026-01-27T12:11:05.152Z",
      "stateName": "Aragon",
      "countryName": "Spain"
    },
    {
      "id": 8475,
      "stateId": 1032,
      "name": "Calapan",
      "latitude": null,
      "longitude": null,
      "createdAt": "2025-12-28T18:38:44.947Z",
      "updatedAt": "2025-12-28T18:38:44.947Z",
      "stateName": "Oriental Mindoro",
      "countryName": "Philippines"
    },
    {
      "id": 6376,
      "stateId": 142,
      "name": "Calatayud",
      "latitude": "41.3535300",
      "longitude": "-1.6431800",
      "createdAt": "2025-12-28T18:24:56.573Z",
      "updatedAt": "2025-12-28T18:24:56.573Z",
      "stateName": "Aragon",
      "countryName": "Spain"
    },
    {
      "id": 4892,
      "stateId": 514,
      "name": "Calau",
      "latitude": null,
      "longitude": null,
      "createdAt": "2025-12-28T18:18:57.678Z",
      "updatedAt": "2025-12-28T18:18:57.678Z",
      "stateName": "Brandenburg",
      "countryName": "Germany"
    },
    {
      "id": 8480,
      "stateId": 880,
      "name": "Calauag",
      "latitude": null,
      "longitude": null,
      "createdAt": "2025-12-28T18:38:45.197Z",
      "updatedAt": "2025-12-28T18:38:45.197Z",
      "stateName": "Quezon",
      "countryName": "Philippines"
    },
    {
      "id": 8499,
      "stateId": 1040,
      "name": "Calbayog",
      "latitude": null,
      "longitude": null,
      "createdAt": "2025-12-28T18:38:54.249Z",
      "updatedAt": "2025-12-28T18:38:54.249Z",
      "stateName": "Western Samar",
      "countryName": "Philippines"
    },
    {
      "id": 12136,
      "stateId": 7,
      "name": "Calçado",
      "latitude": null,
      "longitude": null,
      "createdAt": "2025-12-28T19:13:05.030Z",
      "updatedAt": "2025-12-28T19:13:05.030Z",
      "stateName": "Pernambuco",
      "countryName": "Brazil"
    },
    {
      "id": 6381,
      "stateId": 86,
      "name": "Calchaquí",
      "latitude": null,
      "longitude": null,
      "createdAt": "2025-12-28T18:24:56.993Z",
      "updatedAt": "2025-12-28T18:24:56.993Z",
      "stateName": "Santa Fe",
      "countryName": "Argentina"
    },
    {
      "id": 14290,
      "stateId": 6,
      "name": "Calcium",
      "latitude": "37.8034989",
      "longitude": "-92.5169818",
      "createdAt": "2025-12-28T19:43:10.376Z",
      "updatedAt": "2025-12-28T19:43:10.376Z",
      "stateName": "New York",
      "countryName": "United States"
    },
    {
      "id": 17535,
      "stateId": 215,
      "name": "Calçoene",
      "latitude": null,
      "longitude": null,
      "createdAt": "2026-01-20T07:42:13.938Z",
      "updatedAt": "2026-01-20T07:42:13.938Z",
      "stateName": "Amapá",
      "countryName": "Brazil"
    },
    {
      "id": 10676,
      "stateId": 95,
      "name": "Caldas",
      "latitude": "-21.7877800",
      "longitude": "-46.5613900",
      "createdAt": "2025-12-28T18:56:26.147Z",
      "updatedAt": "2025-12-28T18:56:26.147Z",
      "stateName": "Minas Gerais",
      "countryName": "Brazil"
    },
    {
      "id": 10457,
      "stateId": 193,
      "name": "Caldas De Reis",
      "latitude": "39.2717249",
      "longitude": "-3.2471696",
      "createdAt": "2025-12-28T18:53:28.893Z",
      "updatedAt": "2025-12-28T18:53:28.893Z",
      "stateName": "Galicia",
      "countryName": "Spain"
    },
    {
      "id": 14473,
      "stateId": 464,
      "name": "Caldas de Vizela",
      "latitude": "39.5232529",
      "longitude": "-8.9987995",
      "createdAt": "2025-12-28T19:44:27.074Z",
      "updatedAt": "2025-12-28T19:44:27.074Z",
      "stateName": "Norte",
      "countryName": "Portugal"
    },
    {
      "id": 6390,
      "stateId": 253,
      "name": "Caldas Novas",
      "latitude": "-17.7443100",
      "longitude": "-48.6278900",
      "createdAt": "2025-12-28T18:24:58.261Z",
      "updatedAt": "2025-12-28T18:24:58.261Z",
      "stateName": "Goiás",
      "countryName": "Brazil"
    },
    {
      "id": 17912,
      "stateId": 1388,
      "name": "Caldecott Hill Estate",
      "latitude": "1.2896700",
      "longitude": "103.8500700",
      "createdAt": "2026-03-13T03:53:31.735Z",
      "updatedAt": "2026-03-13T03:53:31.735Z",
      "stateName": "Singapore",
      "countryName": "Singapore"
    },
    {
      "id": 3349,
      "stateId": 358,
      "name": "Caldera",
      "latitude": "-35.4727272",
      "longitude": "-71.8075952",
      "createdAt": "2025-12-28T18:14:16.220Z",
      "updatedAt": "2025-12-28T18:14:16.220Z",
      "stateName": "Concepcion",
      "countryName": "Chile"
    },
    {
      "id": 17618,
      "stateId": 115,
      "name": "Caldes de Montbui",
      "latitude": null,
      "longitude": null,
      "createdAt": "2026-01-27T12:11:00.905Z",
      "updatedAt": "2026-01-27T12:11:00.905Z",
      "stateName": "Barcelona",
      "countryName": "Spain"
    },
    {
      "id": 11321,
      "stateId": 364,
      "name": "Caldono",
      "latitude": null,
      "longitude": null,
      "createdAt": "2025-12-28T19:04:23.405Z",
      "updatedAt": "2025-12-28T19:04:23.405Z",
      "stateName": "Cauca",
      "countryName": "Colombia"
    },
    {
      "id": 7238,
      "stateId": 20,
      "name": "Caldwell",
      "latitude": "43.6629400",
      "longitude": "-116.6873600",
      "createdAt": "2025-12-28T18:28:56.570Z",
      "updatedAt": "2025-12-28T18:28:56.570Z",
      "stateName": "Texas",
      "countryName": "United States"
    },
    {
      "id": 12438,
      "stateId": 14,
      "name": "Caldwell",
      "latitude": "43.6629400",
      "longitude": "-116.6873600",
      "createdAt": "2025-12-28T19:15:55.832Z",
      "updatedAt": "2025-12-28T19:15:55.832Z",
      "stateName": "Ohio",
      "countryName": "United States"
    },
    {
      "id": 335,
      "stateId": 110,
      "name": "Caldwell",
      "latitude": "43.6629400",
      "longitude": "-116.6873600",
      "createdAt": "2025-12-28T16:56:42.562Z",
      "updatedAt": "2025-12-28T16:56:42.562Z",
      "stateName": "Idaho",
      "countryName": "United States"
    },
    {
      "id": 3373,
      "stateId": 32,
      "name": "Cale",
      "latitude": "37.8034989",
      "longitude": "-92.5169818",
      "createdAt": "2025-12-28T18:14:17.987Z",
      "updatedAt": "2025-12-28T18:14:17.987Z",
      "stateName": "Arkansas",
      "countryName": "United States"
    },
    {
      "id": 12442,
      "stateId": 49,
      "name": "Caledonia",
      "latitude": "42.8078000",
      "longitude": "-87.9242500",
      "createdAt": "2025-12-28T19:15:56.522Z",
      "updatedAt": "2025-12-28T19:15:56.522Z",
      "stateName": "Minnesota",
      "countryName": "United States"
    },
    {
      "id": 6683,
      "stateId": 41,
      "name": "Caledonia",
      "latitude": "42.8078000",
      "longitude": "-87.9242500",
      "createdAt": "2025-12-28T18:26:33.754Z",
      "updatedAt": "2025-12-28T18:26:33.754Z",
      "stateName": "Ontario",
      "countryName": "Canada"
    },
    {
      "id": 17617,
      "stateId": 115,
      "name": "Calella",
      "latitude": "41.6138100",
      "longitude": "2.6542300",
      "createdAt": "2026-01-27T12:11:00.835Z",
      "updatedAt": "2026-01-27T12:11:00.835Z",
      "stateName": "Barcelona",
      "countryName": "Spain"
    },
    {
      "id": 16010,
      "stateId": 122,
      "name": "Calera",
      "latitude": "37.8034989",
      "longitude": "-92.5169818",
      "createdAt": "2025-12-28T20:25:59.216Z",
      "updatedAt": "2025-12-28T20:25:59.216Z",
      "stateName": "Alabama",
      "countryName": "United States"
    }
  ],
  "meta": {
    "page": 26,
    "limit": 100,
    "total": 18002,
    "totalPages": 181
  }
}
