{
  "source": "50k-radio-stations",
  "provider": "rapidapi",
  "syncedAt": "2026-06-03T13:05:02.512Z",
  "endpoint": "/cities",
  "page": 75,
  "limit": 250,
  "data": [
    {
      "id": 1352,
      "stateId": 457,
      "name": "Iree",
      "latitude": null,
      "longitude": null,
      "createdAt": "2025-12-28T17:03:43.566Z",
      "updatedAt": "2025-12-28T17:03:43.566Z",
      "stateName": "Ogun State",
      "countryName": "Nigeria"
    },
    {
      "id": 11781,
      "stateId": 137,
      "name": "Iretama",
      "latitude": null,
      "longitude": null,
      "createdAt": "2025-12-28T19:09:24.535Z",
      "updatedAt": "2025-12-28T19:09:24.535Z",
      "stateName": "Paraná",
      "countryName": "Brazil"
    },
    {
      "id": 1260,
      "stateId": 440,
      "name": "Iriga City",
      "latitude": null,
      "longitude": null,
      "createdAt": "2025-12-28T17:03:21.439Z",
      "updatedAt": "2025-12-28T17:03:21.439Z",
      "stateName": "Camarines Sur",
      "countryName": "Philippines"
    },
    {
      "id": 11765,
      "stateId": 293,
      "name": "Irineópolis",
      "latitude": null,
      "longitude": null,
      "createdAt": "2025-12-28T19:09:16.825Z",
      "updatedAt": "2025-12-28T19:09:16.825Z",
      "stateName": "Santa Catarina",
      "countryName": "Brazil"
    },
    {
      "id": 11760,
      "stateId": 159,
      "name": "Irituia",
      "latitude": null,
      "longitude": null,
      "createdAt": "2025-12-28T19:09:13.178Z",
      "updatedAt": "2025-12-28T19:09:13.178Z",
      "stateName": "Pará",
      "countryName": "Brazil"
    },
    {
      "id": 4552,
      "stateId": 695,
      "name": "Irkutsk",
      "latitude": null,
      "longitude": null,
      "createdAt": "2025-12-28T18:17:52.322Z",
      "updatedAt": "2025-12-28T18:17:52.322Z",
      "stateName": "Irkutsk",
      "countryName": "Russia"
    },
    {
      "id": 8032,
      "stateId": 1010,
      "name": "Irkutsk",
      "latitude": null,
      "longitude": null,
      "createdAt": "2025-12-28T18:34:24.033Z",
      "updatedAt": "2025-12-28T18:34:24.033Z",
      "stateName": "Irkutsk Oblast",
      "countryName": "Russia"
    },
    {
      "id": 11204,
      "stateId": 145,
      "name": "Irmo",
      "latitude": "39.4850800",
      "longitude": "-80.1425800",
      "createdAt": "2025-12-28T19:02:41.753Z",
      "updatedAt": "2025-12-28T19:02:41.753Z",
      "stateName": "South Carolina",
      "countryName": "United States"
    },
    {
      "id": 9317,
      "stateId": 122,
      "name": "Irondale",
      "latitude": "37.8034989",
      "longitude": "-92.5169818",
      "createdAt": "2025-12-28T18:43:37.947Z",
      "updatedAt": "2025-12-28T18:43:37.947Z",
      "stateName": "Alabama",
      "countryName": "United States"
    },
    {
      "id": 319,
      "stateId": 6,
      "name": "Irondequoit",
      "latitude": "43.2134000",
      "longitude": "-77.5797200",
      "createdAt": "2025-12-28T16:56:41.988Z",
      "updatedAt": "2025-12-28T16:56:41.988Z",
      "stateName": "New York",
      "countryName": "United States"
    },
    {
      "id": 3472,
      "stateId": 92,
      "name": "Iron Mountain",
      "latitude": "37.8034989",
      "longitude": "-92.5169818",
      "createdAt": "2025-12-28T18:14:28.397Z",
      "updatedAt": "2025-12-28T18:14:28.397Z",
      "stateName": "Michigan",
      "countryName": "United States"
    },
    {
      "id": 11770,
      "stateId": 92,
      "name": "Iron River",
      "latitude": "46.0927300",
      "longitude": "-88.6423500",
      "createdAt": "2025-12-28T19:09:18.199Z",
      "updatedAt": "2025-12-28T19:09:18.199Z",
      "stateName": "Michigan",
      "countryName": "United States"
    },
    {
      "id": 10216,
      "stateId": 112,
      "name": "Ironton",
      "latitude": "37.8034989",
      "longitude": "-92.5169818",
      "createdAt": "2025-12-28T18:51:11.119Z",
      "updatedAt": "2025-12-28T18:51:11.119Z",
      "stateName": "Missouri",
      "countryName": "United States"
    },
    {
      "id": 11772,
      "stateId": 14,
      "name": "Ironton",
      "latitude": "37.8034989",
      "longitude": "-92.5169818",
      "createdAt": "2025-12-28T19:09:21.448Z",
      "updatedAt": "2025-12-28T19:09:21.448Z",
      "stateName": "Ohio",
      "countryName": "United States"
    },
    {
      "id": 11766,
      "stateId": 92,
      "name": "Ironwood",
      "latitude": "37.8034989",
      "longitude": "-92.5169818",
      "createdAt": "2025-12-28T19:09:16.989Z",
      "updatedAt": "2025-12-28T19:09:16.989Z",
      "stateName": "Michigan",
      "countryName": "United States"
    },
    {
      "id": 6651,
      "stateId": 41,
      "name": "Iroquois Falls",
      "latitude": null,
      "longitude": null,
      "createdAt": "2025-12-28T18:26:12.570Z",
      "updatedAt": "2025-12-28T18:26:12.570Z",
      "stateName": "Ontario",
      "countryName": "Canada"
    },
    {
      "id": 6276,
      "stateId": 707,
      "name": "Irun",
      "latitude": null,
      "longitude": null,
      "createdAt": "2025-12-28T18:24:30.949Z",
      "updatedAt": "2025-12-28T18:24:30.949Z",
      "stateName": "Gipuzkoa",
      "countryName": "Spain"
    },
    {
      "id": 11120,
      "stateId": 24,
      "name": "Irvine",
      "latitude": "33.6694600",
      "longitude": "-117.8231100",
      "createdAt": "2025-12-28T19:01:12.378Z",
      "updatedAt": "2025-12-28T19:01:12.378Z",
      "stateName": "California",
      "countryName": "United States"
    },
    {
      "id": 5014,
      "stateId": 444,
      "name": "Irvine",
      "latitude": null,
      "longitude": null,
      "createdAt": "2025-12-28T18:19:24.909Z",
      "updatedAt": "2025-12-28T18:19:24.909Z",
      "stateName": "Scotland",
      "countryName": "United Kingdom"
    },
    {
      "id": 11769,
      "stateId": 80,
      "name": "Irvine",
      "latitude": "37.8034989",
      "longitude": "-92.5169818",
      "createdAt": "2025-12-28T19:09:18.065Z",
      "updatedAt": "2025-12-28T19:09:18.065Z",
      "stateName": "Kentucky",
      "countryName": "United States"
    },
    {
      "id": 4186,
      "stateId": 20,
      "name": "Irving",
      "latitude": "32.8140200",
      "longitude": "-96.9488900",
      "createdAt": "2025-12-28T18:16:30.828Z",
      "updatedAt": "2025-12-28T18:16:30.828Z",
      "stateName": "Texas",
      "countryName": "United States"
    },
    {
      "id": 11764,
      "stateId": 106,
      "name": "Irvington",
      "latitude": null,
      "longitude": null,
      "createdAt": "2025-12-28T19:09:16.262Z",
      "updatedAt": "2025-12-28T19:09:16.262Z",
      "stateName": "New Jersey",
      "countryName": "United States"
    },
    {
      "id": 11775,
      "stateId": 68,
      "name": "Irwin",
      "latitude": "37.8034989",
      "longitude": "-92.5169818",
      "createdAt": "2025-12-28T19:09:22.225Z",
      "updatedAt": "2025-12-28T19:09:22.225Z",
      "stateName": "Pennsylvania",
      "countryName": "United States"
    },
    {
      "id": 15868,
      "stateId": 174,
      "name": "Isaías Coelho",
      "latitude": null,
      "longitude": null,
      "createdAt": "2025-12-28T20:20:48.587Z",
      "updatedAt": "2025-12-28T20:20:48.587Z",
      "stateName": "Piauí",
      "countryName": "Brazil"
    },
    {
      "id": 7874,
      "stateId": 432,
      "name": "Iserlohn",
      "latitude": "51.3754700",
      "longitude": "7.7028100",
      "createdAt": "2025-12-28T18:32:50.870Z",
      "updatedAt": "2025-12-28T18:32:50.870Z",
      "stateName": "North Rhine-Westphalia",
      "countryName": "Germany"
    },
    {
      "id": 11811,
      "stateId": 1195,
      "name": "Isernia",
      "latitude": "41.6000300",
      "longitude": "14.2370100",
      "createdAt": "2025-12-28T19:09:43.446Z",
      "updatedAt": "2025-12-28T19:09:43.446Z",
      "stateName": "Molise",
      "countryName": "Italy"
    },
    {
      "id": 11813,
      "stateId": 582,
      "name": "Ishigaki",
      "latitude": "24.3447800",
      "longitude": "124.1571700",
      "createdAt": "2025-12-28T19:09:46.802Z",
      "updatedAt": "2025-12-28T19:09:46.802Z",
      "stateName": "Kyūshū",
      "countryName": "Japan"
    },
    {
      "id": 11822,
      "stateId": 1058,
      "name": "Ishikawa",
      "latitude": "35.7074393",
      "longitude": "136.8605218",
      "createdAt": "2025-12-28T19:09:58.572Z",
      "updatedAt": "2025-12-28T19:09:58.572Z",
      "stateName": "Chūbu",
      "countryName": "Japan"
    },
    {
      "id": 11863,
      "stateId": 584,
      "name": "Ishinomaki",
      "latitude": "38.4166700",
      "longitude": "141.3000000",
      "createdAt": "2025-12-28T19:10:20.270Z",
      "updatedAt": "2025-12-28T19:10:20.270Z",
      "stateName": "Tōhoku",
      "countryName": "Japan"
    },
    {
      "id": 8573,
      "stateId": 92,
      "name": "Ishpeming",
      "latitude": "37.8034989",
      "longitude": "-92.5169818",
      "createdAt": "2025-12-28T18:39:16.724Z",
      "updatedAt": "2025-12-28T18:39:16.724Z",
      "stateName": "Michigan",
      "countryName": "United States"
    },
    {
      "id": 1431,
      "stateId": 58,
      "name": "Isidro Casanova",
      "latitude": "-32.1628172",
      "longitude": "-62.0921509",
      "createdAt": "2025-12-28T17:04:30.564Z",
      "updatedAt": "2025-12-28T17:04:30.564Z",
      "stateName": "Buenos Aires",
      "countryName": "Argentina"
    },
    {
      "id": 8658,
      "stateId": 259,
      "name": "Isingiro",
      "latitude": null,
      "longitude": null,
      "createdAt": "2025-12-28T18:39:35.845Z",
      "updatedAt": "2025-12-28T18:39:35.845Z",
      "stateName": "Eastern Region",
      "countryName": "Uganda"
    },
    {
      "id": 17329,
      "stateId": 646,
      "name": "Iskenderun",
      "latitude": "39.2026972",
      "longitude": "33.8771519",
      "createdAt": "2025-12-29T18:48:44.356Z",
      "updatedAt": "2025-12-29T18:48:44.356Z",
      "stateName": "Hatay",
      "countryName": "Turkey"
    },
    {
      "id": 7484,
      "stateId": 188,
      "name": "Isla Cristina",
      "latitude": null,
      "longitude": null,
      "createdAt": "2025-12-28T18:30:21.902Z",
      "updatedAt": "2025-12-28T18:30:21.902Z",
      "stateName": "Huelva",
      "countryName": "Spain"
    },
    {
      "id": 11790,
      "stateId": 167,
      "name": "Isla de Maipo",
      "latitude": "-35.4727272",
      "longitude": "-71.8075952",
      "createdAt": "2025-12-28T19:09:36.339Z",
      "updatedAt": "2025-12-28T19:09:36.339Z",
      "stateName": "Región Metropolitana de Santiago",
      "countryName": "Chile"
    },
    {
      "id": 11821,
      "stateId": 1102,
      "name": "Isla Margarita",
      "latitude": "9.7279333",
      "longitude": "-67.8305118",
      "createdAt": "2025-12-28T19:09:57.169Z",
      "updatedAt": "2025-12-28T19:09:57.169Z",
      "stateName": "Nueva Esparta",
      "countryName": "Venezuela"
    },
    {
      "id": 2152,
      "stateId": 33,
      "name": "Islamorada",
      "latitude": "37.8034989",
      "longitude": "-92.5169818",
      "createdAt": "2025-12-28T18:10:59.750Z",
      "updatedAt": "2025-12-28T18:10:59.750Z",
      "stateName": "Florida",
      "countryName": "United States"
    },
    {
      "id": 329,
      "stateId": 110,
      "name": "Island Park",
      "latitude": "37.8034989",
      "longitude": "-92.5169818",
      "createdAt": "2025-12-28T16:56:42.228Z",
      "updatedAt": "2025-12-28T16:56:42.228Z",
      "stateName": "Idaho",
      "countryName": "United States"
    },
    {
      "id": 6124,
      "stateId": 444,
      "name": "Isle of Bute",
      "latitude": null,
      "longitude": null,
      "createdAt": "2025-12-28T18:23:18.301Z",
      "updatedAt": "2025-12-28T18:23:18.301Z",
      "stateName": "Scotland",
      "countryName": "United Kingdom"
    },
    {
      "id": 11047,
      "stateId": 145,
      "name": "Isle of Palms",
      "latitude": "37.8034989",
      "longitude": "-92.5169818",
      "createdAt": "2025-12-28T19:00:35.910Z",
      "updatedAt": "2025-12-28T19:00:35.910Z",
      "stateName": "South Carolina",
      "countryName": "United States"
    },
    {
      "id": 5977,
      "stateId": 908,
      "name": "Isle of Thanet",
      "latitude": null,
      "longitude": null,
      "createdAt": "2025-12-28T18:22:46.387Z",
      "updatedAt": "2025-12-28T18:22:46.387Z",
      "stateName": "Kent",
      "countryName": "United Kingdom"
    },
    {
      "id": 11849,
      "stateId": 18,
      "name": "Isleta",
      "latitude": null,
      "longitude": null,
      "createdAt": "2025-12-28T19:10:10.915Z",
      "updatedAt": "2025-12-28T19:10:10.915Z",
      "stateName": "New Mexico",
      "countryName": "United States"
    },
    {
      "id": 17624,
      "stateId": 2,
      "name": "Isleworth",
      "latitude": null,
      "longitude": null,
      "createdAt": "2026-01-27T12:13:06.870Z",
      "updatedAt": "2026-01-27T12:13:06.870Z",
      "stateName": "England",
      "countryName": "United Kingdom"
    },
    {
      "id": 164,
      "stateId": 34,
      "name": "Ismaning",
      "latitude": "50.9385735",
      "longitude": "9.5583023",
      "createdAt": "2025-12-28T16:56:31.569Z",
      "updatedAt": "2025-12-28T16:56:31.569Z",
      "stateName": "Bavaria",
      "countryName": "Germany"
    },
    {
      "id": 8260,
      "stateId": 330,
      "name": "Isnos",
      "latitude": "6.4444434",
      "longitude": "-74.9549521",
      "createdAt": "2025-12-28T18:36:41.620Z",
      "updatedAt": "2025-12-28T18:36:41.620Z",
      "stateName": "Huila",
      "countryName": "Colombia"
    },
    {
      "id": 8087,
      "stateId": 207,
      "name": "Ispica",
      "latitude": "42.4957616",
      "longitude": "12.4479260",
      "createdAt": "2025-12-28T18:35:14.825Z",
      "updatedAt": "2025-12-28T18:35:14.825Z",
      "stateName": "Sicily",
      "countryName": "Italy"
    },
    {
      "id": 445,
      "stateId": 42,
      "name": "Issaquah",
      "latitude": "47.5301000",
      "longitude": "-122.0326200",
      "createdAt": "2025-12-28T17:00:50.664Z",
      "updatedAt": "2025-12-28T17:00:50.664Z",
      "stateName": "Washington",
      "countryName": "United States"
    },
    {
      "id": 8235,
      "stateId": 726,
      "name": "Issoire",
      "latitude": "45.5500000",
      "longitude": "3.2500000",
      "createdAt": "2025-12-28T18:36:32.788Z",
      "updatedAt": "2025-12-28T18:36:32.788Z",
      "stateName": "Auvergne",
      "countryName": "France"
    },
    {
      "id": 10039,
      "stateId": 300,
      "name": "Issoudun",
      "latitude": null,
      "longitude": null,
      "createdAt": "2025-12-28T18:49:49.244Z",
      "updatedAt": "2025-12-28T18:49:49.244Z",
      "stateName": "Centre-Val de Loire",
      "countryName": "France"
    },
    {
      "id": 2302,
      "stateId": 10,
      "name": "Issy-les-Moulineaux",
      "latitude": null,
      "longitude": null,
      "createdAt": "2025-12-28T18:11:42.015Z",
      "updatedAt": "2025-12-28T18:11:42.015Z",
      "stateName": "Île-de-France",
      "countryName": "France"
    },
    {
      "id": 5824,
      "stateId": 752,
      "name": "Istmina",
      "latitude": null,
      "longitude": null,
      "createdAt": "2025-12-28T18:22:25.516Z",
      "updatedAt": "2025-12-28T18:22:25.516Z",
      "stateName": "Choco",
      "countryName": "Colombia"
    },
    {
      "id": 8492,
      "stateId": 903,
      "name": "Isulan",
      "latitude": null,
      "longitude": null,
      "createdAt": "2025-12-28T18:38:49.365Z",
      "updatedAt": "2025-12-28T18:38:49.365Z",
      "stateName": "Sultan Kudarat",
      "countryName": "Philippines"
    },
    {
      "id": 11908,
      "stateId": 205,
      "name": "Itaara",
      "latitude": null,
      "longitude": null,
      "createdAt": "2025-12-28T19:10:39.959Z",
      "updatedAt": "2025-12-28T19:10:39.959Z",
      "stateName": "Rio Grande do Sul",
      "countryName": "Brazil"
    },
    {
      "id": 11947,
      "stateId": 287,
      "name": "Itabaiana",
      "latitude": null,
      "longitude": null,
      "createdAt": "2025-12-28T19:10:53.704Z",
      "updatedAt": "2025-12-28T19:10:53.704Z",
      "stateName": "Paraíba",
      "countryName": "Brazil"
    },
    {
      "id": 6259,
      "stateId": 271,
      "name": "Itabaiana",
      "latitude": "-10.6850000",
      "longitude": "-37.4252800",
      "createdAt": "2025-12-28T18:24:24.370Z",
      "updatedAt": "2025-12-28T18:24:24.370Z",
      "stateName": "Sergipe",
      "countryName": "Brazil"
    },
    {
      "id": 11876,
      "stateId": 271,
      "name": "Itabaianinha",
      "latitude": null,
      "longitude": null,
      "createdAt": "2025-12-28T19:10:31.084Z",
      "updatedAt": "2025-12-28T19:10:31.084Z",
      "stateName": "Sergipe",
      "countryName": "Brazil"
    },
    {
      "id": 17510,
      "stateId": 262,
      "name": "Itabatã",
      "latitude": null,
      "longitude": null,
      "createdAt": "2026-01-19T22:10:32.896Z",
      "updatedAt": "2026-01-19T22:10:32.896Z",
      "stateName": "Bahia",
      "countryName": "Brazil"
    },
    {
      "id": 6807,
      "stateId": 262,
      "name": "Itabela",
      "latitude": "-17.4339069",
      "longitude": "-45.8426650",
      "createdAt": "2025-12-28T18:27:15.258Z",
      "updatedAt": "2025-12-28T18:27:15.258Z",
      "stateName": "Bahia",
      "countryName": "Brazil"
    },
    {
      "id": 8047,
      "stateId": 262,
      "name": "Itaberaba",
      "latitude": "-12.5275000",
      "longitude": "-40.3069400",
      "createdAt": "2025-12-28T18:34:45.244Z",
      "updatedAt": "2025-12-28T18:34:45.244Z",
      "stateName": "Bahia",
      "countryName": "Brazil"
    },
    {
      "id": 4775,
      "stateId": 253,
      "name": "Itaberaí",
      "latitude": null,
      "longitude": null,
      "createdAt": "2025-12-28T18:18:39.662Z",
      "updatedAt": "2025-12-28T18:18:39.662Z",
      "stateName": "Goiás",
      "countryName": "Brazil"
    },
    {
      "id": 574,
      "stateId": 95,
      "name": "Itabira",
      "latitude": "-19.6191700",
      "longitude": "-43.2269400",
      "createdAt": "2025-12-28T17:01:07.781Z",
      "updatedAt": "2025-12-28T17:01:07.781Z",
      "stateName": "Minas Gerais",
      "countryName": "Brazil"
    },
    {
      "id": 11974,
      "stateId": 95,
      "name": "Itabirinha",
      "latitude": null,
      "longitude": null,
      "createdAt": "2025-12-28T19:11:02.413Z",
      "updatedAt": "2025-12-28T19:11:02.413Z",
      "stateName": "Minas Gerais",
      "countryName": "Brazil"
    },
    {
      "id": 6812,
      "stateId": 95,
      "name": "Itabirito",
      "latitude": null,
      "longitude": null,
      "createdAt": "2025-12-28T18:27:16.432Z",
      "updatedAt": "2025-12-28T18:27:16.432Z",
      "stateName": "Minas Gerais",
      "countryName": "Brazil"
    },
    {
      "id": 9587,
      "stateId": 134,
      "name": "Itaboraí",
      "latitude": "-22.7444400",
      "longitude": "-42.8594400",
      "createdAt": "2025-12-28T18:45:29.316Z",
      "updatedAt": "2025-12-28T18:45:29.316Z",
      "stateName": "Rio de Janeiro",
      "countryName": "Brazil"
    },
    {
      "id": 754,
      "stateId": 262,
      "name": "Itabuna",
      "latitude": "-14.7855600",
      "longitude": "-39.2802800",
      "createdAt": "2025-12-28T17:02:15.036Z",
      "updatedAt": "2025-12-28T17:02:15.036Z",
      "stateName": "Bahia",
      "countryName": "Brazil"
    },
    {
      "id": 11912,
      "stateId": 95,
      "name": "Itacarambi",
      "latitude": null,
      "longitude": null,
      "createdAt": "2025-12-28T19:10:40.269Z",
      "updatedAt": "2025-12-28T19:10:40.269Z",
      "stateName": "Minas Gerais",
      "countryName": "Brazil"
    },
    {
      "id": 11875,
      "stateId": 262,
      "name": "Itacaré",
      "latitude": null,
      "longitude": null,
      "createdAt": "2025-12-28T19:10:29.824Z",
      "updatedAt": "2025-12-28T19:10:29.824Z",
      "stateName": "Bahia",
      "countryName": "Brazil"
    },
    {
      "id": 8060,
      "stateId": 238,
      "name": "Itacoatiara",
      "latitude": "-3.1430600",
      "longitude": "-58.4441700",
      "createdAt": "2025-12-28T18:34:54.446Z",
      "updatedAt": "2025-12-28T18:34:54.446Z",
      "stateName": "Amazonas",
      "countryName": "Brazil"
    },
    {
      "id": 11981,
      "stateId": 262,
      "name": "Itagi",
      "latitude": null,
      "longitude": null,
      "createdAt": "2025-12-28T19:11:06.846Z",
      "updatedAt": "2025-12-28T19:11:06.846Z",
      "stateName": "Bahia",
      "countryName": "Brazil"
    },
    {
      "id": 14763,
      "stateId": 134,
      "name": "Itaguai",
      "latitude": null,
      "longitude": null,
      "createdAt": "2025-12-28T19:48:12.146Z",
      "updatedAt": "2025-12-28T19:48:12.146Z",
      "stateName": "Rio de Janeiro",
      "countryName": "Brazil"
    },
    {
      "id": 9377,
      "stateId": 95,
      "name": "Itaguara",
      "latitude": null,
      "longitude": null,
      "createdAt": "2025-12-28T18:44:00.767Z",
      "updatedAt": "2025-12-28T18:44:00.767Z",
      "stateName": "Minas Gerais",
      "countryName": "Brazil"
    },
    {
      "id": 855,
      "stateId": 293,
      "name": "Itaiopolis",
      "latitude": "-17.4339069",
      "longitude": "-45.8426650",
      "createdAt": "2025-12-28T17:02:23.703Z",
      "updatedAt": "2025-12-28T17:02:23.703Z",
      "stateName": "Santa Catarina",
      "countryName": "Brazil"
    },
    {
      "id": 15397,
      "stateId": 134,
      "name": "Itaipava",
      "latitude": null,
      "longitude": null,
      "createdAt": "2025-12-28T20:04:42.654Z",
      "updatedAt": "2025-12-28T20:04:42.654Z",
      "stateName": "Rio de Janeiro",
      "countryName": "Brazil"
    },
    {
      "id": 6799,
      "stateId": 134,
      "name": "Itaipu",
      "latitude": "-17.4339069",
      "longitude": "-45.8426650",
      "createdAt": "2025-12-28T18:27:14.736Z",
      "updatedAt": "2025-12-28T18:27:14.736Z",
      "stateName": "Rio de Janeiro",
      "countryName": "Brazil"
    },
    {
      "id": 11986,
      "stateId": 137,
      "name": "Itaipulândia",
      "latitude": null,
      "longitude": null,
      "createdAt": "2025-12-28T19:11:08.710Z",
      "updatedAt": "2025-12-28T19:11:08.710Z",
      "stateName": "Paraná",
      "countryName": "Brazil"
    },
    {
      "id": 3041,
      "stateId": 159,
      "name": "Itaituba",
      "latitude": "-4.2761100",
      "longitude": "-55.9836100",
      "createdAt": "2025-12-28T18:13:35.284Z",
      "updatedAt": "2025-12-28T18:13:35.284Z",
      "stateName": "Pará",
      "countryName": "Brazil"
    },
    {
      "id": 8194,
      "stateId": 253,
      "name": "Itajá",
      "latitude": null,
      "longitude": null,
      "createdAt": "2025-12-28T18:36:21.913Z",
      "updatedAt": "2025-12-28T18:36:21.913Z",
      "stateName": "Goiás",
      "countryName": "Brazil"
    },
    {
      "id": 3320,
      "stateId": 293,
      "name": "Itajaí",
      "latitude": "-26.9077800",
      "longitude": "-48.6619400",
      "createdAt": "2025-12-28T18:14:13.183Z",
      "updatedAt": "2025-12-28T18:14:13.183Z",
      "stateName": "Santa Catarina",
      "countryName": "Brazil"
    },
    {
      "id": 14143,
      "stateId": 4,
      "name": "Itajobi",
      "latitude": null,
      "longitude": null,
      "createdAt": "2025-12-28T19:40:44.806Z",
      "updatedAt": "2025-12-28T19:40:44.806Z",
      "stateName": "São Paulo",
      "countryName": "Brazil"
    },
    {
      "id": 3481,
      "stateId": 95,
      "name": "Itajuba",
      "latitude": "-17.4339069",
      "longitude": "-45.8426650",
      "createdAt": "2025-12-28T18:14:36.670Z",
      "updatedAt": "2025-12-28T18:14:36.670Z",
      "stateName": "Minas Gerais",
      "countryName": "Brazil"
    },
    {
      "id": 6838,
      "stateId": 262,
      "name": "Itajuípe",
      "latitude": "-14.6780600",
      "longitude": "-39.3750000",
      "createdAt": "2025-12-28T18:27:20.690Z",
      "updatedAt": "2025-12-28T18:27:20.690Z",
      "stateName": "Bahia",
      "countryName": "Brazil"
    },
    {
      "id": 15735,
      "stateId": 207,
      "name": "Itala",
      "latitude": "42.4957616",
      "longitude": "12.4479260",
      "createdAt": "2025-12-28T20:16:48.638Z",
      "updatedAt": "2025-12-28T20:16:48.638Z",
      "stateName": "Sicily",
      "countryName": "Italy"
    },
    {
      "id": 3020,
      "stateId": 134,
      "name": "Italva",
      "latitude": null,
      "longitude": null,
      "createdAt": "2025-12-28T18:13:32.423Z",
      "updatedAt": "2025-12-28T18:13:32.423Z",
      "stateName": "Rio de Janeiro",
      "countryName": "Brazil"
    },
    {
      "id": 7805,
      "stateId": 262,
      "name": "Itamaraju",
      "latitude": "-17.0391700",
      "longitude": "-39.5311100",
      "createdAt": "2025-12-28T18:32:14.415Z",
      "updatedAt": "2025-12-28T18:32:14.415Z",
      "stateName": "Bahia",
      "countryName": "Brazil"
    },
    {
      "id": 6884,
      "stateId": 95,
      "name": "Itamarandiba",
      "latitude": null,
      "longitude": null,
      "createdAt": "2025-12-28T18:27:27.415Z",
      "updatedAt": "2025-12-28T18:27:27.415Z",
      "stateName": "Minas Gerais",
      "countryName": "Brazil"
    },
    {
      "id": 11900,
      "stateId": 262,
      "name": "Itamari",
      "latitude": null,
      "longitude": null,
      "createdAt": "2025-12-28T19:10:37.728Z",
      "updatedAt": "2025-12-28T19:10:37.728Z",
      "stateName": "Bahia",
      "countryName": "Brazil"
    },
    {
      "id": 10195,
      "stateId": 95,
      "name": "Itambacuri",
      "latitude": null,
      "longitude": null,
      "createdAt": "2025-12-28T18:51:01.786Z",
      "updatedAt": "2025-12-28T18:51:01.786Z",
      "stateName": "Minas Gerais",
      "countryName": "Brazil"
    },
    {
      "id": 15296,
      "stateId": 7,
      "name": "Itambé",
      "latitude": "-15.2450000",
      "longitude": "-40.6244400",
      "createdAt": "2025-12-28T20:01:14.282Z",
      "updatedAt": "2025-12-28T20:01:14.282Z",
      "stateName": "Pernambuco",
      "countryName": "Brazil"
    },
    {
      "id": 11985,
      "stateId": 262,
      "name": "Itambé",
      "latitude": null,
      "longitude": null,
      "createdAt": "2025-12-28T19:11:08.646Z",
      "updatedAt": "2025-12-28T19:11:08.646Z",
      "stateName": "Bahia",
      "countryName": "Brazil"
    },
    {
      "id": 11914,
      "stateId": 137,
      "name": "Itambé",
      "latitude": null,
      "longitude": null,
      "createdAt": "2025-12-28T19:10:40.666Z",
      "updatedAt": "2025-12-28T19:10:40.666Z",
      "stateName": "Paraná",
      "countryName": "Brazil"
    },
    {
      "id": 3942,
      "stateId": 95,
      "name": "Itamogi",
      "latitude": null,
      "longitude": null,
      "createdAt": "2025-12-28T18:15:41.844Z",
      "updatedAt": "2025-12-28T18:15:41.844Z",
      "stateName": "Minas Gerais",
      "countryName": "Brazil"
    },
    {
      "id": 7524,
      "stateId": 95,
      "name": "Itamonte",
      "latitude": null,
      "longitude": null,
      "createdAt": "2025-12-28T18:30:28.160Z",
      "updatedAt": "2025-12-28T18:30:28.160Z",
      "stateName": "Minas Gerais",
      "countryName": "Brazil"
    },
    {
      "id": 2960,
      "stateId": 633,
      "name": "Itanagar",
      "latitude": "21.6224148",
      "longitude": "79.1259549",
      "createdAt": "2025-12-28T18:13:15.461Z",
      "updatedAt": "2025-12-28T18:13:15.461Z",
      "stateName": "Arunachal Pradesh",
      "countryName": "India"
    },
    {
      "id": 6842,
      "stateId": 4,
      "name": "Itanhaém",
      "latitude": "-24.1830600",
      "longitude": "-46.7888900",
      "createdAt": "2025-12-28T18:27:20.965Z",
      "updatedAt": "2025-12-28T18:27:20.965Z",
      "stateName": "São Paulo",
      "countryName": "Brazil"
    },
    {
      "id": 3068,
      "stateId": 95,
      "name": "Itanhandu",
      "latitude": null,
      "longitude": null,
      "createdAt": "2025-12-28T18:13:37.855Z",
      "updatedAt": "2025-12-28T18:13:37.855Z",
      "stateName": "Minas Gerais",
      "countryName": "Brazil"
    },
    {
      "id": 11888,
      "stateId": 369,
      "name": "Itanhangá",
      "latitude": null,
      "longitude": null,
      "createdAt": "2025-12-28T19:10:34.361Z",
      "updatedAt": "2025-12-28T19:10:34.361Z",
      "stateName": "Mato Grosso do Sul",
      "countryName": "Brazil"
    },
    {
      "id": 18159,
      "stateId": 85,
      "name": "Itanhangá",
      "latitude": null,
      "longitude": null,
      "createdAt": "2026-04-04T12:12:25.437Z",
      "updatedAt": "2026-04-04T12:12:25.437Z",
      "stateName": "Mato Grosso",
      "countryName": "Brazil"
    },
    {
      "id": 6935,
      "stateId": 262,
      "name": "Itanhém",
      "latitude": null,
      "longitude": null,
      "createdAt": "2025-12-28T18:27:34.437Z",
      "updatedAt": "2025-12-28T18:27:34.437Z",
      "stateName": "Bahia",
      "countryName": "Brazil"
    },
    {
      "id": 9441,
      "stateId": 95,
      "name": "Itanhomi",
      "latitude": null,
      "longitude": null,
      "createdAt": "2025-12-28T18:44:13.898Z",
      "updatedAt": "2025-12-28T18:44:13.898Z",
      "stateName": "Minas Gerais",
      "countryName": "Brazil"
    },
    {
      "id": 9008,
      "stateId": 134,
      "name": "Itaocara ",
      "latitude": null,
      "longitude": null,
      "createdAt": "2025-12-28T18:41:29.965Z",
      "updatedAt": "2025-12-28T18:41:29.965Z",
      "stateName": "Rio de Janeiro",
      "countryName": "Brazil"
    }
  ],
  "meta": {
    "page": 75,
    "limit": 100,
    "total": 18002,
    "totalPages": 181
  }
}
