{
  "source": "50k-radio-stations",
  "provider": "rapidapi",
  "syncedAt": "2026-06-03T13:04:00.839Z",
  "endpoint": "/cities",
  "page": 2,
  "limit": 250,
  "data": [
    {
      "id": 2193,
      "stateId": 122,
      "name": "Addison",
      "latitude": "41.9317000",
      "longitude": "-87.9889600",
      "createdAt": "2025-12-28T18:11:05.021Z",
      "updatedAt": "2025-12-28T18:11:05.021Z",
      "stateName": "Alabama",
      "countryName": "United States"
    },
    {
      "id": 2202,
      "stateId": 436,
      "name": "Addison",
      "latitude": "41.9317000",
      "longitude": "-87.9889600",
      "createdAt": "2025-12-28T18:11:06.223Z",
      "updatedAt": "2025-12-28T18:11:06.223Z",
      "stateName": "Vermont",
      "countryName": "United States"
    },
    {
      "id": 2144,
      "stateId": 139,
      "name": "Adeje",
      "latitude": "28.1227100",
      "longitude": "-16.7260000",
      "createdAt": "2025-12-28T18:10:59.444Z",
      "updatedAt": "2025-12-28T18:10:59.444Z",
      "stateName": "Canary Islands",
      "countryName": "Spain"
    },
    {
      "id": 183,
      "stateId": 113,
      "name": "Adel",
      "latitude": "37.8034989",
      "longitude": "-92.5169818",
      "createdAt": "2025-12-28T16:56:33.812Z",
      "updatedAt": "2025-12-28T16:56:33.812Z",
      "stateName": "Iowa",
      "countryName": "United States"
    },
    {
      "id": 2198,
      "stateId": 22,
      "name": "Adel",
      "latitude": "37.8034989",
      "longitude": "-92.5169818",
      "createdAt": "2025-12-28T18:11:05.733Z",
      "updatedAt": "2025-12-28T18:11:05.733Z",
      "stateName": "Georgia",
      "countryName": "United States"
    },
    {
      "id": 1194,
      "stateId": 419,
      "name": "Adelaide",
      "latitude": "-34.9286600",
      "longitude": "138.5986300",
      "createdAt": "2025-12-28T17:03:17.061Z",
      "updatedAt": "2025-12-28T17:03:17.061Z",
      "stateName": "South Australia",
      "countryName": "Australia"
    },
    {
      "id": 2214,
      "stateId": 518,
      "name": "Adelaide River",
      "latitude": "-33.9811915",
      "longitude": "144.8351072",
      "createdAt": "2025-12-28T18:11:07.050Z",
      "updatedAt": "2025-12-28T18:11:07.050Z",
      "stateName": "Northern Territory",
      "countryName": "Australia"
    },
    {
      "id": 2184,
      "stateId": 24,
      "name": "Adelanto",
      "latitude": "34.5827700",
      "longitude": "-117.4092200",
      "createdAt": "2025-12-28T18:11:03.609Z",
      "updatedAt": "2025-12-28T18:11:03.609Z",
      "stateName": "California",
      "countryName": "United States"
    },
    {
      "id": 2128,
      "stateId": 147,
      "name": "Adelia María",
      "latitude": null,
      "longitude": null,
      "createdAt": "2025-12-28T18:10:57.940Z",
      "updatedAt": "2025-12-28T18:10:57.940Z",
      "stateName": "Cordoba",
      "countryName": "Argentina"
    },
    {
      "id": 2124,
      "stateId": 380,
      "name": "Adilabad",
      "latitude": "21.6224148",
      "longitude": "79.1259549",
      "createdAt": "2025-12-28T18:10:57.664Z",
      "updatedAt": "2025-12-28T18:10:57.664Z",
      "stateName": "Andhra Pradesh",
      "countryName": "India"
    },
    {
      "id": 17896,
      "stateId": 620,
      "name": "Adilabad",
      "latitude": "21.6224148",
      "longitude": "79.1259549",
      "createdAt": "2026-03-12T06:20:55.686Z",
      "updatedAt": "2026-03-12T06:20:55.686Z",
      "stateName": "Telangana",
      "countryName": "India"
    },
    {
      "id": 2164,
      "stateId": 561,
      "name": "Adıyaman",
      "latitude": null,
      "longitude": null,
      "createdAt": "2025-12-28T18:11:00.510Z",
      "updatedAt": "2025-12-28T18:11:00.510Z",
      "stateName": "Adiyaman Province",
      "countryName": "Turkey"
    },
    {
      "id": 2115,
      "stateId": 552,
      "name": "Ado Ekiti",
      "latitude": null,
      "longitude": null,
      "createdAt": "2025-12-28T18:10:56.164Z",
      "updatedAt": "2025-12-28T18:10:56.164Z",
      "stateName": "Ekiti",
      "countryName": "Nigeria"
    },
    {
      "id": 1892,
      "stateId": 58,
      "name": "Adolfo Gonzales Chaves",
      "latitude": "-32.1628172",
      "longitude": "-62.0921509",
      "createdAt": "2025-12-28T18:10:27.840Z",
      "updatedAt": "2025-12-28T18:10:27.840Z",
      "stateName": "Buenos Aires",
      "countryName": "Argentina"
    },
    {
      "id": 2186,
      "stateId": 563,
      "name": "Adrar",
      "latitude": "27.8742900",
      "longitude": "-0.2938800",
      "createdAt": "2025-12-28T18:11:03.764Z",
      "updatedAt": "2025-12-28T18:11:03.764Z",
      "stateName": "Regionale du Sud- Est",
      "countryName": "Algeria"
    },
    {
      "id": 2192,
      "stateId": 92,
      "name": "Adrian",
      "latitude": "41.8975500",
      "longitude": "-84.0371700",
      "createdAt": "2025-12-28T18:11:04.833Z",
      "updatedAt": "2025-12-28T18:11:04.833Z",
      "stateName": "Michigan",
      "countryName": "United States"
    },
    {
      "id": 2217,
      "stateId": 112,
      "name": "Adrian",
      "latitude": null,
      "longitude": null,
      "createdAt": "2025-12-28T18:11:07.728Z",
      "updatedAt": "2025-12-28T18:11:07.728Z",
      "stateName": "Missouri",
      "countryName": "United States"
    },
    {
      "id": 2195,
      "stateId": 58,
      "name": "Adrogué",
      "latitude": null,
      "longitude": null,
      "createdAt": "2025-12-28T18:11:05.342Z",
      "updatedAt": "2025-12-28T18:11:05.342Z",
      "stateName": "Buenos Aires",
      "countryName": "Argentina"
    },
    {
      "id": 2130,
      "stateId": 262,
      "name": "Adustina",
      "latitude": "-17.4339069",
      "longitude": "-45.8426650",
      "createdAt": "2025-12-28T18:10:58.478Z",
      "updatedAt": "2025-12-28T18:10:58.478Z",
      "stateName": "Bahia",
      "countryName": "Brazil"
    },
    {
      "id": 2393,
      "stateId": 594,
      "name": "Affligem",
      "latitude": "50.9010009",
      "longitude": "4.3862404",
      "createdAt": "2025-12-28T18:12:01.404Z",
      "updatedAt": "2025-12-28T18:12:01.404Z",
      "stateName": "Flemish Brabant",
      "countryName": "Belgium"
    },
    {
      "id": 2301,
      "stateId": 7,
      "name": "Afogados da Ingazeira",
      "latitude": null,
      "longitude": null,
      "createdAt": "2025-12-28T18:11:41.523Z",
      "updatedAt": "2025-12-28T18:11:41.523Z",
      "stateName": "Pernambuco",
      "countryName": "Brazil"
    },
    {
      "id": 2306,
      "stateId": 261,
      "name": "Afonso Cláudio",
      "latitude": "-17.4339069",
      "longitude": "-45.8426650",
      "createdAt": "2025-12-28T18:11:42.538Z",
      "updatedAt": "2025-12-28T18:11:42.538Z",
      "stateName": "Espírito Santo",
      "countryName": "Brazil"
    },
    {
      "id": 2348,
      "stateId": 7,
      "name": "Afrânio",
      "latitude": null,
      "longitude": null,
      "createdAt": "2025-12-28T18:11:52.532Z",
      "updatedAt": "2025-12-28T18:11:52.532Z",
      "stateName": "Pernambuco",
      "countryName": "Brazil"
    },
    {
      "id": 2394,
      "stateId": 154,
      "name": "Afton",
      "latitude": "37.8034989",
      "longitude": "-92.5169818",
      "createdAt": "2025-12-28T18:12:01.508Z",
      "updatedAt": "2025-12-28T18:12:01.508Z",
      "stateName": "Wyoming",
      "countryName": "United States"
    },
    {
      "id": 2308,
      "stateId": 137,
      "name": "Afua",
      "latitude": null,
      "longitude": null,
      "createdAt": "2025-12-28T18:11:42.807Z",
      "updatedAt": "2025-12-28T18:11:42.807Z",
      "stateName": "Paraná",
      "countryName": "Brazil"
    },
    {
      "id": 2437,
      "stateId": 596,
      "name": "Agartala",
      "latitude": "23.8360500",
      "longitude": "91.2793900",
      "createdAt": "2025-12-28T18:12:13.628Z",
      "updatedAt": "2025-12-28T18:12:13.628Z",
      "stateName": "Tripura",
      "countryName": "India"
    },
    {
      "id": 2535,
      "stateId": 47,
      "name": "Agawam",
      "latitude": null,
      "longitude": null,
      "createdAt": "2025-12-28T18:12:21.445Z",
      "updatedAt": "2025-12-28T18:12:21.445Z",
      "stateName": "Massachusetts",
      "countryName": "United States"
    },
    {
      "id": 2520,
      "stateId": 38,
      "name": "Agde",
      "latitude": "47.3768156",
      "longitude": "2.7742767",
      "createdAt": "2025-12-28T18:12:19.863Z",
      "updatedAt": "2025-12-28T18:12:19.863Z",
      "stateName": "Occitanie",
      "countryName": "France"
    },
    {
      "id": 2513,
      "stateId": 208,
      "name": "Agen",
      "latitude": "44.2000000",
      "longitude": "0.6333300",
      "createdAt": "2025-12-28T18:12:19.211Z",
      "updatedAt": "2025-12-28T18:12:19.211Z",
      "stateName": "Aquitaine",
      "countryName": "France"
    },
    {
      "id": 2536,
      "stateId": 481,
      "name": "Agen",
      "latitude": null,
      "longitude": null,
      "createdAt": "2025-12-28T18:12:21.493Z",
      "updatedAt": "2025-12-28T18:12:21.493Z",
      "stateName": "Nouvelle-Aquitaine",
      "countryName": "France"
    },
    {
      "id": 2522,
      "stateId": 67,
      "name": "Agioi Anargyroi",
      "latitude": null,
      "longitude": null,
      "createdAt": "2025-12-28T18:12:20.094Z",
      "updatedAt": "2025-12-28T18:12:20.094Z",
      "stateName": "Attica",
      "countryName": "Greece"
    },
    {
      "id": 2539,
      "stateId": 140,
      "name": "Agios Nikolaos",
      "latitude": "38.6555720",
      "longitude": "23.4057215",
      "createdAt": "2025-12-28T18:12:21.756Z",
      "updatedAt": "2025-12-28T18:12:21.756Z",
      "stateName": "Crete",
      "countryName": "Greece"
    },
    {
      "id": 2472,
      "stateId": 207,
      "name": "Agira",
      "latitude": "42.4957616",
      "longitude": "12.4479260",
      "createdAt": "2025-12-28T18:12:15.941Z",
      "updatedAt": "2025-12-28T18:12:15.941Z",
      "stateName": "Sicily",
      "countryName": "Italy"
    },
    {
      "id": 2534,
      "stateId": 17,
      "name": "Aglasterhausen",
      "latitude": null,
      "longitude": null,
      "createdAt": "2025-12-28T18:12:21.363Z",
      "updatedAt": "2025-12-28T18:12:21.363Z",
      "stateName": "Baden-Württemberg",
      "countryName": "Germany"
    },
    {
      "id": 2467,
      "stateId": 600,
      "name": "Agoo",
      "latitude": null,
      "longitude": null,
      "createdAt": "2025-12-28T18:12:15.780Z",
      "updatedAt": "2025-12-28T18:12:15.780Z",
      "stateName": "La Union",
      "countryName": "Philippines"
    },
    {
      "id": 2512,
      "stateId": 265,
      "name": "Agordo",
      "latitude": "42.4957616",
      "longitude": "12.4479260",
      "createdAt": "2025-12-28T18:12:19.096Z",
      "updatedAt": "2025-12-28T18:12:19.096Z",
      "stateName": "Veneto",
      "countryName": "Italy"
    },
    {
      "id": 2502,
      "stateId": 7,
      "name": "Agostinho",
      "latitude": "-17.4339069",
      "longitude": "-45.8426650",
      "createdAt": "2025-12-28T18:12:18.400Z",
      "updatedAt": "2025-12-28T18:12:18.400Z",
      "stateName": "Pernambuco",
      "countryName": "Brazil"
    },
    {
      "id": 2436,
      "stateId": 296,
      "name": "Agra",
      "latitude": "21.6224148",
      "longitude": "79.1259549",
      "createdAt": "2025-12-28T18:12:13.571Z",
      "updatedAt": "2025-12-28T18:12:13.571Z",
      "stateName": "Uttar Pradesh",
      "countryName": "India"
    },
    {
      "id": 2531,
      "stateId": 7,
      "name": "Agrestina",
      "latitude": null,
      "longitude": null,
      "createdAt": "2025-12-28T18:12:21.212Z",
      "updatedAt": "2025-12-28T18:12:21.212Z",
      "stateName": "Pernambuco",
      "countryName": "Brazil"
    },
    {
      "id": 2468,
      "stateId": 207,
      "name": "Agrigento",
      "latitude": "37.3106500",
      "longitude": "13.5766100",
      "createdAt": "2025-12-28T18:12:15.804Z",
      "updatedAt": "2025-12-28T18:12:15.804Z",
      "stateName": "Sicily",
      "countryName": "Italy"
    },
    {
      "id": 2465,
      "stateId": 150,
      "name": "Agrinio",
      "latitude": "38.6555720",
      "longitude": "23.4057215",
      "createdAt": "2025-12-28T18:12:15.691Z",
      "updatedAt": "2025-12-28T18:12:15.691Z",
      "stateName": "Western Greece",
      "countryName": "Greece"
    },
    {
      "id": 2462,
      "stateId": 293,
      "name": "Agrolândia",
      "latitude": "-17.4339069",
      "longitude": "-45.8426650",
      "createdAt": "2025-12-28T18:12:15.354Z",
      "updatedAt": "2025-12-28T18:12:15.354Z",
      "stateName": "Santa Catarina",
      "countryName": "Brazil"
    },
    {
      "id": 2450,
      "stateId": 85,
      "name": "Água Boa",
      "latitude": null,
      "longitude": null,
      "createdAt": "2025-12-28T18:12:14.409Z",
      "updatedAt": "2025-12-28T18:12:14.409Z",
      "stateName": "Mato Grosso",
      "countryName": "Brazil"
    },
    {
      "id": 2487,
      "stateId": 174,
      "name": "Agua Branca",
      "latitude": "-17.4339069",
      "longitude": "-45.8426650",
      "createdAt": "2025-12-28T18:12:17.184Z",
      "updatedAt": "2025-12-28T18:12:17.184Z",
      "stateName": "Piauí",
      "countryName": "Brazil"
    },
    {
      "id": 2479,
      "stateId": 460,
      "name": "Aguacatan",
      "latitude": null,
      "longitude": null,
      "createdAt": "2025-12-28T18:12:16.389Z",
      "updatedAt": "2025-12-28T18:12:16.389Z",
      "stateName": "Huehuetenango",
      "countryName": "Guatemala"
    },
    {
      "id": 2439,
      "stateId": 239,
      "name": "Aguacatán",
      "latitude": "14.8315200",
      "longitude": "-90.7261285",
      "createdAt": "2025-12-28T18:12:13.734Z",
      "updatedAt": "2025-12-28T18:12:13.734Z",
      "stateName": "Baja Verapaz",
      "countryName": "Guatemala"
    },
    {
      "id": 1490,
      "stateId": 327,
      "name": "Aguachica",
      "latitude": "8.3084400",
      "longitude": "-73.6166000",
      "createdAt": "2025-12-28T17:04:35.262Z",
      "updatedAt": "2025-12-28T17:04:35.262Z",
      "stateName": "Cesar",
      "countryName": "Colombia"
    },
    {
      "id": 2524,
      "stateId": 369,
      "name": "Água Clara",
      "latitude": null,
      "longitude": null,
      "createdAt": "2025-12-28T18:12:20.205Z",
      "updatedAt": "2025-12-28T18:12:20.205Z",
      "stateName": "Mato Grosso do Sul",
      "countryName": "Brazil"
    },
    {
      "id": 2506,
      "stateId": 353,
      "name": "Aguadas",
      "latitude": null,
      "longitude": null,
      "createdAt": "2025-12-28T18:12:18.641Z",
      "updatedAt": "2025-12-28T18:12:18.641Z",
      "stateName": "Caldas",
      "countryName": "Colombia"
    },
    {
      "id": 2537,
      "stateId": 335,
      "name": "Água Doce do Maranhão",
      "latitude": null,
      "longitude": null,
      "createdAt": "2025-12-28T18:12:21.574Z",
      "updatedAt": "2025-12-28T18:12:21.574Z",
      "stateName": "Maranhão",
      "countryName": "Brazil"
    },
    {
      "id": 2435,
      "stateId": 262,
      "name": "Água Fria",
      "latitude": "-17.4339069",
      "longitude": "-45.8426650",
      "createdAt": "2025-12-28T18:12:13.478Z",
      "updatedAt": "2025-12-28T18:12:13.478Z",
      "stateName": "Bahia",
      "countryName": "Brazil"
    },
    {
      "id": 2480,
      "stateId": 7,
      "name": "Água Preta",
      "latitude": null,
      "longitude": null,
      "createdAt": "2025-12-28T18:12:16.574Z",
      "updatedAt": "2025-12-28T18:12:16.574Z",
      "stateName": "Pernambuco",
      "countryName": "Brazil"
    },
    {
      "id": 2504,
      "stateId": 345,
      "name": "Agua Prieta",
      "latitude": "31.3307100",
      "longitude": "-109.5487600",
      "createdAt": "2025-12-28T18:12:18.486Z",
      "updatedAt": "2025-12-28T18:12:18.486Z",
      "stateName": "Sonora",
      "countryName": "Mexico"
    },
    {
      "id": 2515,
      "stateId": 257,
      "name": "Aguaray",
      "latitude": null,
      "longitude": null,
      "createdAt": "2025-12-28T18:12:19.442Z",
      "updatedAt": "2025-12-28T18:12:19.442Z",
      "stateName": "Salta",
      "countryName": "Argentina"
    },
    {
      "id": 2433,
      "stateId": 7,
      "name": "Aguas Belas",
      "latitude": null,
      "longitude": null,
      "createdAt": "2025-12-28T18:12:13.421Z",
      "updatedAt": "2025-12-28T18:12:13.421Z",
      "stateName": "Pernambuco",
      "countryName": "Brazil"
    },
    {
      "id": 532,
      "stateId": 252,
      "name": "Aguascalientes",
      "latitude": "21.8823400",
      "longitude": "-102.2825900",
      "createdAt": "2025-12-28T17:01:03.275Z",
      "updatedAt": "2025-12-28T17:01:03.275Z",
      "stateName": "Aguascalientes",
      "countryName": "Mexico"
    },
    {
      "id": 562,
      "stateId": 4,
      "name": "Águas da Prata",
      "latitude": null,
      "longitude": null,
      "createdAt": "2025-12-28T17:01:06.681Z",
      "updatedAt": "2025-12-28T17:01:06.681Z",
      "stateName": "São Paulo",
      "countryName": "Brazil"
    },
    {
      "id": 2505,
      "stateId": 4,
      "name": "Águas de Lindóia",
      "latitude": null,
      "longitude": null,
      "createdAt": "2025-12-28T18:12:18.561Z",
      "updatedAt": "2025-12-28T18:12:18.561Z",
      "stateName": "São Paulo",
      "countryName": "Brazil"
    },
    {
      "id": 2511,
      "stateId": 95,
      "name": "Águas Formosas",
      "latitude": null,
      "longitude": null,
      "createdAt": "2025-12-28T18:12:19.050Z",
      "updatedAt": "2025-12-28T18:12:19.050Z",
      "stateName": "Minas Gerais",
      "countryName": "Brazil"
    },
    {
      "id": 2486,
      "stateId": 253,
      "name": "Aguas Lindas de Goiás",
      "latitude": null,
      "longitude": null,
      "createdAt": "2025-12-28T18:12:17.099Z",
      "updatedAt": "2025-12-28T18:12:17.099Z",
      "stateName": "Goiás",
      "countryName": "Brazil"
    },
    {
      "id": 1831,
      "stateId": 528,
      "name": "Aguaytía",
      "latitude": null,
      "longitude": null,
      "createdAt": "2025-12-28T18:10:15.983Z",
      "updatedAt": "2025-12-28T18:10:15.983Z",
      "stateName": "Padre Abad",
      "countryName": "Peru"
    },
    {
      "id": 1566,
      "stateId": 490,
      "name": "Aguazul",
      "latitude": null,
      "longitude": null,
      "createdAt": "2025-12-28T17:04:44.619Z",
      "updatedAt": "2025-12-28T17:04:44.619Z",
      "stateName": "Casanare",
      "countryName": "Colombia"
    },
    {
      "id": 2430,
      "stateId": 205,
      "name": "Agudo",
      "latitude": null,
      "longitude": null,
      "createdAt": "2025-12-28T18:12:13.145Z",
      "updatedAt": "2025-12-28T18:12:13.145Z",
      "stateName": "Rio Grande do Sul",
      "countryName": "Brazil"
    },
    {
      "id": 2464,
      "stateId": 4,
      "name": "Agudos",
      "latitude": "-22.4691700",
      "longitude": "-48.9875000",
      "createdAt": "2025-12-28T18:12:15.668Z",
      "updatedAt": "2025-12-28T18:12:15.668Z",
      "stateName": "São Paulo",
      "countryName": "Brazil"
    },
    {
      "id": 1429,
      "stateId": 137,
      "name": "Agudos do Sul",
      "latitude": "-17.4339069",
      "longitude": "-45.8426650",
      "createdAt": "2025-12-28T17:04:30.289Z",
      "updatedAt": "2025-12-28T17:04:30.289Z",
      "stateName": "Paraná",
      "countryName": "Brazil"
    },
    {
      "id": 2494,
      "stateId": 603,
      "name": "Aguilar de Campoo",
      "latitude": null,
      "longitude": null,
      "createdAt": "2025-12-28T18:12:17.691Z",
      "updatedAt": "2025-12-28T18:12:17.691Z",
      "stateName": "Palencia",
      "countryName": "Spain"
    },
    {
      "id": 2518,
      "stateId": 243,
      "name": "Aguilares",
      "latitude": null,
      "longitude": null,
      "createdAt": "2025-12-28T18:12:19.789Z",
      "updatedAt": "2025-12-28T18:12:19.789Z",
      "stateName": "San Salvador",
      "countryName": "El Salvador"
    },
    {
      "id": 2525,
      "stateId": 307,
      "name": "Aguilares",
      "latitude": "-27.4338000",
      "longitude": "-65.6142700",
      "createdAt": "2025-12-28T18:12:20.297Z",
      "updatedAt": "2025-12-28T18:12:20.297Z",
      "stateName": "Tucumán",
      "countryName": "Argentina"
    },
    {
      "id": 2441,
      "stateId": 218,
      "name": "Águilas",
      "latitude": "37.4063000",
      "longitude": "-1.5828900",
      "createdAt": "2025-12-28T18:12:13.852Z",
      "updatedAt": "2025-12-28T18:12:13.852Z",
      "stateName": "Murcia",
      "countryName": "Spain"
    },
    {
      "id": 2519,
      "stateId": 604,
      "name": "Agüimes",
      "latitude": null,
      "longitude": null,
      "createdAt": "2025-12-28T18:12:19.833Z",
      "updatedAt": "2025-12-28T18:12:19.833Z",
      "stateName": "Las Palmas",
      "countryName": "Spain"
    },
    {
      "id": 2521,
      "stateId": 327,
      "name": "Agustín Codazzi",
      "latitude": null,
      "longitude": null,
      "createdAt": "2025-12-28T18:12:19.975Z",
      "updatedAt": "2025-12-28T18:12:19.975Z",
      "stateName": "Cesar",
      "countryName": "Colombia"
    },
    {
      "id": 2592,
      "stateId": 614,
      "name": "Åheim",
      "latitude": "61.1229964",
      "longitude": "9.8057761",
      "createdAt": "2025-12-28T18:12:30.156Z",
      "updatedAt": "2025-12-28T18:12:30.156Z",
      "stateName": "Møre og Romsdal",
      "countryName": "Norway"
    },
    {
      "id": 2591,
      "stateId": 432,
      "name": "Ahlen",
      "latitude": "51.7633800",
      "longitude": "7.8887000",
      "createdAt": "2025-12-28T18:12:30.119Z",
      "updatedAt": "2025-12-28T18:12:30.119Z",
      "stateName": "North Rhine-Westphalia",
      "countryName": "Germany"
    },
    {
      "id": 2588,
      "stateId": 283,
      "name": "Ahmedabad",
      "latitude": "23.0257900",
      "longitude": "72.5872700",
      "createdAt": "2025-12-28T18:12:29.795Z",
      "updatedAt": "2025-12-28T18:12:29.795Z",
      "stateName": "Gujarat",
      "countryName": "India"
    },
    {
      "id": 2582,
      "stateId": 54,
      "name": "Ahmednagar",
      "latitude": "21.6224148",
      "longitude": "79.1259549",
      "createdAt": "2025-12-28T18:12:28.849Z",
      "updatedAt": "2025-12-28T18:12:28.849Z",
      "stateName": "Maharashtra",
      "countryName": "India"
    },
    {
      "id": 2589,
      "stateId": 55,
      "name": "Ahoskie",
      "latitude": "37.8034989",
      "longitude": "-92.5169818",
      "createdAt": "2025-12-28T18:12:30.005Z",
      "updatedAt": "2025-12-28T18:12:30.005Z",
      "stateName": "North Carolina",
      "countryName": "United States"
    },
    {
      "id": 2590,
      "stateId": 99,
      "name": "Ahualulco de Mercado",
      "latitude": null,
      "longitude": null,
      "createdAt": "2025-12-28T18:12:30.045Z",
      "updatedAt": "2025-12-28T18:12:30.045Z",
      "stateName": "Jalisco",
      "countryName": "Mexico"
    },
    {
      "id": 2812,
      "stateId": 34,
      "name": "Aichach",
      "latitude": "48.4575500",
      "longitude": "11.1341300",
      "createdAt": "2025-12-28T18:12:46.977Z",
      "updatedAt": "2025-12-28T18:12:46.977Z",
      "stateName": "Bavaria",
      "countryName": "Germany"
    },
    {
      "id": 17810,
      "stateId": 128,
      "name": "Aiea",
      "latitude": "37.8034989",
      "longitude": "-92.5169818",
      "createdAt": "2026-03-03T02:31:07.718Z",
      "updatedAt": "2026-03-03T02:31:07.718Z",
      "stateName": "Hawaii",
      "countryName": "United States"
    },
    {
      "id": 2819,
      "stateId": 150,
      "name": "Aigio",
      "latitude": null,
      "longitude": null,
      "createdAt": "2025-12-28T18:12:47.165Z",
      "updatedAt": "2025-12-28T18:12:47.165Z",
      "stateName": "Western Greece",
      "countryName": "Greece"
    },
    {
      "id": 343,
      "stateId": 145,
      "name": "Aiken",
      "latitude": "33.5604200",
      "longitude": "-81.7195500",
      "createdAt": "2025-12-28T16:56:42.742Z",
      "updatedAt": "2025-12-28T16:56:42.742Z",
      "stateName": "South Carolina",
      "countryName": "United States"
    },
    {
      "id": 3884,
      "stateId": 417,
      "name": "A Illa de Arousa",
      "latitude": null,
      "longitude": null,
      "createdAt": "2025-12-28T18:15:33.810Z",
      "updatedAt": "2025-12-28T18:15:33.810Z",
      "stateName": "Pontevedra",
      "countryName": "Spain"
    },
    {
      "id": 438,
      "stateId": 214,
      "name": "Aime-la-Plagne",
      "latitude": null,
      "longitude": null,
      "createdAt": "2025-12-28T17:00:50.206Z",
      "updatedAt": "2025-12-28T17:00:50.206Z",
      "stateName": "Haute-Savoie",
      "countryName": "France"
    },
    {
      "id": 2872,
      "stateId": 95,
      "name": "Aimorés",
      "latitude": null,
      "longitude": null,
      "createdAt": "2025-12-28T18:12:56.070Z",
      "updatedAt": "2025-12-28T18:12:56.070Z",
      "stateName": "Minas Gerais",
      "countryName": "Brazil"
    },
    {
      "id": 2732,
      "stateId": 631,
      "name": "Aínsa",
      "latitude": null,
      "longitude": null,
      "createdAt": "2025-12-28T18:12:42.794Z",
      "updatedAt": "2025-12-28T18:12:42.794Z",
      "stateName": "Huesca",
      "countryName": "Spain"
    },
    {
      "id": 10734,
      "stateId": 73,
      "name": "Ainsworth",
      "latitude": "37.8034989",
      "longitude": "-92.5169818",
      "createdAt": "2025-12-28T18:57:02.114Z",
      "updatedAt": "2025-12-28T18:57:02.114Z",
      "stateName": "Nebraska",
      "countryName": "United States"
    },
    {
      "id": 2677,
      "stateId": 242,
      "name": "Aiquile",
      "latitude": null,
      "longitude": null,
      "createdAt": "2025-12-28T18:12:40.091Z",
      "updatedAt": "2025-12-28T18:12:40.091Z",
      "stateName": "Cercado",
      "countryName": "Bolivia"
    },
    {
      "id": 2737,
      "stateId": 124,
      "name": "Airdrie",
      "latitude": "51.3001100",
      "longitude": "-114.0352800",
      "createdAt": "2025-12-28T18:12:43.029Z",
      "updatedAt": "2025-12-28T18:12:43.029Z",
      "stateName": "Alberta",
      "countryName": "Canada"
    },
    {
      "id": 4472,
      "stateId": 74,
      "name": "Airlie Beach",
      "latitude": null,
      "longitude": null,
      "createdAt": "2025-12-28T18:17:41.914Z",
      "updatedAt": "2025-12-28T18:17:41.914Z",
      "stateName": "Queensland",
      "countryName": "Australia"
    },
    {
      "id": 14815,
      "stateId": 753,
      "name": "Airvault",
      "latitude": "47.3768156",
      "longitude": "2.7742767",
      "createdAt": "2025-12-28T19:48:59.513Z",
      "updatedAt": "2025-12-28T19:48:59.513Z",
      "stateName": "Poitou-Charentes",
      "countryName": "France"
    },
    {
      "id": 2861,
      "stateId": 42,
      "name": "Airway Heights",
      "latitude": null,
      "longitude": null,
      "createdAt": "2025-12-28T18:12:54.106Z",
      "updatedAt": "2025-12-28T18:12:54.106Z",
      "stateName": "Washington",
      "countryName": "United States"
    },
    {
      "id": 2862,
      "stateId": 34,
      "name": "Aiterhofen",
      "latitude": null,
      "longitude": null,
      "createdAt": "2025-12-28T18:12:54.346Z",
      "updatedAt": "2025-12-28T18:12:54.346Z",
      "stateName": "Bavaria",
      "countryName": "Germany"
    },
    {
      "id": 9552,
      "stateId": 17,
      "name": "Aitern",
      "latitude": "50.9385735",
      "longitude": "9.5583023",
      "createdAt": "2025-12-28T18:45:13.533Z",
      "updatedAt": "2025-12-28T18:45:13.533Z",
      "stateName": "Baden-Württemberg",
      "countryName": "Germany"
    },
    {
      "id": 2916,
      "stateId": 49,
      "name": "Aitkin",
      "latitude": "37.8034989",
      "longitude": "-92.5169818",
      "createdAt": "2025-12-28T18:13:00.348Z",
      "updatedAt": "2025-12-28T18:13:00.348Z",
      "stateName": "Minnesota",
      "countryName": "United States"
    },
    {
      "id": 14844,
      "stateId": 34,
      "name": "Aitrang",
      "latitude": "50.9385735",
      "longitude": "9.5583023",
      "createdAt": "2025-12-28T19:49:37.784Z",
      "updatedAt": "2025-12-28T19:49:37.784Z",
      "stateName": "Bavaria",
      "countryName": "Germany"
    },
    {
      "id": 2757,
      "stateId": 231,
      "name": "Aiuaba",
      "latitude": null,
      "longitude": null,
      "createdAt": "2025-12-28T18:12:44.354Z",
      "updatedAt": "2025-12-28T18:12:44.354Z",
      "stateName": "Ceará",
      "countryName": "Brazil"
    },
    {
      "id": 9287,
      "stateId": 95,
      "name": "Aiuruoca",
      "latitude": "-17.4339069",
      "longitude": "-45.8426650",
      "createdAt": "2025-12-28T18:43:16.714Z",
      "updatedAt": "2025-12-28T18:43:16.714Z",
      "stateName": "Minas Gerais",
      "countryName": "Brazil"
    },
    {
      "id": 2775,
      "stateId": 37,
      "name": "Aix-en-Provence",
      "latitude": "43.5283000",
      "longitude": "5.4497300",
      "createdAt": "2025-12-28T18:12:45.555Z",
      "updatedAt": "2025-12-28T18:12:45.555Z",
      "stateName": "Provence-Alpes-Côte d'Azur",
      "countryName": "France"
    },
    {
      "id": 2808,
      "stateId": 201,
      "name": "Aix-les-Bains",
      "latitude": "45.6833800",
      "longitude": "5.9224100",
      "createdAt": "2025-12-28T18:12:46.749Z",
      "updatedAt": "2025-12-28T18:12:46.749Z",
      "stateName": "Auvergne-Rhône-Alpes",
      "countryName": "France"
    },
    {
      "id": 2690,
      "stateId": 624,
      "name": "Aizawl",
      "latitude": "23.7289400",
      "longitude": "92.7179100",
      "createdAt": "2025-12-28T18:12:40.531Z",
      "updatedAt": "2025-12-28T18:12:40.531Z",
      "stateName": "Mizoram",
      "countryName": "India"
    }
  ],
  "meta": {
    "page": 2,
    "limit": 100,
    "total": 18002,
    "totalPages": 181
  }
}
