{
  "source": "50k-radio-stations",
  "provider": "rapidapi",
  "syncedAt": "2026-06-03T13:04:42.987Z",
  "endpoint": "/cities",
  "page": 52,
  "limit": 250,
  "data": [
    {
      "id": 7141,
      "stateId": 812,
      "name": "Ennis",
      "latitude": "53.2279803",
      "longitude": "-7.0798575",
      "createdAt": "2025-12-28T18:28:28.151Z",
      "updatedAt": "2025-12-28T18:28:28.151Z",
      "stateName": "County Clare",
      "countryName": "Ireland"
    },
    {
      "id": 10939,
      "stateId": 14,
      "name": "Enon",
      "latitude": "37.8034989",
      "longitude": "-92.5169818",
      "createdAt": "2025-12-28T18:59:36.036Z",
      "updatedAt": "2025-12-28T18:59:36.036Z",
      "stateName": "Ohio",
      "countryName": "United States"
    },
    {
      "id": 472,
      "stateId": 220,
      "name": "Enschede",
      "latitude": "52.2183300",
      "longitude": "6.8958300",
      "createdAt": "2025-12-28T17:00:52.345Z",
      "updatedAt": "2025-12-28T17:00:52.345Z",
      "stateName": "Overijssel",
      "countryName": "Netherlands"
    },
    {
      "id": 10264,
      "stateId": 58,
      "name": "Ensenada",
      "latitude": null,
      "longitude": null,
      "createdAt": "2025-12-28T18:51:27.696Z",
      "updatedAt": "2025-12-28T18:51:27.696Z",
      "stateName": "Buenos Aires",
      "countryName": "Argentina"
    },
    {
      "id": 442,
      "stateId": 216,
      "name": "Ensenada",
      "latitude": "31.8661300",
      "longitude": "-116.5997200",
      "createdAt": "2025-12-28T17:00:50.569Z",
      "updatedAt": "2025-12-28T17:00:50.569Z",
      "stateName": "Baja California Norte",
      "countryName": "Mexico"
    },
    {
      "id": 6012,
      "stateId": 116,
      "name": "Entebbe",
      "latitude": null,
      "longitude": null,
      "createdAt": "2025-12-28T18:22:50.781Z",
      "updatedAt": "2025-12-28T18:22:50.781Z",
      "stateName": "Central Region",
      "countryName": "Uganda"
    },
    {
      "id": 18198,
      "stateId": 15,
      "name": "Enterprise",
      "latitude": null,
      "longitude": null,
      "createdAt": "2026-04-20T14:04:25.611Z",
      "updatedAt": "2026-04-20T14:04:25.611Z",
      "stateName": "Nevada",
      "countryName": "United States"
    },
    {
      "id": 9262,
      "stateId": 122,
      "name": "Enterprise",
      "latitude": "31.3151700",
      "longitude": "-85.8552200",
      "createdAt": "2025-12-28T18:42:55.263Z",
      "updatedAt": "2025-12-28T18:42:55.263Z",
      "stateName": "Alabama",
      "countryName": "United States"
    },
    {
      "id": 12403,
      "stateId": 31,
      "name": "Enterprise",
      "latitude": null,
      "longitude": null,
      "createdAt": "2025-12-28T19:15:44.091Z",
      "updatedAt": "2025-12-28T19:15:44.091Z",
      "stateName": "Kansas",
      "countryName": "United States"
    },
    {
      "id": 12532,
      "stateId": 81,
      "name": "Enterprise",
      "latitude": "36.0252500",
      "longitude": "-115.2419400",
      "createdAt": "2025-12-28T19:16:26.605Z",
      "updatedAt": "2025-12-28T19:16:26.605Z",
      "stateName": "Oregon",
      "countryName": "United States"
    },
    {
      "id": 9166,
      "stateId": 745,
      "name": "Entikong",
      "latitude": null,
      "longitude": null,
      "createdAt": "2025-12-28T18:42:18.407Z",
      "updatedAt": "2025-12-28T18:42:18.407Z",
      "stateName": "West Kalimantan",
      "countryName": "Indonesia"
    },
    {
      "id": 4667,
      "stateId": 37,
      "name": "Entraigues-sur-la-Sorgue",
      "latitude": null,
      "longitude": null,
      "createdAt": "2025-12-28T18:18:17.179Z",
      "updatedAt": "2025-12-28T18:18:17.179Z",
      "stateName": "Provence-Alpes-Côte d'Azur",
      "countryName": "France"
    },
    {
      "id": 4081,
      "stateId": 205,
      "name": "Entre-Ijuís",
      "latitude": null,
      "longitude": null,
      "createdAt": "2025-12-28T18:16:10.011Z",
      "updatedAt": "2025-12-28T18:16:10.011Z",
      "stateName": "Rio Grande do Sul",
      "countryName": "Brazil"
    },
    {
      "id": 17113,
      "stateId": 262,
      "name": "Entre Rios",
      "latitude": null,
      "longitude": null,
      "createdAt": "2025-12-29T15:32:00.971Z",
      "updatedAt": "2025-12-29T15:32:00.971Z",
      "stateName": "Bahia",
      "countryName": "Brazil"
    },
    {
      "id": 16035,
      "stateId": 242,
      "name": "Entre Ríos",
      "latitude": "-17.6222411",
      "longitude": "-65.0567493",
      "createdAt": "2025-12-28T20:27:45.211Z",
      "updatedAt": "2025-12-28T20:27:45.211Z",
      "stateName": "Cercado",
      "countryName": "Bolivia"
    },
    {
      "id": 9167,
      "stateId": 281,
      "name": "Entre Ríos",
      "latitude": null,
      "longitude": null,
      "createdAt": "2025-12-28T18:42:18.635Z",
      "updatedAt": "2025-12-28T18:42:18.635Z",
      "stateName": "Tarija",
      "countryName": "Bolivia"
    },
    {
      "id": 17945,
      "stateId": 95,
      "name": "Entre Rios de Minas",
      "latitude": null,
      "longitude": null,
      "createdAt": "2026-03-17T04:53:50.975Z",
      "updatedAt": "2026-03-17T04:53:50.975Z",
      "stateName": "Minas Gerais",
      "countryName": "Brazil"
    },
    {
      "id": 9343,
      "stateId": 181,
      "name": "Entrerríos",
      "latitude": null,
      "longitude": null,
      "createdAt": "2025-12-28T18:43:52.308Z",
      "updatedAt": "2025-12-28T18:43:52.308Z",
      "stateName": "Antioquia",
      "countryName": "Colombia"
    },
    {
      "id": 9161,
      "stateId": 77,
      "name": "Enugu",
      "latitude": "6.4413200",
      "longitude": "7.4988300",
      "createdAt": "2025-12-28T18:42:13.546Z",
      "updatedAt": "2025-12-28T18:42:13.546Z",
      "stateName": "Katsina State",
      "countryName": "Nigeria"
    },
    {
      "id": 12677,
      "stateId": 42,
      "name": "Enumclaw",
      "latitude": "37.8034989",
      "longitude": "-92.5169818",
      "createdAt": "2025-12-28T19:17:25.753Z",
      "updatedAt": "2025-12-28T19:17:25.753Z",
      "stateName": "Washington",
      "countryName": "United States"
    },
    {
      "id": 1516,
      "stateId": 181,
      "name": "Envigado",
      "latitude": null,
      "longitude": null,
      "createdAt": "2025-12-28T17:04:38.071Z",
      "updatedAt": "2025-12-28T17:04:38.071Z",
      "stateName": "Antioquia",
      "countryName": "Colombia"
    },
    {
      "id": 8752,
      "stateId": 1051,
      "name": "Enying",
      "latitude": null,
      "longitude": null,
      "createdAt": "2025-12-28T18:40:03.207Z",
      "updatedAt": "2025-12-28T18:40:03.207Z",
      "stateName": "Fejér",
      "countryName": "Hungary"
    },
    {
      "id": 9264,
      "stateId": 112,
      "name": "Eolia",
      "latitude": null,
      "longitude": null,
      "createdAt": "2025-12-28T18:43:01.012Z",
      "updatedAt": "2025-12-28T18:43:01.012Z",
      "stateName": "Missouri",
      "countryName": "United States"
    },
    {
      "id": 9272,
      "stateId": 213,
      "name": "Epe",
      "latitude": null,
      "longitude": null,
      "createdAt": "2025-12-28T18:43:09.053Z",
      "updatedAt": "2025-12-28T18:43:09.053Z",
      "stateName": "Gelderland",
      "countryName": "Netherlands"
    },
    {
      "id": 9270,
      "stateId": 77,
      "name": "Epe",
      "latitude": null,
      "longitude": null,
      "createdAt": "2025-12-28T18:43:08.575Z",
      "updatedAt": "2025-12-28T18:43:08.575Z",
      "stateName": "Katsina State",
      "countryName": "Nigeria"
    },
    {
      "id": 18473,
      "stateId": 536,
      "name": "Épernay",
      "latitude": "49.0500000",
      "longitude": "3.9500000",
      "createdAt": "2026-06-01T20:23:06.202Z",
      "updatedAt": "2026-06-01T20:23:06.202Z",
      "stateName": "Grand Est",
      "countryName": "France"
    },
    {
      "id": 9271,
      "stateId": 8,
      "name": "Ephraim",
      "latitude": "37.8034989",
      "longitude": "-92.5169818",
      "createdAt": "2025-12-28T18:43:09.014Z",
      "updatedAt": "2025-12-28T18:43:09.014Z",
      "stateName": "Wisconsin",
      "countryName": "United States"
    },
    {
      "id": 3287,
      "stateId": 42,
      "name": "Ephrata",
      "latitude": "37.8034989",
      "longitude": "-92.5169818",
      "createdAt": "2025-12-28T18:14:10.020Z",
      "updatedAt": "2025-12-28T18:14:10.020Z",
      "stateName": "Washington",
      "countryName": "United States"
    },
    {
      "id": 7783,
      "stateId": 68,
      "name": "Ephrata",
      "latitude": "37.8034989",
      "longitude": "-92.5169818",
      "createdAt": "2025-12-28T18:31:43.648Z",
      "updatedAt": "2025-12-28T18:31:43.648Z",
      "stateName": "Pennsylvania",
      "countryName": "United States"
    },
    {
      "id": 7552,
      "stateId": 711,
      "name": "Épinal",
      "latitude": "48.1833300",
      "longitude": "6.4500000",
      "createdAt": "2025-12-28T18:30:36.867Z",
      "updatedAt": "2025-12-28T18:30:36.867Z",
      "stateName": "Lorraine",
      "countryName": "France"
    },
    {
      "id": 8817,
      "stateId": 680,
      "name": "Epiniana",
      "latitude": "38.6555720",
      "longitude": "23.4057215",
      "createdAt": "2025-12-28T18:40:30.904Z",
      "updatedAt": "2025-12-28T18:40:30.904Z",
      "stateName": "Central Greece",
      "countryName": "Greece"
    },
    {
      "id": 1997,
      "stateId": 397,
      "name": "Epitaciolândia",
      "latitude": null,
      "longitude": null,
      "createdAt": "2025-12-28T18:10:37.969Z",
      "updatedAt": "2025-12-28T18:10:37.969Z",
      "stateName": "Acre",
      "countryName": "Brazil"
    },
    {
      "id": 7176,
      "stateId": 2,
      "name": "Epping",
      "latitude": null,
      "longitude": null,
      "createdAt": "2025-12-28T18:28:40.861Z",
      "updatedAt": "2025-12-28T18:28:40.861Z",
      "stateName": "England",
      "countryName": "United Kingdom"
    },
    {
      "id": 9242,
      "stateId": 84,
      "name": "Eppstein",
      "latitude": "50.9385735",
      "longitude": "9.5583023",
      "createdAt": "2025-12-28T18:42:42.549Z",
      "updatedAt": "2025-12-28T18:42:42.549Z",
      "stateName": "Hesse",
      "countryName": "Germany"
    },
    {
      "id": 9269,
      "stateId": 113,
      "name": "Epworth",
      "latitude": null,
      "longitude": null,
      "createdAt": "2025-12-28T18:43:08.270Z",
      "updatedAt": "2025-12-28T18:43:08.270Z",
      "stateName": "Iowa",
      "countryName": "United States"
    },
    {
      "id": 9308,
      "stateId": 16,
      "name": "Erath",
      "latitude": "37.8034989",
      "longitude": "-92.5169818",
      "createdAt": "2025-12-28T18:43:28.505Z",
      "updatedAt": "2025-12-28T18:43:28.505Z",
      "stateName": "Louisiana",
      "countryName": "United States"
    },
    {
      "id": 4182,
      "stateId": 316,
      "name": "Eraviperoor",
      "latitude": null,
      "longitude": null,
      "createdAt": "2025-12-28T18:16:30.273Z",
      "updatedAt": "2025-12-28T18:16:30.273Z",
      "stateName": "Kerala",
      "countryName": "India"
    },
    {
      "id": 519,
      "stateId": 98,
      "name": "Erba",
      "latitude": "45.8088000",
      "longitude": "9.2260900",
      "createdAt": "2025-12-28T17:01:00.129Z",
      "updatedAt": "2025-12-28T17:01:00.129Z",
      "stateName": "Lombardy",
      "countryName": "Italy"
    },
    {
      "id": 9293,
      "stateId": 1096,
      "name": "Erbaa",
      "latitude": "40.6688900",
      "longitude": "36.5675000",
      "createdAt": "2025-12-28T18:43:19.643Z",
      "updatedAt": "2025-12-28T18:43:19.643Z",
      "stateName": "Tokat",
      "countryName": "Turkey"
    },
    {
      "id": 9301,
      "stateId": 108,
      "name": "Ercolano",
      "latitude": "40.8138000",
      "longitude": "14.3638200",
      "createdAt": "2025-12-28T18:43:23.726Z",
      "updatedAt": "2025-12-28T18:43:23.726Z",
      "stateName": "Campania",
      "countryName": "Italy"
    },
    {
      "id": 9307,
      "stateId": 34,
      "name": "Erding",
      "latitude": "48.3060300",
      "longitude": "11.9068600",
      "createdAt": "2025-12-28T18:43:27.459Z",
      "updatedAt": "2025-12-28T18:43:27.459Z",
      "stateName": "Bavaria",
      "countryName": "Germany"
    },
    {
      "id": 812,
      "stateId": 205,
      "name": "Erechim",
      "latitude": "-27.6346100",
      "longitude": "-52.2754000",
      "createdAt": "2025-12-28T17:02:20.281Z",
      "updatedAt": "2025-12-28T17:02:20.281Z",
      "stateName": "Rio Grande do Sul",
      "countryName": "Brazil"
    },
    {
      "id": 9299,
      "stateId": 1098,
      "name": "Ereğli",
      "latitude": null,
      "longitude": null,
      "createdAt": "2025-12-28T18:43:22.104Z",
      "updatedAt": "2025-12-28T18:43:22.104Z",
      "stateName": "Konya",
      "countryName": "Turkey"
    },
    {
      "id": 9298,
      "stateId": 34,
      "name": "Eresing",
      "latitude": null,
      "longitude": null,
      "createdAt": "2025-12-28T18:43:20.881Z",
      "updatedAt": "2025-12-28T18:43:20.881Z",
      "stateName": "Bavaria",
      "countryName": "Germany"
    },
    {
      "id": 9018,
      "stateId": 680,
      "name": "Eretria",
      "latitude": "38.6555720",
      "longitude": "23.4057215",
      "createdAt": "2025-12-28T18:41:33.576Z",
      "updatedAt": "2025-12-28T18:41:33.576Z",
      "stateName": "Central Greece",
      "countryName": "Greece"
    },
    {
      "id": 9310,
      "stateId": 432,
      "name": "Erftstadt",
      "latitude": "50.8148100",
      "longitude": "6.7938700",
      "createdAt": "2025-12-28T18:43:28.684Z",
      "updatedAt": "2025-12-28T18:43:28.684Z",
      "stateName": "North Rhine-Westphalia",
      "countryName": "Germany"
    },
    {
      "id": 2267,
      "stateId": 578,
      "name": "Erfurt",
      "latitude": "50.9787000",
      "longitude": "11.0328300",
      "createdAt": "2025-12-28T18:11:28.989Z",
      "updatedAt": "2025-12-28T18:11:28.989Z",
      "stateName": "Thuringia",
      "countryName": "Germany"
    },
    {
      "id": 8339,
      "stateId": 226,
      "name": "Erica",
      "latitude": "52.0575321",
      "longitude": "5.3403480",
      "createdAt": "2025-12-28T18:37:25.351Z",
      "updatedAt": "2025-12-28T18:37:25.351Z",
      "stateName": "Drenthe",
      "countryName": "Netherlands"
    },
    {
      "id": 117,
      "stateId": 68,
      "name": "Erie",
      "latitude": "42.1292200",
      "longitude": "-80.0850600",
      "createdAt": "2025-12-28T16:56:25.136Z",
      "updatedAt": "2025-12-28T16:56:25.136Z",
      "stateName": "Pennsylvania",
      "countryName": "United States"
    },
    {
      "id": 1285,
      "stateId": 46,
      "name": "Erie",
      "latitude": null,
      "longitude": null,
      "createdAt": "2025-12-28T17:03:30.726Z",
      "updatedAt": "2025-12-28T17:03:30.726Z",
      "stateName": "Illinois",
      "countryName": "United States"
    },
    {
      "id": 9302,
      "stateId": 6,
      "name": "Erieville",
      "latitude": "37.8034989",
      "longitude": "-92.5169818",
      "createdAt": "2025-12-28T18:43:25.158Z",
      "updatedAt": "2025-12-28T18:43:25.158Z",
      "stateName": "New York",
      "countryName": "United States"
    },
    {
      "id": 9290,
      "stateId": 41,
      "name": "Erin",
      "latitude": "43.9001200",
      "longitude": "-79.1328900",
      "createdAt": "2025-12-28T18:43:18.089Z",
      "updatedAt": "2025-12-28T18:43:18.089Z",
      "stateName": "Ontario",
      "countryName": "Canada"
    },
    {
      "id": 4417,
      "stateId": 19,
      "name": "Erina",
      "latitude": null,
      "longitude": null,
      "createdAt": "2025-12-28T18:17:28.561Z",
      "updatedAt": "2025-12-28T18:17:28.561Z",
      "stateName": "New South Wales",
      "countryName": "Australia"
    },
    {
      "id": 9309,
      "stateId": 432,
      "name": "Erkelenz",
      "latitude": null,
      "longitude": null,
      "createdAt": "2025-12-28T18:43:28.647Z",
      "updatedAt": "2025-12-28T18:43:28.647Z",
      "stateName": "North Rhine-Westphalia",
      "countryName": "Germany"
    },
    {
      "id": 45,
      "stateId": 34,
      "name": "Erlangen",
      "latitude": "49.5909900",
      "longitude": "11.0078300",
      "createdAt": "2025-12-28T16:36:33.260Z",
      "updatedAt": "2025-12-28T16:36:33.260Z",
      "stateName": "Bavaria",
      "countryName": "Germany"
    },
    {
      "id": 9300,
      "stateId": 80,
      "name": "Erlanger",
      "latitude": "39.0167300",
      "longitude": "-84.6007800",
      "createdAt": "2025-12-28T18:43:23.180Z",
      "updatedAt": "2025-12-28T18:43:23.180Z",
      "stateName": "Kentucky",
      "countryName": "United States"
    },
    {
      "id": 9311,
      "stateId": 34,
      "name": "Erlenbach am Main",
      "latitude": "50.9385735",
      "longitude": "9.5583023",
      "createdAt": "2025-12-28T18:43:28.792Z",
      "updatedAt": "2025-12-28T18:43:28.792Z",
      "stateName": "Bavaria",
      "countryName": "Germany"
    },
    {
      "id": 2352,
      "stateId": 28,
      "name": "Ermelo",
      "latitude": null,
      "longitude": null,
      "createdAt": "2025-12-28T18:11:53.411Z",
      "updatedAt": "2025-12-28T18:11:53.411Z",
      "stateName": "Mpumalanga",
      "countryName": "South Africa"
    },
    {
      "id": 6704,
      "stateId": 316,
      "name": "Ernakulam",
      "latitude": null,
      "longitude": null,
      "createdAt": "2025-12-28T18:26:42.416Z",
      "updatedAt": "2025-12-28T18:26:42.416Z",
      "stateName": "Kerala",
      "countryName": "India"
    },
    {
      "id": 9306,
      "stateId": 432,
      "name": "Erndtebrück",
      "latitude": null,
      "longitude": null,
      "createdAt": "2025-12-28T18:43:26.927Z",
      "updatedAt": "2025-12-28T18:43:26.927Z",
      "stateName": "North Rhine-Westphalia",
      "countryName": "Germany"
    },
    {
      "id": 6370,
      "stateId": 205,
      "name": "Ernestina",
      "latitude": null,
      "longitude": null,
      "createdAt": "2025-12-28T18:24:54.972Z",
      "updatedAt": "2025-12-28T18:24:54.972Z",
      "stateName": "Rio Grande do Sul",
      "countryName": "Brazil"
    },
    {
      "id": 1604,
      "stateId": 378,
      "name": "Erode",
      "latitude": "11.3428000",
      "longitude": "77.7274100",
      "createdAt": "2025-12-28T18:01:38.689Z",
      "updatedAt": "2025-12-28T18:01:38.689Z",
      "stateName": "Tamil Nadu",
      "countryName": "India"
    },
    {
      "id": 9284,
      "stateId": 205,
      "name": "Erval Grande",
      "latitude": null,
      "longitude": null,
      "createdAt": "2025-12-28T18:43:15.928Z",
      "updatedAt": "2025-12-28T18:43:15.928Z",
      "stateName": "Rio Grande do Sul",
      "countryName": "Brazil"
    },
    {
      "id": 9282,
      "stateId": 95,
      "name": "Ervália",
      "latitude": null,
      "longitude": null,
      "createdAt": "2025-12-28T18:43:15.341Z",
      "updatedAt": "2025-12-28T18:43:15.341Z",
      "stateName": "Minas Gerais",
      "countryName": "Brazil"
    },
    {
      "id": 4515,
      "stateId": 205,
      "name": "Erval Seco",
      "latitude": "-17.4339069",
      "longitude": "-45.8426650",
      "createdAt": "2025-12-28T18:17:49.443Z",
      "updatedAt": "2025-12-28T18:17:49.443Z",
      "stateName": "Rio Grande do Sul",
      "countryName": "Brazil"
    },
    {
      "id": 9295,
      "stateId": 293,
      "name": "Erval Velho",
      "latitude": null,
      "longitude": null,
      "createdAt": "2025-12-28T18:43:19.991Z",
      "updatedAt": "2025-12-28T18:43:19.991Z",
      "stateName": "Santa Catarina",
      "countryName": "Brazil"
    },
    {
      "id": 9304,
      "stateId": 21,
      "name": "Erwin",
      "latitude": null,
      "longitude": null,
      "createdAt": "2025-12-28T18:43:26.550Z",
      "updatedAt": "2025-12-28T18:43:26.550Z",
      "stateName": "Tennessee",
      "countryName": "United States"
    },
    {
      "id": 9305,
      "stateId": 16,
      "name": "Erwinville",
      "latitude": "37.8034989",
      "longitude": "-92.5169818",
      "createdAt": "2025-12-28T18:43:26.596Z",
      "updatedAt": "2025-12-28T18:43:26.596Z",
      "stateName": "Louisiana",
      "countryName": "United States"
    },
    {
      "id": 9303,
      "stateId": 1095,
      "name": "Erzurum",
      "latitude": "39.9086100",
      "longitude": "41.2769400",
      "createdAt": "2025-12-28T18:43:26.530Z",
      "updatedAt": "2025-12-28T18:43:26.530Z",
      "stateName": "Erzurum",
      "countryName": "Turkey"
    },
    {
      "id": 9444,
      "stateId": 188,
      "name": "Escacena del Campo",
      "latitude": null,
      "longitude": null,
      "createdAt": "2025-12-28T18:44:15.147Z",
      "updatedAt": "2025-12-28T18:44:15.147Z",
      "stateName": "Huelva",
      "countryName": "Spain"
    },
    {
      "id": 8094,
      "stateId": 7,
      "name": "Escada",
      "latitude": null,
      "longitude": null,
      "createdAt": "2025-12-28T18:35:17.110Z",
      "updatedAt": "2025-12-28T18:35:17.110Z",
      "stateName": "Pernambuco",
      "countryName": "Brazil"
    },
    {
      "id": 10611,
      "stateId": 92,
      "name": "Escanaba",
      "latitude": "37.8034989",
      "longitude": "-92.5169818",
      "createdAt": "2025-12-28T18:55:41.243Z",
      "updatedAt": "2025-12-28T18:55:41.243Z",
      "stateName": "Michigan",
      "countryName": "United States"
    },
    {
      "id": 6160,
      "stateId": 432,
      "name": "Eschweiler",
      "latitude": "50.8185400",
      "longitude": "6.2718400",
      "createdAt": "2025-12-28T18:23:23.235Z",
      "updatedAt": "2025-12-28T18:23:23.235Z",
      "stateName": "North Rhine-Westphalia",
      "countryName": "Germany"
    },
    {
      "id": 9965,
      "stateId": 24,
      "name": "Escondido",
      "latitude": "33.1192100",
      "longitude": "-117.0864200",
      "createdAt": "2025-12-28T18:49:14.507Z",
      "updatedAt": "2025-12-28T18:49:14.507Z",
      "stateName": "California",
      "countryName": "United States"
    },
    {
      "id": 3742,
      "stateId": 239,
      "name": "Escuintla",
      "latitude": "14.3050000",
      "longitude": "-90.7850000",
      "createdAt": "2025-12-28T18:15:09.577Z",
      "updatedAt": "2025-12-28T18:15:09.577Z",
      "stateName": "Baja Verapaz",
      "countryName": "Guatemala"
    },
    {
      "id": 16944,
      "stateId": 212,
      "name": "Esens",
      "latitude": null,
      "longitude": null,
      "createdAt": "2025-12-28T20:59:05.901Z",
      "updatedAt": "2025-12-28T20:59:05.901Z",
      "stateName": "Lower Saxony",
      "countryName": "Germany"
    },
    {
      "id": 13341,
      "stateId": 402,
      "name": "Eshowe",
      "latitude": "-28.4711100",
      "longitude": "27.1943921",
      "createdAt": "2025-12-28T19:23:10.675Z",
      "updatedAt": "2025-12-28T19:23:10.675Z",
      "stateName": "KwaZulu-Natal Prov.",
      "countryName": "South Africa"
    },
    {
      "id": 15738,
      "stateId": 501,
      "name": "Eskilstuna",
      "latitude": "59.3666100",
      "longitude": "16.5077000",
      "createdAt": "2025-12-28T20:16:53.226Z",
      "updatedAt": "2025-12-28T20:16:53.226Z",
      "stateName": "Södermanland",
      "countryName": "Sweden"
    },
    {
      "id": 18211,
      "stateId": 95,
      "name": "Esmeraldas",
      "latitude": null,
      "longitude": null,
      "createdAt": "2026-04-24T17:39:59.532Z",
      "updatedAt": "2026-04-24T17:39:59.532Z",
      "stateName": "Minas Gerais",
      "countryName": "Brazil"
    },
    {
      "id": 1526,
      "stateId": 481,
      "name": "Esnandes",
      "latitude": null,
      "longitude": null,
      "createdAt": "2025-12-28T17:04:39.344Z",
      "updatedAt": "2025-12-28T17:04:39.344Z",
      "stateName": "Nouvelle-Aquitaine",
      "countryName": "France"
    },
    {
      "id": 7013,
      "stateId": 41,
      "name": "Espanola",
      "latitude": null,
      "longitude": null,
      "createdAt": "2025-12-28T18:27:51.009Z",
      "updatedAt": "2025-12-28T18:27:51.009Z",
      "stateName": "Ontario",
      "countryName": "Canada"
    },
    {
      "id": 17,
      "stateId": 18,
      "name": "Espanola",
      "latitude": "37.8034989",
      "longitude": "-92.5169818",
      "createdAt": "2025-12-28T16:36:27.677Z",
      "updatedAt": "2025-12-28T16:36:27.677Z",
      "stateName": "New Mexico",
      "countryName": "United States"
    },
    {
      "id": 12838,
      "stateId": 24,
      "name": "Esparto",
      "latitude": "37.8034989",
      "longitude": "-92.5169818",
      "createdAt": "2025-12-28T19:19:04.807Z",
      "updatedAt": "2025-12-28T19:19:04.807Z",
      "stateName": "California",
      "countryName": "United States"
    },
    {
      "id": 6339,
      "stateId": 95,
      "name": "Espera Feliz",
      "latitude": null,
      "longitude": null,
      "createdAt": "2025-12-28T18:24:47.272Z",
      "updatedAt": "2025-12-28T18:24:47.272Z",
      "stateName": "Minas Gerais",
      "countryName": "Brazil"
    },
    {
      "id": 4708,
      "stateId": 287,
      "name": "Esperança",
      "latitude": null,
      "longitude": null,
      "createdAt": "2025-12-28T18:18:31.220Z",
      "updatedAt": "2025-12-28T18:18:31.220Z",
      "stateName": "Paraíba",
      "countryName": "Brazil"
    },
    {
      "id": 17139,
      "stateId": 44,
      "name": "Esperance",
      "latitude": "-33.9811915",
      "longitude": "144.8351072",
      "createdAt": "2025-12-29T15:38:22.427Z",
      "updatedAt": "2025-12-29T15:38:22.427Z",
      "stateName": "Western Australia",
      "countryName": "Australia"
    },
    {
      "id": 13786,
      "stateId": 174,
      "name": "Esperantina",
      "latitude": null,
      "longitude": null,
      "createdAt": "2025-12-28T19:32:03.720Z",
      "updatedAt": "2025-12-28T19:32:03.720Z",
      "stateName": "Piauí",
      "countryName": "Brazil"
    },
    {
      "id": 13916,
      "stateId": 335,
      "name": "Esperantinópolis",
      "latitude": null,
      "longitude": null,
      "createdAt": "2025-12-28T19:34:49.677Z",
      "updatedAt": "2025-12-28T19:34:49.677Z",
      "stateName": "Maranhão",
      "countryName": "Brazil"
    },
    {
      "id": 6352,
      "stateId": 86,
      "name": "Esperanza",
      "latitude": "-31.4488000",
      "longitude": "-60.9317300",
      "createdAt": "2025-12-28T18:24:51.632Z",
      "updatedAt": "2025-12-28T18:24:51.632Z",
      "stateName": "Santa Fe",
      "countryName": "Argentina"
    },
    {
      "id": 17114,
      "stateId": 1344,
      "name": "Espéraza",
      "latitude": null,
      "longitude": null,
      "createdAt": "2025-12-29T15:32:06.124Z",
      "updatedAt": "2025-12-29T15:32:06.124Z",
      "stateName": "Aude",
      "countryName": "France"
    },
    {
      "id": 13792,
      "stateId": 652,
      "name": "Espigão D'Oeste",
      "latitude": null,
      "longitude": null,
      "createdAt": "2025-12-28T19:32:08.460Z",
      "updatedAt": "2025-12-28T19:32:08.460Z",
      "stateName": "Rondônia",
      "countryName": "Brazil"
    },
    {
      "id": 17025,
      "stateId": 186,
      "name": "Espírito Santo",
      "latitude": null,
      "longitude": null,
      "createdAt": "2025-12-29T15:12:25.054Z",
      "updatedAt": "2025-12-29T15:12:25.054Z",
      "stateName": "Rio Grande do Norte",
      "countryName": "Brazil"
    },
    {
      "id": 7160,
      "stateId": 4,
      "name": "Espírito Santo do Pinhal",
      "latitude": null,
      "longitude": null,
      "createdAt": "2025-12-28T18:28:37.093Z",
      "updatedAt": "2025-12-28T18:28:37.093Z",
      "stateName": "São Paulo",
      "countryName": "Brazil"
    },
    {
      "id": 18298,
      "stateId": 262,
      "name": "Esplanada",
      "latitude": null,
      "longitude": null,
      "createdAt": "2026-05-10T16:31:47.326Z",
      "updatedAt": "2026-05-10T16:31:47.326Z",
      "stateName": "Bahia",
      "countryName": "Brazil"
    },
    {
      "id": 13561,
      "stateId": 115,
      "name": "Esplugues de Llobregat",
      "latitude": null,
      "longitude": null,
      "createdAt": "2025-12-28T19:27:48.396Z",
      "updatedAt": "2025-12-28T19:27:48.396Z",
      "stateName": "Barcelona",
      "countryName": "Spain"
    },
    {
      "id": 1005,
      "stateId": 205,
      "name": "Espumoso",
      "latitude": "-17.4339069",
      "longitude": "-45.8426650",
      "createdAt": "2025-12-28T17:02:33.318Z",
      "updatedAt": "2025-12-28T17:02:33.318Z",
      "stateName": "Rio Grande do Sul",
      "countryName": "Brazil"
    },
    {
      "id": 772,
      "stateId": 173,
      "name": "Esquel",
      "latitude": "-42.9114700",
      "longitude": "-71.3194700",
      "createdAt": "2025-12-28T17:02:16.602Z",
      "updatedAt": "2025-12-28T17:02:16.602Z",
      "stateName": "Chubut",
      "countryName": "Argentina"
    },
    {
      "id": 1416,
      "stateId": 132,
      "name": "Esquipulas",
      "latitude": null,
      "longitude": null,
      "createdAt": "2025-12-28T17:04:28.400Z",
      "updatedAt": "2025-12-28T17:04:28.400Z",
      "stateName": "Matagalpa",
      "countryName": "Nicaragua"
    },
    {
      "id": 7982,
      "stateId": 239,
      "name": "Esquipulas",
      "latitude": "14.5666700",
      "longitude": "-89.3500000",
      "createdAt": "2025-12-28T18:33:53.075Z",
      "updatedAt": "2025-12-28T18:33:53.075Z",
      "stateName": "Baja Verapaz",
      "countryName": "Guatemala"
    },
    {
      "id": 18180,
      "stateId": 227,
      "name": "Essen",
      "latitude": "52.0575321",
      "longitude": "5.3403480",
      "createdAt": "2026-04-17T21:01:52.986Z",
      "updatedAt": "2026-04-17T21:01:52.986Z",
      "stateName": "Groningen",
      "countryName": "Netherlands"
    }
  ],
  "meta": {
    "page": 52,
    "limit": 100,
    "total": 18002,
    "totalPages": 181
  }
}
