{
  "source": "50k-radio-stations",
  "provider": "rapidapi",
  "syncedAt": "2026-06-03T13:04:03.389Z",
  "endpoint": "/cities",
  "page": 5,
  "limit": 250,
  "data": [
    {
      "id": 9177,
      "stateId": 192,
      "name": "Alta Italia",
      "latitude": null,
      "longitude": null,
      "createdAt": "2025-12-28T18:42:23.411Z",
      "updatedAt": "2025-12-28T18:42:23.411Z",
      "stateName": "La Pampa",
      "countryName": "Argentina"
    },
    {
      "id": 3100,
      "stateId": 159,
      "name": "Altamira",
      "latitude": "-3.2033300",
      "longitude": "-52.2063900",
      "createdAt": "2025-12-28T18:13:42.013Z",
      "updatedAt": "2025-12-28T18:13:42.013Z",
      "stateName": "Pará",
      "countryName": "Brazil"
    },
    {
      "id": 8075,
      "stateId": 330,
      "name": "Altamira",
      "latitude": null,
      "longitude": null,
      "createdAt": "2025-12-28T18:35:05.143Z",
      "updatedAt": "2025-12-28T18:35:05.143Z",
      "stateName": "Huila",
      "countryName": "Colombia"
    },
    {
      "id": 11554,
      "stateId": 46,
      "name": "Altamont",
      "latitude": "42.2068100",
      "longitude": "-121.7372200",
      "createdAt": "2025-12-28T19:07:15.412Z",
      "updatedAt": "2025-12-28T19:07:15.412Z",
      "stateName": "Illinois",
      "countryName": "United States"
    },
    {
      "id": 17781,
      "stateId": 81,
      "name": "Altamont",
      "latitude": "42.2068100",
      "longitude": "-121.7372200",
      "createdAt": "2026-02-23T04:54:41.044Z",
      "updatedAt": "2026-02-23T04:54:41.044Z",
      "stateName": "Oregon",
      "countryName": "United States"
    },
    {
      "id": 3452,
      "stateId": 33,
      "name": "Altamonte Springs",
      "latitude": "28.6611100",
      "longitude": "-81.3656200",
      "createdAt": "2025-12-28T18:14:27.043Z",
      "updatedAt": "2025-12-28T18:14:27.043Z",
      "stateName": "Florida",
      "countryName": "United States"
    },
    {
      "id": 3803,
      "stateId": 306,
      "name": "Altamura",
      "latitude": "40.8266400",
      "longitude": "16.5495200",
      "createdAt": "2025-12-28T18:15:16.267Z",
      "updatedAt": "2025-12-28T18:15:16.267Z",
      "stateName": "Apulia",
      "countryName": "Italy"
    },
    {
      "id": 10823,
      "stateId": 50,
      "name": "Altavista",
      "latitude": "37.8034989",
      "longitude": "-92.5169818",
      "createdAt": "2025-12-28T18:57:52.707Z",
      "updatedAt": "2025-12-28T18:57:52.707Z",
      "stateName": "Virginia",
      "countryName": "United States"
    },
    {
      "id": 17142,
      "stateId": 34,
      "name": "Altdorf",
      "latitude": "49.3856000",
      "longitude": "11.3573000",
      "createdAt": "2025-12-29T15:38:27.093Z",
      "updatedAt": "2025-12-29T15:38:27.093Z",
      "stateName": "Bavaria",
      "countryName": "Germany"
    },
    {
      "id": 10540,
      "stateId": 95,
      "name": "Alterosa",
      "latitude": null,
      "longitude": null,
      "createdAt": "2025-12-28T18:54:37.082Z",
      "updatedAt": "2025-12-28T18:54:37.082Z",
      "stateName": "Minas Gerais",
      "countryName": "Brazil"
    },
    {
      "id": 15136,
      "stateId": 7,
      "name": "Altinho",
      "latitude": null,
      "longitude": null,
      "createdAt": "2025-12-28T19:55:43.825Z",
      "updatedAt": "2025-12-28T19:55:43.825Z",
      "stateName": "Pernambuco",
      "countryName": "Brazil"
    },
    {
      "id": 17200,
      "stateId": 4,
      "name": "Altinópolis",
      "latitude": null,
      "longitude": null,
      "createdAt": "2025-12-29T15:56:52.390Z",
      "updatedAt": "2025-12-29T15:56:52.390Z",
      "stateName": "São Paulo",
      "countryName": "Brazil"
    },
    {
      "id": 6351,
      "stateId": 4,
      "name": "Alto Alegre",
      "latitude": "-17.4339069",
      "longitude": "-45.8426650",
      "createdAt": "2025-12-28T18:24:51.270Z",
      "updatedAt": "2025-12-28T18:24:51.270Z",
      "stateName": "São Paulo",
      "countryName": "Brazil"
    },
    {
      "id": 6865,
      "stateId": 335,
      "name": "Alto Alegre do Maranhão",
      "latitude": null,
      "longitude": null,
      "createdAt": "2025-12-28T18:27:23.733Z",
      "updatedAt": "2025-12-28T18:27:23.733Z",
      "stateName": "Maranhão",
      "countryName": "Brazil"
    },
    {
      "id": 17117,
      "stateId": 652,
      "name": "Alto Alegre dos Parecis",
      "latitude": null,
      "longitude": null,
      "createdAt": "2025-12-29T15:35:27.852Z",
      "updatedAt": "2025-12-29T15:35:27.852Z",
      "stateName": "Rondônia",
      "countryName": "Brazil"
    },
    {
      "id": 4349,
      "stateId": 85,
      "name": "Alto Araguaia",
      "latitude": null,
      "longitude": null,
      "createdAt": "2025-12-28T18:17:09.904Z",
      "updatedAt": "2025-12-28T18:17:09.904Z",
      "stateName": "Mato Grosso",
      "countryName": "Brazil"
    },
    {
      "id": 18136,
      "stateId": 85,
      "name": "Alto Boa Vista",
      "latitude": null,
      "longitude": null,
      "createdAt": "2026-04-01T20:35:04.794Z",
      "updatedAt": "2026-04-01T20:35:04.794Z",
      "stateName": "Mato Grosso",
      "countryName": "Brazil"
    },
    {
      "id": 14074,
      "stateId": 186,
      "name": "Alto do Rodrigues",
      "latitude": null,
      "longitude": null,
      "createdAt": "2025-12-28T19:38:37.366Z",
      "updatedAt": "2025-12-28T19:38:37.366Z",
      "stateName": "Rio Grande do Norte",
      "countryName": "Brazil"
    },
    {
      "id": 7725,
      "stateId": 253,
      "name": "Alto Horizonte",
      "latitude": null,
      "longitude": null,
      "createdAt": "2025-12-28T18:31:14.972Z",
      "updatedAt": "2025-12-28T18:31:14.972Z",
      "stateName": "Goiás",
      "countryName": "Brazil"
    },
    {
      "id": 11750,
      "stateId": 1190,
      "name": "Alto Hospicio",
      "latitude": "-35.4727272",
      "longitude": "-71.8075952",
      "createdAt": "2025-12-28T19:09:02.751Z",
      "updatedAt": "2025-12-28T19:09:02.751Z",
      "stateName": "Iquique",
      "countryName": "Chile"
    },
    {
      "id": 1740,
      "stateId": 20,
      "name": "Alton",
      "latitude": null,
      "longitude": null,
      "createdAt": "2025-12-28T18:10:07.812Z",
      "updatedAt": "2025-12-28T18:10:07.812Z",
      "stateName": "Texas",
      "countryName": "United States"
    },
    {
      "id": 11971,
      "stateId": 46,
      "name": "Alton",
      "latitude": "38.8906000",
      "longitude": "-90.1842800",
      "createdAt": "2025-12-28T19:11:01.499Z",
      "updatedAt": "2025-12-28T19:11:01.499Z",
      "stateName": "Illinois",
      "countryName": "United States"
    },
    {
      "id": 6587,
      "stateId": 121,
      "name": "Altona",
      "latitude": null,
      "longitude": null,
      "createdAt": "2025-12-28T18:26:03.690Z",
      "updatedAt": "2025-12-28T18:26:03.690Z",
      "stateName": "Manitoba",
      "countryName": "Canada"
    },
    {
      "id": 13498,
      "stateId": 137,
      "name": "Altonia",
      "latitude": null,
      "longitude": null,
      "createdAt": "2025-12-28T19:27:12.679Z",
      "updatedAt": "2025-12-28T19:27:12.679Z",
      "stateName": "Paraná",
      "countryName": "Brazil"
    },
    {
      "id": 10782,
      "stateId": 8,
      "name": "Altoona",
      "latitude": "40.5186800",
      "longitude": "-78.3947400",
      "createdAt": "2025-12-28T18:57:34.600Z",
      "updatedAt": "2025-12-28T18:57:34.600Z",
      "stateName": "Wisconsin",
      "countryName": "United States"
    },
    {
      "id": 1030,
      "stateId": 68,
      "name": "Altoona",
      "latitude": "40.5186800",
      "longitude": "-78.3947400",
      "createdAt": "2025-12-28T17:02:34.594Z",
      "updatedAt": "2025-12-28T17:02:34.594Z",
      "stateName": "Pennsylvania",
      "countryName": "United States"
    },
    {
      "id": 14975,
      "stateId": 652,
      "name": "Alto Paraíso",
      "latitude": null,
      "longitude": null,
      "createdAt": "2025-12-28T19:51:35.288Z",
      "updatedAt": "2025-12-28T19:51:35.288Z",
      "stateName": "Rondônia",
      "countryName": "Brazil"
    },
    {
      "id": 18149,
      "stateId": 253,
      "name": "Alto Paraiso de Goias",
      "latitude": "-17.4339069",
      "longitude": "-45.8426650",
      "createdAt": "2026-04-02T15:40:36.893Z",
      "updatedAt": "2026-04-02T15:40:36.893Z",
      "stateName": "Goiás",
      "countryName": "Brazil"
    },
    {
      "id": 6682,
      "stateId": 137,
      "name": "Alto Piquiri",
      "latitude": null,
      "longitude": null,
      "createdAt": "2025-12-28T18:26:32.826Z",
      "updatedAt": "2025-12-28T18:26:32.826Z",
      "stateName": "Paraná",
      "countryName": "Brazil"
    },
    {
      "id": 2984,
      "stateId": 95,
      "name": "Alto Rio Doce",
      "latitude": null,
      "longitude": null,
      "createdAt": "2025-12-28T18:13:26.746Z",
      "updatedAt": "2025-12-28T18:13:26.746Z",
      "stateName": "Minas Gerais",
      "countryName": "Brazil"
    },
    {
      "id": 14013,
      "stateId": 173,
      "name": "Alto Río Senguer",
      "latitude": null,
      "longitude": null,
      "createdAt": "2025-12-28T19:37:23.498Z",
      "updatedAt": "2025-12-28T19:37:23.498Z",
      "stateName": "Chubut",
      "countryName": "Argentina"
    },
    {
      "id": 12156,
      "stateId": 239,
      "name": "Alto Sepacay",
      "latitude": "14.8315200",
      "longitude": "-90.7261285",
      "createdAt": "2025-12-28T19:13:10.787Z",
      "updatedAt": "2025-12-28T19:13:10.787Z",
      "stateName": "Baja Verapaz",
      "countryName": "Guatemala"
    },
    {
      "id": 6956,
      "stateId": 763,
      "name": "Altos Mirandinos",
      "latitude": null,
      "longitude": null,
      "createdAt": "2025-12-28T18:27:37.028Z",
      "updatedAt": "2025-12-28T18:27:37.028Z",
      "stateName": "Miranda",
      "countryName": "Venezuela"
    },
    {
      "id": 10397,
      "stateId": 85,
      "name": "Alto Taquari",
      "latitude": null,
      "longitude": null,
      "createdAt": "2025-12-28T18:53:03.319Z",
      "updatedAt": "2025-12-28T18:53:03.319Z",
      "stateName": "Mato Grosso",
      "countryName": "Brazil"
    },
    {
      "id": 17016,
      "stateId": 2,
      "name": "Altrincham",
      "latitude": null,
      "longitude": null,
      "createdAt": "2025-12-29T15:00:08.066Z",
      "updatedAt": "2025-12-29T15:00:08.066Z",
      "stateName": "England",
      "countryName": "United Kingdom"
    },
    {
      "id": 8124,
      "stateId": 151,
      "name": "Altus",
      "latitude": "34.6381300",
      "longitude": "-99.3339800",
      "createdAt": "2025-12-28T18:35:32.927Z",
      "updatedAt": "2025-12-28T18:35:32.927Z",
      "stateName": "Oklahoma",
      "countryName": "United States"
    },
    {
      "id": 2993,
      "stateId": 381,
      "name": "Aluminé",
      "latitude": null,
      "longitude": null,
      "createdAt": "2025-12-28T18:13:28.108Z",
      "updatedAt": "2025-12-28T18:13:28.108Z",
      "stateName": "Neuquén",
      "countryName": "Argentina"
    },
    {
      "id": 6946,
      "stateId": 4,
      "name": "Alumínio",
      "latitude": null,
      "longitude": null,
      "createdAt": "2025-12-28T18:27:36.255Z",
      "updatedAt": "2025-12-28T18:27:36.255Z",
      "stateName": "São Paulo",
      "countryName": "Brazil"
    },
    {
      "id": 13071,
      "stateId": 151,
      "name": "Alva",
      "latitude": "37.8034989",
      "longitude": "-92.5169818",
      "createdAt": "2025-12-28T19:20:33.943Z",
      "updatedAt": "2025-12-28T19:20:33.943Z",
      "stateName": "Oklahoma",
      "countryName": "United States"
    },
    {
      "id": 10042,
      "stateId": 95,
      "name": "Alvarenga",
      "latitude": null,
      "longitude": null,
      "createdAt": "2025-12-28T18:49:49.794Z",
      "updatedAt": "2025-12-28T18:49:49.794Z",
      "stateName": "Minas Gerais",
      "countryName": "Brazil"
    },
    {
      "id": 10837,
      "stateId": 4,
      "name": "Álvares Machado",
      "latitude": null,
      "longitude": null,
      "createdAt": "2025-12-28T18:58:01.337Z",
      "updatedAt": "2025-12-28T18:58:01.337Z",
      "stateName": "São Paulo",
      "countryName": "Brazil"
    },
    {
      "id": 2434,
      "stateId": 244,
      "name": "Álvaro Obregón",
      "latitude": null,
      "longitude": null,
      "createdAt": "2025-12-28T18:12:13.456Z",
      "updatedAt": "2025-12-28T18:12:13.456Z",
      "stateName": "Michoacán",
      "countryName": "Mexico"
    },
    {
      "id": 3061,
      "stateId": 289,
      "name": "Alvear",
      "latitude": "-32.1628172",
      "longitude": "-62.0921509",
      "createdAt": "2025-12-28T18:13:37.081Z",
      "updatedAt": "2025-12-28T18:13:37.081Z",
      "stateName": "Corrientes",
      "countryName": "Argentina"
    },
    {
      "id": 12299,
      "stateId": 20,
      "name": "Alvin",
      "latitude": "29.4238500",
      "longitude": "-95.2441000",
      "createdAt": "2025-12-28T19:15:11.237Z",
      "updatedAt": "2025-12-28T19:15:11.237Z",
      "stateName": "Texas",
      "countryName": "United States"
    },
    {
      "id": 3117,
      "stateId": 95,
      "name": "Alvinópolis",
      "latitude": null,
      "longitude": null,
      "createdAt": "2025-12-28T18:13:43.230Z",
      "updatedAt": "2025-12-28T18:13:43.230Z",
      "stateName": "Minas Gerais",
      "countryName": "Brazil"
    },
    {
      "id": 5888,
      "stateId": 595,
      "name": "Alvorada",
      "latitude": null,
      "longitude": null,
      "createdAt": "2025-12-28T18:22:33.049Z",
      "updatedAt": "2025-12-28T18:22:33.049Z",
      "stateName": "Tocantins",
      "countryName": "Brazil"
    },
    {
      "id": 4678,
      "stateId": 205,
      "name": "Alvorada",
      "latitude": "-17.4339069",
      "longitude": "-45.8426650",
      "createdAt": "2025-12-28T18:18:25.177Z",
      "updatedAt": "2025-12-28T18:18:25.177Z",
      "stateName": "Rio Grande do Sul",
      "countryName": "Brazil"
    },
    {
      "id": 3596,
      "stateId": 652,
      "name": "Alvorada d'Oeste",
      "latitude": null,
      "longitude": null,
      "createdAt": "2025-12-28T18:14:55.345Z",
      "updatedAt": "2025-12-28T18:14:55.345Z",
      "stateName": "Rondônia",
      "countryName": "Brazil"
    },
    {
      "id": 2666,
      "stateId": 343,
      "name": "Alwar",
      "latitude": "27.5624600",
      "longitude": "76.6250000",
      "createdAt": "2025-12-28T18:12:39.564Z",
      "updatedAt": "2025-12-28T18:12:39.564Z",
      "stateName": "Rajasthan",
      "countryName": "India"
    },
    {
      "id": 398,
      "stateId": 191,
      "name": "Alytus",
      "latitude": "54.4000000",
      "longitude": "24.0500000",
      "createdAt": "2025-12-28T17:00:48.257Z",
      "updatedAt": "2025-12-28T17:00:48.257Z",
      "stateName": "Alytus",
      "countryName": "Lithuania"
    },
    {
      "id": 2996,
      "stateId": 120,
      "name": "Alzira",
      "latitude": null,
      "longitude": null,
      "createdAt": "2025-12-28T18:13:28.491Z",
      "updatedAt": "2025-12-28T18:13:28.491Z",
      "stateName": "Valencia",
      "countryName": "Spain"
    },
    {
      "id": 6795,
      "stateId": 206,
      "name": "Amadora",
      "latitude": null,
      "longitude": null,
      "createdAt": "2025-12-28T18:27:14.274Z",
      "updatedAt": "2025-12-28T18:27:14.274Z",
      "stateName": "Lisboa e Vale do Tejo",
      "countryName": "Portugal"
    },
    {
      "id": 18169,
      "stateId": 1414,
      "name": "Amadora",
      "latitude": null,
      "longitude": null,
      "createdAt": "2026-04-16T01:32:17.082Z",
      "updatedAt": "2026-04-16T01:32:17.082Z",
      "stateName": "Lisbon",
      "countryName": "Portugal"
    },
    {
      "id": 5438,
      "stateId": 753,
      "name": "Amailloux",
      "latitude": "47.3768156",
      "longitude": "2.7742767",
      "createdAt": "2025-12-28T18:20:52.177Z",
      "updatedAt": "2025-12-28T18:20:52.177Z",
      "stateName": "Poitou-Charentes",
      "countryName": "France"
    },
    {
      "id": 3185,
      "stateId": 181,
      "name": "Amalfi",
      "latitude": null,
      "longitude": null,
      "createdAt": "2025-12-28T18:13:55.955Z",
      "updatedAt": "2025-12-28T18:13:55.955Z",
      "stateName": "Antioquia",
      "countryName": "Colombia"
    },
    {
      "id": 8100,
      "stateId": 108,
      "name": "Amalfi",
      "latitude": "42.4957616",
      "longitude": "12.4479260",
      "createdAt": "2025-12-28T18:35:22.479Z",
      "updatedAt": "2025-12-28T18:35:22.479Z",
      "stateName": "Campania",
      "countryName": "Italy"
    },
    {
      "id": 3254,
      "stateId": 369,
      "name": "Amambai",
      "latitude": "-17.4339069",
      "longitude": "-45.8426650",
      "createdAt": "2025-12-28T18:14:06.360Z",
      "updatedAt": "2025-12-28T18:14:06.360Z",
      "stateName": "Mato Grosso do Sul",
      "countryName": "Brazil"
    },
    {
      "id": 3227,
      "stateId": 582,
      "name": "Amami",
      "latitude": null,
      "longitude": null,
      "createdAt": "2025-12-28T18:14:02.105Z",
      "updatedAt": "2025-12-28T18:14:02.105Z",
      "stateName": "Kyūshū",
      "countryName": "Japan"
    },
    {
      "id": 17963,
      "stateId": 402,
      "name": "Amandawe",
      "latitude": null,
      "longitude": null,
      "createdAt": "2026-03-20T09:13:52.138Z",
      "updatedAt": "2026-03-20T09:13:52.138Z",
      "stateName": "KwaZulu-Natal Prov.",
      "countryName": "South Africa"
    },
    {
      "id": 13340,
      "stateId": 402,
      "name": "Amanzimtoti",
      "latitude": null,
      "longitude": null,
      "createdAt": "2025-12-28T19:23:10.168Z",
      "updatedAt": "2025-12-28T19:23:10.168Z",
      "stateName": "KwaZulu-Natal Prov.",
      "countryName": "South Africa"
    },
    {
      "id": 3326,
      "stateId": 7,
      "name": "Amaraji",
      "latitude": null,
      "longitude": null,
      "createdAt": "2025-12-28T18:14:13.617Z",
      "updatedAt": "2025-12-28T18:14:13.617Z",
      "stateName": "Pernambuco",
      "countryName": "Brazil"
    },
    {
      "id": 8167,
      "stateId": 205,
      "name": "Amaral Ferrador",
      "latitude": "-17.4339069",
      "longitude": "-45.8426650",
      "createdAt": "2025-12-28T18:36:12.770Z",
      "updatedAt": "2025-12-28T18:36:12.770Z",
      "stateName": "Rio Grande do Sul",
      "countryName": "Brazil"
    },
    {
      "id": 7636,
      "stateId": 174,
      "name": "Amarante",
      "latitude": null,
      "longitude": null,
      "createdAt": "2025-12-28T18:31:03.089Z",
      "updatedAt": "2025-12-28T18:31:03.089Z",
      "stateName": "Piauí",
      "countryName": "Brazil"
    },
    {
      "id": 17686,
      "stateId": 464,
      "name": "Amarante",
      "latitude": null,
      "longitude": null,
      "createdAt": "2026-02-07T03:47:31.141Z",
      "updatedAt": "2026-02-07T03:47:31.141Z",
      "stateName": "Norte",
      "countryName": "Portugal"
    },
    {
      "id": 3416,
      "stateId": 335,
      "name": "Amarante do Maranhão",
      "latitude": null,
      "longitude": null,
      "createdAt": "2025-12-28T18:14:22.183Z",
      "updatedAt": "2025-12-28T18:14:22.183Z",
      "stateName": "Maranhão",
      "countryName": "Brazil"
    },
    {
      "id": 3230,
      "stateId": 262,
      "name": "Amargosa",
      "latitude": null,
      "longitude": null,
      "createdAt": "2025-12-28T18:14:02.708Z",
      "updatedAt": "2025-12-28T18:14:02.708Z",
      "stateName": "Bahia",
      "countryName": "Brazil"
    },
    {
      "id": 13131,
      "stateId": 15,
      "name": "Amargosa Valley",
      "latitude": "37.8034989",
      "longitude": "-92.5169818",
      "createdAt": "2025-12-28T19:20:58.016Z",
      "updatedAt": "2025-12-28T19:20:58.016Z",
      "stateName": "Nevada",
      "countryName": "United States"
    },
    {
      "id": 71,
      "stateId": 20,
      "name": "Amarillo",
      "latitude": "35.2220000",
      "longitude": "-101.8313000",
      "createdAt": "2025-12-28T16:56:21.034Z",
      "updatedAt": "2025-12-28T16:56:21.034Z",
      "stateName": "Texas",
      "countryName": "United States"
    },
    {
      "id": 11938,
      "stateId": 314,
      "name": "Amatán",
      "latitude": null,
      "longitude": null,
      "createdAt": "2025-12-28T19:10:49.900Z",
      "updatedAt": "2025-12-28T19:10:49.900Z",
      "stateName": "Chiapas",
      "countryName": "Mexico"
    },
    {
      "id": 10901,
      "stateId": 239,
      "name": "Amatitlán",
      "latitude": "14.4875000",
      "longitude": "-90.6152800",
      "createdAt": "2025-12-28T18:58:42.333Z",
      "updatedAt": "2025-12-28T18:58:42.333Z",
      "stateName": "Baja Verapaz",
      "countryName": "Guatemala"
    },
    {
      "id": 559,
      "stateId": 268,
      "name": "Ambato",
      "latitude": "-1.5077320",
      "longitude": "-79.2745136",
      "createdAt": "2025-12-28T17:01:06.448Z",
      "updatedAt": "2025-12-28T17:01:06.448Z",
      "stateName": "Tungurahua",
      "countryName": "Ecuador"
    },
    {
      "id": 3851,
      "stateId": 481,
      "name": "Ambazac",
      "latitude": null,
      "longitude": null,
      "createdAt": "2025-12-28T18:15:24.141Z",
      "updatedAt": "2025-12-28T18:15:24.141Z",
      "stateName": "Nouvelle-Aquitaine",
      "countryName": "France"
    },
    {
      "id": 3414,
      "stateId": 34,
      "name": "Amberg",
      "latitude": "49.4428700",
      "longitude": "11.8626700",
      "createdAt": "2025-12-28T18:14:22.059Z",
      "updatedAt": "2025-12-28T18:14:22.059Z",
      "stateName": "Bavaria",
      "countryName": "Germany"
    },
    {
      "id": 4413,
      "stateId": 726,
      "name": "Ambert",
      "latitude": "47.3768156",
      "longitude": "2.7742767",
      "createdAt": "2025-12-28T18:17:27.326Z",
      "updatedAt": "2025-12-28T18:17:27.326Z",
      "stateName": "Auvergne",
      "countryName": "France"
    },
    {
      "id": 1079,
      "stateId": 373,
      "name": "Ambikapur",
      "latitude": "21.6224148",
      "longitude": "79.1259549",
      "createdAt": "2025-12-28T17:02:37.945Z",
      "updatedAt": "2025-12-28T17:02:37.945Z",
      "stateName": "Chhattisgarh",
      "countryName": "India"
    },
    {
      "id": 18163,
      "stateId": 90,
      "name": "Ambilly",
      "latitude": "47.3768156",
      "longitude": "2.7742767",
      "createdAt": "2026-04-07T20:51:50.628Z",
      "updatedAt": "2026-04-07T20:51:50.628Z",
      "stateName": "Rhône-Alpes",
      "countryName": "France"
    },
    {
      "id": 1963,
      "stateId": 300,
      "name": "Amboise",
      "latitude": null,
      "longitude": null,
      "createdAt": "2025-12-28T18:10:34.377Z",
      "updatedAt": "2025-12-28T18:10:34.377Z",
      "stateName": "Centre-Val de Loire",
      "countryName": "France"
    },
    {
      "id": 3262,
      "stateId": 506,
      "name": "Ambon",
      "latitude": "-3.6954300",
      "longitude": "128.1814100",
      "createdAt": "2025-12-28T18:14:07.693Z",
      "updatedAt": "2025-12-28T18:14:07.693Z",
      "stateName": "Maluku",
      "countryName": "Indonesia"
    },
    {
      "id": 1335,
      "stateId": 68,
      "name": "Ambridge",
      "latitude": "37.8034989",
      "longitude": "-92.5169818",
      "createdAt": "2025-12-28T17:03:41.868Z",
      "updatedAt": "2025-12-28T17:03:41.868Z",
      "stateName": "Pennsylvania",
      "countryName": "United States"
    },
    {
      "id": 2238,
      "stateId": 99,
      "name": "Ameca",
      "latitude": "20.5462900",
      "longitude": "-104.0450800",
      "createdAt": "2025-12-28T18:11:21.395Z",
      "updatedAt": "2025-12-28T18:11:21.395Z",
      "stateName": "Jalisco",
      "countryName": "Mexico"
    },
    {
      "id": 18226,
      "stateId": 234,
      "name": "Amecameca",
      "latitude": "19.1238400",
      "longitude": "-98.7664900",
      "createdAt": "2026-04-28T09:41:06.919Z",
      "updatedAt": "2026-04-28T09:41:06.919Z",
      "stateName": "State of Mexico",
      "countryName": "Mexico"
    },
    {
      "id": 13623,
      "stateId": 14,
      "name": "Amelia",
      "latitude": null,
      "longitude": null,
      "createdAt": "2025-12-28T19:29:04.085Z",
      "updatedAt": "2025-12-28T19:29:04.085Z",
      "stateName": "Ohio",
      "countryName": "United States"
    },
    {
      "id": 9857,
      "stateId": 86,
      "name": "Amenabar",
      "latitude": null,
      "longitude": null,
      "createdAt": "2025-12-28T18:47:53.728Z",
      "updatedAt": "2025-12-28T18:47:53.728Z",
      "stateName": "Santa Fe",
      "countryName": "Argentina"
    },
    {
      "id": 384,
      "stateId": 58,
      "name": "América",
      "latitude": null,
      "longitude": null,
      "createdAt": "2025-12-28T17:00:46.945Z",
      "updatedAt": "2025-12-28T17:00:46.945Z",
      "stateName": "Buenos Aires",
      "countryName": "Argentina"
    },
    {
      "id": 154,
      "stateId": 4,
      "name": "Americana",
      "latitude": "-22.7391700",
      "longitude": "-47.3313900",
      "createdAt": "2025-12-28T16:56:30.395Z",
      "updatedAt": "2025-12-28T16:56:30.395Z",
      "stateName": "São Paulo",
      "countryName": "Brazil"
    },
    {
      "id": 11471,
      "stateId": 110,
      "name": "American Falls",
      "latitude": "37.8034989",
      "longitude": "-92.5169818",
      "createdAt": "2025-12-28T19:05:56.426Z",
      "updatedAt": "2025-12-28T19:05:56.426Z",
      "stateName": "Idaho",
      "countryName": "United States"
    },
    {
      "id": 10181,
      "stateId": 430,
      "name": "American Fork",
      "latitude": null,
      "longitude": null,
      "createdAt": "2025-12-28T18:50:47.121Z",
      "updatedAt": "2025-12-28T18:50:47.121Z",
      "stateName": "Utah",
      "countryName": "United States"
    },
    {
      "id": 2137,
      "stateId": 4,
      "name": "Américo Brasiliense",
      "latitude": null,
      "longitude": null,
      "createdAt": "2025-12-28T18:10:58.890Z",
      "updatedAt": "2025-12-28T18:10:58.890Z",
      "stateName": "São Paulo",
      "countryName": "Brazil"
    },
    {
      "id": 7936,
      "stateId": 31,
      "name": "Americus",
      "latitude": null,
      "longitude": null,
      "createdAt": "2025-12-28T18:33:08.655Z",
      "updatedAt": "2025-12-28T18:33:08.655Z",
      "stateName": "Kansas",
      "countryName": "United States"
    },
    {
      "id": 13880,
      "stateId": 22,
      "name": "Americus",
      "latitude": "32.0723900",
      "longitude": "-84.2326900",
      "createdAt": "2025-12-28T19:33:57.997Z",
      "updatedAt": "2025-12-28T19:33:57.997Z",
      "stateName": "Georgia",
      "countryName": "United States"
    },
    {
      "id": 7155,
      "stateId": 203,
      "name": "Amersfoort",
      "latitude": "52.1550000",
      "longitude": "5.3875000",
      "createdAt": "2025-12-28T18:28:36.083Z",
      "updatedAt": "2025-12-28T18:28:36.083Z",
      "stateName": "Utrecht",
      "countryName": "Netherlands"
    },
    {
      "id": 6685,
      "stateId": 2,
      "name": "Amersham",
      "latitude": null,
      "longitude": null,
      "createdAt": "2025-12-28T18:26:34.523Z",
      "updatedAt": "2025-12-28T18:26:34.523Z",
      "stateName": "England",
      "countryName": "United Kingdom"
    },
    {
      "id": 13659,
      "stateId": 8,
      "name": "Amery",
      "latitude": "37.8034989",
      "longitude": "-92.5169818",
      "createdAt": "2025-12-28T19:29:16.772Z",
      "updatedAt": "2025-12-28T19:29:16.772Z",
      "stateName": "Wisconsin",
      "countryName": "United States"
    },
    {
      "id": 8913,
      "stateId": 113,
      "name": "Ames",
      "latitude": "42.0347100",
      "longitude": "-93.6199400",
      "createdAt": "2025-12-28T18:40:58.813Z",
      "updatedAt": "2025-12-28T18:40:58.813Z",
      "stateName": "Iowa",
      "countryName": "United States"
    },
    {
      "id": 7434,
      "stateId": 205,
      "name": "Ametista do Sul",
      "latitude": null,
      "longitude": null,
      "createdAt": "2025-12-28T18:30:11.361Z",
      "updatedAt": "2025-12-28T18:30:11.361Z",
      "stateName": "Rio Grande do Sul",
      "countryName": "Brazil"
    },
    {
      "id": 3447,
      "stateId": 150,
      "name": "Amfilochia",
      "latitude": "38.6555720",
      "longitude": "23.4057215",
      "createdAt": "2025-12-28T18:14:26.546Z",
      "updatedAt": "2025-12-28T18:14:26.546Z",
      "stateName": "Western Greece",
      "countryName": "Greece"
    },
    {
      "id": 3348,
      "stateId": 680,
      "name": "Amfissa",
      "latitude": "38.6555720",
      "longitude": "23.4057215",
      "createdAt": "2025-12-28T18:14:16.115Z",
      "updatedAt": "2025-12-28T18:14:16.115Z",
      "stateName": "Central Greece",
      "countryName": "Greece"
    },
    {
      "id": 3356,
      "stateId": 6,
      "name": "Amherst",
      "latitude": "42.9783900",
      "longitude": "-78.7997600",
      "createdAt": "2025-12-28T18:14:16.434Z",
      "updatedAt": "2025-12-28T18:14:16.434Z",
      "stateName": "New York",
      "countryName": "United States"
    },
    {
      "id": 11035,
      "stateId": 47,
      "name": "Amherst",
      "latitude": "42.3753700",
      "longitude": "-72.5192500",
      "createdAt": "2025-12-28T19:00:28.504Z",
      "updatedAt": "2025-12-28T19:00:28.504Z",
      "stateName": "Massachusetts",
      "countryName": "United States"
    },
    {
      "id": 16293,
      "stateId": 50,
      "name": "Amherst",
      "latitude": "37.8034989",
      "longitude": "-92.5169818",
      "createdAt": "2025-12-28T20:40:52.944Z",
      "updatedAt": "2025-12-28T20:40:52.944Z",
      "stateName": "Virginia",
      "countryName": "United States"
    }
  ],
  "meta": {
    "page": 5,
    "limit": 100,
    "total": 18002,
    "totalPages": 181
  }
}
