{
  "source": "50k-radio-stations",
  "provider": "rapidapi",
  "syncedAt": "2026-06-03T13:05:10.097Z",
  "endpoint": "/cities",
  "page": 84,
  "limit": 250,
  "data": [
    {
      "id": 6847,
      "stateId": 229,
      "name": "Komotini",
      "latitude": "38.6555720",
      "longitude": "23.4057215",
      "createdAt": "2025-12-28T18:27:21.738Z",
      "updatedAt": "2025-12-28T18:27:21.738Z",
      "stateName": "East Macedonia and Thrace",
      "countryName": "Greece"
    },
    {
      "id": 14175,
      "stateId": 968,
      "name": "Kongsberg",
      "latitude": null,
      "longitude": null,
      "createdAt": "2025-12-28T19:41:30.247Z",
      "updatedAt": "2025-12-28T19:41:30.247Z",
      "stateName": "Buskerud",
      "countryName": "Norway"
    },
    {
      "id": 5397,
      "stateId": 577,
      "name": "Konin",
      "latitude": "52.2233800",
      "longitude": "18.2512100",
      "createdAt": "2025-12-28T18:20:32.457Z",
      "updatedAt": "2025-12-28T18:20:32.457Z",
      "stateName": "Greater Poland",
      "countryName": "Poland"
    },
    {
      "id": 4147,
      "stateId": 63,
      "name": "Konongo",
      "latitude": null,
      "longitude": null,
      "createdAt": "2025-12-28T18:16:22.043Z",
      "updatedAt": "2025-12-28T18:16:22.043Z",
      "stateName": "Ashanti",
      "countryName": "Ghana"
    },
    {
      "id": 439,
      "stateId": 17,
      "name": "Konstanz",
      "latitude": "47.6603300",
      "longitude": "9.1758200",
      "createdAt": "2025-12-28T17:00:50.377Z",
      "updatedAt": "2025-12-28T17:00:50.377Z",
      "stateName": "Baden-Württemberg",
      "countryName": "Germany"
    },
    {
      "id": 5966,
      "stateId": 74,
      "name": "Koorablyn",
      "latitude": null,
      "longitude": null,
      "createdAt": "2025-12-28T18:22:44.420Z",
      "updatedAt": "2025-12-28T18:22:44.420Z",
      "stateName": "Queensland",
      "countryName": "Australia"
    },
    {
      "id": 11026,
      "stateId": 110,
      "name": "Kootenai",
      "latitude": "37.8034989",
      "longitude": "-92.5169818",
      "createdAt": "2025-12-28T19:00:24.240Z",
      "updatedAt": "2025-12-28T19:00:24.240Z",
      "stateName": "Idaho",
      "countryName": "United States"
    },
    {
      "id": 13120,
      "stateId": 479,
      "name": "Korenovsk",
      "latitude": null,
      "longitude": null,
      "createdAt": "2025-12-28T19:20:55.186Z",
      "updatedAt": "2025-12-28T19:20:55.186Z",
      "stateName": "Krasnodar",
      "countryName": "Russia"
    },
    {
      "id": 2952,
      "stateId": 143,
      "name": "Korinth",
      "latitude": "38.6555720",
      "longitude": "23.4057215",
      "createdAt": "2025-12-28T18:13:08.937Z",
      "updatedAt": "2025-12-28T18:13:08.937Z",
      "stateName": "Peloponnese",
      "countryName": "Greece"
    },
    {
      "id": 13011,
      "stateId": 584,
      "name": "Kōriyama",
      "latitude": null,
      "longitude": null,
      "createdAt": "2025-12-28T19:20:15.127Z",
      "updatedAt": "2025-12-28T19:20:15.127Z",
      "stateName": "Tōhoku",
      "countryName": "Japan"
    },
    {
      "id": 16942,
      "stateId": 84,
      "name": "Körle",
      "latitude": null,
      "longitude": null,
      "createdAt": "2025-12-28T20:59:02.801Z",
      "updatedAt": "2025-12-28T20:59:02.801Z",
      "stateName": "Hesse",
      "countryName": "Germany"
    },
    {
      "id": 5653,
      "stateId": 441,
      "name": "Koronadal",
      "latitude": "6.5030600",
      "longitude": "124.8469400",
      "createdAt": "2025-12-28T18:21:48.462Z",
      "updatedAt": "2025-12-28T18:21:48.462Z",
      "stateName": "South Cotabato",
      "countryName": "Philippines"
    },
    {
      "id": 2297,
      "stateId": 194,
      "name": "Kos",
      "latitude": "36.8933300",
      "longitude": "27.2888900",
      "createdAt": "2025-12-28T18:11:36.048Z",
      "updatedAt": "2025-12-28T18:11:36.048Z",
      "stateName": "South Aegean",
      "countryName": "Greece"
    },
    {
      "id": 15383,
      "stateId": 401,
      "name": "Kosciusko",
      "latitude": "37.8034989",
      "longitude": "-92.5169818",
      "createdAt": "2025-12-28T20:04:07.466Z",
      "updatedAt": "2025-12-28T20:04:07.466Z",
      "stateName": "Mississippi",
      "countryName": "United States"
    },
    {
      "id": 2298,
      "stateId": 194,
      "name": "Kos Island",
      "latitude": "38.6555720",
      "longitude": "23.4057215",
      "createdAt": "2025-12-28T18:11:36.288Z",
      "updatedAt": "2025-12-28T18:11:36.288Z",
      "stateName": "South Aegean",
      "countryName": "Greece"
    },
    {
      "id": 18275,
      "stateId": 1436,
      "name": "Kosovo Polje",
      "latitude": null,
      "longitude": null,
      "createdAt": "2026-05-07T17:10:21.303Z",
      "updatedAt": "2026-05-07T17:10:21.303Z",
      "stateName": "Pristina",
      "countryName": "Kosovo"
    },
    {
      "id": 4553,
      "stateId": 788,
      "name": "Kostroma",
      "latitude": null,
      "longitude": null,
      "createdAt": "2025-12-28T18:17:52.350Z",
      "updatedAt": "2025-12-28T18:17:52.350Z",
      "stateName": "Kostroma",
      "countryName": "Russia"
    },
    {
      "id": 9361,
      "stateId": 499,
      "name": "Koszalin",
      "latitude": "54.1943800",
      "longitude": "16.1722200",
      "createdAt": "2025-12-28T18:43:57.104Z",
      "updatedAt": "2025-12-28T18:43:57.104Z",
      "stateName": "West Pomeranian",
      "countryName": "Poland"
    },
    {
      "id": 1063,
      "stateId": 343,
      "name": "Kota",
      "latitude": "25.1825400",
      "longitude": "75.8390700",
      "createdAt": "2025-12-28T17:02:37.143Z",
      "updatedAt": "2025-12-28T17:02:37.143Z",
      "stateName": "Rajasthan",
      "countryName": "India"
    },
    {
      "id": 13076,
      "stateId": 743,
      "name": "Kota Belud",
      "latitude": "3.8440443",
      "longitude": "104.1363346",
      "createdAt": "2025-12-28T19:20:35.782Z",
      "updatedAt": "2025-12-28T19:20:35.782Z",
      "stateName": "Sabah",
      "countryName": "Malaysia"
    },
    {
      "id": 9278,
      "stateId": 743,
      "name": "Kota Kinabalu",
      "latitude": "5.9749000",
      "longitude": "116.0724000",
      "createdAt": "2025-12-28T18:43:14.607Z",
      "updatedAt": "2025-12-28T18:43:14.607Z",
      "stateName": "Sabah",
      "countryName": "Malaysia"
    },
    {
      "id": 13101,
      "stateId": 743,
      "name": "Kota Marudu",
      "latitude": null,
      "longitude": null,
      "createdAt": "2025-12-28T19:20:43.470Z",
      "updatedAt": "2025-12-28T19:20:43.470Z",
      "stateName": "Sabah",
      "countryName": "Malaysia"
    },
    {
      "id": 8635,
      "stateId": 259,
      "name": "Kotido",
      "latitude": null,
      "longitude": null,
      "createdAt": "2025-12-28T18:39:29.927Z",
      "updatedAt": "2025-12-28T18:39:29.927Z",
      "stateName": "Eastern Region",
      "countryName": "Uganda"
    },
    {
      "id": 2558,
      "stateId": 380,
      "name": "Kottagudem",
      "latitude": "21.6224148",
      "longitude": "79.1259549",
      "createdAt": "2025-12-28T18:12:24.627Z",
      "updatedAt": "2025-12-28T18:12:24.627Z",
      "stateName": "Andhra Pradesh",
      "countryName": "India"
    },
    {
      "id": 5221,
      "stateId": 316,
      "name": "Kottayam",
      "latitude": "9.5869200",
      "longitude": "76.5213200",
      "createdAt": "2025-12-28T18:20:10.975Z",
      "updatedAt": "2025-12-28T18:20:10.975Z",
      "stateName": "Kerala",
      "countryName": "India"
    },
    {
      "id": 14063,
      "stateId": 1257,
      "name": "Kottingbrunn",
      "latitude": null,
      "longitude": null,
      "createdAt": "2025-12-28T19:38:04.733Z",
      "updatedAt": "2025-12-28T19:38:04.733Z",
      "stateName": "Baden",
      "countryName": "Austria"
    },
    {
      "id": 879,
      "stateId": 45,
      "name": "Kotzebue",
      "latitude": "37.8034989",
      "longitude": "-92.5169818",
      "createdAt": "2025-12-28T17:02:25.666Z",
      "updatedAt": "2025-12-28T17:02:25.666Z",
      "stateName": "Alaska",
      "countryName": "United States"
    },
    {
      "id": 14725,
      "stateId": 102,
      "name": "Koudum",
      "latitude": null,
      "longitude": null,
      "createdAt": "2025-12-28T19:47:38.522Z",
      "updatedAt": "2025-12-28T19:47:38.522Z",
      "stateName": "Friesland",
      "countryName": "Netherlands"
    },
    {
      "id": 18392,
      "stateId": 1475,
      "name": "Kouvola",
      "latitude": "60.8666700",
      "longitude": "26.7000000",
      "createdAt": "2026-05-23T19:23:30.247Z",
      "updatedAt": "2026-05-23T19:23:30.247Z",
      "stateName": "Kymenlaakso",
      "countryName": "Finland"
    },
    {
      "id": 13033,
      "stateId": 1090,
      "name": "Kovrov",
      "latitude": null,
      "longitude": null,
      "createdAt": "2025-12-28T19:20:24.307Z",
      "updatedAt": "2025-12-28T19:20:24.307Z",
      "stateName": "Vladimir",
      "countryName": "Russia"
    },
    {
      "id": 2212,
      "stateId": 560,
      "name": "Kozan",
      "latitude": "37.4551700",
      "longitude": "35.8157300",
      "createdAt": "2025-12-28T18:11:06.809Z",
      "updatedAt": "2025-12-28T18:11:06.809Z",
      "stateName": "Adana",
      "countryName": "Turkey"
    },
    {
      "id": 5516,
      "stateId": 866,
      "name": "Kozani",
      "latitude": "38.6555720",
      "longitude": "23.4057215",
      "createdAt": "2025-12-28T18:21:09.484Z",
      "updatedAt": "2025-12-28T18:21:09.484Z",
      "stateName": "West Macedonia",
      "countryName": "Greece"
    },
    {
      "id": 18299,
      "stateId": 1450,
      "name": "Kozarska Dubica",
      "latitude": "44.3708438",
      "longitude": "17.7061152",
      "createdAt": "2026-05-10T17:10:30.369Z",
      "updatedAt": "2026-05-10T17:10:30.369Z",
      "stateName": "Bosanska Krajina",
      "countryName": "Bosnia and Herzegovina"
    },
    {
      "id": 845,
      "stateId": 316,
      "name": "Kozhikode",
      "latitude": "11.2480200",
      "longitude": "75.7804000",
      "createdAt": "2025-12-28T17:02:22.964Z",
      "updatedAt": "2025-12-28T17:02:22.964Z",
      "stateName": "Kerala",
      "countryName": "India"
    },
    {
      "id": 2413,
      "stateId": 12,
      "name": "Kraaifontein",
      "latitude": null,
      "longitude": null,
      "createdAt": "2025-12-28T18:12:05.128Z",
      "updatedAt": "2025-12-28T18:12:05.128Z",
      "stateName": "Western Cape",
      "countryName": "South Africa"
    },
    {
      "id": 135,
      "stateId": 91,
      "name": "Krakow",
      "latitude": "51.8024603",
      "longitude": "19.2550087",
      "createdAt": "2025-12-28T16:56:28.177Z",
      "updatedAt": "2025-12-28T16:56:28.177Z",
      "stateName": "Lesser Poland",
      "countryName": "Poland"
    },
    {
      "id": 4240,
      "stateId": 751,
      "name": "Kralendijk",
      "latitude": null,
      "longitude": null,
      "createdAt": "2025-12-28T18:16:40.265Z",
      "updatedAt": "2025-12-28T18:16:40.265Z",
      "stateName": "Bonaire",
      "countryName": "Netherlands"
    },
    {
      "id": 18286,
      "stateId": 1443,
      "name": "Kraluv Dvur",
      "latitude": "49.9498100",
      "longitude": "14.0344500",
      "createdAt": "2026-05-09T14:20:08.795Z",
      "updatedAt": "2026-05-09T14:20:08.795Z",
      "stateName": "Central Bohemia",
      "countryName": "Czech Republic"
    },
    {
      "id": 2351,
      "stateId": 402,
      "name": "Kranskop",
      "latitude": "-28.4711100",
      "longitude": "27.1943921",
      "createdAt": "2025-12-28T18:11:52.835Z",
      "updatedAt": "2025-12-28T18:11:52.835Z",
      "stateName": "KwaZulu-Natal Prov.",
      "countryName": "South Africa"
    },
    {
      "id": 1509,
      "stateId": 479,
      "name": "Krasnodar",
      "latitude": null,
      "longitude": null,
      "createdAt": "2025-12-28T17:04:37.404Z",
      "updatedAt": "2025-12-28T17:04:37.404Z",
      "stateName": "Krasnodar",
      "countryName": "Russia"
    },
    {
      "id": 17931,
      "stateId": 543,
      "name": "Krasnoyarsk",
      "latitude": null,
      "longitude": null,
      "createdAt": "2026-03-16T04:41:32.248Z",
      "updatedAt": "2026-03-16T04:41:32.248Z",
      "stateName": "Krasnoyarsk",
      "countryName": "Russia"
    },
    {
      "id": 4518,
      "stateId": 777,
      "name": "Krasnoyarsk",
      "latitude": null,
      "longitude": null,
      "createdAt": "2025-12-28T18:17:49.732Z",
      "updatedAt": "2025-12-28T18:17:49.732Z",
      "stateName": "Siberia",
      "countryName": "Russia"
    },
    {
      "id": 6660,
      "stateId": 613,
      "name": "Krattigen",
      "latitude": null,
      "longitude": null,
      "createdAt": "2025-12-28T18:26:20.466Z",
      "updatedAt": "2025-12-28T18:26:20.466Z",
      "stateName": "Bern",
      "countryName": "Switzerland"
    },
    {
      "id": 4686,
      "stateId": 432,
      "name": "Krefeld",
      "latitude": "51.3392100",
      "longitude": "6.5861500",
      "createdAt": "2025-12-28T18:18:26.879Z",
      "updatedAt": "2025-12-28T18:18:26.879Z",
      "stateName": "North Rhine-Westphalia",
      "countryName": "Germany"
    },
    {
      "id": 7822,
      "stateId": 660,
      "name": "Kremis",
      "latitude": null,
      "longitude": null,
      "createdAt": "2025-12-28T18:32:20.985Z",
      "updatedAt": "2025-12-28T18:32:20.985Z",
      "stateName": "Kayes Province",
      "countryName": "Mali"
    },
    {
      "id": 13111,
      "stateId": 713,
      "name": "Krems",
      "latitude": "47.7354320",
      "longitude": "14.0841889",
      "createdAt": "2025-12-28T19:20:52.584Z",
      "updatedAt": "2025-12-28T19:20:52.584Z",
      "stateName": "Niederosterreich",
      "countryName": "Austria"
    },
    {
      "id": 17872,
      "stateId": 713,
      "name": "Krems an der Donau",
      "latitude": "47.7354320",
      "longitude": "14.0841889",
      "createdAt": "2026-03-11T03:53:10.780Z",
      "updatedAt": "2026-03-11T03:53:10.780Z",
      "stateName": "Niederosterreich",
      "countryName": "Austria"
    },
    {
      "id": 7958,
      "stateId": 150,
      "name": "Krestena",
      "latitude": "38.6555720",
      "longitude": "23.4057215",
      "createdAt": "2025-12-28T18:33:30.810Z",
      "updatedAt": "2025-12-28T18:33:30.810Z",
      "stateName": "Western Greece",
      "countryName": "Greece"
    },
    {
      "id": 12890,
      "stateId": 1173,
      "name": "Kretinga",
      "latitude": null,
      "longitude": null,
      "createdAt": "2025-12-28T19:19:23.983Z",
      "updatedAt": "2025-12-28T19:19:23.983Z",
      "stateName": "Klaipeda/Palanga",
      "countryName": "Lithuania"
    },
    {
      "id": 8460,
      "stateId": 111,
      "name": "Krimpen aan den IJssel",
      "latitude": "51.9166700",
      "longitude": "4.6027800",
      "createdAt": "2025-12-28T18:38:43.605Z",
      "updatedAt": "2025-12-28T18:38:43.605Z",
      "stateName": "South Holland",
      "countryName": "Netherlands"
    },
    {
      "id": 13084,
      "stateId": 540,
      "name": "Kristianstad",
      "latitude": "56.0312900",
      "longitude": "14.1524200",
      "createdAt": "2025-12-28T19:20:37.646Z",
      "updatedAt": "2025-12-28T19:20:37.646Z",
      "stateName": "Skåne",
      "countryName": "Sweden"
    },
    {
      "id": 1205,
      "stateId": 424,
      "name": "Kropyvnytskyi",
      "latitude": null,
      "longitude": null,
      "createdAt": "2025-12-28T17:03:17.818Z",
      "updatedAt": "2025-12-28T17:03:17.818Z",
      "stateName": "Kirovohrad Oblast",
      "countryName": "Ukraine"
    },
    {
      "id": 12936,
      "stateId": 20,
      "name": "Krum",
      "latitude": "37.8034989",
      "longitude": "-92.5169818",
      "createdAt": "2025-12-28T19:19:42.947Z",
      "updatedAt": "2025-12-28T19:19:42.947Z",
      "stateName": "Texas",
      "countryName": "United States"
    },
    {
      "id": 9538,
      "stateId": 34,
      "name": "Krumbach",
      "latitude": "50.9385735",
      "longitude": "9.5583023",
      "createdAt": "2025-12-28T18:45:08.311Z",
      "updatedAt": "2025-12-28T18:45:08.311Z",
      "stateName": "Bavaria",
      "countryName": "Germany"
    },
    {
      "id": 9226,
      "stateId": 479,
      "name": "Krymsk",
      "latitude": null,
      "longitude": null,
      "createdAt": "2025-12-28T18:42:39.115Z",
      "updatedAt": "2025-12-28T18:42:39.115Z",
      "stateName": "Krasnodar",
      "countryName": "Russia"
    },
    {
      "id": 1183,
      "stateId": 413,
      "name": "Kryvyi Rih",
      "latitude": null,
      "longitude": null,
      "createdAt": "2025-12-28T17:03:16.245Z",
      "updatedAt": "2025-12-28T17:03:16.245Z",
      "stateName": "Dnipropetrovsk",
      "countryName": "Ukraine"
    },
    {
      "id": 606,
      "stateId": 292,
      "name": "Kuala Lumpur",
      "latitude": "3.1412000",
      "longitude": "101.6865300",
      "createdAt": "2025-12-28T17:01:12.405Z",
      "updatedAt": "2025-12-28T17:01:12.405Z",
      "stateName": "Kuala Lumpur",
      "countryName": "Malaysia"
    },
    {
      "id": 4169,
      "stateId": 740,
      "name": "Kuala Terengganu",
      "latitude": "5.3302000",
      "longitude": "103.1408000",
      "createdAt": "2025-12-28T18:16:27.444Z",
      "updatedAt": "2025-12-28T18:16:27.444Z",
      "stateName": "Terengganu",
      "countryName": "Malaysia"
    },
    {
      "id": 1152,
      "stateId": 409,
      "name": "Kuching",
      "latitude": "1.5500000",
      "longitude": "110.3333300",
      "createdAt": "2025-12-28T17:03:14.230Z",
      "updatedAt": "2025-12-28T17:03:14.230Z",
      "stateName": "Sarawak",
      "countryName": "Malaysia"
    },
    {
      "id": 18233,
      "stateId": 1421,
      "name": "Kudowa-Zdrój",
      "latitude": "51.8024603",
      "longitude": "19.2550087",
      "createdAt": "2026-04-29T16:22:16.382Z",
      "updatedAt": "2026-04-29T16:22:16.382Z",
      "stateName": "Lower Silesian Voivodeship",
      "countryName": "Poland"
    },
    {
      "id": 13247,
      "stateId": 12,
      "name": "Kuils River",
      "latitude": null,
      "longitude": null,
      "createdAt": "2025-12-28T19:22:00.835Z",
      "updatedAt": "2025-12-28T19:22:00.835Z",
      "stateName": "Western Cape",
      "countryName": "South Africa"
    },
    {
      "id": 13253,
      "stateId": 342,
      "name": "Kullu",
      "latitude": "21.6224148",
      "longitude": "79.1259549",
      "createdAt": "2025-12-28T19:22:09.756Z",
      "updatedAt": "2025-12-28T19:22:09.756Z",
      "stateName": "Himachal Pradesh",
      "countryName": "India"
    },
    {
      "id": 11124,
      "stateId": 497,
      "name": "Kulm",
      "latitude": null,
      "longitude": null,
      "createdAt": "2025-12-28T19:01:13.284Z",
      "updatedAt": "2025-12-28T19:01:13.284Z",
      "stateName": "North Dakota",
      "countryName": "United States"
    },
    {
      "id": 1959,
      "stateId": 34,
      "name": "Kulmbach",
      "latitude": "50.1006800",
      "longitude": "11.4503200",
      "createdAt": "2025-12-28T18:10:34.127Z",
      "updatedAt": "2025-12-28T18:10:34.127Z",
      "stateName": "Bavaria",
      "countryName": "Germany"
    },
    {
      "id": 13259,
      "stateId": 68,
      "name": "Kulpmont",
      "latitude": "37.8034989",
      "longitude": "-92.5169818",
      "createdAt": "2025-12-28T19:22:15.915Z",
      "updatedAt": "2025-12-28T19:22:15.915Z",
      "stateName": "Pennsylvania",
      "countryName": "United States"
    },
    {
      "id": 13262,
      "stateId": 17,
      "name": "Külsheim",
      "latitude": null,
      "longitude": null,
      "createdAt": "2025-12-28T19:22:18.824Z",
      "updatedAt": "2025-12-28T19:22:18.824Z",
      "stateName": "Baden-Württemberg",
      "countryName": "Germany"
    },
    {
      "id": 92,
      "stateId": 63,
      "name": "Kumasi",
      "latitude": "6.6884800",
      "longitude": "-1.6244300",
      "createdAt": "2025-12-28T16:56:23.352Z",
      "updatedAt": "2025-12-28T16:56:23.352Z",
      "stateName": "Ashanti",
      "countryName": "Ghana"
    },
    {
      "id": 5279,
      "stateId": 378,
      "name": "Kumbakonam",
      "latitude": null,
      "longitude": null,
      "createdAt": "2025-12-28T18:20:17.519Z",
      "updatedAt": "2025-12-28T18:20:17.519Z",
      "stateName": "Tamil Nadu",
      "countryName": "India"
    },
    {
      "id": 13254,
      "stateId": 582,
      "name": "Kumejima",
      "latitude": null,
      "longitude": null,
      "createdAt": "2025-12-28T19:22:10.962Z",
      "updatedAt": "2025-12-28T19:22:10.962Z",
      "stateName": "Kyūshū",
      "countryName": "Japan"
    },
    {
      "id": 6657,
      "stateId": 373,
      "name": "Kumhari",
      "latitude": null,
      "longitude": null,
      "createdAt": "2025-12-28T18:26:15.381Z",
      "updatedAt": "2025-12-28T18:26:15.381Z",
      "stateName": "Chhattisgarh",
      "countryName": "India"
    },
    {
      "id": 7282,
      "stateId": 259,
      "name": "Kumi",
      "latitude": null,
      "longitude": null,
      "createdAt": "2025-12-28T18:29:20.128Z",
      "updatedAt": "2025-12-28T18:29:20.128Z",
      "stateName": "Eastern Region",
      "countryName": "Uganda"
    },
    {
      "id": 13261,
      "stateId": 952,
      "name": "Kumla",
      "latitude": "58.9901705",
      "longitude": "15.8143176",
      "createdAt": "2025-12-28T19:22:17.189Z",
      "updatedAt": "2025-12-28T19:22:17.189Z",
      "stateName": "Örebro",
      "countryName": "Sweden"
    },
    {
      "id": 11480,
      "stateId": 110,
      "name": "Kuna",
      "latitude": "43.4918300",
      "longitude": "-116.4201200",
      "createdAt": "2025-12-28T19:05:58.532Z",
      "updatedAt": "2025-12-28T19:05:58.532Z",
      "stateName": "Idaho",
      "countryName": "United States"
    },
    {
      "id": 4172,
      "stateId": 346,
      "name": "Kundapura",
      "latitude": null,
      "longitude": null,
      "createdAt": "2025-12-28T18:16:28.211Z",
      "updatedAt": "2025-12-28T18:16:28.211Z",
      "stateName": "Karnataka",
      "countryName": "India"
    },
    {
      "id": 13263,
      "stateId": 833,
      "name": "Kungsbacka",
      "latitude": "57.4871900",
      "longitude": "12.0761200",
      "createdAt": "2025-12-28T19:22:19.380Z",
      "updatedAt": "2025-12-28T19:22:19.380Z",
      "stateName": "Halland",
      "countryName": "Sweden"
    },
    {
      "id": 13258,
      "stateId": 814,
      "name": "Kungshamn",
      "latitude": "58.9901705",
      "longitude": "15.8143176",
      "createdAt": "2025-12-28T19:22:15.447Z",
      "updatedAt": "2025-12-28T19:22:15.447Z",
      "stateName": "Västra Götaland",
      "countryName": "Sweden"
    },
    {
      "id": 9225,
      "stateId": 773,
      "name": "Kungur",
      "latitude": null,
      "longitude": null,
      "createdAt": "2025-12-28T18:42:39.075Z",
      "updatedAt": "2025-12-28T18:42:39.075Z",
      "stateName": "Perm Oblast",
      "countryName": "Russia"
    },
    {
      "id": 18055,
      "stateId": 1395,
      "name": "Kungur",
      "latitude": null,
      "longitude": null,
      "createdAt": "2026-03-30T10:54:28.064Z",
      "updatedAt": "2026-03-30T10:54:28.064Z",
      "stateName": "Perm Krai",
      "countryName": "Russia"
    },
    {
      "id": 13256,
      "stateId": 179,
      "name": "Kuningan",
      "latitude": null,
      "longitude": null,
      "createdAt": "2025-12-28T19:22:11.482Z",
      "updatedAt": "2025-12-28T19:22:11.482Z",
      "stateName": "West Java",
      "countryName": "Indonesia"
    },
    {
      "id": 8160,
      "stateId": 548,
      "name": "Kupang",
      "latitude": "-10.1718000",
      "longitude": "123.6075000",
      "createdAt": "2025-12-28T18:36:03.816Z",
      "updatedAt": "2025-12-28T18:36:03.816Z",
      "stateName": "East Nusa Tenggara",
      "countryName": "Indonesia"
    },
    {
      "id": 7999,
      "stateId": 1008,
      "name": "Kurdistan",
      "latitude": "33.5145221",
      "longitude": "44.6553584",
      "createdAt": "2025-12-28T18:34:02.778Z",
      "updatedAt": "2025-12-28T18:34:02.778Z",
      "stateName": "Kurdistan",
      "countryName": "Iraq"
    },
    {
      "id": 2624,
      "stateId": 380,
      "name": "Kurnool",
      "latitude": "21.6224148",
      "longitude": "79.1259549",
      "createdAt": "2025-12-28T18:12:37.755Z",
      "updatedAt": "2025-12-28T18:12:37.755Z",
      "stateName": "Andhra Pradesh",
      "countryName": "India"
    },
    {
      "id": 4475,
      "stateId": 19,
      "name": "Kurrajong Heights",
      "latitude": null,
      "longitude": null,
      "createdAt": "2025-12-28T18:17:42.570Z",
      "updatedAt": "2025-12-28T18:17:42.570Z",
      "stateName": "New South Wales",
      "countryName": "Australia"
    },
    {
      "id": 2648,
      "stateId": 331,
      "name": "Kurseong",
      "latitude": null,
      "longitude": null,
      "createdAt": "2025-12-28T18:12:38.697Z",
      "updatedAt": "2025-12-28T18:12:38.697Z",
      "stateName": "West Bengal",
      "countryName": "India"
    },
    {
      "id": 9224,
      "stateId": 1091,
      "name": "Kursk",
      "latitude": null,
      "longitude": null,
      "createdAt": "2025-12-28T18:42:39.050Z",
      "updatedAt": "2025-12-28T18:42:39.050Z",
      "stateName": "Kursk",
      "countryName": "Russia"
    },
    {
      "id": 4849,
      "stateId": 816,
      "name": "Kuršumlija",
      "latitude": null,
      "longitude": null,
      "createdAt": "2025-12-28T18:18:50.060Z",
      "updatedAt": "2025-12-28T18:18:50.060Z",
      "stateName": "Toplica",
      "countryName": "Serbia"
    },
    {
      "id": 13117,
      "stateId": 20,
      "name": "Kurten",
      "latitude": "37.8034989",
      "longitude": "-92.5169818",
      "createdAt": "2025-12-28T19:20:54.662Z",
      "updatedAt": "2025-12-28T19:20:54.662Z",
      "stateName": "Texas",
      "countryName": "United States"
    },
    {
      "id": 4951,
      "stateId": 432,
      "name": "Kurten",
      "latitude": "50.9385735",
      "longitude": "9.5583023",
      "createdAt": "2025-12-28T18:19:16.191Z",
      "updatedAt": "2025-12-28T18:19:16.191Z",
      "stateName": "North Rhine-Westphalia",
      "countryName": "Germany"
    },
    {
      "id": 17780,
      "stateId": 128,
      "name": "Kurtistown",
      "latitude": null,
      "longitude": null,
      "createdAt": "2026-02-22T04:43:34.178Z",
      "updatedAt": "2026-02-22T04:43:34.178Z",
      "stateName": "Hawaii",
      "countryName": "United States"
    },
    {
      "id": 17982,
      "stateId": 387,
      "name": "Kurukshetra",
      "latitude": "21.6224148",
      "longitude": "79.1259549",
      "createdAt": "2026-03-24T23:10:24.864Z",
      "updatedAt": "2026-03-24T23:10:24.864Z",
      "stateName": "Haryana",
      "countryName": "India"
    },
    {
      "id": 13264,
      "stateId": 35,
      "name": "Kuruman",
      "latitude": null,
      "longitude": null,
      "createdAt": "2025-12-28T19:22:20.485Z",
      "updatedAt": "2025-12-28T19:22:20.485Z",
      "stateName": "Northern Cape Province",
      "countryName": "South Africa"
    },
    {
      "id": 2618,
      "stateId": 387,
      "name": "Kurushetra",
      "latitude": "21.6224148",
      "longitude": "79.1259549",
      "createdAt": "2025-12-28T18:12:37.364Z",
      "updatedAt": "2025-12-28T18:12:37.364Z",
      "stateName": "Haryana",
      "countryName": "India"
    },
    {
      "id": 8773,
      "stateId": 11,
      "name": "Kushiro",
      "latitude": "42.9750000",
      "longitude": "144.3747200",
      "createdAt": "2025-12-28T18:40:13.095Z",
      "updatedAt": "2025-12-28T18:40:13.095Z",
      "stateName": "北海道 (Hokkaido)",
      "countryName": "Japan"
    },
    {
      "id": 13260,
      "stateId": 837,
      "name": "Kutno",
      "latitude": "52.2306400",
      "longitude": "19.3640900",
      "createdAt": "2025-12-28T19:22:17.047Z",
      "updatedAt": "2025-12-28T19:22:17.047Z",
      "stateName": "Łódź",
      "countryName": "Poland"
    },
    {
      "id": 6438,
      "stateId": 68,
      "name": "Kutztown",
      "latitude": "37.8034989",
      "longitude": "-92.5169818",
      "createdAt": "2025-12-28T18:25:16.808Z",
      "updatedAt": "2025-12-28T18:25:16.808Z",
      "stateName": "Pennsylvania",
      "countryName": "United States"
    },
    {
      "id": 11649,
      "stateId": 258,
      "name": "Kuujjuaq",
      "latitude": null,
      "longitude": null,
      "createdAt": "2025-12-28T19:08:18.295Z",
      "updatedAt": "2025-12-28T19:08:18.295Z",
      "stateName": "Quebec",
      "countryName": "Canada"
    },
    {
      "id": 6419,
      "stateId": 258,
      "name": "Kuujjuarapik",
      "latitude": null,
      "longitude": null,
      "createdAt": "2025-12-28T18:25:11.496Z",
      "updatedAt": "2025-12-28T18:25:11.496Z",
      "stateName": "Quebec",
      "countryName": "Canada"
    },
    {
      "id": 8967,
      "stateId": 402,
      "name": "Kwadukuza",
      "latitude": null,
      "longitude": null,
      "createdAt": "2025-12-28T18:41:11.737Z",
      "updatedAt": "2025-12-28T18:41:11.737Z",
      "stateName": "KwaZulu-Natal Prov.",
      "countryName": "South Africa"
    },
    {
      "id": 2361,
      "stateId": 402,
      "name": "Kwaggafontein",
      "latitude": null,
      "longitude": null,
      "createdAt": "2025-12-28T18:11:55.053Z",
      "updatedAt": "2025-12-28T18:11:55.053Z",
      "stateName": "KwaZulu-Natal Prov.",
      "countryName": "South Africa"
    },
    {
      "id": 13328,
      "stateId": 1228,
      "name": "Kwamalasamutu",
      "latitude": null,
      "longitude": null,
      "createdAt": "2025-12-28T19:23:05.987Z",
      "updatedAt": "2025-12-28T19:23:05.987Z",
      "stateName": "Sipaliwini",
      "countryName": "Suriname"
    }
  ],
  "meta": {
    "page": 84,
    "limit": 100,
    "total": 18002,
    "totalPages": 181
  }
}
