{
  "source": "50k-radio-stations",
  "provider": "rapidapi",
  "syncedAt": "2026-06-03T13:04:53.075Z",
  "endpoint": "/cities",
  "page": 64,
  "limit": 250,
  "data": [
    {
      "id": 3136,
      "stateId": 401,
      "name": "Grenada",
      "latitude": "37.8034989",
      "longitude": "-92.5169818",
      "createdAt": "2025-12-28T18:13:45.464Z",
      "updatedAt": "2025-12-28T18:13:45.464Z",
      "stateName": "Mississippi",
      "countryName": "United States"
    },
    {
      "id": 3078,
      "stateId": 201,
      "name": "Grenoble",
      "latitude": "45.1666700",
      "longitude": "5.7166700",
      "createdAt": "2025-12-28T18:13:38.867Z",
      "updatedAt": "2025-12-28T18:13:38.867Z",
      "stateName": "Auvergne-Rhône-Alpes",
      "countryName": "France"
    },
    {
      "id": 9473,
      "stateId": 81,
      "name": "Gresham",
      "latitude": "45.4981800",
      "longitude": "-122.4314800",
      "createdAt": "2025-12-28T18:44:20.667Z",
      "updatedAt": "2025-12-28T18:44:20.667Z",
      "stateName": "Oregon",
      "countryName": "United States"
    },
    {
      "id": 8613,
      "stateId": 72,
      "name": "Gresik",
      "latitude": null,
      "longitude": null,
      "createdAt": "2025-12-28T18:39:23.908Z",
      "updatedAt": "2025-12-28T18:39:23.908Z",
      "stateName": "East Java",
      "countryName": "Indonesia"
    },
    {
      "id": 10103,
      "stateId": 33,
      "name": "Gretna",
      "latitude": "29.9146500",
      "longitude": "-90.0539600",
      "createdAt": "2025-12-28T18:50:18.439Z",
      "updatedAt": "2025-12-28T18:50:18.439Z",
      "stateName": "Florida",
      "countryName": "United States"
    },
    {
      "id": 13858,
      "stateId": 16,
      "name": "Gretna",
      "latitude": "29.9146500",
      "longitude": "-90.0539600",
      "createdAt": "2025-12-28T19:33:38.719Z",
      "updatedAt": "2025-12-28T19:33:38.719Z",
      "stateName": "Louisiana",
      "countryName": "United States"
    },
    {
      "id": 889,
      "stateId": 50,
      "name": "Gretna",
      "latitude": "29.9146500",
      "longitude": "-90.0539600",
      "createdAt": "2025-12-28T17:02:26.184Z",
      "updatedAt": "2025-12-28T17:02:26.184Z",
      "stateName": "Virginia",
      "countryName": "United States"
    },
    {
      "id": 17920,
      "stateId": 154,
      "name": "Greybull",
      "latitude": "37.8034989",
      "longitude": "-92.5169818",
      "createdAt": "2026-03-13T08:10:59.388Z",
      "updatedAt": "2026-03-13T08:10:59.388Z",
      "stateName": "Wyoming",
      "countryName": "United States"
    },
    {
      "id": 10486,
      "stateId": 1141,
      "name": "Greystones",
      "latitude": null,
      "longitude": null,
      "createdAt": "2025-12-28T18:53:47.960Z",
      "updatedAt": "2025-12-28T18:53:47.960Z",
      "stateName": "Wicklow",
      "countryName": "Ireland"
    },
    {
      "id": 5008,
      "stateId": 22,
      "name": "Griffin",
      "latitude": "33.2467800",
      "longitude": "-84.2640900",
      "createdAt": "2025-12-28T18:19:23.879Z",
      "updatedAt": "2025-12-28T18:19:23.879Z",
      "stateName": "Georgia",
      "countryName": "United States"
    },
    {
      "id": 10807,
      "stateId": 19,
      "name": "Griffith",
      "latitude": "-34.2885300",
      "longitude": "146.0509300",
      "createdAt": "2025-12-28T18:57:45.140Z",
      "updatedAt": "2025-12-28T18:57:45.140Z",
      "stateName": "New South Wales",
      "countryName": "Australia"
    },
    {
      "id": 16882,
      "stateId": 55,
      "name": "Grifton",
      "latitude": "37.8034989",
      "longitude": "-92.5169818",
      "createdAt": "2025-12-28T20:54:26.884Z",
      "updatedAt": "2025-12-28T20:54:26.884Z",
      "stateName": "North Carolina",
      "countryName": "United States"
    },
    {
      "id": 2138,
      "stateId": 113,
      "name": "Grimes",
      "latitude": null,
      "longitude": null,
      "createdAt": "2025-12-28T18:10:59.078Z",
      "updatedAt": "2025-12-28T18:10:59.078Z",
      "stateName": "Iowa",
      "countryName": "United States"
    },
    {
      "id": 10847,
      "stateId": 2,
      "name": "Grimsby",
      "latitude": null,
      "longitude": null,
      "createdAt": "2025-12-28T18:58:06.197Z",
      "updatedAt": "2025-12-28T18:58:06.197Z",
      "stateName": "England",
      "countryName": "United Kingdom"
    },
    {
      "id": 7088,
      "stateId": 41,
      "name": "Grimsby",
      "latitude": null,
      "longitude": null,
      "createdAt": "2025-12-28T18:28:09.434Z",
      "updatedAt": "2025-12-28T18:28:09.434Z",
      "stateName": "Ontario",
      "countryName": "Canada"
    },
    {
      "id": 9246,
      "stateId": 113,
      "name": "Grinnell",
      "latitude": "37.8034989",
      "longitude": "-92.5169818",
      "createdAt": "2025-12-28T18:42:43.153Z",
      "updatedAt": "2025-12-28T18:42:43.153Z",
      "stateName": "Iowa",
      "countryName": "United States"
    },
    {
      "id": 10609,
      "stateId": 475,
      "name": "Griñón",
      "latitude": null,
      "longitude": null,
      "createdAt": "2025-12-28T18:55:39.590Z",
      "updatedAt": "2025-12-28T18:55:39.590Z",
      "stateName": "Community of Madrid",
      "countryName": "Spain"
    },
    {
      "id": 10828,
      "stateId": 1154,
      "name": "Grisons",
      "latitude": "47.0905051",
      "longitude": "8.0127230",
      "createdAt": "2025-12-28T18:57:54.287Z",
      "updatedAt": "2025-12-28T18:57:54.287Z",
      "stateName": "Graubünden",
      "countryName": "Switzerland"
    },
    {
      "id": 8216,
      "stateId": 231,
      "name": "Groaíras",
      "latitude": null,
      "longitude": null,
      "createdAt": "2025-12-28T18:36:28.197Z",
      "updatedAt": "2025-12-28T18:36:28.197Z",
      "stateName": "Ceará",
      "countryName": "Brazil"
    },
    {
      "id": 5712,
      "stateId": 9,
      "name": "Grodzisk Mazowiecki",
      "latitude": "52.1038700",
      "longitude": "20.6337000",
      "createdAt": "2025-12-28T18:21:58.725Z",
      "updatedAt": "2025-12-28T18:21:58.725Z",
      "stateName": "Masovia",
      "countryName": "Poland"
    },
    {
      "id": 1948,
      "stateId": 213,
      "name": "Groenlo",
      "latitude": null,
      "longitude": null,
      "createdAt": "2025-12-28T18:10:32.602Z",
      "updatedAt": "2025-12-28T18:10:32.602Z",
      "stateName": "Gelderland",
      "countryName": "Netherlands"
    },
    {
      "id": 5062,
      "stateId": 213,
      "name": "Groesbeek",
      "latitude": "51.7766700",
      "longitude": "5.9361100",
      "createdAt": "2025-12-28T18:19:30.516Z",
      "updatedAt": "2025-12-28T18:19:30.516Z",
      "stateName": "Gelderland",
      "countryName": "Netherlands"
    },
    {
      "id": 8356,
      "stateId": 226,
      "name": "Grolloo",
      "latitude": null,
      "longitude": null,
      "createdAt": "2025-12-28T18:37:28.604Z",
      "updatedAt": "2025-12-28T18:37:28.604Z",
      "stateName": "Drenthe",
      "countryName": "Netherlands"
    },
    {
      "id": 6031,
      "stateId": 432,
      "name": "Gronau",
      "latitude": "52.2109900",
      "longitude": "7.0223800",
      "createdAt": "2025-12-28T18:22:58.154Z",
      "updatedAt": "2025-12-28T18:22:58.154Z",
      "stateName": "North Rhine-Westphalia",
      "countryName": "Germany"
    },
    {
      "id": 476,
      "stateId": 227,
      "name": "Groningen",
      "latitude": "53.2191700",
      "longitude": "6.5666700",
      "createdAt": "2025-12-28T17:00:52.457Z",
      "updatedAt": "2025-12-28T17:00:52.457Z",
      "stateName": "Groningen",
      "countryName": "Netherlands"
    },
    {
      "id": 15583,
      "stateId": 551,
      "name": "Gros-Morne",
      "latitude": null,
      "longitude": null,
      "createdAt": "2025-12-28T20:11:29.503Z",
      "updatedAt": "2025-12-28T20:11:29.503Z",
      "stateName": "Artibonite",
      "countryName": "Haiti"
    },
    {
      "id": 11619,
      "stateId": 308,
      "name": "Gros-Morne",
      "latitude": null,
      "longitude": null,
      "createdAt": "2025-12-28T19:08:06.687Z",
      "updatedAt": "2025-12-28T19:08:06.687Z",
      "stateName": "Martinique",
      "countryName": "Lesser Antilles, France"
    },
    {
      "id": 9573,
      "stateId": 5,
      "name": "Grossenbrode",
      "latitude": null,
      "longitude": null,
      "createdAt": "2025-12-28T18:45:20.427Z",
      "updatedAt": "2025-12-28T18:45:20.427Z",
      "stateName": "Schleswig-Holstein",
      "countryName": "Germany"
    },
    {
      "id": 15656,
      "stateId": 92,
      "name": "Grosse Pointe Shores",
      "latitude": "37.8034989",
      "longitude": "-92.5169818",
      "createdAt": "2025-12-28T20:14:10.240Z",
      "updatedAt": "2025-12-28T20:14:10.240Z",
      "stateName": "Michigan",
      "countryName": "United States"
    },
    {
      "id": 13479,
      "stateId": 84,
      "name": "Großkrotzenburg",
      "latitude": null,
      "longitude": null,
      "createdAt": "2025-12-28T19:25:59.549Z",
      "updatedAt": "2025-12-28T19:25:59.549Z",
      "stateName": "Hesse",
      "countryName": "Germany"
    },
    {
      "id": 9981,
      "stateId": 47,
      "name": "Groton",
      "latitude": "37.8034989",
      "longitude": "-92.5169818",
      "createdAt": "2025-12-28T18:49:22.559Z",
      "updatedAt": "2025-12-28T18:49:22.559Z",
      "stateName": "Massachusetts",
      "countryName": "United States"
    },
    {
      "id": 15429,
      "stateId": 152,
      "name": "Groton",
      "latitude": "37.8034989",
      "longitude": "-92.5169818",
      "createdAt": "2025-12-28T20:05:34.703Z",
      "updatedAt": "2025-12-28T20:05:34.703Z",
      "stateName": "Connecticut",
      "countryName": "United States"
    },
    {
      "id": 3808,
      "stateId": 306,
      "name": "Grottaglie",
      "latitude": "40.5369400",
      "longitude": "17.4372300",
      "createdAt": "2025-12-28T18:15:16.677Z",
      "updatedAt": "2025-12-28T18:15:16.677Z",
      "stateName": "Apulia",
      "countryName": "Italy"
    },
    {
      "id": 10818,
      "stateId": 151,
      "name": "Grove",
      "latitude": "39.8814500",
      "longitude": "-83.0929600",
      "createdAt": "2025-12-28T18:57:52.158Z",
      "updatedAt": "2025-12-28T18:57:52.158Z",
      "stateName": "Oklahoma",
      "countryName": "United States"
    },
    {
      "id": 3308,
      "stateId": 14,
      "name": "Grove City",
      "latitude": "39.8814500",
      "longitude": "-83.0929600",
      "createdAt": "2025-12-28T18:14:12.331Z",
      "updatedAt": "2025-12-28T18:14:12.331Z",
      "stateName": "Ohio",
      "countryName": "United States"
    },
    {
      "id": 6008,
      "stateId": 68,
      "name": "Grove City",
      "latitude": "39.8814500",
      "longitude": "-83.0929600",
      "createdAt": "2025-12-28T18:22:50.384Z",
      "updatedAt": "2025-12-28T18:22:50.384Z",
      "stateName": "Pennsylvania",
      "countryName": "United States"
    },
    {
      "id": 5346,
      "stateId": 24,
      "name": "Grover Beach",
      "latitude": "37.8034989",
      "longitude": "-92.5169818",
      "createdAt": "2025-12-28T18:20:25.152Z",
      "updatedAt": "2025-12-28T18:20:25.152Z",
      "stateName": "California",
      "countryName": "United States"
    },
    {
      "id": 12465,
      "stateId": 20,
      "name": "Groves",
      "latitude": "29.9482700",
      "longitude": "-93.9171200",
      "createdAt": "2025-12-28T19:15:59.240Z",
      "updatedAt": "2025-12-28T19:15:59.240Z",
      "stateName": "Texas",
      "countryName": "United States"
    },
    {
      "id": 7942,
      "stateId": 114,
      "name": "Groveton",
      "latitude": null,
      "longitude": null,
      "createdAt": "2025-12-28T18:33:09.348Z",
      "updatedAt": "2025-12-28T18:33:09.348Z",
      "stateName": "New Hampshire",
      "countryName": "United States"
    },
    {
      "id": 9423,
      "stateId": 572,
      "name": "Grudziadz",
      "latitude": "51.8024603",
      "longitude": "19.2550087",
      "createdAt": "2025-12-28T18:44:09.465Z",
      "updatedAt": "2025-12-28T18:44:09.465Z",
      "stateName": "Kuyavian-Pomeranian",
      "countryName": "Poland"
    },
    {
      "id": 9549,
      "stateId": 84,
      "name": "Gründau",
      "latitude": null,
      "longitude": null,
      "createdAt": "2025-12-28T18:45:11.762Z",
      "updatedAt": "2025-12-28T18:45:11.762Z",
      "stateName": "Hesse",
      "countryName": "Germany"
    },
    {
      "id": 16627,
      "stateId": 50,
      "name": "Grundy",
      "latitude": "37.8034989",
      "longitude": "-92.5169818",
      "createdAt": "2025-12-28T20:48:26.026Z",
      "updatedAt": "2025-12-28T20:48:26.026Z",
      "stateName": "Virginia",
      "countryName": "United States"
    },
    {
      "id": 11711,
      "stateId": 113,
      "name": "Grundy Center",
      "latitude": "37.8034989",
      "longitude": "-92.5169818",
      "createdAt": "2025-12-28T19:08:42.596Z",
      "updatedAt": "2025-12-28T19:08:42.596Z",
      "stateName": "Iowa",
      "countryName": "United States"
    },
    {
      "id": 10877,
      "stateId": 293,
      "name": "Guabiruba",
      "latitude": null,
      "longitude": null,
      "createdAt": "2025-12-28T18:58:35.875Z",
      "updatedAt": "2025-12-28T18:58:35.875Z",
      "stateName": "Santa Catarina",
      "countryName": "Brazil"
    },
    {
      "id": 9703,
      "stateId": 299,
      "name": "Guacara",
      "latitude": null,
      "longitude": null,
      "createdAt": "2025-12-28T18:46:52.520Z",
      "updatedAt": "2025-12-28T18:46:52.520Z",
      "stateName": "Carabobo",
      "countryName": "Venezuela"
    },
    {
      "id": 14977,
      "stateId": 333,
      "name": "Guachochi",
      "latitude": "21.0459460",
      "longitude": "-100.0405298",
      "createdAt": "2025-12-28T19:51:36.969Z",
      "updatedAt": "2025-12-28T19:51:36.969Z",
      "stateName": "Chihuahua",
      "countryName": "Mexico"
    },
    {
      "id": 3064,
      "stateId": 354,
      "name": "Guachucal",
      "latitude": null,
      "longitude": null,
      "createdAt": "2025-12-28T18:13:37.266Z",
      "updatedAt": "2025-12-28T18:13:37.266Z",
      "stateName": "Narino",
      "countryName": "Colombia"
    },
    {
      "id": 10909,
      "stateId": 261,
      "name": "Guaçuí",
      "latitude": null,
      "longitude": null,
      "createdAt": "2025-12-28T18:59:02.447Z",
      "updatedAt": "2025-12-28T18:59:02.447Z",
      "stateName": "Espírito Santo",
      "countryName": "Brazil"
    },
    {
      "id": 3959,
      "stateId": 133,
      "name": "Guadalajara",
      "latitude": "40.6286200",
      "longitude": "-3.1618500",
      "createdAt": "2025-12-28T18:15:44.070Z",
      "updatedAt": "2025-12-28T18:15:44.070Z",
      "stateName": "Castile-La Mancha",
      "countryName": "Spain"
    },
    {
      "id": 700,
      "stateId": 99,
      "name": "Guadalajara",
      "latitude": "20.6668200",
      "longitude": "-103.3918200",
      "createdAt": "2025-12-28T17:02:08.975Z",
      "updatedAt": "2025-12-28T17:02:08.975Z",
      "stateName": "Jalisco",
      "countryName": "Mexico"
    },
    {
      "id": 10905,
      "stateId": 326,
      "name": "Guadalupe",
      "latitude": "25.6767800",
      "longitude": "-100.2564600",
      "createdAt": "2025-12-28T18:58:50.135Z",
      "updatedAt": "2025-12-28T18:58:50.135Z",
      "stateName": "Nuevo León",
      "countryName": "Mexico"
    },
    {
      "id": 11335,
      "stateId": 330,
      "name": "Guadalupe",
      "latitude": null,
      "longitude": null,
      "createdAt": "2025-12-28T19:04:33.455Z",
      "updatedAt": "2025-12-28T19:04:33.455Z",
      "stateName": "Huila",
      "countryName": "Colombia"
    },
    {
      "id": 10319,
      "stateId": 24,
      "name": "Guadalupe",
      "latitude": "37.8034989",
      "longitude": "-92.5169818",
      "createdAt": "2025-12-28T18:52:05.004Z",
      "updatedAt": "2025-12-28T18:52:05.004Z",
      "stateName": "California",
      "countryName": "United States"
    },
    {
      "id": 10913,
      "stateId": 375,
      "name": "Guadalupe",
      "latitude": null,
      "longitude": null,
      "createdAt": "2025-12-28T18:59:05.361Z",
      "updatedAt": "2025-12-28T18:59:05.361Z",
      "stateName": "Zacatecas",
      "countryName": "Mexico"
    },
    {
      "id": 6375,
      "stateId": 809,
      "name": "Guadix",
      "latitude": null,
      "longitude": null,
      "createdAt": "2025-12-28T18:24:55.928Z",
      "updatedAt": "2025-12-28T18:24:55.928Z",
      "stateName": "Granada",
      "countryName": "Spain"
    },
    {
      "id": 8921,
      "stateId": 127,
      "name": "Guadix",
      "latitude": "37.2993200",
      "longitude": "-3.1392200",
      "createdAt": "2025-12-28T18:41:00.682Z",
      "updatedAt": "2025-12-28T18:41:00.682Z",
      "stateName": "Andalusia",
      "countryName": "Spain"
    },
    {
      "id": 7737,
      "stateId": 29,
      "name": "Guaduas",
      "latitude": null,
      "longitude": null,
      "createdAt": "2025-12-28T18:31:25.977Z",
      "updatedAt": "2025-12-28T18:31:25.977Z",
      "stateName": "Cundinamarca",
      "countryName": "Colombia"
    },
    {
      "id": 17398,
      "stateId": 205,
      "name": "Guaíba",
      "latitude": "-30.1138900",
      "longitude": "-51.3250000",
      "createdAt": "2026-01-04T21:30:45.583Z",
      "updatedAt": "2026-01-04T21:30:45.583Z",
      "stateName": "Rio Grande do Sul",
      "countryName": "Brazil"
    },
    {
      "id": 2446,
      "stateId": 597,
      "name": "Guaimaro",
      "latitude": "21.9188372",
      "longitude": "-79.5551312",
      "createdAt": "2025-12-28T18:12:14.263Z",
      "updatedAt": "2025-12-28T18:12:14.263Z",
      "stateName": "Camaguey",
      "countryName": "Cuba"
    },
    {
      "id": 17594,
      "stateId": 4,
      "name": "Guaimbe",
      "latitude": null,
      "longitude": null,
      "createdAt": "2026-01-26T01:00:30.189Z",
      "updatedAt": "2026-01-26T01:00:30.189Z",
      "stateName": "São Paulo",
      "countryName": "Brazil"
    },
    {
      "id": 7308,
      "stateId": 137,
      "name": "Guaira",
      "latitude": null,
      "longitude": null,
      "createdAt": "2025-12-28T18:29:30.621Z",
      "updatedAt": "2025-12-28T18:29:30.621Z",
      "stateName": "Paraná",
      "countryName": "Brazil"
    },
    {
      "id": 18153,
      "stateId": 4,
      "name": "Guaíra",
      "latitude": null,
      "longitude": null,
      "createdAt": "2026-04-02T18:24:27.833Z",
      "updatedAt": "2026-04-02T18:24:27.833Z",
      "stateName": "São Paulo",
      "countryName": "Brazil"
    },
    {
      "id": 7705,
      "stateId": 231,
      "name": "Guaiuba",
      "latitude": "-17.4339069",
      "longitude": "-45.8426650",
      "createdAt": "2025-12-28T18:31:13.584Z",
      "updatedAt": "2025-12-28T18:31:13.584Z",
      "stateName": "Ceará",
      "countryName": "Brazil"
    },
    {
      "id": 5679,
      "stateId": 238,
      "name": "Guajara",
      "latitude": "-17.4339069",
      "longitude": "-45.8426650",
      "createdAt": "2025-12-28T18:21:52.264Z",
      "updatedAt": "2025-12-28T18:21:52.264Z",
      "stateName": "Amazonas",
      "countryName": "Brazil"
    },
    {
      "id": 8827,
      "stateId": 652,
      "name": "Guajará-Mirim",
      "latitude": null,
      "longitude": null,
      "createdAt": "2025-12-28T18:40:33.469Z",
      "updatedAt": "2025-12-28T18:40:33.469Z",
      "stateName": "Rondônia",
      "countryName": "Brazil"
    },
    {
      "id": 7701,
      "stateId": 262,
      "name": "Guajeru",
      "latitude": null,
      "longitude": null,
      "createdAt": "2025-12-28T18:31:12.316Z",
      "updatedAt": "2025-12-28T18:31:12.316Z",
      "stateName": "Bahia",
      "countryName": "Brazil"
    },
    {
      "id": 8949,
      "stateId": 24,
      "name": "Gualala",
      "latitude": "37.8034989",
      "longitude": "-92.5169818",
      "createdAt": "2025-12-28T18:41:07.617Z",
      "updatedAt": "2025-12-28T18:41:07.617Z",
      "stateName": "California",
      "countryName": "United States"
    },
    {
      "id": 9188,
      "stateId": 247,
      "name": "Gualdo Tadino",
      "latitude": "42.4957616",
      "longitude": "12.4479260",
      "createdAt": "2025-12-28T18:42:28.713Z",
      "updatedAt": "2025-12-28T18:42:28.713Z",
      "stateName": "Umbria",
      "countryName": "Italy"
    },
    {
      "id": 611,
      "stateId": 209,
      "name": "Gualeguay",
      "latitude": "-33.1415600",
      "longitude": "-59.3096600",
      "createdAt": "2025-12-28T17:01:12.975Z",
      "updatedAt": "2025-12-28T17:01:12.975Z",
      "stateName": "Entre Rios",
      "countryName": "Argentina"
    },
    {
      "id": 1522,
      "stateId": 209,
      "name": "Gualeguaychu",
      "latitude": "-32.1628172",
      "longitude": "-62.0921509",
      "createdAt": "2025-12-28T17:04:38.827Z",
      "updatedAt": "2025-12-28T17:04:38.827Z",
      "stateName": "Entre Rios",
      "countryName": "Argentina"
    },
    {
      "id": 7763,
      "stateId": 981,
      "name": "Guamá",
      "latitude": null,
      "longitude": null,
      "createdAt": "2025-12-28T18:31:35.618Z",
      "updatedAt": "2025-12-28T18:31:35.618Z",
      "stateName": "Santiago de Cuba",
      "countryName": "Cuba"
    },
    {
      "id": 9344,
      "stateId": 338,
      "name": "Guamal",
      "latitude": null,
      "longitude": null,
      "createdAt": "2025-12-28T18:43:52.394Z",
      "updatedAt": "2025-12-28T18:43:52.394Z",
      "stateName": "Magdalena",
      "countryName": "Colombia"
    },
    {
      "id": 7473,
      "stateId": 186,
      "name": "Guamaré",
      "latitude": null,
      "longitude": null,
      "createdAt": "2025-12-28T18:30:19.502Z",
      "updatedAt": "2025-12-28T18:30:19.502Z",
      "stateName": "Rio Grande do Norte",
      "countryName": "Brazil"
    },
    {
      "id": 9162,
      "stateId": 364,
      "name": "Guambia",
      "latitude": null,
      "longitude": null,
      "createdAt": "2025-12-28T18:42:14.903Z",
      "updatedAt": "2025-12-28T18:42:14.903Z",
      "stateName": "Cauca",
      "countryName": "Colombia"
    },
    {
      "id": 7203,
      "stateId": 365,
      "name": "Guamo",
      "latitude": null,
      "longitude": null,
      "createdAt": "2025-12-28T18:28:47.310Z",
      "updatedAt": "2025-12-28T18:28:47.310Z",
      "stateName": "Tolima",
      "countryName": "Colombia"
    },
    {
      "id": 8765,
      "stateId": 654,
      "name": "Guamote",
      "latitude": null,
      "longitude": null,
      "createdAt": "2025-12-28T18:40:10.326Z",
      "updatedAt": "2025-12-28T18:40:10.326Z",
      "stateName": "Chimborazo",
      "countryName": "Ecuador"
    },
    {
      "id": 10912,
      "stateId": 371,
      "name": "Guamuchil",
      "latitude": "21.0459460",
      "longitude": "-100.0405298",
      "createdAt": "2025-12-28T18:59:04.640Z",
      "updatedAt": "2025-12-28T18:59:04.640Z",
      "stateName": "Sinaloa",
      "countryName": "Mexico"
    },
    {
      "id": 7983,
      "stateId": 304,
      "name": "Guanajuato",
      "latitude": "21.0185800",
      "longitude": "-101.2591000",
      "createdAt": "2025-12-28T18:33:53.345Z",
      "updatedAt": "2025-12-28T18:33:53.345Z",
      "stateName": "Guanajuato",
      "countryName": "Mexico"
    },
    {
      "id": 2965,
      "stateId": 262,
      "name": "Guanambi",
      "latitude": "-14.2233300",
      "longitude": "-42.7813900",
      "createdAt": "2025-12-28T18:13:23.556Z",
      "updatedAt": "2025-12-28T18:13:23.556Z",
      "stateName": "Bahia",
      "countryName": "Brazil"
    },
    {
      "id": 3272,
      "stateId": 445,
      "name": "Guanare",
      "latitude": "9.0418300",
      "longitude": "-69.7420600",
      "createdAt": "2025-12-28T18:14:08.386Z",
      "updatedAt": "2025-12-28T18:14:08.386Z",
      "stateName": "Portuguesa",
      "countryName": "Venezuela"
    },
    {
      "id": 18338,
      "stateId": 962,
      "name": "Guangzhou",
      "latitude": "23.1166700",
      "longitude": "113.2500000",
      "createdAt": "2026-05-17T15:41:53.992Z",
      "updatedAt": "2026-05-17T15:41:53.992Z",
      "stateName": "Guangdong Province",
      "countryName": "China"
    },
    {
      "id": 6843,
      "stateId": 95,
      "name": "Guanhaes",
      "latitude": "-17.4339069",
      "longitude": "-45.8426650",
      "createdAt": "2025-12-28T18:27:21.026Z",
      "updatedAt": "2025-12-28T18:27:21.026Z",
      "stateName": "Minas Gerais",
      "countryName": "Brazil"
    },
    {
      "id": 2318,
      "stateId": 585,
      "name": "Guantánamo",
      "latitude": "20.1444400",
      "longitude": "-75.2091700",
      "createdAt": "2025-12-28T18:11:44.214Z",
      "updatedAt": "2025-12-28T18:11:44.214Z",
      "stateName": "Guantanamo",
      "countryName": "Cuba"
    },
    {
      "id": 6985,
      "stateId": 4,
      "name": "Guapiaçu",
      "latitude": null,
      "longitude": null,
      "createdAt": "2025-12-28T18:27:40.300Z",
      "updatedAt": "2025-12-28T18:27:40.300Z",
      "stateName": "São Paulo",
      "countryName": "Brazil"
    },
    {
      "id": 9666,
      "stateId": 253,
      "name": "Guapo",
      "latitude": null,
      "longitude": null,
      "createdAt": "2025-12-28T18:46:21.282Z",
      "updatedAt": "2025-12-28T18:46:21.282Z",
      "stateName": "Goiás",
      "countryName": "Brazil"
    },
    {
      "id": 4342,
      "stateId": 205,
      "name": "Guaporé",
      "latitude": "-28.8455600",
      "longitude": "-51.8902800",
      "createdAt": "2025-12-28T18:17:09.521Z",
      "updatedAt": "2025-12-28T18:17:09.521Z",
      "stateName": "Rio Grande do Sul",
      "countryName": "Brazil"
    },
    {
      "id": 10889,
      "stateId": 288,
      "name": "Guara",
      "latitude": null,
      "longitude": null,
      "createdAt": "2025-12-28T18:58:40.120Z",
      "updatedAt": "2025-12-28T18:58:40.120Z",
      "stateName": "Distrito Federal",
      "countryName": "Brazil"
    },
    {
      "id": 7461,
      "stateId": 4,
      "name": "Guará",
      "latitude": null,
      "longitude": null,
      "createdAt": "2025-12-28T18:30:18.454Z",
      "updatedAt": "2025-12-28T18:30:18.454Z",
      "stateName": "São Paulo",
      "countryName": "Brazil"
    },
    {
      "id": 923,
      "stateId": 287,
      "name": "Guarabira",
      "latitude": "-6.8547200",
      "longitude": "-35.4900000",
      "createdAt": "2025-12-28T17:02:28.326Z",
      "updatedAt": "2025-12-28T17:02:28.326Z",
      "stateName": "Paraíba",
      "countryName": "Brazil"
    },
    {
      "id": 17786,
      "stateId": 4,
      "name": "Guaraçaí",
      "latitude": null,
      "longitude": null,
      "createdAt": "2026-02-24T04:11:13.503Z",
      "updatedAt": "2026-02-24T04:11:13.503Z",
      "stateName": "São Paulo",
      "countryName": "Brazil"
    },
    {
      "id": 18124,
      "stateId": 293,
      "name": "Guaraciaba",
      "latitude": "-4.1669400",
      "longitude": "-40.7475000",
      "createdAt": "2026-03-31T02:32:34.097Z",
      "updatedAt": "2026-03-31T02:32:34.097Z",
      "stateName": "Santa Catarina",
      "countryName": "Brazil"
    },
    {
      "id": 6535,
      "stateId": 231,
      "name": "Guaraciaba",
      "latitude": "-4.1669400",
      "longitude": "-40.7475000",
      "createdAt": "2025-12-28T18:25:44.950Z",
      "updatedAt": "2025-12-28T18:25:44.950Z",
      "stateName": "Ceará",
      "countryName": "Brazil"
    },
    {
      "id": 6540,
      "stateId": 231,
      "name": "Guaraciaba do Norte",
      "latitude": null,
      "longitude": null,
      "createdAt": "2025-12-28T18:25:45.621Z",
      "updatedAt": "2025-12-28T18:25:45.621Z",
      "stateName": "Ceará",
      "countryName": "Brazil"
    },
    {
      "id": 15771,
      "stateId": 595,
      "name": "Guaraí",
      "latitude": null,
      "longitude": null,
      "createdAt": "2025-12-28T20:19:02.417Z",
      "updatedAt": "2025-12-28T20:19:02.417Z",
      "stateName": "Tocantins",
      "countryName": "Brazil"
    },
    {
      "id": 10884,
      "stateId": 231,
      "name": "Guaramiranga",
      "latitude": null,
      "longitude": null,
      "createdAt": "2025-12-28T18:58:38.778Z",
      "updatedAt": "2025-12-28T18:58:38.778Z",
      "stateName": "Ceará",
      "countryName": "Brazil"
    },
    {
      "id": 7907,
      "stateId": 293,
      "name": "Guaramirim",
      "latitude": "-26.4730600",
      "longitude": "-49.0027800",
      "createdAt": "2025-12-28T18:32:55.902Z",
      "updatedAt": "2025-12-28T18:32:55.902Z",
      "stateName": "Santa Catarina",
      "countryName": "Brazil"
    },
    {
      "id": 7812,
      "stateId": 95,
      "name": "Guaranésia",
      "latitude": null,
      "longitude": null,
      "createdAt": "2025-12-28T18:32:16.049Z",
      "updatedAt": "2025-12-28T18:32:16.049Z",
      "stateName": "Minas Gerais",
      "countryName": "Brazil"
    },
    {
      "id": 10886,
      "stateId": 95,
      "name": "Guarani",
      "latitude": null,
      "longitude": null,
      "createdAt": "2025-12-28T18:58:38.855Z",
      "updatedAt": "2025-12-28T18:58:38.855Z",
      "stateName": "Minas Gerais",
      "countryName": "Brazil"
    },
    {
      "id": 1098,
      "stateId": 137,
      "name": "Guaraniacu",
      "latitude": "-17.4339069",
      "longitude": "-45.8426650",
      "createdAt": "2025-12-28T17:02:48.092Z",
      "updatedAt": "2025-12-28T17:02:48.092Z",
      "stateName": "Paraná",
      "countryName": "Brazil"
    },
    {
      "id": 6293,
      "stateId": 205,
      "name": "Guarani das Missões",
      "latitude": "-17.4339069",
      "longitude": "-45.8426650",
      "createdAt": "2025-12-28T18:24:34.286Z",
      "updatedAt": "2025-12-28T18:24:34.286Z",
      "stateName": "Rio Grande do Sul",
      "countryName": "Brazil"
    }
  ],
  "meta": {
    "page": 64,
    "limit": 100,
    "total": 18002,
    "totalPages": 181
  }
}
