{
  "source": "50k-radio-stations",
  "provider": "rapidapi",
  "syncedAt": "2026-06-03T13:04:04.201Z",
  "endpoint": "/cities",
  "page": 6,
  "limit": 250,
  "data": [
    {
      "id": 11035,
      "stateId": 47,
      "name": "Amherst",
      "latitude": "42.3753700",
      "longitude": "-72.5192500",
      "createdAt": "2025-12-28T19:00:28.504Z",
      "updatedAt": "2025-12-28T19:00:28.504Z",
      "stateName": "Massachusetts",
      "countryName": "United States"
    },
    {
      "id": 3332,
      "stateId": 679,
      "name": "Amiens",
      "latitude": "49.9000000",
      "longitude": "2.3000000",
      "createdAt": "2025-12-28T18:14:14.544Z",
      "updatedAt": "2025-12-28T18:14:14.544Z",
      "stateName": "Picardy",
      "countryName": "France"
    },
    {
      "id": 16810,
      "stateId": 16,
      "name": "Amite",
      "latitude": "37.8034989",
      "longitude": "-92.5169818",
      "createdAt": "2025-12-28T20:52:21.708Z",
      "updatedAt": "2025-12-28T20:52:21.708Z",
      "stateName": "Louisiana",
      "countryName": "United States"
    },
    {
      "id": 14274,
      "stateId": 6,
      "name": "Amityville",
      "latitude": "40.6976000",
      "longitude": "-73.4251200",
      "createdAt": "2025-12-28T19:43:04.940Z",
      "updatedAt": "2025-12-28T19:43:04.940Z",
      "stateName": "New York",
      "countryName": "United States"
    },
    {
      "id": 11475,
      "stateId": 110,
      "name": "Ammon",
      "latitude": "41.5833700",
      "longitude": "-87.5000400",
      "createdAt": "2025-12-28T19:05:57.152Z",
      "updatedAt": "2025-12-28T19:05:57.152Z",
      "stateName": "Idaho",
      "countryName": "United States"
    },
    {
      "id": 12731,
      "stateId": 583,
      "name": "Amolatar",
      "latitude": null,
      "longitude": null,
      "createdAt": "2025-12-28T19:18:07.776Z",
      "updatedAt": "2025-12-28T19:18:07.776Z",
      "stateName": "Northern Region",
      "countryName": "Uganda"
    },
    {
      "id": 4949,
      "stateId": 231,
      "name": "Amontada",
      "latitude": "-17.4339069",
      "longitude": "-45.8426650",
      "createdAt": "2025-12-28T18:19:15.830Z",
      "updatedAt": "2025-12-28T18:19:15.830Z",
      "stateName": "Ceará",
      "countryName": "Brazil"
    },
    {
      "id": 16298,
      "stateId": 401,
      "name": "Amory",
      "latitude": "37.8034989",
      "longitude": "-92.5169818",
      "createdAt": "2025-12-28T20:40:55.859Z",
      "updatedAt": "2025-12-28T20:40:55.859Z",
      "stateName": "Mississippi",
      "countryName": "United States"
    },
    {
      "id": 5658,
      "stateId": 258,
      "name": "Amos",
      "latitude": "48.5668800",
      "longitude": "-78.1162400",
      "createdAt": "2025-12-28T18:21:49.282Z",
      "updatedAt": "2025-12-28T18:21:49.282Z",
      "stateName": "Quebec",
      "countryName": "Canada"
    },
    {
      "id": 3296,
      "stateId": 676,
      "name": "Ampana",
      "latitude": null,
      "longitude": null,
      "createdAt": "2025-12-28T18:14:11.242Z",
      "updatedAt": "2025-12-28T18:14:11.242Z",
      "stateName": "Central Sulawesi",
      "countryName": "Indonesia"
    },
    {
      "id": 2429,
      "stateId": 4,
      "name": "Amparo",
      "latitude": "-22.7011100",
      "longitude": "-46.7644400",
      "createdAt": "2025-12-28T18:12:13.050Z",
      "updatedAt": "2025-12-28T18:12:13.050Z",
      "stateName": "São Paulo",
      "countryName": "Brazil"
    },
    {
      "id": 986,
      "stateId": 137,
      "name": "Ampére",
      "latitude": null,
      "longitude": null,
      "createdAt": "2025-12-28T17:02:32.268Z",
      "updatedAt": "2025-12-28T17:02:32.268Z",
      "stateName": "Paraná",
      "countryName": "Brazil"
    },
    {
      "id": 6596,
      "stateId": 258,
      "name": "Amqui",
      "latitude": "46.9909847",
      "longitude": "-87.5986915",
      "createdAt": "2025-12-28T18:26:06.312Z",
      "updatedAt": "2025-12-28T18:26:06.312Z",
      "stateName": "Quebec",
      "countryName": "Canada"
    },
    {
      "id": 2688,
      "stateId": 54,
      "name": "Amravati",
      "latitude": null,
      "longitude": null,
      "createdAt": "2025-12-28T18:12:40.449Z",
      "updatedAt": "2025-12-28T18:12:40.449Z",
      "stateName": "Maharashtra",
      "countryName": "India"
    },
    {
      "id": 2939,
      "stateId": 337,
      "name": "Amritsar",
      "latitude": "31.6366100",
      "longitude": "74.8747600",
      "createdAt": "2025-12-28T18:13:06.831Z",
      "updatedAt": "2025-12-28T18:13:06.831Z",
      "stateName": "Punjab",
      "countryName": "India"
    },
    {
      "id": 9644,
      "stateId": 6,
      "name": "Amsterdam",
      "latitude": "42.9386900",
      "longitude": "-74.1881900",
      "createdAt": "2025-12-28T18:46:04.752Z",
      "updatedAt": "2025-12-28T18:46:04.752Z",
      "stateName": "New York",
      "countryName": "United States"
    },
    {
      "id": 75,
      "stateId": 52,
      "name": "Amsterdam",
      "latitude": "52.3740300",
      "longitude": "4.8896900",
      "createdAt": "2025-12-28T16:56:21.326Z",
      "updatedAt": "2025-12-28T16:56:21.326Z",
      "stateName": "North Holland",
      "countryName": "Netherlands"
    },
    {
      "id": 17826,
      "stateId": 713,
      "name": "Amstetten",
      "latitude": "48.1229000",
      "longitude": "14.8720600",
      "createdAt": "2026-03-03T07:59:40.526Z",
      "updatedAt": "2026-03-03T07:59:40.526Z",
      "stateName": "Niederosterreich",
      "countryName": "Austria"
    },
    {
      "id": 3048,
      "stateId": 399,
      "name": "Anaco",
      "latitude": null,
      "longitude": null,
      "createdAt": "2025-12-28T18:13:35.730Z",
      "updatedAt": "2025-12-28T18:13:35.730Z",
      "stateName": "Anzoategui",
      "countryName": "Venezuela"
    },
    {
      "id": 13300,
      "stateId": 16,
      "name": "Anacoco",
      "latitude": null,
      "longitude": null,
      "createdAt": "2025-12-28T19:22:52.607Z",
      "updatedAt": "2025-12-28T19:22:52.607Z",
      "stateName": "Louisiana",
      "countryName": "United States"
    },
    {
      "id": 13268,
      "stateId": 151,
      "name": "Anadarko",
      "latitude": "37.8034989",
      "longitude": "-92.5169818",
      "createdAt": "2025-12-28T19:22:28.638Z",
      "updatedAt": "2025-12-28T19:22:28.638Z",
      "stateName": "Oklahoma",
      "countryName": "United States"
    },
    {
      "id": 3580,
      "stateId": 274,
      "name": "Anadia",
      "latitude": null,
      "longitude": null,
      "createdAt": "2025-12-28T18:14:53.313Z",
      "updatedAt": "2025-12-28T18:14:53.313Z",
      "stateName": "Alagoas",
      "countryName": "Brazil"
    },
    {
      "id": 15209,
      "stateId": 1290,
      "name": "Anadyr",
      "latitude": null,
      "longitude": null,
      "createdAt": "2025-12-28T19:58:26.933Z",
      "updatedAt": "2025-12-28T19:58:26.933Z",
      "stateName": "Chukotka",
      "countryName": "Russia"
    },
    {
      "id": 39,
      "stateId": 24,
      "name": "Anaheim",
      "latitude": "33.8352900",
      "longitude": "-117.9145000",
      "createdAt": "2025-12-28T16:36:32.583Z",
      "updatedAt": "2025-12-28T16:36:32.583Z",
      "stateName": "California",
      "countryName": "United States"
    },
    {
      "id": 15894,
      "stateId": 4,
      "name": "Analândia",
      "latitude": null,
      "longitude": null,
      "createdAt": "2025-12-28T20:21:33.657Z",
      "updatedAt": "2025-12-28T20:21:33.657Z",
      "stateName": "São Paulo",
      "countryName": "Brazil"
    },
    {
      "id": 15628,
      "stateId": 238,
      "name": "Anamã",
      "latitude": null,
      "longitude": null,
      "createdAt": "2025-12-28T20:12:49.006Z",
      "updatedAt": "2025-12-28T20:12:49.006Z",
      "stateName": "Amazonas",
      "countryName": "Brazil"
    },
    {
      "id": 8715,
      "stateId": 77,
      "name": "Anambra",
      "latitude": "5.9357600",
      "longitude": "7.0793000",
      "createdAt": "2025-12-28T18:39:45.430Z",
      "updatedAt": "2025-12-28T18:39:45.430Z",
      "stateName": "Katsina State",
      "countryName": "Nigeria"
    },
    {
      "id": 11731,
      "stateId": 113,
      "name": "Anamosa",
      "latitude": "37.8034989",
      "longitude": "-92.5169818",
      "createdAt": "2025-12-28T19:08:49.809Z",
      "updatedAt": "2025-12-28T19:08:49.809Z",
      "stateName": "Iowa",
      "countryName": "United States"
    },
    {
      "id": 6947,
      "stateId": 159,
      "name": "Ananindeua",
      "latitude": "-1.3655600",
      "longitude": "-48.3722200",
      "createdAt": "2025-12-28T18:27:36.290Z",
      "updatedAt": "2025-12-28T18:27:36.290Z",
      "stateName": "Pará",
      "countryName": "Brazil"
    },
    {
      "id": 17893,
      "stateId": 380,
      "name": "Anantapur",
      "latitude": "21.6224148",
      "longitude": "79.1259549",
      "createdAt": "2026-03-11T22:40:16.632Z",
      "updatedAt": "2026-03-11T22:40:16.632Z",
      "stateName": "Andhra Pradesh",
      "countryName": "India"
    },
    {
      "id": 2632,
      "stateId": 380,
      "name": "Anantpur",
      "latitude": "21.6224148",
      "longitude": "79.1259549",
      "createdAt": "2025-12-28T18:12:38.070Z",
      "updatedAt": "2025-12-28T18:12:38.070Z",
      "stateName": "Andhra Pradesh",
      "countryName": "India"
    },
    {
      "id": 9236,
      "stateId": 479,
      "name": "Anapa",
      "latitude": null,
      "longitude": null,
      "createdAt": "2025-12-28T18:42:40.570Z",
      "updatedAt": "2025-12-28T18:42:40.570Z",
      "stateName": "Krasnodar",
      "countryName": "Russia"
    },
    {
      "id": 616,
      "stateId": 253,
      "name": "Anápolis",
      "latitude": "-16.3266700",
      "longitude": "-48.9527800",
      "createdAt": "2025-12-28T17:01:13.302Z",
      "updatedAt": "2025-12-28T17:01:13.302Z",
      "stateName": "Goiás",
      "countryName": "Brazil"
    },
    {
      "id": 6863,
      "stateId": 159,
      "name": "Anapu",
      "latitude": null,
      "longitude": null,
      "createdAt": "2025-12-28T18:27:23.553Z",
      "updatedAt": "2025-12-28T18:27:23.553Z",
      "stateName": "Pará",
      "countryName": "Brazil"
    },
    {
      "id": 1945,
      "stateId": 369,
      "name": "Anastácio",
      "latitude": null,
      "longitude": null,
      "createdAt": "2025-12-28T18:10:32.468Z",
      "updatedAt": "2025-12-28T18:10:32.468Z",
      "stateName": "Mato Grosso do Sul",
      "countryName": "Brazil"
    },
    {
      "id": 3476,
      "stateId": 336,
      "name": "Añatuya",
      "latitude": null,
      "longitude": null,
      "createdAt": "2025-12-28T18:14:35.305Z",
      "updatedAt": "2025-12-28T18:14:35.305Z",
      "stateName": "Santiago del Estero",
      "countryName": "Argentina"
    },
    {
      "id": 15994,
      "stateId": 369,
      "name": "Anaurilândia",
      "latitude": null,
      "longitude": null,
      "createdAt": "2025-12-28T20:25:44.418Z",
      "updatedAt": "2025-12-28T20:25:44.418Z",
      "stateName": "Mato Grosso do Sul",
      "countryName": "Brazil"
    },
    {
      "id": 3512,
      "stateId": 261,
      "name": "Anchieta",
      "latitude": "-17.4339069",
      "longitude": "-45.8426650",
      "createdAt": "2025-12-28T18:14:42.478Z",
      "updatedAt": "2025-12-28T18:14:42.478Z",
      "stateName": "Espírito Santo",
      "countryName": "Brazil"
    },
    {
      "id": 60,
      "stateId": 45,
      "name": "Anchorage",
      "latitude": "61.2180600",
      "longitude": "-149.9002800",
      "createdAt": "2025-12-28T16:56:20.406Z",
      "updatedAt": "2025-12-28T16:56:20.406Z",
      "stateName": "Alaska",
      "countryName": "United States"
    },
    {
      "id": 17914,
      "stateId": 1387,
      "name": "Ancona",
      "latitude": "42.4957616",
      "longitude": "12.4479260",
      "createdAt": "2026-03-13T04:11:05.236Z",
      "updatedAt": "2026-03-13T04:11:05.236Z",
      "stateName": "Marche",
      "countryName": "Italy"
    },
    {
      "id": 3916,
      "stateId": 521,
      "name": "Ancona",
      "latitude": "43.5942000",
      "longitude": "13.5033700",
      "createdAt": "2025-12-28T18:15:37.666Z",
      "updatedAt": "2025-12-28T18:15:37.666Z",
      "stateName": "Ancona",
      "countryName": "Italy"
    },
    {
      "id": 6706,
      "stateId": 358,
      "name": "Ancud",
      "latitude": "-41.8707000",
      "longitude": "-73.8162200",
      "createdAt": "2025-12-28T18:26:44.385Z",
      "updatedAt": "2025-12-28T18:26:44.385Z",
      "stateName": "Concepcion",
      "countryName": "Chile"
    },
    {
      "id": 7986,
      "stateId": 1007,
      "name": "Ancud",
      "latitude": null,
      "longitude": null,
      "createdAt": "2025-12-28T18:33:53.760Z",
      "updatedAt": "2025-12-28T18:33:53.760Z",
      "stateName": "Chiloé",
      "countryName": "Chile"
    },
    {
      "id": 7962,
      "stateId": 381,
      "name": "Andacollo",
      "latitude": null,
      "longitude": null,
      "createdAt": "2025-12-28T18:33:33.673Z",
      "updatedAt": "2025-12-28T18:33:33.673Z",
      "stateName": "Neuquén",
      "countryName": "Argentina"
    },
    {
      "id": 3494,
      "stateId": 690,
      "name": "Andahuaylas",
      "latitude": null,
      "longitude": null,
      "createdAt": "2025-12-28T18:14:39.145Z",
      "updatedAt": "2025-12-28T18:14:39.145Z",
      "stateName": "Andahuaylas",
      "countryName": "Peru"
    },
    {
      "id": 3570,
      "stateId": 266,
      "name": "Andalgala",
      "latitude": "-32.1628172",
      "longitude": "-62.0921509",
      "createdAt": "2025-12-28T18:14:51.048Z",
      "updatedAt": "2025-12-28T18:14:51.048Z",
      "stateName": "Catamarca",
      "countryName": "Argentina"
    },
    {
      "id": 7356,
      "stateId": 122,
      "name": "Andalusia",
      "latitude": "37.8034989",
      "longitude": "-92.5169818",
      "createdAt": "2025-12-28T18:29:45.261Z",
      "updatedAt": "2025-12-28T18:29:45.261Z",
      "stateName": "Alabama",
      "countryName": "United States"
    },
    {
      "id": 15816,
      "stateId": 1153,
      "name": "Andelfingen",
      "latitude": null,
      "longitude": null,
      "createdAt": "2025-12-28T20:20:05.831Z",
      "updatedAt": "2025-12-28T20:20:05.831Z",
      "stateName": "Zürich",
      "countryName": "Switzerland"
    },
    {
      "id": 3844,
      "stateId": 481,
      "name": "Andernos-les-Bains",
      "latitude": null,
      "longitude": null,
      "createdAt": "2025-12-28T18:15:23.328Z",
      "updatedAt": "2025-12-28T18:15:23.328Z",
      "stateName": "Nouvelle-Aquitaine",
      "countryName": "France"
    },
    {
      "id": 5118,
      "stateId": 24,
      "name": "Anderson",
      "latitude": "34.5034400",
      "longitude": "-82.6501300",
      "createdAt": "2025-12-28T18:19:35.665Z",
      "updatedAt": "2025-12-28T18:19:35.665Z",
      "stateName": "California",
      "countryName": "United States"
    },
    {
      "id": 2799,
      "stateId": 51,
      "name": "Anderson",
      "latitude": "40.1053200",
      "longitude": "-85.6802500",
      "createdAt": "2025-12-28T18:12:46.337Z",
      "updatedAt": "2025-12-28T18:12:46.337Z",
      "stateName": "Indiana",
      "countryName": "United States"
    },
    {
      "id": 10744,
      "stateId": 145,
      "name": "Anderson",
      "latitude": "34.5034400",
      "longitude": "-82.6501300",
      "createdAt": "2025-12-28T18:57:03.220Z",
      "updatedAt": "2025-12-28T18:57:03.220Z",
      "stateName": "South Carolina",
      "countryName": "United States"
    },
    {
      "id": 3486,
      "stateId": 181,
      "name": "Andes",
      "latitude": null,
      "longitude": null,
      "createdAt": "2025-12-28T18:14:37.489Z",
      "updatedAt": "2025-12-28T18:14:37.489Z",
      "stateName": "Antioquia",
      "countryName": "Colombia"
    },
    {
      "id": 3506,
      "stateId": 137,
      "name": "Andira",
      "latitude": "-23.5275000",
      "longitude": "-46.9025000",
      "createdAt": "2025-12-28T18:14:41.503Z",
      "updatedAt": "2025-12-28T18:14:41.503Z",
      "stateName": "Paraná",
      "countryName": "Brazil"
    },
    {
      "id": 13887,
      "stateId": 262,
      "name": "Andorinha",
      "latitude": null,
      "longitude": null,
      "createdAt": "2025-12-28T19:34:14.098Z",
      "updatedAt": "2025-12-28T19:34:14.098Z",
      "stateName": "Bahia",
      "countryName": "Brazil"
    },
    {
      "id": 1207,
      "stateId": 142,
      "name": "Andorra",
      "latitude": "42.5077900",
      "longitude": "1.5210900",
      "createdAt": "2025-12-28T17:03:18.100Z",
      "updatedAt": "2025-12-28T17:03:18.100Z",
      "stateName": "Aragon",
      "countryName": "Spain"
    },
    {
      "id": 5051,
      "stateId": 2,
      "name": "Andover",
      "latitude": null,
      "longitude": null,
      "createdAt": "2025-12-28T18:19:28.955Z",
      "updatedAt": "2025-12-28T18:19:28.955Z",
      "stateName": "England",
      "countryName": "United Kingdom"
    },
    {
      "id": 12062,
      "stateId": 106,
      "name": "Andover",
      "latitude": null,
      "longitude": null,
      "createdAt": "2025-12-28T19:11:57.516Z",
      "updatedAt": "2025-12-28T19:11:57.516Z",
      "stateName": "New Jersey",
      "countryName": "United States"
    },
    {
      "id": 15350,
      "stateId": 47,
      "name": "Andover",
      "latitude": null,
      "longitude": null,
      "createdAt": "2025-12-28T20:03:47.121Z",
      "updatedAt": "2025-12-28T20:03:47.121Z",
      "stateName": "Massachusetts",
      "countryName": "United States"
    },
    {
      "id": 12529,
      "stateId": 31,
      "name": "Andover",
      "latitude": "37.8034989",
      "longitude": "-92.5169818",
      "createdAt": "2025-12-28T19:16:18.165Z",
      "updatedAt": "2025-12-28T19:16:18.165Z",
      "stateName": "Kansas",
      "countryName": "United States"
    },
    {
      "id": 3525,
      "stateId": 95,
      "name": "Andradas",
      "latitude": null,
      "longitude": null,
      "createdAt": "2025-12-28T18:14:45.217Z",
      "updatedAt": "2025-12-28T18:14:45.217Z",
      "stateName": "Minas Gerais",
      "countryName": "Brazil"
    },
    {
      "id": 6806,
      "stateId": 4,
      "name": "Andradina",
      "latitude": "-20.8961100",
      "longitude": "-51.3794400",
      "createdAt": "2025-12-28T18:27:15.239Z",
      "updatedAt": "2025-12-28T18:27:15.239Z",
      "stateName": "São Paulo",
      "countryName": "Brazil"
    },
    {
      "id": 18454,
      "stateId": 145,
      "name": "Andrews",
      "latitude": "33.4512800",
      "longitude": "-79.5609000",
      "createdAt": "2026-06-01T09:00:28.701Z",
      "updatedAt": "2026-06-01T09:00:28.701Z",
      "stateName": "South Carolina",
      "countryName": "United States"
    },
    {
      "id": 10625,
      "stateId": 20,
      "name": "Andrews",
      "latitude": "37.8034989",
      "longitude": "-92.5169818",
      "createdAt": "2025-12-28T18:55:48.778Z",
      "updatedAt": "2025-12-28T18:55:48.778Z",
      "stateName": "Texas",
      "countryName": "United States"
    },
    {
      "id": 3513,
      "stateId": 127,
      "name": "Andujar",
      "latitude": "39.2717249",
      "longitude": "-3.2471696",
      "createdAt": "2025-12-28T18:14:42.533Z",
      "updatedAt": "2025-12-28T18:14:42.533Z",
      "stateName": "Andalusia",
      "countryName": "Spain"
    },
    {
      "id": 3491,
      "stateId": 381,
      "name": "Añelo",
      "latitude": null,
      "longitude": null,
      "createdAt": "2025-12-28T18:14:38.611Z",
      "updatedAt": "2025-12-28T18:14:38.611Z",
      "stateName": "Neuquén",
      "countryName": "Argentina"
    },
    {
      "id": 18139,
      "stateId": 95,
      "name": "Angelândia",
      "latitude": null,
      "longitude": null,
      "createdAt": "2026-04-01T20:43:44.589Z",
      "updatedAt": "2026-04-01T20:43:44.589Z",
      "stateName": "Minas Gerais",
      "countryName": "Brazil"
    },
    {
      "id": 8458,
      "stateId": 902,
      "name": "Angeles City",
      "latitude": null,
      "longitude": null,
      "createdAt": "2025-12-28T18:38:43.073Z",
      "updatedAt": "2025-12-28T18:38:43.073Z",
      "stateName": "Pampanga",
      "countryName": "Philippines"
    },
    {
      "id": 9962,
      "stateId": 18,
      "name": "Angel Fire",
      "latitude": "37.8034989",
      "longitude": "-92.5169818",
      "createdAt": "2025-12-28T18:49:13.098Z",
      "updatedAt": "2025-12-28T18:49:13.098Z",
      "stateName": "New Mexico",
      "countryName": "United States"
    },
    {
      "id": 16008,
      "stateId": 369,
      "name": "Angélica",
      "latitude": null,
      "longitude": null,
      "createdAt": "2025-12-28T20:25:56.443Z",
      "updatedAt": "2025-12-28T20:25:56.443Z",
      "stateName": "Mato Grosso do Sul",
      "countryName": "Brazil"
    },
    {
      "id": 18260,
      "stateId": 7,
      "name": "Angelim",
      "latitude": null,
      "longitude": null,
      "createdAt": "2026-05-04T22:02:25.416Z",
      "updatedAt": "2026-05-04T22:02:25.416Z",
      "stateName": "Pernambuco",
      "countryName": "Brazil"
    },
    {
      "id": 14677,
      "stateId": 514,
      "name": "Angermünde",
      "latitude": "50.9385735",
      "longitude": "9.5583023",
      "createdAt": "2025-12-28T19:47:19.007Z",
      "updatedAt": "2025-12-28T19:47:19.007Z",
      "stateName": "Brandenburg",
      "countryName": "Germany"
    },
    {
      "id": 3569,
      "stateId": 483,
      "name": "Angers",
      "latitude": "47.4666700",
      "longitude": "-0.5500000",
      "createdAt": "2025-12-28T18:14:50.835Z",
      "updatedAt": "2025-12-28T18:14:50.835Z",
      "stateName": "Pays de la Loire",
      "countryName": "France"
    },
    {
      "id": 17040,
      "stateId": 174,
      "name": "Angical do Piauí",
      "latitude": null,
      "longitude": null,
      "createdAt": "2025-12-29T15:12:45.153Z",
      "updatedAt": "2025-12-29T15:12:45.153Z",
      "stateName": "Piauí",
      "countryName": "Brazil"
    },
    {
      "id": 3623,
      "stateId": 595,
      "name": "Angico",
      "latitude": "-17.4339069",
      "longitude": "-45.8426650",
      "createdAt": "2025-12-28T18:14:59.089Z",
      "updatedAt": "2025-12-28T18:14:59.089Z",
      "stateName": "Tocantins",
      "countryName": "Brazil"
    },
    {
      "id": 6487,
      "stateId": 186,
      "name": "Angicos",
      "latitude": null,
      "longitude": null,
      "createdAt": "2025-12-28T18:25:32.844Z",
      "updatedAt": "2025-12-28T18:25:32.844Z",
      "stateName": "Rio Grande do Norte",
      "countryName": "Brazil"
    },
    {
      "id": 15883,
      "stateId": 358,
      "name": "Angol",
      "latitude": "-35.4727272",
      "longitude": "-71.8075952",
      "createdAt": "2025-12-28T20:21:28.009Z",
      "updatedAt": "2025-12-28T20:21:28.009Z",
      "stateName": "Concepcion",
      "countryName": "Chile"
    },
    {
      "id": 7870,
      "stateId": 51,
      "name": "Angola",
      "latitude": "-20.7330600",
      "longitude": "-42.0294400",
      "createdAt": "2025-12-28T18:32:49.915Z",
      "updatedAt": "2025-12-28T18:32:49.915Z",
      "stateName": "Indiana",
      "countryName": "United States"
    },
    {
      "id": 15597,
      "stateId": 6,
      "name": "Angola on the Lake",
      "latitude": null,
      "longitude": null,
      "createdAt": "2025-12-28T20:12:11.411Z",
      "updatedAt": "2025-12-28T20:12:11.411Z",
      "stateName": "New York",
      "countryName": "United States"
    },
    {
      "id": 9493,
      "stateId": 181,
      "name": "Angostura",
      "latitude": null,
      "longitude": null,
      "createdAt": "2025-12-28T18:44:43.515Z",
      "updatedAt": "2025-12-28T18:44:43.515Z",
      "stateName": "Antioquia",
      "countryName": "Colombia"
    },
    {
      "id": 4254,
      "stateId": 753,
      "name": "Angoulême",
      "latitude": "45.6500000",
      "longitude": "0.1500000",
      "createdAt": "2025-12-28T18:16:40.971Z",
      "updatedAt": "2025-12-28T18:16:40.971Z",
      "stateName": "Poitou-Charentes",
      "countryName": "France"
    },
    {
      "id": 17860,
      "stateId": 1375,
      "name": "Angra do Heroísmo",
      "latitude": "39.5232529",
      "longitude": "-8.9987995",
      "createdAt": "2026-03-10T02:50:23.805Z",
      "updatedAt": "2026-03-10T02:50:23.805Z",
      "stateName": "Azores",
      "countryName": "Portugal"
    },
    {
      "id": 2021,
      "stateId": 547,
      "name": "Angra do Heroísmo",
      "latitude": "39.5232529",
      "longitude": "-8.9987995",
      "createdAt": "2025-12-28T18:10:40.572Z",
      "updatedAt": "2025-12-28T18:10:40.572Z",
      "stateName": "Açores",
      "countryName": "Portugal"
    },
    {
      "id": 3114,
      "stateId": 134,
      "name": "Angra dos Reis",
      "latitude": "-23.0066700",
      "longitude": "-44.3180600",
      "createdAt": "2025-12-28T18:13:42.754Z",
      "updatedAt": "2025-12-28T18:13:42.754Z",
      "stateName": "Rio de Janeiro",
      "countryName": "Brazil"
    },
    {
      "id": 3548,
      "stateId": 262,
      "name": "Anguera",
      "latitude": null,
      "longitude": null,
      "createdAt": "2025-12-28T18:14:47.867Z",
      "updatedAt": "2025-12-28T18:14:47.867Z",
      "stateName": "Bahia",
      "countryName": "Brazil"
    },
    {
      "id": 10691,
      "stateId": 137,
      "name": "Ângulo",
      "latitude": null,
      "longitude": null,
      "createdAt": "2025-12-28T18:56:42.930Z",
      "updatedAt": "2025-12-28T18:56:42.930Z",
      "stateName": "Paraná",
      "countryName": "Brazil"
    },
    {
      "id": 7257,
      "stateId": 24,
      "name": "Angwin",
      "latitude": "37.8034989",
      "longitude": "-92.5169818",
      "createdAt": "2025-12-28T18:28:59.663Z",
      "updatedAt": "2025-12-28T18:28:59.663Z",
      "stateName": "California",
      "countryName": "United States"
    },
    {
      "id": 3594,
      "stateId": 253,
      "name": "Anhanguera",
      "latitude": null,
      "longitude": null,
      "createdAt": "2025-12-28T18:14:55.241Z",
      "updatedAt": "2025-12-28T18:14:55.241Z",
      "stateName": "Goiás",
      "countryName": "Brazil"
    },
    {
      "id": 18117,
      "stateId": 147,
      "name": "Anisacate",
      "latitude": null,
      "longitude": null,
      "createdAt": "2026-03-30T23:31:28.439Z",
      "updatedAt": "2026-03-30T23:31:28.439Z",
      "stateName": "Cordoba",
      "countryName": "Argentina"
    },
    {
      "id": 1834,
      "stateId": 174,
      "name": "Anísio de Abreu",
      "latitude": null,
      "longitude": null,
      "createdAt": "2025-12-28T18:10:16.153Z",
      "updatedAt": "2025-12-28T18:10:16.153Z",
      "stateName": "Piauí",
      "countryName": "Brazil"
    },
    {
      "id": 3013,
      "stateId": 293,
      "name": "Anita Garibaldi",
      "latitude": "-17.4339069",
      "longitude": "-45.8426650",
      "createdAt": "2025-12-28T18:13:31.076Z",
      "updatedAt": "2025-12-28T18:13:31.076Z",
      "stateName": "Santa Catarina",
      "countryName": "Brazil"
    },
    {
      "id": 11062,
      "stateId": 113,
      "name": "Ankeny",
      "latitude": "41.7297100",
      "longitude": "-93.6057700",
      "createdAt": "2025-12-28T19:00:40.878Z",
      "updatedAt": "2025-12-28T19:00:40.878Z",
      "stateName": "Iowa",
      "countryName": "United States"
    },
    {
      "id": 16583,
      "stateId": 46,
      "name": "Anna",
      "latitude": "37.8034989",
      "longitude": "-92.5169818",
      "createdAt": "2025-12-28T20:47:19.338Z",
      "updatedAt": "2025-12-28T20:47:19.338Z",
      "stateName": "Illinois",
      "countryName": "United States"
    },
    {
      "id": 14560,
      "stateId": 14,
      "name": "Anna",
      "latitude": "40.0192300",
      "longitude": "-82.8793400",
      "createdAt": "2025-12-28T19:46:00.148Z",
      "updatedAt": "2025-12-28T19:46:00.148Z",
      "stateName": "Ohio",
      "countryName": "United States"
    },
    {
      "id": 9281,
      "stateId": 93,
      "name": "Annaberg-Buchholz",
      "latitude": "50.5795300",
      "longitude": "13.0062700",
      "createdAt": "2025-12-28T18:43:15.296Z",
      "updatedAt": "2025-12-28T18:43:15.296Z",
      "stateName": "Saxony",
      "countryName": "Germany"
    },
    {
      "id": 3832,
      "stateId": 50,
      "name": "Annandale",
      "latitude": "38.8303900",
      "longitude": "-77.1963700",
      "createdAt": "2025-12-28T18:15:22.110Z",
      "updatedAt": "2025-12-28T18:15:22.110Z",
      "stateName": "Virginia",
      "countryName": "United States"
    },
    {
      "id": 13522,
      "stateId": 49,
      "name": "Annandale",
      "latitude": "38.8303900",
      "longitude": "-77.1963700",
      "createdAt": "2025-12-28T19:27:20.596Z",
      "updatedAt": "2025-12-28T19:27:20.596Z",
      "stateName": "Minnesota",
      "countryName": "United States"
    },
    {
      "id": 11377,
      "stateId": 6,
      "name": "Annandale-on-Hudson",
      "latitude": null,
      "longitude": null,
      "createdAt": "2025-12-28T19:04:52.571Z",
      "updatedAt": "2025-12-28T19:04:52.571Z",
      "stateName": "New York",
      "countryName": "United States"
    },
    {
      "id": 1534,
      "stateId": 64,
      "name": "Annapolis",
      "latitude": "38.9784500",
      "longitude": "-76.4921800",
      "createdAt": "2025-12-28T17:04:40.752Z",
      "updatedAt": "2025-12-28T17:04:40.752Z",
      "stateName": "Maryland",
      "countryName": "United States"
    },
    {
      "id": 1145,
      "stateId": 92,
      "name": "Ann Arbor",
      "latitude": "42.2775600",
      "longitude": "-83.7408800",
      "createdAt": "2025-12-28T17:03:13.259Z",
      "updatedAt": "2025-12-28T17:03:13.259Z",
      "stateName": "Michigan",
      "countryName": "United States"
    }
  ],
  "meta": {
    "page": 6,
    "limit": 100,
    "total": 18002,
    "totalPages": 181
  }
}
