{
  "source": "50k-radio-stations",
  "provider": "rapidapi",
  "syncedAt": "2026-06-03T13:04:59.906Z",
  "endpoint": "/cities",
  "page": 72,
  "limit": 250,
  "data": [
    {
      "id": 3616,
      "stateId": 234,
      "name": "Huixquilucan",
      "latitude": "19.3598500",
      "longitude": "-99.3501600",
      "createdAt": "2025-12-28T18:14:58.661Z",
      "updatedAt": "2025-12-28T18:14:58.661Z",
      "stateName": "State of Mexico",
      "countryName": "Mexico"
    },
    {
      "id": 11333,
      "stateId": 314,
      "name": "Huixtla",
      "latitude": "15.1402000",
      "longitude": "-92.4658700",
      "createdAt": "2025-12-28T19:04:30.463Z",
      "updatedAt": "2025-12-28T19:04:30.463Z",
      "stateName": "Chiapas",
      "countryName": "Mexico"
    },
    {
      "id": 11313,
      "stateId": 205,
      "name": "Hulha Negra",
      "latitude": null,
      "longitude": null,
      "createdAt": "2025-12-28T19:04:18.599Z",
      "updatedAt": "2025-12-28T19:04:18.599Z",
      "stateName": "Rio Grande do Sul",
      "countryName": "Brazil"
    },
    {
      "id": 4869,
      "stateId": 2,
      "name": "Hull",
      "latitude": "53.7446000",
      "longitude": "-0.3352500",
      "createdAt": "2025-12-28T18:18:55.187Z",
      "updatedAt": "2025-12-28T18:18:55.187Z",
      "stateName": "England",
      "countryName": "United Kingdom"
    },
    {
      "id": 11342,
      "stateId": 450,
      "name": "Hulsberg",
      "latitude": "52.0575321",
      "longitude": "5.3403480",
      "createdAt": "2025-12-28T19:04:38.906Z",
      "updatedAt": "2025-12-28T19:04:38.906Z",
      "stateName": "Limburg",
      "countryName": "Netherlands"
    },
    {
      "id": 11372,
      "stateId": 96,
      "name": "Hulten",
      "latitude": null,
      "longitude": null,
      "createdAt": "2025-12-28T19:04:51.445Z",
      "updatedAt": "2025-12-28T19:04:51.445Z",
      "stateName": "North Brabant",
      "countryName": "Netherlands"
    },
    {
      "id": 4902,
      "stateId": 197,
      "name": "Humahuaca",
      "latitude": "-32.1628172",
      "longitude": "-62.0921509",
      "createdAt": "2025-12-28T18:18:58.351Z",
      "updatedAt": "2025-12-28T18:18:58.351Z",
      "stateName": "Jujuy",
      "countryName": "Argentina"
    },
    {
      "id": 2995,
      "stateId": 205,
      "name": "Humaita",
      "latitude": null,
      "longitude": null,
      "createdAt": "2025-12-28T18:13:28.317Z",
      "updatedAt": "2025-12-28T18:13:28.317Z",
      "stateName": "Rio Grande do Sul",
      "countryName": "Brazil"
    },
    {
      "id": 11325,
      "stateId": 238,
      "name": "Humaitá",
      "latitude": null,
      "longitude": null,
      "createdAt": "2025-12-28T19:04:24.014Z",
      "updatedAt": "2025-12-28T19:04:24.014Z",
      "stateName": "Amazonas",
      "countryName": "Brazil"
    },
    {
      "id": 2389,
      "stateId": 471,
      "name": "Humansdorp",
      "latitude": null,
      "longitude": null,
      "createdAt": "2025-12-28T18:12:00.848Z",
      "updatedAt": "2025-12-28T18:12:00.848Z",
      "stateName": "Eastern Cape",
      "countryName": "South Africa"
    },
    {
      "id": 9123,
      "stateId": 20,
      "name": "Humble",
      "latitude": "29.9988300",
      "longitude": "-95.2621600",
      "createdAt": "2025-12-28T18:41:52.747Z",
      "updatedAt": "2025-12-28T18:41:52.747Z",
      "stateName": "Texas",
      "countryName": "United States"
    },
    {
      "id": 8576,
      "stateId": 18,
      "name": "Humble City",
      "latitude": "37.8034989",
      "longitude": "-92.5169818",
      "createdAt": "2025-12-28T18:39:16.894Z",
      "updatedAt": "2025-12-28T18:39:16.894Z",
      "stateName": "New Mexico",
      "countryName": "United States"
    },
    {
      "id": 11002,
      "stateId": 21,
      "name": "Humboldt",
      "latitude": "50.9318200",
      "longitude": "6.9946900",
      "createdAt": "2025-12-28T19:00:03.660Z",
      "updatedAt": "2025-12-28T19:00:03.660Z",
      "stateName": "Tennessee",
      "countryName": "United States"
    },
    {
      "id": 11361,
      "stateId": 31,
      "name": "Humboldt",
      "latitude": "50.9318200",
      "longitude": "6.9946900",
      "createdAt": "2025-12-28T19:04:46.799Z",
      "updatedAt": "2025-12-28T19:04:46.799Z",
      "stateName": "Kansas",
      "countryName": "United States"
    },
    {
      "id": 5753,
      "stateId": 113,
      "name": "Humboldt",
      "latitude": "50.9318200",
      "longitude": "6.9946900",
      "createdAt": "2025-12-28T18:22:04.768Z",
      "updatedAt": "2025-12-28T18:22:04.768Z",
      "stateName": "Iowa",
      "countryName": "United States"
    },
    {
      "id": 5717,
      "stateId": 467,
      "name": "Humboldt",
      "latitude": null,
      "longitude": null,
      "createdAt": "2025-12-28T18:21:59.381Z",
      "updatedAt": "2025-12-28T18:21:59.381Z",
      "stateName": "Saskatchewan",
      "countryName": "Canada"
    },
    {
      "id": 17572,
      "stateId": 1359,
      "name": "Hunedoara",
      "latitude": null,
      "longitude": null,
      "createdAt": "2026-01-23T11:40:29.570Z",
      "updatedAt": "2026-01-23T11:40:29.570Z",
      "stateName": "Hunedoara County",
      "countryName": "Romania"
    },
    {
      "id": 11388,
      "stateId": 933,
      "name": "Hünenberg",
      "latitude": null,
      "longitude": null,
      "createdAt": "2025-12-28T19:04:54.903Z",
      "updatedAt": "2025-12-28T19:04:54.903Z",
      "stateName": "Zug",
      "countryName": "Switzerland"
    },
    {
      "id": 3823,
      "stateId": 2,
      "name": "Hunstanton",
      "latitude": null,
      "longitude": null,
      "createdAt": "2025-12-28T18:15:19.414Z",
      "updatedAt": "2025-12-28T18:15:19.414Z",
      "stateName": "England",
      "countryName": "United Kingdom"
    },
    {
      "id": 11380,
      "stateId": 20,
      "name": "Hunt",
      "latitude": "30.7235300",
      "longitude": "-95.5507800",
      "createdAt": "2025-12-28T19:04:53.661Z",
      "updatedAt": "2025-12-28T19:04:53.661Z",
      "stateName": "Texas",
      "countryName": "United States"
    },
    {
      "id": 11382,
      "stateId": 51,
      "name": "Huntertown",
      "latitude": "37.8034989",
      "longitude": "-92.5169818",
      "createdAt": "2025-12-28T19:04:53.717Z",
      "updatedAt": "2025-12-28T19:04:53.717Z",
      "stateName": "Indiana",
      "countryName": "United States"
    },
    {
      "id": 11340,
      "stateId": 51,
      "name": "Huntingburg",
      "latitude": "37.8034989",
      "longitude": "-92.5169818",
      "createdAt": "2025-12-28T19:04:38.080Z",
      "updatedAt": "2025-12-28T19:04:38.080Z",
      "stateName": "Indiana",
      "countryName": "United States"
    },
    {
      "id": 9790,
      "stateId": 21,
      "name": "Huntingdon",
      "latitude": "52.3304900",
      "longitude": "-0.1865100",
      "createdAt": "2025-12-28T18:47:17.425Z",
      "updatedAt": "2025-12-28T18:47:17.425Z",
      "stateName": "Tennessee",
      "countryName": "United States"
    },
    {
      "id": 5530,
      "stateId": 2,
      "name": "Huntingdon",
      "latitude": "52.3304900",
      "longitude": "-0.1865100",
      "createdAt": "2025-12-28T18:21:13.708Z",
      "updatedAt": "2025-12-28T18:21:13.708Z",
      "stateName": "England",
      "countryName": "United Kingdom"
    },
    {
      "id": 11338,
      "stateId": 68,
      "name": "Huntingdon",
      "latitude": "52.3304900",
      "longitude": "-0.1865100",
      "createdAt": "2025-12-28T19:04:36.617Z",
      "updatedAt": "2025-12-28T19:04:36.617Z",
      "stateName": "Pennsylvania",
      "countryName": "United States"
    },
    {
      "id": 8845,
      "stateId": 51,
      "name": "Huntington",
      "latitude": "40.8831000",
      "longitude": "-85.4974800",
      "createdAt": "2025-12-28T18:40:37.385Z",
      "updatedAt": "2025-12-28T18:40:37.385Z",
      "stateName": "Indiana",
      "countryName": "United States"
    },
    {
      "id": 8108,
      "stateId": 6,
      "name": "Huntington",
      "latitude": "40.8681500",
      "longitude": "-73.4256800",
      "createdAt": "2025-12-28T18:35:24.829Z",
      "updatedAt": "2025-12-28T18:35:24.829Z",
      "stateName": "New York",
      "countryName": "United States"
    },
    {
      "id": 1641,
      "stateId": 324,
      "name": "Huntington",
      "latitude": "38.4192500",
      "longitude": "-82.4451500",
      "createdAt": "2025-12-28T18:01:42.883Z",
      "updatedAt": "2025-12-28T18:01:42.883Z",
      "stateName": "West Virginia",
      "countryName": "United States"
    },
    {
      "id": 18244,
      "stateId": 24,
      "name": "Huntington Beach",
      "latitude": "33.6603000",
      "longitude": "-117.9992300",
      "createdAt": "2026-05-03T13:03:42.047Z",
      "updatedAt": "2026-05-03T13:03:42.047Z",
      "stateName": "California",
      "countryName": "United States"
    },
    {
      "id": 11379,
      "stateId": 24,
      "name": "Huntington Park",
      "latitude": null,
      "longitude": null,
      "createdAt": "2025-12-28T19:04:52.996Z",
      "updatedAt": "2025-12-28T19:04:52.996Z",
      "stateName": "California",
      "countryName": "United States"
    },
    {
      "id": 11327,
      "stateId": 46,
      "name": "Huntley",
      "latitude": "42.1680800",
      "longitude": "-88.4281400",
      "createdAt": "2025-12-28T19:04:25.123Z",
      "updatedAt": "2025-12-28T19:04:25.123Z",
      "stateName": "Illinois",
      "countryName": "United States"
    },
    {
      "id": 3561,
      "stateId": 122,
      "name": "Huntsville",
      "latitude": "34.7303700",
      "longitude": "-86.5861000",
      "createdAt": "2025-12-28T18:14:49.699Z",
      "updatedAt": "2025-12-28T18:14:49.699Z",
      "stateName": "Alabama",
      "countryName": "United States"
    },
    {
      "id": 9114,
      "stateId": 112,
      "name": "Huntsville",
      "latitude": null,
      "longitude": null,
      "createdAt": "2025-12-28T18:41:52.221Z",
      "updatedAt": "2025-12-28T18:41:52.221Z",
      "stateName": "Missouri",
      "countryName": "United States"
    },
    {
      "id": 9622,
      "stateId": 20,
      "name": "Huntsville",
      "latitude": "30.7235300",
      "longitude": "-95.5507800",
      "createdAt": "2025-12-28T18:45:40.117Z",
      "updatedAt": "2025-12-28T18:45:40.117Z",
      "stateName": "Texas",
      "countryName": "United States"
    },
    {
      "id": 4746,
      "stateId": 41,
      "name": "Huntsville",
      "latitude": "45.3334100",
      "longitude": "-79.2163200",
      "createdAt": "2025-12-28T18:18:36.114Z",
      "updatedAt": "2025-12-28T18:18:36.114Z",
      "stateName": "Ontario",
      "countryName": "Canada"
    },
    {
      "id": 11373,
      "stateId": 102,
      "name": "Hurdegaryp",
      "latitude": null,
      "longitude": null,
      "createdAt": "2025-12-28T19:04:51.583Z",
      "updatedAt": "2025-12-28T19:04:51.583Z",
      "stateName": "Friesland",
      "countryName": "Netherlands"
    },
    {
      "id": 8761,
      "stateId": 1055,
      "name": "Hurghada",
      "latitude": "27.2573800",
      "longitude": "33.8129100",
      "createdAt": "2025-12-28T18:40:09.093Z",
      "updatedAt": "2025-12-28T18:40:09.093Z",
      "stateName": "Red Sea Governate",
      "countryName": "Egypt"
    },
    {
      "id": 11360,
      "stateId": 8,
      "name": "Hurley",
      "latitude": "37.8034989",
      "longitude": "-92.5169818",
      "createdAt": "2025-12-28T19:04:46.747Z",
      "updatedAt": "2025-12-28T19:04:46.747Z",
      "stateName": "Wisconsin",
      "countryName": "United States"
    },
    {
      "id": 5289,
      "stateId": 18,
      "name": "Hurley",
      "latitude": "37.8034989",
      "longitude": "-92.5169818",
      "createdAt": "2025-12-28T18:20:19.691Z",
      "updatedAt": "2025-12-28T18:20:19.691Z",
      "stateName": "New Mexico",
      "countryName": "United States"
    },
    {
      "id": 853,
      "stateId": 58,
      "name": "Hurlingham",
      "latitude": "-32.1628172",
      "longitude": "-62.0921509",
      "createdAt": "2025-12-28T17:02:23.618Z",
      "updatedAt": "2025-12-28T17:02:23.618Z",
      "stateName": "Buenos Aires",
      "countryName": "Argentina"
    },
    {
      "id": 7149,
      "stateId": 64,
      "name": "Hurlock",
      "latitude": "37.8034989",
      "longitude": "-92.5169818",
      "createdAt": "2025-12-28T18:28:32.469Z",
      "updatedAt": "2025-12-28T18:28:32.469Z",
      "stateName": "Maryland",
      "countryName": "United States"
    },
    {
      "id": 3302,
      "stateId": 395,
      "name": "Huron",
      "latitude": "42.9708600",
      "longitude": "-82.4249100",
      "createdAt": "2025-12-28T18:14:11.895Z",
      "updatedAt": "2025-12-28T18:14:11.895Z",
      "stateName": "South Dakota",
      "countryName": "United States"
    },
    {
      "id": 11358,
      "stateId": 14,
      "name": "Huron",
      "latitude": null,
      "longitude": null,
      "createdAt": "2025-12-28T19:04:46.384Z",
      "updatedAt": "2025-12-28T19:04:46.384Z",
      "stateName": "Ohio",
      "countryName": "United States"
    },
    {
      "id": 11355,
      "stateId": 92,
      "name": "Huron Township",
      "latitude": null,
      "longitude": null,
      "createdAt": "2025-12-28T19:04:44.737Z",
      "updatedAt": "2025-12-28T19:04:44.737Z",
      "stateName": "Michigan",
      "countryName": "United States"
    },
    {
      "id": 11362,
      "stateId": 324,
      "name": "Hurricane",
      "latitude": "37.8034989",
      "longitude": "-92.5169818",
      "createdAt": "2025-12-28T19:04:46.857Z",
      "updatedAt": "2025-12-28T19:04:46.857Z",
      "stateName": "West Virginia",
      "countryName": "United States"
    },
    {
      "id": 11364,
      "stateId": 430,
      "name": "Hurricane",
      "latitude": "37.8034989",
      "longitude": "-92.5169818",
      "createdAt": "2025-12-28T19:04:47.390Z",
      "updatedAt": "2025-12-28T19:04:47.390Z",
      "stateName": "Utah",
      "countryName": "United States"
    },
    {
      "id": 11347,
      "stateId": 20,
      "name": "Hurst",
      "latitude": "32.8234600",
      "longitude": "-97.1705700",
      "createdAt": "2025-12-28T19:04:41.033Z",
      "updatedAt": "2025-12-28T19:04:41.033Z",
      "stateName": "Texas",
      "countryName": "United States"
    },
    {
      "id": 4490,
      "stateId": 19,
      "name": "Huskisson",
      "latitude": "-33.9811915",
      "longitude": "144.8351072",
      "createdAt": "2025-12-28T18:17:44.501Z",
      "updatedAt": "2025-12-28T18:17:44.501Z",
      "stateName": "New South Wales",
      "countryName": "Australia"
    },
    {
      "id": 10301,
      "stateId": 8,
      "name": "Hustisford",
      "latitude": null,
      "longitude": null,
      "createdAt": "2025-12-28T18:51:37.127Z",
      "updatedAt": "2025-12-28T18:51:37.127Z",
      "stateName": "Wisconsin",
      "countryName": "United States"
    },
    {
      "id": 11371,
      "stateId": 5,
      "name": "Husum",
      "latitude": "54.4858000",
      "longitude": "9.0523900",
      "createdAt": "2025-12-28T19:04:51.159Z",
      "updatedAt": "2025-12-28T19:04:51.159Z",
      "stateName": "Schleswig-Holstein",
      "countryName": "Germany"
    },
    {
      "id": 11383,
      "stateId": 49,
      "name": "Hutchinson",
      "latitude": "38.0608400",
      "longitude": "-97.9297700",
      "createdAt": "2025-12-28T19:04:53.768Z",
      "updatedAt": "2025-12-28T19:04:53.768Z",
      "stateName": "Minnesota",
      "countryName": "United States"
    },
    {
      "id": 6207,
      "stateId": 31,
      "name": "Hutchinson",
      "latitude": "38.0608400",
      "longitude": "-97.9297700",
      "createdAt": "2025-12-28T18:23:27.670Z",
      "updatedAt": "2025-12-28T18:23:27.670Z",
      "stateName": "Kansas",
      "countryName": "United States"
    },
    {
      "id": 3357,
      "stateId": 113,
      "name": "Huxley",
      "latitude": null,
      "longitude": null,
      "createdAt": "2025-12-28T18:14:16.580Z",
      "updatedAt": "2025-12-28T18:14:16.580Z",
      "stateName": "Iowa",
      "countryName": "United States"
    },
    {
      "id": 2332,
      "stateId": 588,
      "name": "Huy",
      "latitude": "50.9010009",
      "longitude": "4.3862404",
      "createdAt": "2025-12-28T18:11:47.250Z",
      "updatedAt": "2025-12-28T18:11:47.250Z",
      "stateName": "Liège",
      "countryName": "Belgium"
    },
    {
      "id": 11390,
      "stateId": 425,
      "name": "Hvide Sande",
      "latitude": null,
      "longitude": null,
      "createdAt": "2025-12-28T19:04:57.894Z",
      "updatedAt": "2025-12-28T19:04:57.894Z",
      "stateName": "Midtjylland",
      "countryName": "Denmark"
    },
    {
      "id": 11397,
      "stateId": 47,
      "name": "Hyannis",
      "latitude": "37.8034989",
      "longitude": "-92.5169818",
      "createdAt": "2025-12-28T19:05:08.872Z",
      "updatedAt": "2025-12-28T19:05:08.872Z",
      "stateName": "Massachusetts",
      "countryName": "United States"
    },
    {
      "id": 9614,
      "stateId": 64,
      "name": "Hyattsville",
      "latitude": "38.9559400",
      "longitude": "-76.9455300",
      "createdAt": "2025-12-28T18:45:37.724Z",
      "updatedAt": "2025-12-28T18:45:37.724Z",
      "stateName": "Maryland",
      "countryName": "United States"
    },
    {
      "id": 11398,
      "stateId": 80,
      "name": "Hyden",
      "latitude": "37.8034989",
      "longitude": "-92.5169818",
      "createdAt": "2025-12-28T19:05:08.951Z",
      "updatedAt": "2025-12-28T19:05:08.951Z",
      "stateName": "Kentucky",
      "countryName": "United States"
    },
    {
      "id": 11399,
      "stateId": 6,
      "name": "Hyde Park",
      "latitude": "37.8034989",
      "longitude": "-92.5169818",
      "createdAt": "2025-12-28T19:05:09.130Z",
      "updatedAt": "2025-12-28T19:05:09.130Z",
      "stateName": "New York",
      "countryName": "United States"
    },
    {
      "id": 2599,
      "stateId": 380,
      "name": "Hyderabad",
      "latitude": "21.6224148",
      "longitude": "79.1259549",
      "createdAt": "2025-12-28T18:12:35.884Z",
      "updatedAt": "2025-12-28T18:12:35.884Z",
      "stateName": "Andhra Pradesh",
      "countryName": "India"
    },
    {
      "id": 1916,
      "stateId": 37,
      "name": "Hyères",
      "latitude": "43.1195400",
      "longitude": "6.1389700",
      "createdAt": "2025-12-28T18:10:30.191Z",
      "updatedAt": "2025-12-28T18:10:30.191Z",
      "stateName": "Provence-Alpes-Côte d'Azur",
      "countryName": "France"
    },
    {
      "id": 8141,
      "stateId": 253,
      "name": "Iaciara",
      "latitude": "-17.4339069",
      "longitude": "-45.8426650",
      "createdAt": "2025-12-28T18:35:37.746Z",
      "updatedAt": "2025-12-28T18:35:37.746Z",
      "stateName": "Goiás",
      "countryName": "Brazil"
    },
    {
      "id": 11404,
      "stateId": 95,
      "name": "Iapu",
      "latitude": null,
      "longitude": null,
      "createdAt": "2025-12-28T19:05:14.686Z",
      "updatedAt": "2025-12-28T19:05:14.686Z",
      "stateName": "Minas Gerais",
      "countryName": "Brazil"
    },
    {
      "id": 11400,
      "stateId": 7,
      "name": "Iati",
      "latitude": null,
      "longitude": null,
      "createdAt": "2025-12-28T19:05:12.052Z",
      "updatedAt": "2025-12-28T19:05:12.052Z",
      "stateName": "Pernambuco",
      "countryName": "Brazil"
    },
    {
      "id": 8470,
      "stateId": 1034,
      "name": "Iba",
      "latitude": "12.5023632",
      "longitude": "122.3310559",
      "createdAt": "2025-12-28T18:38:44.559Z",
      "updatedAt": "2025-12-28T18:38:44.559Z",
      "stateName": "Zambales",
      "countryName": "Philippines"
    },
    {
      "id": 1148,
      "stateId": 407,
      "name": "Ibadan",
      "latitude": "7.3775600",
      "longitude": "3.9059100",
      "createdAt": "2025-12-28T17:03:13.787Z",
      "updatedAt": "2025-12-28T17:03:13.787Z",
      "stateName": "Oyo",
      "countryName": "Nigeria"
    },
    {
      "id": 892,
      "stateId": 365,
      "name": "Ibague",
      "latitude": "6.4444434",
      "longitude": "-74.9549521",
      "createdAt": "2025-12-28T17:02:26.382Z",
      "updatedAt": "2025-12-28T17:02:26.382Z",
      "stateName": "Tolima",
      "countryName": "Colombia"
    },
    {
      "id": 4228,
      "stateId": 137,
      "name": "Ibaiti",
      "latitude": null,
      "longitude": null,
      "createdAt": "2025-12-28T18:16:39.591Z",
      "updatedAt": "2025-12-28T18:16:39.591Z",
      "stateName": "Paraná",
      "countryName": "Brazil"
    },
    {
      "id": 1564,
      "stateId": 263,
      "name": "Ibanda",
      "latitude": null,
      "longitude": null,
      "createdAt": "2025-12-28T17:04:44.506Z",
      "updatedAt": "2025-12-28T17:04:44.506Z",
      "stateName": "Western Region",
      "countryName": "Uganda"
    },
    {
      "id": 4642,
      "stateId": 231,
      "name": "Ibaretama",
      "latitude": null,
      "longitude": null,
      "createdAt": "2025-12-28T18:18:12.100Z",
      "updatedAt": "2025-12-28T18:18:12.100Z",
      "stateName": "Ceará",
      "countryName": "Brazil"
    },
    {
      "id": 591,
      "stateId": 284,
      "name": "Ibarra",
      "latitude": "0.3517100",
      "longitude": "-78.1223300",
      "createdAt": "2025-12-28T17:01:10.348Z",
      "updatedAt": "2025-12-28T17:01:10.348Z",
      "stateName": "Imbabura",
      "countryName": "Ecuador"
    },
    {
      "id": 10176,
      "stateId": 487,
      "name": "Ibarreta",
      "latitude": "-32.1628172",
      "longitude": "-62.0921509",
      "createdAt": "2025-12-28T18:50:41.638Z",
      "updatedAt": "2025-12-28T18:50:41.638Z",
      "stateName": "Formosa",
      "countryName": "Argentina"
    },
    {
      "id": 11410,
      "stateId": 4,
      "name": "Ibaté",
      "latitude": null,
      "longitude": null,
      "createdAt": "2025-12-28T19:05:19.039Z",
      "updatedAt": "2025-12-28T19:05:19.039Z",
      "stateName": "São Paulo",
      "countryName": "Brazil"
    },
    {
      "id": 11413,
      "stateId": 261,
      "name": "Ibatiba",
      "latitude": null,
      "longitude": null,
      "createdAt": "2025-12-28T19:05:21.675Z",
      "updatedAt": "2025-12-28T19:05:21.675Z",
      "stateName": "Espírito Santo",
      "countryName": "Brazil"
    },
    {
      "id": 11411,
      "stateId": 137,
      "name": "Ibema",
      "latitude": null,
      "longitude": null,
      "createdAt": "2025-12-28T19:05:19.268Z",
      "updatedAt": "2025-12-28T19:05:19.268Z",
      "stateName": "Paraná",
      "countryName": "Brazil"
    },
    {
      "id": 11405,
      "stateId": 534,
      "name": "Ibi",
      "latitude": null,
      "longitude": null,
      "createdAt": "2025-12-28T19:05:18.177Z",
      "updatedAt": "2025-12-28T19:05:18.177Z",
      "stateName": "Alicante",
      "countryName": "Spain"
    },
    {
      "id": 11419,
      "stateId": 95,
      "name": "Ibiá",
      "latitude": null,
      "longitude": null,
      "createdAt": "2025-12-28T19:05:28.171Z",
      "updatedAt": "2025-12-28T19:05:28.171Z",
      "stateName": "Minas Gerais",
      "countryName": "Brazil"
    },
    {
      "id": 11408,
      "stateId": 205,
      "name": "Ibiaca",
      "latitude": null,
      "longitude": null,
      "createdAt": "2025-12-28T19:05:18.580Z",
      "updatedAt": "2025-12-28T19:05:18.580Z",
      "stateName": "Rio Grande do Sul",
      "countryName": "Brazil"
    },
    {
      "id": 7450,
      "stateId": 293,
      "name": "Ibiam",
      "latitude": null,
      "longitude": null,
      "createdAt": "2025-12-28T18:30:15.819Z",
      "updatedAt": "2025-12-28T18:30:15.819Z",
      "stateName": "Santa Catarina",
      "countryName": "Brazil"
    },
    {
      "id": 7370,
      "stateId": 231,
      "name": "Ibiapina",
      "latitude": "-17.4339069",
      "longitude": "-45.8426650",
      "createdAt": "2025-12-28T18:29:48.538Z",
      "updatedAt": "2025-12-28T18:29:48.538Z",
      "stateName": "Ceará",
      "countryName": "Brazil"
    },
    {
      "id": 11407,
      "stateId": 262,
      "name": "Ibiassucê",
      "latitude": null,
      "longitude": null,
      "createdAt": "2025-12-28T19:05:18.491Z",
      "updatedAt": "2025-12-28T19:05:18.491Z",
      "stateName": "Bahia",
      "countryName": "Brazil"
    },
    {
      "id": 11406,
      "stateId": 262,
      "name": "Ibicaraí",
      "latitude": "-14.8650000",
      "longitude": "-39.5875000",
      "createdAt": "2025-12-28T19:05:18.448Z",
      "updatedAt": "2025-12-28T19:05:18.448Z",
      "stateName": "Bahia",
      "countryName": "Brazil"
    },
    {
      "id": 10875,
      "stateId": 262,
      "name": "Ibicuí",
      "latitude": null,
      "longitude": null,
      "createdAt": "2025-12-28T18:58:34.880Z",
      "updatedAt": "2025-12-28T18:58:34.880Z",
      "stateName": "Bahia",
      "countryName": "Brazil"
    },
    {
      "id": 11418,
      "stateId": 7,
      "name": "Ibimirim",
      "latitude": null,
      "longitude": null,
      "createdAt": "2025-12-28T19:05:26.751Z",
      "updatedAt": "2025-12-28T19:05:26.751Z",
      "stateName": "Pernambuco",
      "countryName": "Brazil"
    },
    {
      "id": 1718,
      "stateId": 137,
      "name": "Ibiporã",
      "latitude": "-23.2691700",
      "longitude": "-51.0480600",
      "createdAt": "2025-12-28T18:10:04.722Z",
      "updatedAt": "2025-12-28T18:10:04.722Z",
      "stateName": "Paraná",
      "countryName": "Brazil"
    },
    {
      "id": 4004,
      "stateId": 95,
      "name": "Ibiraci",
      "latitude": null,
      "longitude": null,
      "createdAt": "2025-12-28T18:15:50.503Z",
      "updatedAt": "2025-12-28T18:15:50.503Z",
      "stateName": "Minas Gerais",
      "countryName": "Brazil"
    },
    {
      "id": 4950,
      "stateId": 293,
      "name": "Ibirama",
      "latitude": null,
      "longitude": null,
      "createdAt": "2025-12-28T18:19:15.946Z",
      "updatedAt": "2025-12-28T18:19:15.946Z",
      "stateName": "Santa Catarina",
      "countryName": "Brazil"
    },
    {
      "id": 11416,
      "stateId": 262,
      "name": "Ibirapitanga",
      "latitude": null,
      "longitude": null,
      "createdAt": "2025-12-28T19:05:26.307Z",
      "updatedAt": "2025-12-28T19:05:26.307Z",
      "stateName": "Bahia",
      "countryName": "Brazil"
    },
    {
      "id": 11415,
      "stateId": 205,
      "name": "Ibirapuitã ",
      "latitude": null,
      "longitude": null,
      "createdAt": "2025-12-28T19:05:23.352Z",
      "updatedAt": "2025-12-28T19:05:23.352Z",
      "stateName": "Rio Grande do Sul",
      "countryName": "Brazil"
    },
    {
      "id": 11409,
      "stateId": 262,
      "name": "Ibirataia",
      "latitude": null,
      "longitude": null,
      "createdAt": "2025-12-28T19:05:18.992Z",
      "updatedAt": "2025-12-28T19:05:18.992Z",
      "stateName": "Bahia",
      "countryName": "Brazil"
    },
    {
      "id": 11422,
      "stateId": 95,
      "name": "Ibirité",
      "latitude": null,
      "longitude": null,
      "createdAt": "2025-12-28T19:05:32.069Z",
      "updatedAt": "2025-12-28T19:05:32.069Z",
      "stateName": "Minas Gerais",
      "countryName": "Brazil"
    },
    {
      "id": 3260,
      "stateId": 205,
      "name": "Ibiruba",
      "latitude": "-17.4339069",
      "longitude": "-45.8426650",
      "createdAt": "2025-12-28T18:14:07.122Z",
      "updatedAt": "2025-12-28T18:14:07.122Z",
      "stateName": "Rio Grande do Sul",
      "countryName": "Brazil"
    },
    {
      "id": 11414,
      "stateId": 4,
      "name": "Ibitinga",
      "latitude": "-21.7577800",
      "longitude": "-48.8288900",
      "createdAt": "2025-12-28T19:05:21.796Z",
      "updatedAt": "2025-12-28T19:05:21.796Z",
      "stateName": "São Paulo",
      "countryName": "Brazil"
    },
    {
      "id": 11417,
      "stateId": 4,
      "name": "Ibiúna",
      "latitude": "-23.6563900",
      "longitude": "-47.2225000",
      "createdAt": "2025-12-28T19:05:26.349Z",
      "updatedAt": "2025-12-28T19:05:26.349Z",
      "stateName": "São Paulo",
      "countryName": "Brazil"
    },
    {
      "id": 232,
      "stateId": 131,
      "name": "Ibiza Town",
      "latitude": "38.9088300",
      "longitude": "1.4329600",
      "createdAt": "2025-12-28T16:56:37.270Z",
      "updatedAt": "2025-12-28T16:56:37.270Z",
      "stateName": "Balearic Islands",
      "countryName": "Spain"
    },
    {
      "id": 8191,
      "stateId": 262,
      "name": "Ibotirama",
      "latitude": null,
      "longitude": null,
      "createdAt": "2025-12-28T18:36:21.494Z",
      "updatedAt": "2025-12-28T18:36:21.494Z",
      "stateName": "Bahia",
      "countryName": "Brazil"
    },
    {
      "id": 5545,
      "stateId": 2,
      "name": "Ibstock",
      "latitude": null,
      "longitude": null,
      "createdAt": "2025-12-28T18:21:16.897Z",
      "updatedAt": "2025-12-28T18:21:16.897Z",
      "stateName": "England",
      "countryName": "United Kingdom"
    },
    {
      "id": 11439,
      "stateId": 266,
      "name": "Icaño",
      "latitude": null,
      "longitude": null,
      "createdAt": "2025-12-28T19:05:47.005Z",
      "updatedAt": "2025-12-28T19:05:47.005Z",
      "stateName": "Catamarca",
      "countryName": "Argentina"
    },
    {
      "id": 8832,
      "stateId": 231,
      "name": "Icapuí",
      "latitude": "-17.4339069",
      "longitude": "-45.8426650",
      "createdAt": "2025-12-28T18:40:34.393Z",
      "updatedAt": "2025-12-28T18:40:34.393Z",
      "stateName": "Ceará",
      "countryName": "Brazil"
    },
    {
      "id": 3249,
      "stateId": 293,
      "name": "Icara",
      "latitude": "-17.4339069",
      "longitude": "-45.8426650",
      "createdAt": "2025-12-28T18:14:05.375Z",
      "updatedAt": "2025-12-28T18:14:05.375Z",
      "stateName": "Santa Catarina",
      "countryName": "Brazil"
    }
  ],
  "meta": {
    "page": 72,
    "limit": 100,
    "total": 18002,
    "totalPages": 181
  }
}
