{
  "source": "50k-radio-stations",
  "provider": "rapidapi",
  "syncedAt": "2026-06-03T13:05:03.345Z",
  "endpoint": "/cities",
  "page": 76,
  "limit": 250,
  "data": [
    {
      "id": 8174,
      "stateId": 253,
      "name": "Itapaci",
      "latitude": "-14.9508300",
      "longitude": "-49.5494400",
      "createdAt": "2025-12-28T18:36:16.499Z",
      "updatedAt": "2025-12-28T18:36:16.499Z",
      "stateName": "Goiás",
      "countryName": "Brazil"
    },
    {
      "id": 11883,
      "stateId": 95,
      "name": "Itapagipe",
      "latitude": null,
      "longitude": null,
      "createdAt": "2025-12-28T19:10:32.936Z",
      "updatedAt": "2025-12-28T19:10:32.936Z",
      "stateName": "Minas Gerais",
      "countryName": "Brazil"
    },
    {
      "id": 4208,
      "stateId": 231,
      "name": "Itapaje",
      "latitude": null,
      "longitude": null,
      "createdAt": "2025-12-28T18:16:38.295Z",
      "updatedAt": "2025-12-28T18:16:38.295Z",
      "stateName": "Ceará",
      "countryName": "Brazil"
    },
    {
      "id": 11905,
      "stateId": 262,
      "name": "Itaparica",
      "latitude": null,
      "longitude": null,
      "createdAt": "2025-12-28T19:10:39.229Z",
      "updatedAt": "2025-12-28T19:10:39.229Z",
      "stateName": "Bahia",
      "countryName": "Brazil"
    },
    {
      "id": 6944,
      "stateId": 262,
      "name": "Itapebi",
      "latitude": null,
      "longitude": null,
      "createdAt": "2025-12-28T18:27:35.568Z",
      "updatedAt": "2025-12-28T18:27:35.568Z",
      "stateName": "Bahia",
      "countryName": "Brazil"
    },
    {
      "id": 3278,
      "stateId": 95,
      "name": "Itapecerica",
      "latitude": null,
      "longitude": null,
      "createdAt": "2025-12-28T18:14:08.853Z",
      "updatedAt": "2025-12-28T18:14:08.853Z",
      "stateName": "Minas Gerais",
      "countryName": "Brazil"
    },
    {
      "id": 4282,
      "stateId": 4,
      "name": "Itapecerica da Serra",
      "latitude": null,
      "longitude": null,
      "createdAt": "2025-12-28T18:16:42.930Z",
      "updatedAt": "2025-12-28T18:16:42.930Z",
      "stateName": "São Paulo",
      "countryName": "Brazil"
    },
    {
      "id": 11998,
      "stateId": 335,
      "name": "Itapecuru Mirim",
      "latitude": null,
      "longitude": null,
      "createdAt": "2025-12-28T19:11:12.213Z",
      "updatedAt": "2025-12-28T19:11:12.213Z",
      "stateName": "Maranhão",
      "countryName": "Brazil"
    },
    {
      "id": 14480,
      "stateId": 137,
      "name": "Itapejara D'Oeste",
      "latitude": "-17.4339069",
      "longitude": "-45.8426650",
      "createdAt": "2025-12-28T19:44:29.372Z",
      "updatedAt": "2025-12-28T19:44:29.372Z",
      "stateName": "Paraná",
      "countryName": "Brazil"
    },
    {
      "id": 6771,
      "stateId": 293,
      "name": "Itapema",
      "latitude": "-27.0902800",
      "longitude": "-48.6113900",
      "createdAt": "2025-12-28T18:27:09.779Z",
      "updatedAt": "2025-12-28T18:27:09.779Z",
      "stateName": "Santa Catarina",
      "countryName": "Brazil"
    },
    {
      "id": 9179,
      "stateId": 261,
      "name": "Itapemirim",
      "latitude": null,
      "longitude": null,
      "createdAt": "2025-12-28T18:42:24.445Z",
      "updatedAt": "2025-12-28T18:42:24.445Z",
      "stateName": "Espírito Santo",
      "countryName": "Brazil"
    },
    {
      "id": 2283,
      "stateId": 134,
      "name": "Itaperuna",
      "latitude": "-21.2050000",
      "longitude": "-41.8877800",
      "createdAt": "2025-12-28T18:11:32.295Z",
      "updatedAt": "2025-12-28T18:11:32.295Z",
      "stateName": "Rio de Janeiro",
      "countryName": "Brazil"
    },
    {
      "id": 15015,
      "stateId": 7,
      "name": "Itapetim",
      "latitude": null,
      "longitude": null,
      "createdAt": "2025-12-28T19:52:22.224Z",
      "updatedAt": "2025-12-28T19:52:22.224Z",
      "stateName": "Pernambuco",
      "countryName": "Brazil"
    },
    {
      "id": 1081,
      "stateId": 262,
      "name": "Itapetinga",
      "latitude": null,
      "longitude": null,
      "createdAt": "2025-12-28T17:02:38.013Z",
      "updatedAt": "2025-12-28T17:02:38.013Z",
      "stateName": "Bahia",
      "countryName": "Brazil"
    },
    {
      "id": 3572,
      "stateId": 4,
      "name": "Itapetininga",
      "latitude": null,
      "longitude": null,
      "createdAt": "2025-12-28T18:14:51.366Z",
      "updatedAt": "2025-12-28T18:14:51.366Z",
      "stateName": "São Paulo",
      "countryName": "Brazil"
    },
    {
      "id": 4975,
      "stateId": 4,
      "name": "Itapeva",
      "latitude": "-23.9822200",
      "longitude": "-48.8755600",
      "createdAt": "2025-12-28T18:19:18.821Z",
      "updatedAt": "2025-12-28T18:19:18.821Z",
      "stateName": "São Paulo",
      "countryName": "Brazil"
    },
    {
      "id": 11903,
      "stateId": 4,
      "name": "Itapevi",
      "latitude": null,
      "longitude": null,
      "createdAt": "2025-12-28T19:10:38.570Z",
      "updatedAt": "2025-12-28T19:10:38.570Z",
      "stateName": "São Paulo",
      "countryName": "Brazil"
    },
    {
      "id": 7143,
      "stateId": 262,
      "name": "Itapicuru",
      "latitude": null,
      "longitude": null,
      "createdAt": "2025-12-28T18:28:28.916Z",
      "updatedAt": "2025-12-28T18:28:28.916Z",
      "stateName": "Bahia",
      "countryName": "Brazil"
    },
    {
      "id": 719,
      "stateId": 231,
      "name": "Itapipoca",
      "latitude": "-3.4944400",
      "longitude": "-39.5786100",
      "createdAt": "2025-12-28T17:02:12.356Z",
      "updatedAt": "2025-12-28T17:02:12.356Z",
      "stateName": "Ceará",
      "countryName": "Brazil"
    },
    {
      "id": 4718,
      "stateId": 4,
      "name": "Itapira",
      "latitude": "-22.4361100",
      "longitude": "-46.8216700",
      "createdAt": "2025-12-28T18:18:32.272Z",
      "updatedAt": "2025-12-28T18:18:32.272Z",
      "stateName": "São Paulo",
      "countryName": "Brazil"
    },
    {
      "id": 875,
      "stateId": 293,
      "name": "itapiranga",
      "latitude": null,
      "longitude": null,
      "createdAt": "2025-12-28T17:02:25.260Z",
      "updatedAt": "2025-12-28T17:02:25.260Z",
      "stateName": "Santa Catarina",
      "countryName": "Brazil"
    },
    {
      "id": 5707,
      "stateId": 238,
      "name": "Itapiranga",
      "latitude": null,
      "longitude": null,
      "createdAt": "2025-12-28T18:21:56.970Z",
      "updatedAt": "2025-12-28T18:21:56.970Z",
      "stateName": "Amazonas",
      "countryName": "Brazil"
    },
    {
      "id": 5787,
      "stateId": 253,
      "name": "Itapirapuã",
      "latitude": null,
      "longitude": null,
      "createdAt": "2025-12-28T18:22:08.573Z",
      "updatedAt": "2025-12-28T18:22:08.573Z",
      "stateName": "Goiás",
      "countryName": "Brazil"
    },
    {
      "id": 17525,
      "stateId": 7,
      "name": "Itapissuma",
      "latitude": null,
      "longitude": null,
      "createdAt": "2026-01-20T07:41:38.487Z",
      "updatedAt": "2026-01-20T07:41:38.487Z",
      "stateName": "Pernambuco",
      "countryName": "Brazil"
    },
    {
      "id": 17354,
      "stateId": 262,
      "name": "Itapitanga",
      "latitude": null,
      "longitude": null,
      "createdAt": "2025-12-29T20:04:32.368Z",
      "updatedAt": "2025-12-29T20:04:32.368Z",
      "stateName": "Bahia",
      "countryName": "Brazil"
    },
    {
      "id": 14936,
      "stateId": 231,
      "name": "Itapiúna",
      "latitude": null,
      "longitude": null,
      "createdAt": "2025-12-28T19:50:27.414Z",
      "updatedAt": "2025-12-28T19:50:27.414Z",
      "stateName": "Ceará",
      "countryName": "Brazil"
    },
    {
      "id": 8944,
      "stateId": 293,
      "name": "Itapoã",
      "latitude": "-17.4339069",
      "longitude": "-45.8426650",
      "createdAt": "2025-12-28T18:41:07.149Z",
      "updatedAt": "2025-12-28T18:41:07.149Z",
      "stateName": "Santa Catarina",
      "countryName": "Brazil"
    },
    {
      "id": 11874,
      "stateId": 4,
      "name": "Itapolis",
      "latitude": "-17.4339069",
      "longitude": "-45.8426650",
      "createdAt": "2025-12-28T19:10:29.269Z",
      "updatedAt": "2025-12-28T19:10:29.269Z",
      "stateName": "São Paulo",
      "countryName": "Brazil"
    },
    {
      "id": 11948,
      "stateId": 369,
      "name": "Itaporã",
      "latitude": null,
      "longitude": null,
      "createdAt": "2025-12-28T19:10:53.749Z",
      "updatedAt": "2025-12-28T19:10:53.749Z",
      "stateName": "Mato Grosso do Sul",
      "countryName": "Brazil"
    },
    {
      "id": 4752,
      "stateId": 4,
      "name": "Itaporanga",
      "latitude": null,
      "longitude": null,
      "createdAt": "2025-12-28T18:18:36.924Z",
      "updatedAt": "2025-12-28T18:18:36.924Z",
      "stateName": "São Paulo",
      "countryName": "Brazil"
    },
    {
      "id": 17709,
      "stateId": 271,
      "name": "Itaporanga d'Ajuda",
      "latitude": "-17.4339069",
      "longitude": "-45.8426650",
      "createdAt": "2026-02-10T01:22:52.014Z",
      "updatedAt": "2026-02-10T01:22:52.014Z",
      "stateName": "Sergipe",
      "countryName": "Brazil"
    },
    {
      "id": 17663,
      "stateId": 261,
      "name": "Itapua",
      "latitude": "-17.4339069",
      "longitude": "-45.8426650",
      "createdAt": "2026-02-03T01:46:59.728Z",
      "updatedAt": "2026-02-03T01:46:59.728Z",
      "stateName": "Espírito Santo",
      "countryName": "Brazil"
    },
    {
      "id": 3133,
      "stateId": 253,
      "name": "Itapuranga",
      "latitude": "-15.5622200",
      "longitude": "-49.9486100",
      "createdAt": "2025-12-28T18:13:45.315Z",
      "updatedAt": "2025-12-28T18:13:45.315Z",
      "stateName": "Goiás",
      "countryName": "Brazil"
    },
    {
      "id": 3388,
      "stateId": 4,
      "name": "Itaquaquecetuba",
      "latitude": null,
      "longitude": null,
      "createdAt": "2025-12-28T18:14:20.280Z",
      "updatedAt": "2025-12-28T18:14:20.280Z",
      "stateName": "São Paulo",
      "countryName": "Brazil"
    },
    {
      "id": 932,
      "stateId": 205,
      "name": "Itaqui",
      "latitude": "-29.1252800",
      "longitude": "-56.5530600",
      "createdAt": "2025-12-28T17:02:29.084Z",
      "updatedAt": "2025-12-28T17:02:29.084Z",
      "stateName": "Rio Grande do Sul",
      "countryName": "Brazil"
    },
    {
      "id": 4619,
      "stateId": 369,
      "name": "Itaquiraí",
      "latitude": null,
      "longitude": null,
      "createdAt": "2025-12-28T18:18:09.945Z",
      "updatedAt": "2025-12-28T18:18:09.945Z",
      "stateName": "Mato Grosso do Sul",
      "countryName": "Brazil"
    },
    {
      "id": 11899,
      "stateId": 7,
      "name": "Itaquitinga",
      "latitude": "-17.4339069",
      "longitude": "-45.8426650",
      "createdAt": "2025-12-28T19:10:37.513Z",
      "updatedAt": "2025-12-28T19:10:37.513Z",
      "stateName": "Pernambuco",
      "countryName": "Brazil"
    },
    {
      "id": 11911,
      "stateId": 261,
      "name": "Itarana",
      "latitude": null,
      "longitude": null,
      "createdAt": "2025-12-28T19:10:40.139Z",
      "updatedAt": "2025-12-28T19:10:40.139Z",
      "stateName": "Espírito Santo",
      "countryName": "Brazil"
    },
    {
      "id": 8120,
      "stateId": 262,
      "name": "Itarantim",
      "latitude": null,
      "longitude": null,
      "createdAt": "2025-12-28T18:35:29.649Z",
      "updatedAt": "2025-12-28T18:35:29.649Z",
      "stateName": "Bahia",
      "countryName": "Brazil"
    },
    {
      "id": 8835,
      "stateId": 4,
      "name": "Itararé",
      "latitude": "-24.1125000",
      "longitude": "-49.3316700",
      "createdAt": "2025-12-28T18:40:34.951Z",
      "updatedAt": "2025-12-28T18:40:34.951Z",
      "stateName": "São Paulo",
      "countryName": "Brazil"
    },
    {
      "id": 7832,
      "stateId": 231,
      "name": "Itarema",
      "latitude": null,
      "longitude": null,
      "createdAt": "2025-12-28T18:32:30.722Z",
      "updatedAt": "2025-12-28T18:32:30.722Z",
      "stateName": "Ceará",
      "countryName": "Brazil"
    },
    {
      "id": 17143,
      "stateId": 253,
      "name": "Itarumã",
      "latitude": null,
      "longitude": null,
      "createdAt": "2025-12-29T15:38:27.546Z",
      "updatedAt": "2025-12-29T15:38:27.546Z",
      "stateName": "Goiás",
      "countryName": "Brazil"
    },
    {
      "id": 15454,
      "stateId": 926,
      "name": "Itati",
      "latitude": null,
      "longitude": null,
      "createdAt": "2025-12-28T20:06:34.307Z",
      "updatedAt": "2025-12-28T20:06:34.307Z",
      "stateName": "Rio Grande do Sul,",
      "countryName": "Brazil"
    },
    {
      "id": 2111,
      "stateId": 95,
      "name": "Itatiaiuçu",
      "latitude": null,
      "longitude": null,
      "createdAt": "2025-12-28T18:10:55.747Z",
      "updatedAt": "2025-12-28T18:10:55.747Z",
      "stateName": "Minas Gerais",
      "countryName": "Brazil"
    },
    {
      "id": 1043,
      "stateId": 4,
      "name": "Itatiba",
      "latitude": "-23.0058300",
      "longitude": "-46.8388900",
      "createdAt": "2025-12-28T17:02:35.666Z",
      "updatedAt": "2025-12-28T17:02:35.666Z",
      "stateName": "São Paulo",
      "countryName": "Brazil"
    },
    {
      "id": 7647,
      "stateId": 205,
      "name": "Itatiba do Sul",
      "latitude": null,
      "longitude": null,
      "createdAt": "2025-12-28T18:31:04.375Z",
      "updatedAt": "2025-12-28T18:31:04.375Z",
      "stateName": "Rio Grande do Sul",
      "countryName": "Brazil"
    },
    {
      "id": 6502,
      "stateId": 231,
      "name": "Itatira",
      "latitude": null,
      "longitude": null,
      "createdAt": "2025-12-28T18:25:34.657Z",
      "updatedAt": "2025-12-28T18:25:34.657Z",
      "stateName": "Ceará",
      "countryName": "Brazil"
    },
    {
      "id": 11994,
      "stateId": 85,
      "name": "Itaúba",
      "latitude": null,
      "longitude": null,
      "createdAt": "2025-12-28T19:11:11.542Z",
      "updatedAt": "2025-12-28T19:11:11.542Z",
      "stateName": "Mato Grosso",
      "countryName": "Brazil"
    },
    {
      "id": 7806,
      "stateId": 253,
      "name": "Itauçu",
      "latitude": null,
      "longitude": null,
      "createdAt": "2025-12-28T18:32:14.502Z",
      "updatedAt": "2025-12-28T18:32:14.502Z",
      "stateName": "Goiás",
      "countryName": "Brazil"
    },
    {
      "id": 5637,
      "stateId": 95,
      "name": "Itaú de Minas",
      "latitude": null,
      "longitude": null,
      "createdAt": "2025-12-28T18:21:46.470Z",
      "updatedAt": "2025-12-28T18:21:46.470Z",
      "stateName": "Minas Gerais",
      "countryName": "Brazil"
    },
    {
      "id": 6993,
      "stateId": 174,
      "name": "Itaueira ",
      "latitude": null,
      "longitude": null,
      "createdAt": "2025-12-28T18:27:42.560Z",
      "updatedAt": "2025-12-28T18:27:42.560Z",
      "stateName": "Piauí",
      "countryName": "Brazil"
    },
    {
      "id": 3011,
      "stateId": 95,
      "name": "Itauna",
      "latitude": "-17.4339069",
      "longitude": "-45.8426650",
      "createdAt": "2025-12-28T18:13:30.751Z",
      "updatedAt": "2025-12-28T18:13:30.751Z",
      "stateName": "Minas Gerais",
      "countryName": "Brazil"
    },
    {
      "id": 11877,
      "stateId": 1202,
      "name": "Itezhi-Tezhi",
      "latitude": null,
      "longitude": null,
      "createdAt": "2025-12-28T19:10:31.133Z",
      "updatedAt": "2025-12-28T19:10:31.133Z",
      "stateName": "Maungu",
      "countryName": "Zambia"
    },
    {
      "id": 11902,
      "stateId": 6,
      "name": "Ithaca",
      "latitude": "42.4406300",
      "longitude": "-76.4966100",
      "createdAt": "2025-12-28T19:10:38.200Z",
      "updatedAt": "2025-12-28T19:10:38.200Z",
      "stateName": "New York",
      "countryName": "United States"
    },
    {
      "id": 17027,
      "stateId": 335,
      "name": "Itinga do Maranhão",
      "latitude": null,
      "longitude": null,
      "createdAt": "2025-12-29T15:12:26.052Z",
      "updatedAt": "2025-12-29T15:12:26.052Z",
      "stateName": "Maranhão",
      "countryName": "Brazil"
    },
    {
      "id": 17844,
      "stateId": 4,
      "name": "Itirapina",
      "latitude": "-17.4339069",
      "longitude": "-45.8426650",
      "createdAt": "2026-03-07T06:33:51.377Z",
      "updatedAt": "2026-03-07T06:33:51.377Z",
      "stateName": "São Paulo",
      "countryName": "Brazil"
    },
    {
      "id": 11895,
      "stateId": 262,
      "name": "Itiruçu",
      "latitude": null,
      "longitude": null,
      "createdAt": "2025-12-28T19:10:36.282Z",
      "updatedAt": "2025-12-28T19:10:36.282Z",
      "stateName": "Bahia",
      "countryName": "Brazil"
    },
    {
      "id": 1716,
      "stateId": 262,
      "name": "Itiúba",
      "latitude": null,
      "longitude": null,
      "createdAt": "2025-12-28T18:10:04.569Z",
      "updatedAt": "2025-12-28T18:10:04.569Z",
      "stateName": "Bahia",
      "countryName": "Brazil"
    },
    {
      "id": 15900,
      "stateId": 77,
      "name": "Itori",
      "latitude": null,
      "longitude": null,
      "createdAt": "2025-12-28T20:21:36.936Z",
      "updatedAt": "2025-12-28T20:21:36.936Z",
      "stateName": "Katsina State",
      "countryName": "Nigeria"
    },
    {
      "id": 11870,
      "stateId": 262,
      "name": "Itororó",
      "latitude": null,
      "longitude": null,
      "createdAt": "2025-12-28T19:10:28.399Z",
      "updatedAt": "2025-12-28T19:10:28.399Z",
      "stateName": "Bahia",
      "countryName": "Brazil"
    },
    {
      "id": 6779,
      "stateId": 4,
      "name": "Itu",
      "latitude": null,
      "longitude": null,
      "createdAt": "2025-12-28T18:27:10.766Z",
      "updatedAt": "2025-12-28T18:27:10.766Z",
      "stateName": "São Paulo",
      "countryName": "Brazil"
    },
    {
      "id": 11996,
      "stateId": 262,
      "name": "Ituaçu ",
      "latitude": null,
      "longitude": null,
      "createdAt": "2025-12-28T19:11:11.812Z",
      "updatedAt": "2025-12-28T19:11:11.812Z",
      "stateName": "Bahia",
      "countryName": "Brazil"
    },
    {
      "id": 11941,
      "stateId": 262,
      "name": "Ituberá",
      "latitude": null,
      "longitude": null,
      "createdAt": "2025-12-28T19:10:51.679Z",
      "updatedAt": "2025-12-28T19:10:51.679Z",
      "stateName": "Bahia",
      "countryName": "Brazil"
    },
    {
      "id": 813,
      "stateId": 95,
      "name": "Ituiutaba",
      "latitude": "-18.9742800",
      "longitude": "-49.4621200",
      "createdAt": "2025-12-28T17:02:20.397Z",
      "updatedAt": "2025-12-28T17:02:20.397Z",
      "stateName": "Minas Gerais",
      "countryName": "Brazil"
    },
    {
      "id": 1032,
      "stateId": 253,
      "name": "Itumbiara",
      "latitude": "-18.4191700",
      "longitude": "-49.2152800",
      "createdAt": "2025-12-28T17:02:34.931Z",
      "updatedAt": "2025-12-28T17:02:34.931Z",
      "stateName": "Goiás",
      "countryName": "Brazil"
    },
    {
      "id": 1931,
      "stateId": 95,
      "name": "Itumirim",
      "latitude": "-17.4339069",
      "longitude": "-45.8426650",
      "createdAt": "2025-12-28T18:10:31.544Z",
      "updatedAt": "2025-12-28T18:10:31.544Z",
      "stateName": "Minas Gerais",
      "countryName": "Brazil"
    },
    {
      "id": 12130,
      "stateId": 159,
      "name": "Itupiranga",
      "latitude": null,
      "longitude": null,
      "createdAt": "2025-12-28T19:12:59.136Z",
      "updatedAt": "2025-12-28T19:12:59.136Z",
      "stateName": "Pará",
      "countryName": "Brazil"
    },
    {
      "id": 11946,
      "stateId": 293,
      "name": "Ituporanga",
      "latitude": "-17.4339069",
      "longitude": "-45.8426650",
      "createdAt": "2025-12-28T19:10:53.656Z",
      "updatedAt": "2025-12-28T19:10:53.656Z",
      "stateName": "Santa Catarina",
      "countryName": "Brazil"
    },
    {
      "id": 7138,
      "stateId": 95,
      "name": "Iturama",
      "latitude": "-19.7280600",
      "longitude": "-50.1955600",
      "createdAt": "2025-12-28T18:28:27.580Z",
      "updatedAt": "2025-12-28T18:28:27.580Z",
      "stateName": "Minas Gerais",
      "countryName": "Brazil"
    },
    {
      "id": 9676,
      "stateId": 183,
      "name": "Iturmendi",
      "latitude": null,
      "longitude": null,
      "createdAt": "2025-12-28T18:46:33.507Z",
      "updatedAt": "2025-12-28T18:46:33.507Z",
      "stateName": "Navarre",
      "countryName": "Spain"
    },
    {
      "id": 1736,
      "stateId": 4,
      "name": "Ituverava",
      "latitude": null,
      "longitude": null,
      "createdAt": "2025-12-28T18:10:07.375Z",
      "updatedAt": "2025-12-28T18:10:07.375Z",
      "stateName": "São Paulo",
      "countryName": "Brazil"
    },
    {
      "id": 17061,
      "stateId": 58,
      "name": "Ituzaigó",
      "latitude": null,
      "longitude": null,
      "createdAt": "2025-12-29T15:21:15.616Z",
      "updatedAt": "2025-12-29T15:21:15.616Z",
      "stateName": "Buenos Aires",
      "countryName": "Argentina"
    },
    {
      "id": 17909,
      "stateId": 58,
      "name": "Ituzaingó",
      "latitude": null,
      "longitude": null,
      "createdAt": "2026-03-13T03:30:57.025Z",
      "updatedAt": "2026-03-13T03:30:57.025Z",
      "stateName": "Buenos Aires",
      "countryName": "Argentina"
    },
    {
      "id": 11961,
      "stateId": 289,
      "name": "Ituzaingó",
      "latitude": "-32.1628172",
      "longitude": "-62.0921509",
      "createdAt": "2025-12-28T19:10:58.238Z",
      "updatedAt": "2025-12-28T19:10:58.238Z",
      "stateName": "Corrientes",
      "countryName": "Argentina"
    },
    {
      "id": 11825,
      "stateId": 401,
      "name": "Iuka",
      "latitude": "37.8034989",
      "longitude": "-92.5169818",
      "createdAt": "2025-12-28T19:10:02.044Z",
      "updatedAt": "2025-12-28T19:10:02.044Z",
      "stateName": "Mississippi",
      "countryName": "United States"
    },
    {
      "id": 5211,
      "stateId": 261,
      "name": "Iúna",
      "latitude": null,
      "longitude": null,
      "createdAt": "2025-12-28T18:20:09.530Z",
      "updatedAt": "2025-12-28T18:20:09.530Z",
      "stateName": "Espírito Santo",
      "countryName": "Brazil"
    },
    {
      "id": 4220,
      "stateId": 137,
      "name": "Ivaí",
      "latitude": null,
      "longitude": null,
      "createdAt": "2025-12-28T18:16:39.095Z",
      "updatedAt": "2025-12-28T18:16:39.095Z",
      "stateName": "Paraná",
      "countryName": "Brazil"
    },
    {
      "id": 1041,
      "stateId": 137,
      "name": "Ivaiporã",
      "latitude": null,
      "longitude": null,
      "createdAt": "2025-12-28T17:02:35.478Z",
      "updatedAt": "2025-12-28T17:02:35.478Z",
      "stateName": "Paraná",
      "countryName": "Brazil"
    },
    {
      "id": 11830,
      "stateId": 1198,
      "name": "Ivanic-Grad",
      "latitude": "45.2544796",
      "longitude": "16.5362581",
      "createdAt": "2025-12-28T19:10:04.564Z",
      "updatedAt": "2025-12-28T19:10:04.564Z",
      "stateName": "Zagreb",
      "countryName": "Croatia"
    },
    {
      "id": 11836,
      "stateId": 1199,
      "name": "Ivanjica",
      "latitude": null,
      "longitude": null,
      "createdAt": "2025-12-28T19:10:06.208Z",
      "updatedAt": "2025-12-28T19:10:06.208Z",
      "stateName": "Moravica",
      "countryName": "Serbia"
    },
    {
      "id": 1576,
      "stateId": 492,
      "name": "Ivano-Frankivsk",
      "latitude": null,
      "longitude": null,
      "createdAt": "2025-12-28T17:04:45.548Z",
      "updatedAt": "2025-12-28T17:04:45.548Z",
      "stateName": "Ivano-Frankivsk Oblast",
      "countryName": "Ukraine"
    },
    {
      "id": 520,
      "stateId": 246,
      "name": "Ivanovo",
      "latitude": null,
      "longitude": null,
      "createdAt": "2025-12-28T17:01:00.460Z",
      "updatedAt": "2025-12-28T17:01:00.460Z",
      "stateName": "Ivanovo",
      "countryName": "Russia"
    },
    {
      "id": 4211,
      "stateId": 369,
      "name": "Ivinhema",
      "latitude": "-17.4339069",
      "longitude": "-45.8426650",
      "createdAt": "2025-12-28T18:16:38.441Z",
      "updatedAt": "2025-12-28T18:16:38.441Z",
      "stateName": "Mato Grosso do Sul",
      "countryName": "Brazil"
    },
    {
      "id": 11831,
      "stateId": 53,
      "name": "Ivory Park",
      "latitude": null,
      "longitude": null,
      "createdAt": "2025-12-28T19:10:04.606Z",
      "updatedAt": "2025-12-28T19:10:04.606Z",
      "stateName": "Gauteng",
      "countryName": "South Africa"
    },
    {
      "id": 11828,
      "stateId": 205,
      "name": "Ivoti",
      "latitude": null,
      "longitude": null,
      "createdAt": "2025-12-28T19:10:04.034Z",
      "updatedAt": "2025-12-28T19:10:04.034Z",
      "stateName": "Rio Grande do Sul",
      "countryName": "Brazil"
    },
    {
      "id": 11833,
      "stateId": 219,
      "name": "Ivrea",
      "latitude": "45.4672300",
      "longitude": "7.8761700",
      "createdAt": "2025-12-28T19:10:04.737Z",
      "updatedAt": "2025-12-28T19:10:04.737Z",
      "stateName": "Metropolitan City of Turin",
      "countryName": "Italy"
    },
    {
      "id": 11839,
      "stateId": 584,
      "name": "Iwaki",
      "latitude": "35.7074393",
      "longitude": "136.8605218",
      "createdAt": "2025-12-28T19:10:08.856Z",
      "updatedAt": "2025-12-28T19:10:08.856Z",
      "stateName": "Tōhoku",
      "countryName": "Japan"
    },
    {
      "id": 2323,
      "stateId": 586,
      "name": "Iwakuni",
      "latitude": "34.1629700",
      "longitude": "132.2200000",
      "createdAt": "2025-12-28T18:11:45.191Z",
      "updatedAt": "2025-12-28T18:11:45.191Z",
      "stateName": "Chūgoku",
      "countryName": "Japan"
    },
    {
      "id": 11840,
      "stateId": 443,
      "name": "Iwo",
      "latitude": null,
      "longitude": null,
      "createdAt": "2025-12-28T19:10:08.918Z",
      "updatedAt": "2025-12-28T19:10:08.918Z",
      "stateName": "Osun State",
      "countryName": "Nigeria"
    },
    {
      "id": 11851,
      "stateId": 239,
      "name": "Ixcán",
      "latitude": null,
      "longitude": null,
      "createdAt": "2025-12-28T19:10:11.390Z",
      "updatedAt": "2025-12-28T19:10:11.390Z",
      "stateName": "Baja Verapaz",
      "countryName": "Guatemala"
    },
    {
      "id": 6080,
      "stateId": 190,
      "name": "Ixhuatlancillo",
      "latitude": null,
      "longitude": null,
      "createdAt": "2025-12-28T18:23:12.797Z",
      "updatedAt": "2025-12-28T18:23:12.797Z",
      "stateName": "Veracruz",
      "countryName": "Mexico"
    },
    {
      "id": 458,
      "stateId": 190,
      "name": "Ixhuatlan de Madero",
      "latitude": "21.0459460",
      "longitude": "-100.0405298",
      "createdAt": "2025-12-28T17:00:51.090Z",
      "updatedAt": "2025-12-28T17:00:51.090Z",
      "stateName": "Veracruz",
      "countryName": "Mexico"
    },
    {
      "id": 6042,
      "stateId": 182,
      "name": "Ixmiquilpan",
      "latitude": "20.4784100",
      "longitude": "-99.2169700",
      "createdAt": "2025-12-28T18:23:08.050Z",
      "updatedAt": "2025-12-28T18:23:08.050Z",
      "stateName": "Hidalgo",
      "countryName": "Mexico"
    },
    {
      "id": 11853,
      "stateId": 402,
      "name": "Ixopo",
      "latitude": null,
      "longitude": null,
      "createdAt": "2025-12-28T19:10:11.695Z",
      "updatedAt": "2025-12-28T19:10:11.695Z",
      "stateName": "KwaZulu-Natal Prov.",
      "countryName": "South Africa"
    },
    {
      "id": 11852,
      "stateId": 234,
      "name": "Ixtapan",
      "latitude": "18.8436900",
      "longitude": "-99.6767100",
      "createdAt": "2025-12-28T19:10:11.540Z",
      "updatedAt": "2025-12-28T19:10:11.540Z",
      "stateName": "State of Mexico",
      "countryName": "Mexico"
    },
    {
      "id": 10095,
      "stateId": 234,
      "name": "Ixtlahuaca",
      "latitude": "21.0459460",
      "longitude": "-100.0405298",
      "createdAt": "2025-12-28T18:50:16.226Z",
      "updatedAt": "2025-12-28T18:50:16.226Z",
      "stateName": "State of Mexico",
      "countryName": "Mexico"
    },
    {
      "id": 11847,
      "stateId": 544,
      "name": "Ixtlan del Rio",
      "latitude": "21.0459460",
      "longitude": "-100.0405298",
      "createdAt": "2025-12-28T19:10:10.844Z",
      "updatedAt": "2025-12-28T19:10:10.844Z",
      "stateName": "Nayarit",
      "countryName": "Mexico"
    },
    {
      "id": 11857,
      "stateId": 909,
      "name": "Izegem",
      "latitude": "50.9139600",
      "longitude": "3.2137800",
      "createdAt": "2025-12-28T19:10:17.689Z",
      "updatedAt": "2025-12-28T19:10:17.689Z",
      "stateName": "West Flanders",
      "countryName": "Belgium"
    },
    {
      "id": 2122,
      "stateId": 554,
      "name": "Izhevsk",
      "latitude": null,
      "longitude": null,
      "createdAt": "2025-12-28T18:10:57.566Z",
      "updatedAt": "2025-12-28T18:10:57.566Z",
      "stateName": "Udmurtia",
      "countryName": "Russia"
    },
    {
      "id": 11858,
      "stateId": 234,
      "name": "Iztacalco",
      "latitude": null,
      "longitude": null,
      "createdAt": "2025-12-28T19:10:18.160Z",
      "updatedAt": "2025-12-28T19:10:18.160Z",
      "stateName": "State of Mexico",
      "countryName": "Mexico"
    }
  ],
  "meta": {
    "page": 76,
    "limit": 100,
    "total": 18002,
    "totalPages": 181
  }
}
